%!PS-Adobe-3.0 EPSF-3.0
%%DocumentNeededResources: font Helvetica
%%+ font Helvetica-Bold
%%+ font Helvetica-Oblique
%%+ font Helvetica-BoldOblique
%%+ font Symbol
%%Title: R Graphics Output
%%Creator: R Software
%%Pages: (atend)
%%BoundingBox: 0 0 588 431
%%EndComments
%%BeginProlog
/bp  { gs sRGB gs } def
% begin .ps.prolog
/gs  { gsave } bind def
/gr  { grestore } bind def
/ep  { showpage gr gr } bind def
/m   { moveto } bind def
/l  { rlineto } bind def
/np  { newpath } bind def
/cp  { closepath } bind def
/f   { fill } bind def
/o   { stroke } bind def
/c   { newpath 0 360 arc } bind def
/r   { 4 2 roll moveto 1 copy 3 -1 roll exch 0 exch rlineto 0 rlineto -1 mul 0 exch rlineto closepath } bind def
/p1  { stroke } bind def
/p2  { gsave bg fill grestore newpath } bind def
/p3  { gsave bg fill grestore stroke } bind def
/p6  { gsave bg eofill grestore newpath } bind def
/p7  { gsave bg eofill grestore stroke } bind def
/t   { 5 -2 roll moveto gsave rotate
       1 index stringwidth pop
       mul neg 0 rmoveto show grestore } bind def
/ta  { 4 -2 roll moveto gsave rotate show } bind def
/tb  { 2 -1 roll 0 rmoveto show } bind def
/cl  { grestore gsave newpath 3 index 3 index moveto 1 index
       4 -1 roll lineto  exch 1 index lineto lineto
       closepath clip newpath } bind def
/rgb { setrgbcolor } bind def
/s   { scalefont setfont } bind def
% end   .ps.prolog
/sRGB { [ /CIEBasedABC
          << /DecodeLMN
               [ { dup 0.03928 le
                        {12.92321 div}
                        {0.055 add 1.055 div 2.4 exp }
                     ifelse
                 } bind dup dup
               ]
             /MatrixLMN [0.412457 0.212673 0.019334
                         0.357576 0.715152 0.119192
                         0.180437 0.072175 0.950301]
             /WhitePoint [0.9505 1.0 1.0890]
           >>
         ] setcolorspace } bind def
/srgb { setcolor } bind def
%%IncludeResource: font Helvetica
/Helvetica findfont
dup length dict begin
  {1 index /FID ne {def} {pop pop} ifelse} forall
  /Encoding ISOLatin1Encoding def
  currentdict
  end
/Font1 exch definefont pop
%%IncludeResource: font Helvetica-Bold
/Helvetica-Bold findfont
dup length dict begin
  {1 index /FID ne {def} {pop pop} ifelse} forall
  /Encoding ISOLatin1Encoding def
  currentdict
  end
/Font2 exch definefont pop
%%IncludeResource: font Helvetica-Oblique
/Helvetica-Oblique findfont
dup length dict begin
  {1 index /FID ne {def} {pop pop} ifelse} forall
  /Encoding ISOLatin1Encoding def
  currentdict
  end
/Font3 exch definefont pop
%%IncludeResource: font Helvetica-BoldOblique
/Helvetica-BoldOblique findfont
dup length dict begin
  {1 index /FID ne {def} {pop pop} ifelse} forall
  /Encoding ISOLatin1Encoding def
  currentdict
  end
/Font4 exch definefont pop
%%IncludeResource: font Symbol
/Symbol findfont
dup length dict begin
  {1 index /FID ne {def} {pop pop} ifelse} forall
  currentdict
  end
/Font5 exch definefont pop
%%EndProlog
%%Page: 1 1
bp
/bg { 1 1 1 srgb } def
0.00 0.00 588.00 431.25 r p2
0.00 0.00 588.00 431.25 cl
/bg { 1 1 1 srgb } def
1 1 1 srgb
0.75 setlinewidth
[] 0 setdash
1 setlinecap
1 setlinejoin
10.00 setmiterlimit
175.29 302.08 14.13 14.13 r p3
189.41 302.08 14.13 14.13 r p3
189.41 287.96 14.13 14.13 r p3
203.54 302.08 14.13 14.13 r p3
203.54 287.96 14.13 14.13 r p3
203.54 273.83 14.13 14.13 r p3
217.67 302.08 14.13 14.13 r p3
217.67 287.96 14.13 14.13 r p3
217.67 273.83 14.13 14.13 r p3
217.67 259.70 14.13 14.13 r p3
231.80 302.08 14.13 14.13 r p3
231.80 287.96 14.13 14.13 r p3
231.80 273.83 14.13 14.13 r p3
231.80 259.70 14.13 14.13 r p3
231.80 245.58 14.13 14.13 r p3
245.92 302.08 14.13 14.13 r p3
245.92 287.96 14.13 14.13 r p3
245.92 273.83 14.13 14.13 r p3
245.92 259.70 14.13 14.13 r p3
245.92 245.58 14.13 14.13 r p3
245.92 231.45 14.13 14.13 r p3
260.05 302.08 14.13 14.13 r p3
260.05 287.96 14.13 14.13 r p3
260.05 273.83 14.13 14.13 r p3
260.05 259.70 14.13 14.13 r p3
260.05 245.58 14.13 14.13 r p3
260.05 231.45 14.13 14.13 r p3
260.05 217.32 14.13 14.13 r p3
274.18 302.08 14.13 14.13 r p3
274.18 287.96 14.13 14.13 r p3
274.18 273.83 14.13 14.13 r p3
274.18 259.70 14.13 14.13 r p3
274.18 245.58 14.13 14.13 r p3
274.18 231.45 14.13 14.13 r p3
274.18 217.32 14.13 14.13 r p3
274.18 203.19 14.13 14.13 r p3
288.30 302.08 14.13 14.13 r p3
288.30 287.96 14.13 14.13 r p3
288.30 273.83 14.13 14.13 r p3
288.30 259.70 14.13 14.13 r p3
288.30 245.58 14.13 14.13 r p3
288.30 231.45 14.13 14.13 r p3
288.30 217.32 14.13 14.13 r p3
288.30 203.19 14.13 14.13 r p3
288.30 189.07 14.13 14.13 r p3
302.43 302.08 14.13 14.13 r p3
302.43 287.96 14.13 14.13 r p3
302.43 273.83 14.13 14.13 r p3
302.43 259.70 14.13 14.13 r p3
302.43 245.58 14.13 14.13 r p3
302.43 231.45 14.13 14.13 r p3
302.43 217.32 14.13 14.13 r p3
302.43 203.19 14.13 14.13 r p3
302.43 189.07 14.13 14.13 r p3
302.43 174.94 14.13 14.13 r p3
316.56 302.08 14.13 14.13 r p3
316.56 287.96 14.13 14.13 r p3
316.56 273.83 14.13 14.13 r p3
316.56 259.70 14.13 14.13 r p3
316.56 245.58 14.13 14.13 r p3
316.56 231.45 14.13 14.13 r p3
316.56 217.32 14.13 14.13 r p3
316.56 203.19 14.13 14.13 r p3
316.56 189.07 14.13 14.13 r p3
316.56 174.94 14.13 14.13 r p3
316.56 160.81 14.13 14.13 r p3
330.68 302.08 14.13 14.13 r p3
330.68 287.96 14.13 14.13 r p3
330.68 273.83 14.13 14.13 r p3
330.68 259.70 14.13 14.13 r p3
330.68 245.58 14.13 14.13 r p3
330.68 231.45 14.13 14.13 r p3
330.68 217.32 14.13 14.13 r p3
330.68 203.19 14.13 14.13 r p3
330.68 189.07 14.13 14.13 r p3
330.68 174.94 14.13 14.13 r p3
330.68 160.81 14.13 14.13 r p3
330.68 146.69 14.13 14.13 r p3
344.81 302.08 14.13 14.13 r p3
344.81 287.96 14.13 14.13 r p3
344.81 273.83 14.13 14.13 r p3
344.81 259.70 14.13 14.13 r p3
344.81 245.58 14.13 14.13 r p3
344.81 231.45 14.13 14.13 r p3
344.81 217.32 14.13 14.13 r p3
344.81 203.19 14.13 14.13 r p3
344.81 189.07 14.13 14.13 r p3
344.81 174.94 14.13 14.13 r p3
344.81 160.81 14.13 14.13 r p3
344.81 146.69 14.13 14.13 r p3
344.81 132.56 14.13 14.13 r p3
358.94 302.08 14.13 14.13 r p3
358.94 287.96 14.13 14.13 r p3
358.94 273.83 14.13 14.13 r p3
358.94 259.70 14.13 14.13 r p3
358.94 245.58 14.13 14.13 r p3
358.94 231.45 14.13 14.13 r p3
358.94 217.32 14.13 14.13 r p3
358.94 203.19 14.13 14.13 r p3
358.94 189.07 14.13 14.13 r p3
358.94 174.94 14.13 14.13 r p3
358.94 160.81 14.13 14.13 r p3
358.94 146.69 14.13 14.13 r p3
358.94 132.56 14.13 14.13 r p3
358.94 118.43 14.13 14.13 r p3
373.06 302.08 14.13 14.13 r p3
373.06 287.96 14.13 14.13 r p3
373.06 273.83 14.13 14.13 r p3
373.06 259.70 14.13 14.13 r p3
373.06 245.58 14.13 14.13 r p3
373.06 231.45 14.13 14.13 r p3
373.06 217.32 14.13 14.13 r p3
373.06 203.19 14.13 14.13 r p3
373.06 189.07 14.13 14.13 r p3
373.06 174.94 14.13 14.13 r p3
373.06 160.81 14.13 14.13 r p3
373.06 146.69 14.13 14.13 r p3
373.06 132.56 14.13 14.13 r p3
373.06 118.43 14.13 14.13 r p3
373.06 104.31 14.13 14.13 r p3
387.19 302.08 14.13 14.13 r p3
387.19 287.96 14.13 14.13 r p3
387.19 273.83 14.13 14.13 r p3
387.19 259.70 14.13 14.13 r p3
387.19 245.58 14.13 14.13 r p3
387.19 231.45 14.13 14.13 r p3
387.19 217.32 14.13 14.13 r p3
387.19 203.19 14.13 14.13 r p3
387.19 189.07 14.13 14.13 r p3
387.19 174.94 14.13 14.13 r p3
387.19 160.81 14.13 14.13 r p3
387.19 146.69 14.13 14.13 r p3
387.19 132.56 14.13 14.13 r p3
387.19 118.43 14.13 14.13 r p3
387.19 104.31 14.13 14.13 r p3
387.19 90.18 14.13 14.13 r p3
401.32 302.08 14.13 14.13 r p3
401.32 287.96 14.13 14.13 r p3
401.32 273.83 14.13 14.13 r p3
401.32 259.70 14.13 14.13 r p3
401.32 245.58 14.13 14.13 r p3
401.32 231.45 14.13 14.13 r p3
401.32 217.32 14.13 14.13 r p3
401.32 203.19 14.13 14.13 r p3
401.32 189.07 14.13 14.13 r p3
401.32 174.94 14.13 14.13 r p3
401.32 160.81 14.13 14.13 r p3
401.32 146.69 14.13 14.13 r p3
401.32 132.56 14.13 14.13 r p3
401.32 118.43 14.13 14.13 r p3
401.32 104.31 14.13 14.13 r p3
401.32 90.18 14.13 14.13 r p3
401.32 76.05 14.13 14.13 r p3
415.44 302.08 14.13 14.13 r p3
415.44 287.96 14.13 14.13 r p3
415.44 273.83 14.13 14.13 r p3
415.44 259.70 14.13 14.13 r p3
415.44 245.58 14.13 14.13 r p3
415.44 231.45 14.13 14.13 r p3
415.44 217.32 14.13 14.13 r p3
415.44 203.19 14.13 14.13 r p3
415.44 189.07 14.13 14.13 r p3
415.44 174.94 14.13 14.13 r p3
415.44 160.81 14.13 14.13 r p3
415.44 146.69 14.13 14.13 r p3
415.44 132.56 14.13 14.13 r p3
415.44 118.43 14.13 14.13 r p3
415.44 104.31 14.13 14.13 r p3
415.44 90.18 14.13 14.13 r p3
415.44 76.05 14.13 14.13 r p3
415.44 61.93 14.13 14.13 r p3
429.57 302.08 14.13 14.13 r p3
429.57 287.96 14.13 14.13 r p3
429.57 273.83 14.13 14.13 r p3
429.57 259.70 14.13 14.13 r p3
429.57 245.58 14.13 14.13 r p3
429.57 231.45 14.13 14.13 r p3
429.57 217.32 14.13 14.13 r p3
429.57 203.19 14.13 14.13 r p3
429.57 189.07 14.13 14.13 r p3
429.57 174.94 14.13 14.13 r p3
429.57 160.81 14.13 14.13 r p3
429.57 146.69 14.13 14.13 r p3
429.57 132.56 14.13 14.13 r p3
429.57 118.43 14.13 14.13 r p3
429.57 104.31 14.13 14.13 r p3
429.57 90.18 14.13 14.13 r p3
429.57 76.05 14.13 14.13 r p3
429.57 61.93 14.13 14.13 r p3
429.57 47.80 14.13 14.13 r p3
443.70 302.08 14.13 14.13 r p3
443.70 287.96 14.13 14.13 r p3
443.70 273.83 14.13 14.13 r p3
443.70 259.70 14.13 14.13 r p3
443.70 245.58 14.13 14.13 r p3
443.70 231.45 14.13 14.13 r p3
443.70 217.32 14.13 14.13 r p3
443.70 203.19 14.13 14.13 r p3
443.70 189.07 14.13 14.13 r p3
443.70 174.94 14.13 14.13 r p3
443.70 160.81 14.13 14.13 r p3
443.70 146.69 14.13 14.13 r p3
443.70 132.56 14.13 14.13 r p3
443.70 118.43 14.13 14.13 r p3
443.70 104.31 14.13 14.13 r p3
443.70 90.18 14.13 14.13 r p3
443.70 76.05 14.13 14.13 r p3
443.70 61.93 14.13 14.13 r p3
443.70 47.80 14.13 14.13 r p3
443.70 33.67 14.13 14.13 r p3
457.82 302.08 14.13 14.13 r p3
457.82 287.96 14.13 14.13 r p3
457.82 273.83 14.13 14.13 r p3
457.82 259.70 14.13 14.13 r p3
457.82 245.58 14.13 14.13 r p3
457.82 231.45 14.13 14.13 r p3
457.82 217.32 14.13 14.13 r p3
457.82 203.19 14.13 14.13 r p3
457.82 189.07 14.13 14.13 r p3
457.82 174.94 14.13 14.13 r p3
457.82 160.81 14.13 14.13 r p3
457.82 146.69 14.13 14.13 r p3
457.82 132.56 14.13 14.13 r p3
457.82 118.43 14.13 14.13 r p3
457.82 104.31 14.13 14.13 r p3
457.82 90.18 14.13 14.13 r p3
457.82 76.05 14.13 14.13 r p3
457.82 61.93 14.13 14.13 r p3
457.82 47.80 14.13 14.13 r p3
457.82 33.67 14.13 14.13 r p3
457.82 19.55 14.13 14.13 r p3
471.95 302.08 14.13 14.13 r p3
471.95 287.96 14.13 14.13 r p3
471.95 273.83 14.13 14.13 r p3
471.95 259.70 14.13 14.13 r p3
471.95 245.58 14.13 14.13 r p3
471.95 231.45 14.13 14.13 r p3
471.95 217.32 14.13 14.13 r p3
471.95 203.19 14.13 14.13 r p3
471.95 189.07 14.13 14.13 r p3
471.95 174.94 14.13 14.13 r p3
471.95 160.81 14.13 14.13 r p3
471.95 146.69 14.13 14.13 r p3
471.95 132.56 14.13 14.13 r p3
471.95 118.43 14.13 14.13 r p3
471.95 104.31 14.13 14.13 r p3
471.95 90.18 14.13 14.13 r p3
471.95 76.05 14.13 14.13 r p3
471.95 61.93 14.13 14.13 r p3
471.95 47.80 14.13 14.13 r p3
471.95 33.67 14.13 14.13 r p3
471.95 19.55 14.13 14.13 r p3
471.95 5.42 14.13 14.13 r p3
/bg { 0.0196 0.1882 0.3804 srgb } def
0.0196 0.1882 0.3804 srgb
182.35 309.15 6.36 c p3
/bg { 0.9373 0.9647 0.9804 srgb } def
0.9373 0.9647 0.9804 srgb
196.48 309.15 1.66 c p3
/bg { 0.0196 0.1882 0.3804 srgb } def
0.0196 0.1882 0.3804 srgb
196.48 295.02 6.36 c p3
/bg { 0.9961 0.9961 0.9922 srgb } def
0.9961 0.9961 0.9922 srgb
210.61 309.15 0.24 c p3
/bg { 0.9961 0.9882 0.9804 srgb } def
0.9961 0.9882 0.9804 srgb
210.61 295.02 0.88 c p3
/bg { 0.0196 0.1882 0.3804 srgb } def
0.0196 0.1882 0.3804 srgb
210.61 280.89 6.36 c p3
/bg { 0.9765 0.9843 0.9922 srgb } def
0.9765 0.9843 0.9922 srgb
224.73 309.15 0.93 c p3
/bg { 0.4667 0.7059 0.8314 srgb } def
0.4667 0.7059 0.8314 srgb
224.73 295.02 4.35 c p3
/bg { 0.9961 0.9608 0.9373 srgb } def
0.9961 0.9608 0.9373 srgb
224.73 280.89 1.51 c p3
/bg { 0.0196 0.1882 0.3804 srgb } def
0.0196 0.1882 0.3804 srgb
224.73 266.77 6.36 c p3
/bg { 0.9020 0.9451 0.9686 srgb } def
0.9020 0.9451 0.9686 srgb
238.86 309.15 2.07 c p3
/bg { 0.3569 0.6353 0.7961 srgb } def
0.3569 0.6353 0.7961 srgb
238.86 295.02 4.64 c p3
/bg { 0.9961 0.9294 0.8941 srgb } def
0.9961 0.9294 0.8941 srgb
238.86 280.89 1.96 c p3
/bg { 0.4510 0.6941 0.8275 srgb } def
0.4510 0.6941 0.8275 srgb
238.86 266.77 4.39 c p3
/bg { 0.0196 0.1882 0.3804 srgb } def
0.0196 0.1882 0.3804 srgb
238.86 252.64 6.36 c p3
/bg { 0.8196 0.8980 0.9412 srgb } def
0.8196 0.8980 0.9412 srgb
252.99 309.15 2.78 c p3
/bg { 0.6745 0.8235 0.8980 srgb } def
0.6745 0.8235 0.8980 srgb
252.99 295.02 3.54 c p3
/bg { 0.9843 0.9922 0.9922 srgb } def
0.9843 0.9922 0.9922 srgb
252.99 280.89 0.88 c p3
/bg { 0.6627 0.8157 0.8941 srgb } def
0.6627 0.8157 0.8941 srgb
252.99 266.77 3.63 c p3
/bg { 0.6000 0.7843 0.8784 srgb } def
0.6000 0.7843 0.8784 srgb
252.99 252.64 3.90 c p3
/bg { 0.0196 0.1882 0.3804 srgb } def
0.0196 0.1882 0.3804 srgb
252.99 238.51 6.36 c p3
/bg { 0.9765 0.7765 0.6745 srgb } def
0.9765 0.7765 0.6745 srgb
267.11 309.15 3.33 c p3
/bg { 0.9137 0.9490 0.9686 srgb } def
0.9137 0.9490 0.9686 srgb
267.11 295.02 1.97 c p3
/bg { 0.9922 0.8588 0.7843 srgb } def
0.9922 0.8588 0.7843 srgb
267.11 280.89 2.80 c p3
/bg { 0.8941 0.9373 0.9647 srgb } def
0.8941 0.9373 0.9647 srgb
267.11 266.77 2.14 c p3
/bg { 0.9961 0.9882 0.9804 srgb } def
0.9961 0.9882 0.9804 srgb
267.11 252.64 0.84 c p3
/bg { 0.9922 0.8745 0.8039 srgb } def
0.9922 0.8745 0.8039 srgb
267.11 238.51 2.65 c p3
/bg { 0.0196 0.1882 0.3804 srgb } def
0.0196 0.1882 0.3804 srgb
267.11 224.38 6.36 c p3
/bg { 0.3569 0.6353 0.7961 srgb } def
0.3569 0.6353 0.7961 srgb
281.24 309.15 4.64 c p3
/bg { 0.8471 0.9137 0.9490 srgb } def
0.8471 0.9137 0.9490 srgb
281.24 295.02 2.59 c p3
/bg { 0.9373 0.9647 0.9804 srgb } def
0.9373 0.9647 0.9804 srgb
281.24 280.89 1.58 c p3
/bg { 0.9137 0.9490 0.9686 srgb } def
0.9137 0.9490 0.9686 srgb
281.24 266.77 1.96 c p3
/bg { 0.9020 0.9451 0.9686 srgb } def
0.9020 0.9451 0.9686 srgb
281.24 252.64 2.04 c p3
/bg { 0.8196 0.8980 0.9412 srgb } def
0.8196 0.8980 0.9412 srgb
281.24 238.51 2.77 c p3
/bg { 0.9882 0.8392 0.7569 srgb } def
0.9882 0.8392 0.7569 srgb
281.24 224.38 2.98 c p3
/bg { 0.0196 0.1882 0.3804 srgb } def
0.0196 0.1882 0.3804 srgb
281.24 210.26 6.36 c p3
/bg { 0.5137 0.7333 0.8471 srgb } def
0.5137 0.7333 0.8471 srgb
295.37 309.15 4.19 c p3
/bg { 0.8863 0.9333 0.9608 srgb } def
0.8863 0.9333 0.9608 srgb
295.37 295.02 2.23 c p3
/bg { 0.9647 0.9804 0.9882 srgb } def
0.9647 0.9804 0.9882 srgb
295.37 280.89 1.23 c p3
/bg { 0.9020 0.9451 0.9686 srgb } def
0.9020 0.9451 0.9686 srgb
295.37 266.77 2.05 c p3
/bg { 0.8588 0.9176 0.9529 srgb } def
0.8588 0.9176 0.9529 srgb
295.37 252.64 2.48 c p3
/bg { 0.7843 0.8784 0.9294 srgb } def
0.7843 0.8784 0.9294 srgb
295.37 238.51 3.03 c p3
/bg { 0.9804 0.7961 0.7020 srgb } def
0.9804 0.7961 0.7020 srgb
295.37 224.38 3.19 c p3
/bg { 0.4196 0.6745 0.8157 srgb } def
0.4196 0.6745 0.8157 srgb
295.37 210.26 4.45 c p3
/bg { 0.0196 0.1882 0.3804 srgb } def
0.0196 0.1882 0.3804 srgb
295.37 196.13 6.36 c p3
/bg { 0.6863 0.8275 0.9020 srgb } def
0.6863 0.8275 0.9020 srgb
309.49 309.15 3.52 c p3
/bg { 0.9020 0.9451 0.9686 srgb } def
0.9020 0.9451 0.9686 srgb
309.49 295.02 2.01 c p3
/bg { 0.9647 0.9804 0.9882 srgb } def
0.9647 0.9804 0.9882 srgb
309.49 280.89 1.17 c p3
/bg { 0.9020 0.9451 0.9686 srgb } def
0.9020 0.9451 0.9686 srgb
309.49 266.77 2.02 c p3
/bg { 0.8314 0.9020 0.9451 srgb } def
0.8314 0.9020 0.9451 srgb
309.49 252.64 2.70 c p3
/bg { 0.8118 0.8941 0.9373 srgb } def
0.8118 0.8941 0.9373 srgb
309.49 238.51 2.85 c p3
/bg { 0.9804 0.8078 0.7176 srgb } def
0.9804 0.8078 0.7176 srgb
309.49 224.38 3.13 c p3
/bg { 0.6627 0.8157 0.8941 srgb } def
0.6627 0.8157 0.8941 srgb
309.49 210.26 3.62 c p3
/bg { 0.5882 0.7804 0.8745 srgb } def
0.5882 0.7804 0.8745 srgb
309.49 196.13 3.92 c p3
/bg { 0.0196 0.1882 0.3804 srgb } def
0.0196 0.1882 0.3804 srgb
309.49 182.00 6.36 c p3
/bg { 0.8471 0.9137 0.9490 srgb } def
0.8471 0.9137 0.9490 srgb
323.62 309.15 2.57 c p3
/bg { 0.9569 0.9765 0.9843 srgb } def
0.9569 0.9765 0.9843 srgb
323.62 295.02 1.36 c p3
/bg { 0.9647 0.9804 0.9882 srgb } def
0.9647 0.9804 0.9882 srgb
323.62 280.89 1.21 c p3
/bg { 0.9373 0.9647 0.9804 srgb } def
0.9373 0.9647 0.9804 srgb
323.62 266.77 1.60 c p3
/bg { 0.8392 0.9098 0.9451 srgb } def
0.8392 0.9098 0.9451 srgb
323.62 252.64 2.64 c p3
/bg { 0.8745 0.9294 0.9569 srgb } def
0.8745 0.9294 0.9569 srgb
323.62 238.51 2.32 c p3
/bg { 0.9922 0.8588 0.7843 srgb } def
0.9922 0.8588 0.7843 srgb
323.62 224.38 2.78 c p3
/bg { 0.8471 0.9137 0.9490 srgb } def
0.8471 0.9137 0.9490 srgb
323.62 210.26 2.59 c p3
/bg { 0.7961 0.8863 0.9333 srgb } def
0.7961 0.8863 0.9333 srgb
323.62 196.13 2.97 c p3
/bg { 0.7373 0.8549 0.9176 srgb } def
0.7373 0.8549 0.9176 srgb
323.62 182.00 3.25 c p3
/bg { 0.0196 0.1882 0.3804 srgb } def
0.0196 0.1882 0.3804 srgb
323.62 167.88 6.36 c p3
/bg { 0.9020 0.9451 0.9686 srgb } def
0.9020 0.9451 0.9686 srgb
337.75 309.15 2.07 c p3
/bg { 0.9569 0.9765 0.9843 srgb } def
0.9569 0.9765 0.9843 srgb
337.75 295.02 1.35 c p3
/bg { 0.9961 0.9961 0.9922 srgb } def
0.9961 0.9961 0.9922 srgb
337.75 280.89 0.50 c p3
/bg { 0.8471 0.9137 0.9490 srgb } def
0.8471 0.9137 0.9490 srgb
337.75 266.77 2.58 c p3
/bg { 0.9961 0.9961 0.9922 srgb } def
0.9961 0.9961 0.9922 srgb
337.75 252.64 0.54 c p3
/bg { 0.9765 0.9843 0.9922 srgb } def
0.9765 0.9843 0.9922 srgb
337.75 238.51 1.05 c p3
/bg { 0.9961 0.9961 0.9922 srgb } def
0.9961 0.9961 0.9922 srgb
337.75 224.38 0.50 c p3
/bg { 0.8471 0.9137 0.9490 srgb } def
0.8471 0.9137 0.9490 srgb
337.75 210.26 2.56 c p3
/bg { 0.9216 0.9529 0.9725 srgb } def
0.9216 0.9529 0.9725 srgb
337.75 196.13 1.84 c p3
/bg { 0.9569 0.9765 0.9843 srgb } def
0.9569 0.9765 0.9843 srgb
337.75 182.00 1.29 c p3
/bg { 0.9843 0.9922 0.9922 srgb } def
0.9843 0.9922 0.9922 srgb
337.75 167.88 0.66 c p3
/bg { 0.0196 0.1882 0.3804 srgb } def
0.0196 0.1882 0.3804 srgb
337.75 153.75 6.36 c p3
/bg { 0.9961 0.9961 0.9922 srgb } def
0.9961 0.9961 0.9922 srgb
351.87 309.15 0.55 c p3
/bg { 0.9961 0.9647 0.9490 srgb } def
0.9961 0.9647 0.9490 srgb
351.87 295.02 1.42 c p3
/bg { 0.9882 0.8510 0.7686 srgb } def
0.9882 0.8510 0.7686 srgb
351.87 280.89 2.90 c p3
/bg { 0.9961 0.9882 0.9804 srgb } def
0.9961 0.9882 0.9804 srgb
351.87 266.77 0.81 c p3
/bg { 0.9961 0.9961 0.9922 srgb } def
0.9961 0.9961 0.9922 srgb
351.87 252.64 0.19 c p3
/bg { 0.9961 0.9725 0.9608 srgb } def
0.9961 0.9725 0.9608 srgb
351.87 238.51 1.19 c p3
/bg { 0.8667 0.9255 0.9569 srgb } def
0.8667 0.9255 0.9569 srgb
351.87 224.38 2.39 c p3
/bg { 0.9843 0.9922 0.9922 srgb } def
0.9843 0.9922 0.9922 srgb
351.87 210.26 0.70 c p3
/bg { 0.9961 0.9608 0.9373 srgb } def
0.9961 0.9608 0.9373 srgb
351.87 196.13 1.51 c p3
/bg { 0.9961 0.9725 0.9608 srgb } def
0.9961 0.9725 0.9608 srgb
351.87 182.00 1.12 c p3
/bg { 0.9961 0.9882 0.9804 srgb } def
0.9961 0.9882 0.9804 srgb
351.87 167.88 0.74 c p3
/bg { 0.8118 0.8941 0.9373 srgb } def
0.8118 0.8941 0.9373 srgb
351.87 153.75 2.89 c p3
/bg { 0.0196 0.1882 0.3804 srgb } def
0.0196 0.1882 0.3804 srgb
351.87 139.62 6.36 c p3
/bg { 0.9490 0.9686 0.9804 srgb } def
0.9490 0.9686 0.9804 srgb
366.00 309.15 1.55 c p3
/bg { 0.9961 0.9725 0.9608 srgb } def
0.9961 0.9725 0.9608 srgb
366.00 295.02 1.11 c p3
/bg { 0.9608 0.6784 0.5529 srgb } def
0.9608 0.6784 0.5529 srgb
366.00 280.89 3.86 c p3
/bg { 0.9961 0.9961 0.9922 srgb } def
0.9961 0.9961 0.9922 srgb
366.00 266.77 0.23 c p3
/bg { 0.9843 0.9922 0.9922 srgb } def
0.9843 0.9922 0.9922 srgb
366.00 252.64 0.83 c p3
/bg { 0.9961 0.9961 0.9922 srgb } def
0.9961 0.9961 0.9922 srgb
366.00 238.51 0.60 c p3
/bg { 0.9216 0.9529 0.9725 srgb } def
0.9216 0.9529 0.9725 srgb
366.00 224.38 1.90 c p3
/bg { 0.9294 0.9608 0.9765 srgb } def
0.9294 0.9608 0.9765 srgb
366.00 210.26 1.68 c p3
/bg { 0.9961 0.9882 0.9804 srgb } def
0.9961 0.9882 0.9804 srgb
366.00 196.13 0.78 c p3
/bg { 0.9922 0.9961 0.9961 srgb } def
0.9922 0.9961 0.9961 srgb
366.00 182.00 0.55 c p3
366.00 167.88 0.57 c p3
/bg { 0.8118 0.8941 0.9373 srgb } def
0.8118 0.8941 0.9373 srgb
366.00 153.75 2.85 c p3
/bg { 0.2431 0.5490 0.7490 srgb } def
0.2431 0.5490 0.7490 srgb
366.00 139.62 5.04 c p3
/bg { 0.0196 0.1882 0.3804 srgb } def
0.0196 0.1882 0.3804 srgb
366.00 125.50 6.36 c p3
/bg { 0.9882 0.8392 0.7569 srgb } def
0.9882 0.8392 0.7569 srgb
380.13 309.15 2.97 c p3
/bg { 0.9922 0.9176 0.8706 srgb } def
0.9922 0.9176 0.8706 srgb
380.13 295.02 2.17 c p3
/bg { 0.9922 0.9961 0.9961 srgb } def
0.9922 0.9961 0.9961 srgb
380.13 280.89 0.23 c p3
/bg { 0.9961 0.9804 0.9686 srgb } def
0.9961 0.9804 0.9686 srgb
380.13 266.77 1.09 c p3
/bg { 0.9961 0.9725 0.9608 srgb } def
0.9961 0.9725 0.9608 srgb
380.13 252.64 1.27 c p3
/bg { 0.9961 0.9804 0.9686 srgb } def
0.9961 0.9804 0.9686 srgb
380.13 238.51 1.03 c p3
/bg { 0.9922 0.9176 0.8706 srgb } def
0.9922 0.9176 0.8706 srgb
380.13 224.38 2.17 c p3
/bg { 0.9725 0.7529 0.6471 srgb } def
0.9725 0.7529 0.6471 srgb
380.13 210.26 3.46 c p3
/bg { 0.9922 0.8745 0.8039 srgb } def
0.9922 0.8745 0.8039 srgb
380.13 196.13 2.70 c p3
/bg { 0.9961 0.9373 0.9059 srgb } def
0.9961 0.9373 0.9059 srgb
380.13 182.00 1.91 c p3
/bg { 0.9961 0.9804 0.9686 srgb } def
0.9961 0.9804 0.9686 srgb
380.13 167.88 0.98 c p3
/bg { 0.9490 0.9686 0.9804 srgb } def
0.9490 0.9686 0.9804 srgb
380.13 153.75 1.43 c p3
/bg { 0.9922 0.9961 0.9961 srgb } def
0.9922 0.9961 0.9961 srgb
380.13 139.62 0.31 c p3
/bg { 0.9961 0.9961 0.9922 srgb } def
0.9961 0.9961 0.9922 srgb
380.13 125.50 0.51 c p3
/bg { 0.0196 0.1882 0.3804 srgb } def
0.0196 0.1882 0.3804 srgb
380.13 111.37 6.36 c p3
/bg { 0.6118 0.7922 0.8784 srgb } def
0.6118 0.7922 0.8784 srgb
394.25 309.15 3.83 c p3
/bg { 0.8745 0.9294 0.9569 srgb } def
0.8745 0.9294 0.9569 srgb
394.25 295.02 2.33 c p3
/bg { 0.7608 0.8667 0.9216 srgb } def
0.7608 0.8667 0.9216 srgb
394.25 280.89 3.14 c p3
/bg { 0.9569 0.9765 0.9843 srgb } def
0.9569 0.9765 0.9843 srgb
394.25 266.77 1.34 c p3
/bg { 0.9294 0.9608 0.9765 srgb } def
0.9294 0.9608 0.9765 srgb
394.25 252.64 1.70 c p3
/bg { 0.8392 0.9098 0.9451 srgb } def
0.8392 0.9098 0.9451 srgb
394.25 238.51 2.62 c p3
/bg { 0.9804 0.7961 0.7020 srgb } def
0.9804 0.7961 0.7020 srgb
394.25 224.38 3.20 c p3
/bg { 0.3725 0.6471 0.8000 srgb } def
0.3725 0.6471 0.8000 srgb
394.25 210.26 4.62 c p3
/bg { 0.5882 0.7804 0.8745 srgb } def
0.5882 0.7804 0.8745 srgb
394.25 196.13 3.95 c p3
/bg { 0.7373 0.8549 0.9176 srgb } def
0.7373 0.8549 0.9176 srgb
394.25 182.00 3.28 c p3
/bg { 0.8588 0.9176 0.9529 srgb } def
0.8588 0.9176 0.9529 srgb
394.25 167.88 2.48 c p3
/bg { 0.9961 0.9373 0.9059 srgb } def
0.9961 0.9373 0.9059 srgb
394.25 153.75 1.80 c p3
/bg { 0.9882 0.8510 0.7686 srgb } def
0.9882 0.8510 0.7686 srgb
394.25 139.62 2.87 c p3
/bg { 0.9765 0.7765 0.6745 srgb } def
0.9765 0.7765 0.6745 srgb
394.25 125.50 3.35 c p3
/bg { 0.9804 0.7961 0.7020 srgb } def
0.9804 0.7961 0.7020 srgb
394.25 111.37 3.24 c p3
/bg { 0.0196 0.1882 0.3804 srgb } def
0.0196 0.1882 0.3804 srgb
394.25 97.24 6.36 c p3
/bg { 0.9569 0.9765 0.9843 srgb } def
0.9569 0.9765 0.9843 srgb
408.38 309.15 1.30 c p3
/bg { 0.9765 0.9843 0.9922 srgb } def
0.9765 0.9843 0.9922 srgb
408.38 295.02 1.10 c p3
/bg { 0.9216 0.9529 0.9725 srgb } def
0.9216 0.9529 0.9725 srgb
408.38 280.89 1.81 c p3
/bg { 0.8863 0.9333 0.9608 srgb } def
0.8863 0.9333 0.9608 srgb
408.38 266.77 2.22 c p3
/bg { 0.9216 0.9529 0.9725 srgb } def
0.9216 0.9529 0.9725 srgb
408.38 252.64 1.90 c p3
/bg { 0.9961 0.9804 0.9686 srgb } def
0.9961 0.9804 0.9686 srgb
408.38 238.51 0.95 c p3
/bg { 0.9961 0.9373 0.9059 srgb } def
0.9961 0.9373 0.9059 srgb
408.38 224.38 1.83 c p3
/bg { 0.9569 0.9765 0.9843 srgb } def
0.9569 0.9765 0.9843 srgb
408.38 210.26 1.42 c p3
/bg { 0.9294 0.9608 0.9765 srgb } def
0.9294 0.9608 0.9765 srgb
408.38 196.13 1.72 c p3
/bg { 0.9216 0.9529 0.9725 srgb } def
0.9216 0.9529 0.9725 srgb
408.38 182.00 1.86 c p3
/bg { 0.9373 0.9647 0.9804 srgb } def
0.9373 0.9647 0.9804 srgb
408.38 167.88 1.57 c p3
/bg { 0.8863 0.9333 0.9608 srgb } def
0.8863 0.9333 0.9608 srgb
408.38 153.75 2.21 c p3
/bg { 0.9961 0.9882 0.9804 srgb } def
0.9961 0.9882 0.9804 srgb
408.38 139.62 0.74 c p3
/bg { 0.9961 0.9725 0.9608 srgb } def
0.9961 0.9725 0.9608 srgb
408.38 125.50 1.25 c p3
/bg { 0.9765 0.9843 0.9922 srgb } def
0.9765 0.9843 0.9922 srgb
408.38 111.37 0.99 c p3
408.38 97.24 1.09 c p3
/bg { 0.0196 0.1882 0.3804 srgb } def
0.0196 0.1882 0.3804 srgb
408.38 83.12 6.36 c p3
/bg { 0.9961 0.9725 0.9608 srgb } def
0.9961 0.9725 0.9608 srgb
422.51 309.15 1.11 c p3
/bg { 0.9961 0.9373 0.9059 srgb } def
0.9961 0.9373 0.9059 srgb
422.51 295.02 1.85 c p3
/bg { 0.9922 0.9255 0.8824 srgb } def
0.9922 0.9255 0.8824 srgb
422.51 280.89 2.04 c p3
/bg { 0.9961 0.9451 0.9137 srgb } def
0.9961 0.9451 0.9137 srgb
422.51 266.77 1.69 c p3
/bg { 0.9961 0.9373 0.9059 srgb } def
0.9961 0.9373 0.9059 srgb
422.51 252.64 1.84 c p3
/bg { 0.9647 0.9804 0.9882 srgb } def
0.9647 0.9804 0.9882 srgb
422.51 238.51 1.11 c p3
/bg { 0.8392 0.9098 0.9451 srgb } def
0.8392 0.9098 0.9451 srgb
422.51 224.38 2.67 c p3
/bg { 0.9961 0.9529 0.9255 srgb } def
0.9961 0.9529 0.9255 srgb
422.51 210.26 1.60 c p3
/bg { 0.9961 0.9647 0.9490 srgb } def
0.9961 0.9647 0.9490 srgb
422.51 196.13 1.29 c p3
/bg { 0.9961 0.9529 0.9255 srgb } def
0.9961 0.9529 0.9255 srgb
422.51 182.00 1.67 c p3
/bg { 0.9961 0.9608 0.9373 srgb } def
0.9961 0.9608 0.9373 srgb
422.51 167.88 1.49 c p3
/bg { 0.9765 0.9843 0.9922 srgb } def
0.9765 0.9843 0.9922 srgb
422.51 153.75 0.93 c p3
/bg { 0.8392 0.9098 0.9451 srgb } def
0.8392 0.9098 0.9451 srgb
422.51 139.62 2.65 c p3
/bg { 0.8745 0.9294 0.9569 srgb } def
0.8745 0.9294 0.9569 srgb
422.51 125.50 2.30 c p3
/bg { 0.9961 0.9725 0.9608 srgb } def
0.9961 0.9725 0.9608 srgb
422.51 111.37 1.22 c p3
/bg { 0.9922 0.9176 0.8706 srgb } def
0.9922 0.9176 0.8706 srgb
422.51 97.24 2.18 c p3
/bg { 0.9804 0.8078 0.7176 srgb } def
0.9804 0.8078 0.7176 srgb
422.51 83.12 3.16 c p3
/bg { 0.0196 0.1882 0.3804 srgb } def
0.0196 0.1882 0.3804 srgb
422.51 68.99 6.36 c p3
/bg { 0.6980 0.8353 0.9059 srgb } def
0.6980 0.8353 0.9059 srgb
436.63 309.15 3.45 c p3
/bg { 0.8392 0.9098 0.9451 srgb } def
0.8392 0.9098 0.9451 srgb
436.63 295.02 2.68 c p3
/bg { 0.9961 0.9961 0.9922 srgb } def
0.9961 0.9961 0.9922 srgb
436.63 280.89 0.36 c p3
/bg { 0.7843 0.8784 0.9294 srgb } def
0.7843 0.8784 0.9294 srgb
436.63 266.77 3.01 c p3
/bg { 0.7608 0.8667 0.9216 srgb } def
0.7608 0.8667 0.9216 srgb
436.63 252.64 3.14 c p3
/bg { 0.8941 0.9373 0.9647 srgb } def
0.8941 0.9373 0.9647 srgb
436.63 238.51 2.17 c p3
/bg { 0.9922 0.8941 0.8392 srgb } def
0.9922 0.8941 0.8392 srgb
436.63 224.38 2.42 c p3
/bg { 0.6627 0.8157 0.8941 srgb } def
0.6627 0.8157 0.8941 srgb
436.63 210.26 3.63 c p3
/bg { 0.6471 0.8118 0.8902 srgb } def
0.6471 0.8118 0.8902 srgb
436.63 196.13 3.67 c p3
/bg { 0.6353 0.8039 0.8863 srgb } def
0.6353 0.8039 0.8863 srgb
436.63 182.00 3.72 c p3
/bg { 0.7961 0.8863 0.9333 srgb } def
0.7961 0.8863 0.9333 srgb
436.63 167.88 2.94 c p3
/bg { 0.8118 0.8941 0.9373 srgb } def
0.8118 0.8941 0.9373 srgb
436.63 153.75 2.86 c p3
/bg { 0.9961 0.9961 0.9922 srgb } def
0.9961 0.9961 0.9922 srgb
436.63 139.62 0.61 c p3
/bg { 0.9765 0.9843 0.9922 srgb } def
0.9765 0.9843 0.9922 srgb
436.63 125.50 1.06 c p3
/bg { 0.9961 0.9294 0.8941 srgb } def
0.9961 0.9294 0.8941 srgb
436.63 111.37 1.98 c p3
/bg { 0.8118 0.8941 0.9373 srgb } def
0.8118 0.8941 0.9373 srgb
436.63 97.24 2.87 c p3
436.63 83.12 2.84 c p3
/bg { 0.9922 0.8941 0.8392 srgb } def
0.9922 0.8941 0.8392 srgb
436.63 68.99 2.45 c p3
/bg { 0.0196 0.1882 0.3804 srgb } def
0.0196 0.1882 0.3804 srgb
436.63 54.86 6.36 c p3
/bg { 0.9961 0.9647 0.9490 srgb } def
0.9961 0.9647 0.9490 srgb
450.76 309.15 1.37 c p3
/bg { 0.8314 0.9020 0.9451 srgb } def
0.8314 0.9020 0.9451 srgb
450.76 295.02 2.77 c p3
/bg { 0.9843 0.9922 0.9922 srgb } def
0.9843 0.9922 0.9922 srgb
450.76 280.89 0.65 c p3
/bg { 0.8745 0.9294 0.9569 srgb } def
0.8745 0.9294 0.9569 srgb
450.76 266.77 2.30 c p3
/bg { 0.8314 0.9020 0.9451 srgb } def
0.8314 0.9020 0.9451 srgb
450.76 252.64 2.71 c p3
/bg { 0.9922 0.8863 0.8275 srgb } def
0.9922 0.8863 0.8275 srgb
450.76 238.51 2.50 c p3
/bg { 0.9216 0.9529 0.9725 srgb } def
0.9216 0.9529 0.9725 srgb
450.76 224.38 1.84 c p3
/bg { 0.9961 0.9961 0.9922 srgb } def
0.9961 0.9961 0.9922 srgb
450.76 210.26 0.54 c p3
/bg { 0.9843 0.9922 0.9922 srgb } def
0.9843 0.9922 0.9922 srgb
450.76 196.13 0.83 c p3
/bg { 0.9569 0.9765 0.9843 srgb } def
0.9569 0.9765 0.9843 srgb
450.76 182.00 1.38 c p3
/bg { 0.8863 0.9333 0.9608 srgb } def
0.8863 0.9333 0.9608 srgb
450.76 167.88 2.23 c p3
/bg { 0.9647 0.9804 0.9882 srgb } def
0.9647 0.9804 0.9882 srgb
450.76 153.75 1.23 c p3
/bg { 0.9961 0.9882 0.9804 srgb } def
0.9961 0.9882 0.9804 srgb
450.76 139.62 0.83 c p3
450.76 125.50 0.73 c p3
/bg { 0.9961 0.9725 0.9608 srgb } def
0.9961 0.9725 0.9608 srgb
450.76 111.37 1.11 c p3
450.76 97.24 1.25 c p3
/bg { 0.8745 0.9294 0.9569 srgb } def
0.8745 0.9294 0.9569 srgb
450.76 83.12 2.30 c p3
/bg { 0.9922 0.9176 0.8706 srgb } def
0.9922 0.9176 0.8706 srgb
450.76 68.99 2.15 c p3
/bg { 0.8745 0.9294 0.9569 srgb } def
0.8745 0.9294 0.9569 srgb
450.76 54.86 2.33 c p3
/bg { 0.0196 0.1882 0.3804 srgb } def
0.0196 0.1882 0.3804 srgb
450.76 40.74 6.36 c p3
/bg { 0.9961 0.9961 0.9922 srgb } def
0.9961 0.9961 0.9922 srgb
464.89 309.15 0.47 c p3
/bg { 0.8392 0.9098 0.9451 srgb } def
0.8392 0.9098 0.9451 srgb
464.89 295.02 2.69 c p3
/bg { 0.8314 0.9020 0.9451 srgb } def
0.8314 0.9020 0.9451 srgb
464.89 280.89 2.73 c p3
/bg { 0.8667 0.9255 0.9569 srgb } def
0.8667 0.9255 0.9569 srgb
464.89 266.77 2.46 c p3
/bg { 0.9294 0.9608 0.9765 srgb } def
0.9294 0.9608 0.9765 srgb
464.89 252.64 1.75 c p3
/bg { 0.9922 0.9098 0.8588 srgb } def
0.9922 0.9098 0.8588 srgb
464.89 238.51 2.25 c p3
/bg { 0.9961 0.9725 0.9608 srgb } def
0.9961 0.9725 0.9608 srgb
464.89 224.38 1.11 c p3
/bg { 0.9922 0.9961 0.9961 srgb } def
0.9922 0.9961 0.9961 srgb
464.89 210.26 0.50 c p3
/bg { 0.9961 0.9725 0.9608 srgb } def
0.9961 0.9725 0.9608 srgb
464.89 196.13 1.27 c p3
/bg { 0.9961 0.9647 0.9490 srgb } def
0.9961 0.9647 0.9490 srgb
464.89 182.00 1.35 c p3
/bg { 0.9922 0.9961 0.9961 srgb } def
0.9922 0.9961 0.9961 srgb
464.89 167.88 0.54 c p3
/bg { 0.9490 0.9686 0.9804 srgb } def
0.9490 0.9686 0.9804 srgb
464.89 153.75 1.48 c p3
/bg { 0.9804 0.7961 0.7020 srgb } def
0.9804 0.7961 0.7020 srgb
464.89 139.62 3.21 c p3
/bg { 0.9882 0.8510 0.7686 srgb } def
0.9882 0.8510 0.7686 srgb
464.89 125.50 2.88 c p3
/bg { 0.9961 0.9961 0.9922 srgb } def
0.9961 0.9961 0.9922 srgb
464.89 111.37 0.47 c p3
/bg { 0.9294 0.9608 0.9765 srgb } def
0.9294 0.9608 0.9765 srgb
464.89 97.24 1.79 c p3
/bg { 0.9961 0.9608 0.9373 srgb } def
0.9961 0.9608 0.9373 srgb
464.89 83.12 1.53 c p3
/bg { 0.9922 0.8588 0.7843 srgb } def
0.9922 0.8588 0.7843 srgb
464.89 68.99 2.83 c p3
/bg { 0.9137 0.9490 0.9686 srgb } def
0.9137 0.9490 0.9686 srgb
464.89 54.86 1.95 c p3
/bg { 0.7216 0.8471 0.9137 srgb } def
0.7216 0.8471 0.9137 srgb
464.89 40.74 3.33 c p3
/bg { 0.0196 0.1882 0.3804 srgb } def
0.0196 0.1882 0.3804 srgb
464.89 26.61 6.36 c p3
/bg { 0.9765 0.9843 0.9922 srgb } def
0.9765 0.9843 0.9922 srgb
479.02 309.15 1.02 c p3
/bg { 0.9843 0.9922 0.9922 srgb } def
0.9843 0.9922 0.9922 srgb
479.02 295.02 0.66 c p3
479.02 280.89 0.78 c p3
/bg { 0.9961 0.9804 0.9686 srgb } def
0.9961 0.9804 0.9686 srgb
479.02 266.77 1.07 c p3
/bg { 0.9961 0.9608 0.9373 srgb } def
0.9961 0.9608 0.9373 srgb
479.02 252.64 1.51 c p3
/bg { 0.9961 0.9882 0.9804 srgb } def
0.9961 0.9882 0.9804 srgb
479.02 238.51 0.87 c p3
/bg { 0.9961 0.9961 0.9922 srgb } def
0.9961 0.9961 0.9922 srgb
479.02 224.38 0.53 c p3
/bg { 0.9922 0.9961 0.9961 srgb } def
0.9922 0.9961 0.9961 srgb
479.02 210.26 0.49 c p3
/bg { 0.9765 0.9843 0.9922 srgb } def
0.9765 0.9843 0.9922 srgb
479.02 196.13 1.05 c p3
/bg { 0.9961 0.9961 0.9922 srgb } def
0.9961 0.9961 0.9922 srgb
479.02 182.00 0.53 c p3
/bg { 0.9922 0.9961 0.9961 srgb } def
0.9922 0.9961 0.9961 srgb
479.02 167.88 0.14 c p3
479.02 153.75 0.48 c p3
/bg { 0.9961 0.9961 0.9922 srgb } def
0.9961 0.9961 0.9922 srgb
479.02 139.62 0.62 c p3
/bg { 0.9922 0.9961 0.9961 srgb } def
0.9922 0.9961 0.9961 srgb
479.02 125.50 0.39 c p3
/bg { 0.9961 0.9961 0.9922 srgb } def
0.9961 0.9961 0.9922 srgb
479.02 111.37 0.49 c p3
479.02 97.24 0.58 c p3
/bg { 0.9961 0.9882 0.9804 srgb } def
0.9961 0.9882 0.9804 srgb
479.02 83.12 0.76 c p3
/bg { 0.9843 0.9922 0.9922 srgb } def
0.9843 0.9922 0.9922 srgb
479.02 68.99 0.69 c p3
/bg { 0.9961 0.9804 0.9686 srgb } def
0.9961 0.9804 0.9686 srgb
479.02 54.86 0.93 c p3
479.02 40.74 0.98 c p3
/bg { 0.9765 0.9843 0.9922 srgb } def
0.9765 0.9843 0.9922 srgb
479.02 26.61 0.94 c p3
/bg { 0.0196 0.1882 0.3804 srgb } def
0.0196 0.1882 0.3804 srgb
479.02 12.48 6.36 c p3
0.7451 0.7451 0.7451 srgb
175.29 302.08 14.13 14.13 r p1
189.41 302.08 14.13 14.13 r p1
189.41 287.96 14.13 14.13 r p1
203.54 302.08 14.13 14.13 r p1
203.54 287.96 14.13 14.13 r p1
203.54 273.83 14.13 14.13 r p1
217.67 302.08 14.13 14.13 r p1
217.67 287.96 14.13 14.13 r p1
217.67 273.83 14.13 14.13 r p1
217.67 259.70 14.13 14.13 r p1
231.80 302.08 14.13 14.13 r p1
231.80 287.96 14.13 14.13 r p1
231.80 273.83 14.13 14.13 r p1
231.80 259.70 14.13 14.13 r p1
231.80 245.58 14.13 14.13 r p1
245.92 302.08 14.13 14.13 r p1
245.92 287.96 14.13 14.13 r p1
245.92 273.83 14.13 14.13 r p1
245.92 259.70 14.13 14.13 r p1
245.92 245.58 14.13 14.13 r p1
245.92 231.45 14.13 14.13 r p1
260.05 302.08 14.13 14.13 r p1
260.05 287.96 14.13 14.13 r p1
260.05 273.83 14.13 14.13 r p1
260.05 259.70 14.13 14.13 r p1
260.05 245.58 14.13 14.13 r p1
260.05 231.45 14.13 14.13 r p1
260.05 217.32 14.13 14.13 r p1
274.18 302.08 14.13 14.13 r p1
274.18 287.96 14.13 14.13 r p1
274.18 273.83 14.13 14.13 r p1
274.18 259.70 14.13 14.13 r p1
274.18 245.58 14.13 14.13 r p1
274.18 231.45 14.13 14.13 r p1
274.18 217.32 14.13 14.13 r p1
274.18 203.19 14.13 14.13 r p1
288.30 302.08 14.13 14.13 r p1
288.30 287.96 14.13 14.13 r p1
288.30 273.83 14.13 14.13 r p1
288.30 259.70 14.13 14.13 r p1
288.30 245.58 14.13 14.13 r p1
288.30 231.45 14.13 14.13 r p1
288.30 217.32 14.13 14.13 r p1
288.30 203.19 14.13 14.13 r p1
288.30 189.07 14.13 14.13 r p1
302.43 302.08 14.13 14.13 r p1
302.43 287.96 14.13 14.13 r p1
302.43 273.83 14.13 14.13 r p1
302.43 259.70 14.13 14.13 r p1
302.43 245.58 14.13 14.13 r p1
302.43 231.45 14.13 14.13 r p1
302.43 217.32 14.13 14.13 r p1
302.43 203.19 14.13 14.13 r p1
302.43 189.07 14.13 14.13 r p1
302.43 174.94 14.13 14.13 r p1
316.56 302.08 14.13 14.13 r p1
316.56 287.96 14.13 14.13 r p1
316.56 273.83 14.13 14.13 r p1
316.56 259.70 14.13 14.13 r p1
316.56 245.58 14.13 14.13 r p1
316.56 231.45 14.13 14.13 r p1
316.56 217.32 14.13 14.13 r p1
316.56 203.19 14.13 14.13 r p1
316.56 189.07 14.13 14.13 r p1
316.56 174.94 14.13 14.13 r p1
316.56 160.81 14.13 14.13 r p1
330.68 302.08 14.13 14.13 r p1
330.68 287.96 14.13 14.13 r p1
330.68 273.83 14.13 14.13 r p1
330.68 259.70 14.13 14.13 r p1
330.68 245.58 14.13 14.13 r p1
330.68 231.45 14.13 14.13 r p1
330.68 217.32 14.13 14.13 r p1
330.68 203.19 14.13 14.13 r p1
330.68 189.07 14.13 14.13 r p1
330.68 174.94 14.13 14.13 r p1
330.68 160.81 14.13 14.13 r p1
330.68 146.69 14.13 14.13 r p1
344.81 302.08 14.13 14.13 r p1
344.81 287.96 14.13 14.13 r p1
344.81 273.83 14.13 14.13 r p1
344.81 259.70 14.13 14.13 r p1
344.81 245.58 14.13 14.13 r p1
344.81 231.45 14.13 14.13 r p1
344.81 217.32 14.13 14.13 r p1
344.81 203.19 14.13 14.13 r p1
344.81 189.07 14.13 14.13 r p1
344.81 174.94 14.13 14.13 r p1
344.81 160.81 14.13 14.13 r p1
344.81 146.69 14.13 14.13 r p1
344.81 132.56 14.13 14.13 r p1
358.94 302.08 14.13 14.13 r p1
358.94 287.96 14.13 14.13 r p1
358.94 273.83 14.13 14.13 r p1
358.94 259.70 14.13 14.13 r p1
358.94 245.58 14.13 14.13 r p1
358.94 231.45 14.13 14.13 r p1
358.94 217.32 14.13 14.13 r p1
358.94 203.19 14.13 14.13 r p1
358.94 189.07 14.13 14.13 r p1
358.94 174.94 14.13 14.13 r p1
358.94 160.81 14.13 14.13 r p1
358.94 146.69 14.13 14.13 r p1
358.94 132.56 14.13 14.13 r p1
358.94 118.43 14.13 14.13 r p1
373.06 302.08 14.13 14.13 r p1
373.06 287.96 14.13 14.13 r p1
373.06 273.83 14.13 14.13 r p1
373.06 259.70 14.13 14.13 r p1
373.06 245.58 14.13 14.13 r p1
373.06 231.45 14.13 14.13 r p1
373.06 217.32 14.13 14.13 r p1
373.06 203.19 14.13 14.13 r p1
373.06 189.07 14.13 14.13 r p1
373.06 174.94 14.13 14.13 r p1
373.06 160.81 14.13 14.13 r p1
373.06 146.69 14.13 14.13 r p1
373.06 132.56 14.13 14.13 r p1
373.06 118.43 14.13 14.13 r p1
373.06 104.31 14.13 14.13 r p1
387.19 302.08 14.13 14.13 r p1
387.19 287.96 14.13 14.13 r p1
387.19 273.83 14.13 14.13 r p1
387.19 259.70 14.13 14.13 r p1
387.19 245.58 14.13 14.13 r p1
387.19 231.45 14.13 14.13 r p1
387.19 217.32 14.13 14.13 r p1
387.19 203.19 14.13 14.13 r p1
387.19 189.07 14.13 14.13 r p1
387.19 174.94 14.13 14.13 r p1
387.19 160.81 14.13 14.13 r p1
387.19 146.69 14.13 14.13 r p1
387.19 132.56 14.13 14.13 r p1
387.19 118.43 14.13 14.13 r p1
387.19 104.31 14.13 14.13 r p1
387.19 90.18 14.13 14.13 r p1
401.32 302.08 14.13 14.13 r p1
401.32 287.96 14.13 14.13 r p1
401.32 273.83 14.13 14.13 r p1
401.32 259.70 14.13 14.13 r p1
401.32 245.58 14.13 14.13 r p1
401.32 231.45 14.13 14.13 r p1
401.32 217.32 14.13 14.13 r p1
401.32 203.19 14.13 14.13 r p1
401.32 189.07 14.13 14.13 r p1
401.32 174.94 14.13 14.13 r p1
401.32 160.81 14.13 14.13 r p1
401.32 146.69 14.13 14.13 r p1
401.32 132.56 14.13 14.13 r p1
401.32 118.43 14.13 14.13 r p1
401.32 104.31 14.13 14.13 r p1
401.32 90.18 14.13 14.13 r p1
401.32 76.05 14.13 14.13 r p1
415.44 302.08 14.13 14.13 r p1
415.44 287.96 14.13 14.13 r p1
415.44 273.83 14.13 14.13 r p1
415.44 259.70 14.13 14.13 r p1
415.44 245.58 14.13 14.13 r p1
415.44 231.45 14.13 14.13 r p1
415.44 217.32 14.13 14.13 r p1
415.44 203.19 14.13 14.13 r p1
415.44 189.07 14.13 14.13 r p1
415.44 174.94 14.13 14.13 r p1
415.44 160.81 14.13 14.13 r p1
415.44 146.69 14.13 14.13 r p1
415.44 132.56 14.13 14.13 r p1
415.44 118.43 14.13 14.13 r p1
415.44 104.31 14.13 14.13 r p1
415.44 90.18 14.13 14.13 r p1
415.44 76.05 14.13 14.13 r p1
415.44 61.93 14.13 14.13 r p1
429.57 302.08 14.13 14.13 r p1
429.57 287.96 14.13 14.13 r p1
429.57 273.83 14.13 14.13 r p1
429.57 259.70 14.13 14.13 r p1
429.57 245.58 14.13 14.13 r p1
429.57 231.45 14.13 14.13 r p1
429.57 217.32 14.13 14.13 r p1
429.57 203.19 14.13 14.13 r p1
429.57 189.07 14.13 14.13 r p1
429.57 174.94 14.13 14.13 r p1
429.57 160.81 14.13 14.13 r p1
429.57 146.69 14.13 14.13 r p1
429.57 132.56 14.13 14.13 r p1
429.57 118.43 14.13 14.13 r p1
429.57 104.31 14.13 14.13 r p1
429.57 90.18 14.13 14.13 r p1
429.57 76.05 14.13 14.13 r p1
429.57 61.93 14.13 14.13 r p1
429.57 47.80 14.13 14.13 r p1
443.70 302.08 14.13 14.13 r p1
443.70 287.96 14.13 14.13 r p1
443.70 273.83 14.13 14.13 r p1
443.70 259.70 14.13 14.13 r p1
443.70 245.58 14.13 14.13 r p1
443.70 231.45 14.13 14.13 r p1
443.70 217.32 14.13 14.13 r p1
443.70 203.19 14.13 14.13 r p1
443.70 189.07 14.13 14.13 r p1
443.70 174.94 14.13 14.13 r p1
443.70 160.81 14.13 14.13 r p1
443.70 146.69 14.13 14.13 r p1
443.70 132.56 14.13 14.13 r p1
443.70 118.43 14.13 14.13 r p1
443.70 104.31 14.13 14.13 r p1
443.70 90.18 14.13 14.13 r p1
443.70 76.05 14.13 14.13 r p1
443.70 61.93 14.13 14.13 r p1
443.70 47.80 14.13 14.13 r p1
443.70 33.67 14.13 14.13 r p1
457.82 302.08 14.13 14.13 r p1
457.82 287.96 14.13 14.13 r p1
457.82 273.83 14.13 14.13 r p1
457.82 259.70 14.13 14.13 r p1
457.82 245.58 14.13 14.13 r p1
457.82 231.45 14.13 14.13 r p1
457.82 217.32 14.13 14.13 r p1
457.82 203.19 14.13 14.13 r p1
457.82 189.07 14.13 14.13 r p1
457.82 174.94 14.13 14.13 r p1
457.82 160.81 14.13 14.13 r p1
457.82 146.69 14.13 14.13 r p1
457.82 132.56 14.13 14.13 r p1
457.82 118.43 14.13 14.13 r p1
457.82 104.31 14.13 14.13 r p1
457.82 90.18 14.13 14.13 r p1
457.82 76.05 14.13 14.13 r p1
457.82 61.93 14.13 14.13 r p1
457.82 47.80 14.13 14.13 r p1
457.82 33.67 14.13 14.13 r p1
457.82 19.55 14.13 14.13 r p1
471.95 302.08 14.13 14.13 r p1
471.95 287.96 14.13 14.13 r p1
471.95 273.83 14.13 14.13 r p1
471.95 259.70 14.13 14.13 r p1
471.95 245.58 14.13 14.13 r p1
471.95 231.45 14.13 14.13 r p1
471.95 217.32 14.13 14.13 r p1
471.95 203.19 14.13 14.13 r p1
471.95 189.07 14.13 14.13 r p1
471.95 174.94 14.13 14.13 r p1
471.95 160.81 14.13 14.13 r p1
471.95 146.69 14.13 14.13 r p1
471.95 132.56 14.13 14.13 r p1
471.95 118.43 14.13 14.13 r p1
471.95 104.31 14.13 14.13 r p1
471.95 90.18 14.13 14.13 r p1
471.95 76.05 14.13 14.13 r p1
471.95 61.93 14.13 14.13 r p1
471.95 47.80 14.13 14.13 r p1
471.95 33.67 14.13 14.13 r p1
471.95 19.55 14.13 14.13 r p1
471.95 5.42 14.13 14.13 r p1
/bg { 0.4039 0 0.1216 srgb } def
0.4039 0 0.1216 srgb
492.01 5.42 11.57 1.55 r p3
/bg { 0.4157 0.0039 0.1216 srgb } def
0.4157 0.0039 0.1216 srgb
492.01 6.97 11.57 1.55 r p3
/bg { 0.4314 0.0078 0.1255 srgb } def
0.4314 0.0078 0.1255 srgb
492.01 8.53 11.57 1.55 r p3
/bg { 0.4471 0.0118 0.1255 srgb } def
0.4471 0.0118 0.1255 srgb
492.01 10.08 11.57 1.55 r p3
/bg { 0.4627 0.0157 0.1294 srgb } def
0.4627 0.0157 0.1294 srgb
492.01 11.63 11.57 1.55 r p3
/bg { 0.4745 0.0235 0.1333 srgb } def
0.4745 0.0235 0.1333 srgb
492.01 13.19 11.57 1.55 r p3
/bg { 0.4902 0.0275 0.1333 srgb } def
0.4902 0.0275 0.1333 srgb
492.01 14.74 11.57 1.55 r p3
/bg { 0.5059 0.0314 0.1373 srgb } def
0.5059 0.0314 0.1373 srgb
492.01 16.30 11.57 1.55 r p3
/bg { 0.5216 0.0353 0.1373 srgb } def
0.5216 0.0353 0.1373 srgb
492.01 17.85 11.57 1.55 r p3
/bg { 0.5333 0.0392 0.1412 srgb } def
0.5333 0.0392 0.1412 srgb
492.01 19.40 11.57 1.55 r p3
/bg { 0.5490 0.0471 0.1451 srgb } def
0.5490 0.0471 0.1451 srgb
492.01 20.96 11.57 1.55 r p3
/bg { 0.5647 0.0510 0.1451 srgb } def
0.5647 0.0510 0.1451 srgb
492.01 22.51 11.57 1.55 r p3
/bg { 0.5804 0.0549 0.1490 srgb } def
0.5804 0.0549 0.1490 srgb
492.01 24.07 11.57 1.55 r p3
/bg { 0.5922 0.0588 0.1490 srgb } def
0.5922 0.0588 0.1490 srgb
492.01 25.62 11.57 1.55 r p3
/bg { 0.6078 0.0627 0.1529 srgb } def
0.6078 0.0627 0.1529 srgb
492.01 27.17 11.57 1.55 r p3
/bg { 0.6235 0.0706 0.1569 srgb } def
0.6235 0.0706 0.1569 srgb
492.01 28.73 11.57 1.55 r p3
/bg { 0.6392 0.0745 0.1569 srgb } def
0.6392 0.0745 0.1569 srgb
492.01 30.28 11.57 1.55 r p3
/bg { 0.6549 0.0784 0.1608 srgb } def
0.6549 0.0784 0.1608 srgb
492.01 31.84 11.57 1.55 r p3
/bg { 0.6667 0.0824 0.1608 srgb } def
0.6667 0.0824 0.1608 srgb
492.01 33.39 11.57 1.55 r p3
/bg { 0.6824 0.0863 0.1647 srgb } def
0.6824 0.0863 0.1647 srgb
492.01 34.94 11.57 1.55 r p3
/bg { 0.6980 0.0941 0.1686 srgb } def
0.6980 0.0941 0.1686 srgb
492.01 36.50 11.57 1.55 r p3
/bg { 0.7020 0.1059 0.1725 srgb } def
0.7020 0.1059 0.1725 srgb
492.01 38.05 11.57 1.55 r p3
/bg { 0.7098 0.1216 0.1804 srgb } def
0.7098 0.1216 0.1804 srgb
492.01 39.61 11.57 1.55 r p3
/bg { 0.7176 0.1373 0.1882 srgb } def
0.7176 0.1373 0.1882 srgb
492.01 41.16 11.57 1.55 r p3
/bg { 0.7255 0.1490 0.1961 srgb } def
0.7255 0.1490 0.1961 srgb
492.01 42.71 11.57 1.55 r p3
/bg { 0.7333 0.1647 0.2000 srgb } def
0.7333 0.1647 0.2000 srgb
492.01 44.27 11.57 1.55 r p3
/bg { 0.7412 0.1804 0.2078 srgb } def
0.7412 0.1804 0.2078 srgb
492.01 45.82 11.57 1.55 r p3
/bg { 0.7451 0.1922 0.2157 srgb } def
0.7451 0.1922 0.2157 srgb
492.01 47.38 11.57 1.55 r p3
/bg { 0.7529 0.2078 0.2196 srgb } def
0.7529 0.2078 0.2196 srgb
492.01 48.93 11.57 1.55 r p3
/bg { 0.7608 0.2196 0.2275 srgb } def
0.7608 0.2196 0.2275 srgb
492.01 50.48 11.57 1.55 r p3
/bg { 0.7686 0.2353 0.2353 srgb } def
0.7686 0.2353 0.2353 srgb
492.01 52.04 11.57 1.55 r p3
/bg { 0.7765 0.2510 0.2392 srgb } def
0.7765 0.2510 0.2392 srgb
492.01 53.59 11.57 1.55 r p3
/bg { 0.7804 0.2627 0.2471 srgb } def
0.7804 0.2627 0.2471 srgb
492.01 55.15 11.57 1.55 r p3
/bg { 0.7882 0.2784 0.2549 srgb } def
0.7882 0.2784 0.2549 srgb
492.01 56.70 11.57 1.55 r p3
/bg { 0.7961 0.2941 0.2627 srgb } def
0.7961 0.2941 0.2627 srgb
492.01 58.25 11.57 1.55 r p3
/bg { 0.8039 0.3059 0.2667 srgb } def
0.8039 0.3059 0.2667 srgb
492.01 59.81 11.57 1.55 r p3
/bg { 0.8118 0.3216 0.2745 srgb } def
0.8118 0.3216 0.2745 srgb
492.01 61.36 11.57 1.55 r p3
/bg { 0.8157 0.3333 0.2824 srgb } def
0.8157 0.3333 0.2824 srgb
492.01 62.92 11.57 1.55 r p3
/bg { 0.8235 0.3490 0.2863 srgb } def
0.8235 0.3490 0.2863 srgb
492.01 64.47 11.57 1.55 r p3
/bg { 0.8314 0.3647 0.2941 srgb } def
0.8314 0.3647 0.2941 srgb
492.01 66.02 11.57 1.55 r p3
/bg { 0.8392 0.3765 0.3020 srgb } def
0.8392 0.3765 0.3020 srgb
492.01 67.58 11.57 1.55 r p3
/bg { 0.8431 0.3922 0.3137 srgb } def
0.8431 0.3922 0.3137 srgb
492.01 69.13 11.57 1.55 r p3
/bg { 0.8510 0.4039 0.3216 srgb } def
0.8510 0.4039 0.3216 srgb
492.01 70.68 11.57 1.55 r p3
/bg { 0.8549 0.4196 0.3333 srgb } def
0.8549 0.4196 0.3333 srgb
492.01 72.24 11.57 1.55 r p3
/bg { 0.8627 0.4314 0.3451 srgb } def
0.8627 0.4314 0.3451 srgb
492.01 73.79 11.57 1.55 r p3
/bg { 0.8667 0.4471 0.3529 srgb } def
0.8667 0.4471 0.3529 srgb
492.01 75.35 11.57 1.55 r p3
/bg { 0.8745 0.4588 0.3647 srgb } def
0.8745 0.4588 0.3647 srgb
492.01 76.90 11.57 1.55 r p3
/bg { 0.8784 0.4706 0.3765 srgb } def
0.8784 0.4706 0.3765 srgb
492.01 78.45 11.57 1.55 r p3
/bg { 0.8863 0.4863 0.3843 srgb } def
0.8863 0.4863 0.3843 srgb
492.01 80.01 11.57 1.55 r p3
/bg { 0.8902 0.4980 0.3961 srgb } def
0.8902 0.4980 0.3961 srgb
492.01 81.56 11.57 1.55 r p3
/bg { 0.8980 0.5137 0.4078 srgb } def
0.8980 0.5137 0.4078 srgb
492.01 83.12 11.57 1.55 r p3
/bg { 0.9020 0.5255 0.4157 srgb } def
0.9020 0.5255 0.4157 srgb
492.01 84.67 11.57 1.55 r p3
/bg { 0.9098 0.5412 0.4275 srgb } def
0.9098 0.5412 0.4275 srgb
492.01 86.22 11.57 1.55 r p3
/bg { 0.9137 0.5529 0.4392 srgb } def
0.9137 0.5529 0.4392 srgb
492.01 87.78 11.57 1.55 r p3
/bg { 0.9216 0.5686 0.4471 srgb } def
0.9216 0.5686 0.4471 srgb
492.01 89.33 11.57 1.55 r p3
/bg { 0.9255 0.5804 0.4588 srgb } def
0.9255 0.5804 0.4588 srgb
492.01 90.89 11.57 1.55 r p3
/bg { 0.9333 0.5961 0.4706 srgb } def
0.9333 0.5961 0.4706 srgb
492.01 92.44 11.57 1.55 r p3
/bg { 0.9373 0.6078 0.4784 srgb } def
0.9373 0.6078 0.4784 srgb
492.01 93.99 11.57 1.55 r p3
/bg { 0.9451 0.6235 0.4902 srgb } def
0.9451 0.6235 0.4902 srgb
492.01 95.55 11.57 1.55 r p3
/bg { 0.9490 0.6353 0.5020 srgb } def
0.9490 0.6353 0.5020 srgb
492.01 97.10 11.57 1.55 r p3
/bg { 0.9569 0.6471 0.5137 srgb } def
0.9569 0.6471 0.5137 srgb
492.01 98.66 11.57 1.55 r p3
/bg { 0.9569 0.6588 0.5255 srgb } def
0.9569 0.6588 0.5255 srgb
492.01 100.21 11.57 1.55 r p3
/bg { 0.9608 0.6706 0.5373 srgb } def
0.9608 0.6706 0.5373 srgb
492.01 101.76 11.57 1.55 r p3
/bg { 0.9608 0.6784 0.5529 srgb } def
0.9608 0.6784 0.5529 srgb
492.01 103.32 11.57 1.55 r p3
/bg { 0.9608 0.6902 0.5647 srgb } def
0.9608 0.6902 0.5647 srgb
492.01 104.87 11.57 1.55 r p3
/bg { 0.9647 0.7020 0.5804 srgb } def
0.9647 0.7020 0.5804 srgb
492.01 106.43 11.57 1.55 r p3
/bg { 0.9647 0.7137 0.5922 srgb } def
0.9647 0.7137 0.5922 srgb
492.01 107.98 11.57 1.55 r p3
/bg { 0.9686 0.7216 0.6078 srgb } def
0.9686 0.7216 0.6078 srgb
492.01 109.53 11.57 1.55 r p3
/bg { 0.9686 0.7333 0.6196 srgb } def
0.9686 0.7333 0.6196 srgb
492.01 111.09 11.57 1.55 r p3
/bg { 0.9725 0.7451 0.6353 srgb } def
0.9725 0.7451 0.6353 srgb
492.01 112.64 11.57 1.55 r p3
/bg { 0.9725 0.7529 0.6471 srgb } def
0.9725 0.7529 0.6471 srgb
492.01 114.20 11.57 1.55 r p3
/bg { 0.9765 0.7647 0.6627 srgb } def
0.9765 0.7647 0.6627 srgb
492.01 115.75 11.57 1.55 r p3
/bg { 0.9765 0.7765 0.6745 srgb } def
0.9765 0.7765 0.6745 srgb
492.01 117.30 11.57 1.55 r p3
/bg { 0.9804 0.7882 0.6902 srgb } def
0.9804 0.7882 0.6902 srgb
492.01 118.86 11.57 1.55 r p3
/bg { 0.9804 0.7961 0.7020 srgb } def
0.9804 0.7961 0.7020 srgb
492.01 120.41 11.57 1.55 r p3
/bg { 0.9804 0.8078 0.7176 srgb } def
0.9804 0.8078 0.7176 srgb
492.01 121.97 11.57 1.55 r p3
/bg { 0.9843 0.8196 0.7294 srgb } def
0.9843 0.8196 0.7294 srgb
492.01 123.52 11.57 1.55 r p3
/bg { 0.9843 0.8275 0.7412 srgb } def
0.9843 0.8275 0.7412 srgb
492.01 125.07 11.57 1.55 r p3
/bg { 0.9882 0.8392 0.7569 srgb } def
0.9882 0.8392 0.7569 srgb
492.01 126.63 11.57 1.55 r p3
/bg { 0.9882 0.8510 0.7686 srgb } def
0.9882 0.8510 0.7686 srgb
492.01 128.18 11.57 1.55 r p3
/bg { 0.9922 0.8588 0.7843 srgb } def
0.9922 0.8588 0.7843 srgb
492.01 129.73 11.57 1.55 r p3
/bg { 0.9922 0.8667 0.7922 srgb } def
0.9922 0.8667 0.7922 srgb
492.01 131.29 11.57 1.55 r p3
/bg { 0.9922 0.8745 0.8039 srgb } def
0.9922 0.8745 0.8039 srgb
492.01 132.84 11.57 1.55 r p3
/bg { 0.9922 0.8824 0.8157 srgb } def
0.9922 0.8824 0.8157 srgb
492.01 134.40 11.57 1.55 r p3
/bg { 0.9922 0.8863 0.8275 srgb } def
0.9922 0.8863 0.8275 srgb
492.01 135.95 11.57 1.55 r p3
/bg { 0.9922 0.8941 0.8392 srgb } def
0.9922 0.8941 0.8392 srgb
492.01 137.50 11.57 1.55 r p3
/bg { 0.9922 0.9020 0.8510 srgb } def
0.9922 0.9020 0.8510 srgb
492.01 139.06 11.57 1.55 r p3
/bg { 0.9922 0.9098 0.8588 srgb } def
0.9922 0.9098 0.8588 srgb
492.01 140.61 11.57 1.55 r p3
/bg { 0.9922 0.9176 0.8706 srgb } def
0.9922 0.9176 0.8706 srgb
492.01 142.17 11.57 1.55 r p3
/bg { 0.9922 0.9255 0.8824 srgb } def
0.9922 0.9255 0.8824 srgb
492.01 143.72 11.57 1.55 r p3
/bg { 0.9961 0.9294 0.8941 srgb } def
0.9961 0.9294 0.8941 srgb
492.01 145.27 11.57 1.55 r p3
/bg { 0.9961 0.9373 0.9059 srgb } def
0.9961 0.9373 0.9059 srgb
492.01 146.83 11.57 1.55 r p3
/bg { 0.9961 0.9451 0.9137 srgb } def
0.9961 0.9451 0.9137 srgb
492.01 148.38 11.57 1.55 r p3
/bg { 0.9961 0.9529 0.9255 srgb } def
0.9961 0.9529 0.9255 srgb
492.01 149.94 11.57 1.55 r p3
/bg { 0.9961 0.9608 0.9373 srgb } def
0.9961 0.9608 0.9373 srgb
492.01 151.49 11.57 1.55 r p3
/bg { 0.9961 0.9647 0.9490 srgb } def
0.9961 0.9647 0.9490 srgb
492.01 153.04 11.57 1.55 r p3
/bg { 0.9961 0.9725 0.9608 srgb } def
0.9961 0.9725 0.9608 srgb
492.01 154.60 11.57 1.55 r p3
/bg { 0.9961 0.9804 0.9686 srgb } def
0.9961 0.9804 0.9686 srgb
492.01 156.15 11.57 1.55 r p3
/bg { 0.9961 0.9882 0.9804 srgb } def
0.9961 0.9882 0.9804 srgb
492.01 157.71 11.57 1.55 r p3
/bg { 0.9961 0.9961 0.9922 srgb } def
0.9961 0.9961 0.9922 srgb
492.01 159.26 11.57 1.55 r p3
/bg { 0.9922 0.9961 0.9961 srgb } def
0.9922 0.9961 0.9961 srgb
492.01 160.81 11.57 1.55 r p3
/bg { 0.9843 0.9922 0.9922 srgb } def
0.9843 0.9922 0.9922 srgb
492.01 162.37 11.57 1.55 r p3
/bg { 0.9765 0.9843 0.9922 srgb } def
0.9765 0.9843 0.9922 srgb
492.01 163.92 11.57 1.55 r p3
/bg { 0.9647 0.9804 0.9882 srgb } def
0.9647 0.9804 0.9882 srgb
492.01 165.48 11.57 1.55 r p3
/bg { 0.9569 0.9765 0.9843 srgb } def
0.9569 0.9765 0.9843 srgb
492.01 167.03 11.57 1.55 r p3
/bg { 0.9490 0.9686 0.9804 srgb } def
0.9490 0.9686 0.9804 srgb
492.01 168.58 11.57 1.55 r p3
/bg { 0.9373 0.9647 0.9804 srgb } def
0.9373 0.9647 0.9804 srgb
492.01 170.14 11.57 1.55 r p3
/bg { 0.9294 0.9608 0.9765 srgb } def
0.9294 0.9608 0.9765 srgb
492.01 171.69 11.57 1.55 r p3
/bg { 0.9216 0.9529 0.9725 srgb } def
0.9216 0.9529 0.9725 srgb
492.01 173.25 11.57 1.55 r p3
/bg { 0.9137 0.9490 0.9686 srgb } def
0.9137 0.9490 0.9686 srgb
492.01 174.80 11.57 1.55 r p3
/bg { 0.9020 0.9451 0.9686 srgb } def
0.9020 0.9451 0.9686 srgb
492.01 176.35 11.57 1.55 r p3
/bg { 0.8941 0.9373 0.9647 srgb } def
0.8941 0.9373 0.9647 srgb
492.01 177.91 11.57 1.55 r p3
/bg { 0.8863 0.9333 0.9608 srgb } def
0.8863 0.9333 0.9608 srgb
492.01 179.46 11.57 1.55 r p3
/bg { 0.8745 0.9294 0.9569 srgb } def
0.8745 0.9294 0.9569 srgb
492.01 181.02 11.57 1.55 r p3
/bg { 0.8667 0.9255 0.9569 srgb } def
0.8667 0.9255 0.9569 srgb
492.01 182.57 11.57 1.55 r p3
/bg { 0.8588 0.9176 0.9529 srgb } def
0.8588 0.9176 0.9529 srgb
492.01 184.12 11.57 1.55 r p3
/bg { 0.8471 0.9137 0.9490 srgb } def
0.8471 0.9137 0.9490 srgb
492.01 185.68 11.57 1.55 r p3
/bg { 0.8392 0.9098 0.9451 srgb } def
0.8392 0.9098 0.9451 srgb
492.01 187.23 11.57 1.55 r p3
/bg { 0.8314 0.9020 0.9451 srgb } def
0.8314 0.9020 0.9451 srgb
492.01 188.79 11.57 1.55 r p3
/bg { 0.8196 0.8980 0.9412 srgb } def
0.8196 0.8980 0.9412 srgb
492.01 190.34 11.57 1.55 r p3
/bg { 0.8118 0.8941 0.9373 srgb } def
0.8118 0.8941 0.9373 srgb
492.01 191.89 11.57 1.55 r p3
/bg { 0.7961 0.8863 0.9333 srgb } def
0.7961 0.8863 0.9333 srgb
492.01 193.45 11.57 1.55 r p3
/bg { 0.7843 0.8784 0.9294 srgb } def
0.7843 0.8784 0.9294 srgb
492.01 195.00 11.57 1.55 r p3
/bg { 0.7725 0.8745 0.9255 srgb } def
0.7725 0.8745 0.9255 srgb
492.01 196.55 11.57 1.55 r p3
/bg { 0.7608 0.8667 0.9216 srgb } def
0.7608 0.8667 0.9216 srgb
492.01 198.11 11.57 1.55 r p3
/bg { 0.7490 0.8588 0.9176 srgb } def
0.7490 0.8588 0.9176 srgb
492.01 199.66 11.57 1.55 r p3
/bg { 0.7373 0.8549 0.9176 srgb } def
0.7373 0.8549 0.9176 srgb
492.01 201.22 11.57 1.55 r p3
/bg { 0.7216 0.8471 0.9137 srgb } def
0.7216 0.8471 0.9137 srgb
492.01 202.77 11.57 1.55 r p3
/bg { 0.7098 0.8431 0.9098 srgb } def
0.7098 0.8431 0.9098 srgb
492.01 204.32 11.57 1.55 r p3
/bg { 0.6980 0.8353 0.9059 srgb } def
0.6980 0.8353 0.9059 srgb
492.01 205.88 11.57 1.55 r p3
/bg { 0.6863 0.8275 0.9020 srgb } def
0.6863 0.8275 0.9020 srgb
492.01 207.43 11.57 1.55 r p3
/bg { 0.6745 0.8235 0.8980 srgb } def
0.6745 0.8235 0.8980 srgb
492.01 208.99 11.57 1.55 r p3
/bg { 0.6627 0.8157 0.8941 srgb } def
0.6627 0.8157 0.8941 srgb
492.01 210.54 11.57 1.55 r p3
/bg { 0.6471 0.8118 0.8902 srgb } def
0.6471 0.8118 0.8902 srgb
492.01 212.09 11.57 1.55 r p3
/bg { 0.6353 0.8039 0.8863 srgb } def
0.6353 0.8039 0.8863 srgb
492.01 213.65 11.57 1.55 r p3
/bg { 0.6235 0.7961 0.8824 srgb } def
0.6235 0.7961 0.8824 srgb
492.01 215.20 11.57 1.55 r p3
/bg { 0.6118 0.7922 0.8784 srgb } def
0.6118 0.7922 0.8784 srgb
492.01 216.76 11.57 1.55 r p3
/bg { 0.6000 0.7843 0.8784 srgb } def
0.6000 0.7843 0.8784 srgb
492.01 218.31 11.57 1.55 r p3
/bg { 0.5882 0.7804 0.8745 srgb } def
0.5882 0.7804 0.8745 srgb
492.01 219.86 11.57 1.55 r p3
/bg { 0.5725 0.7725 0.8706 srgb } def
0.5725 0.7725 0.8706 srgb
492.01 221.42 11.57 1.55 r p3
/bg { 0.5608 0.7647 0.8667 srgb } def
0.5608 0.7647 0.8667 srgb
492.01 222.97 11.57 1.55 r p3
/bg { 0.5451 0.7529 0.8588 srgb } def
0.5451 0.7529 0.8588 srgb
492.01 224.53 11.57 1.55 r p3
/bg { 0.5294 0.7451 0.8549 srgb } def
0.5294 0.7451 0.8549 srgb
492.01 226.08 11.57 1.55 r p3
/bg { 0.5137 0.7333 0.8471 srgb } def
0.5137 0.7333 0.8471 srgb
492.01 227.63 11.57 1.55 r p3
/bg { 0.4980 0.7255 0.8431 srgb } def
0.4980 0.7255 0.8431 srgb
492.01 229.19 11.57 1.55 r p3
/bg { 0.4824 0.7137 0.8392 srgb } def
0.4824 0.7137 0.8392 srgb
492.01 230.74 11.57 1.55 r p3
/bg { 0.4667 0.7059 0.8314 srgb } def
0.4667 0.7059 0.8314 srgb
492.01 232.30 11.57 1.55 r p3
/bg { 0.4510 0.6941 0.8275 srgb } def
0.4510 0.6941 0.8275 srgb
492.01 233.85 11.57 1.55 r p3
/bg { 0.4353 0.6863 0.8235 srgb } def
0.4353 0.6863 0.8235 srgb
492.01 235.40 11.57 1.55 r p3
/bg { 0.4196 0.6745 0.8157 srgb } def
0.4196 0.6745 0.8157 srgb
492.01 236.96 11.57 1.55 r p3
/bg { 0.4039 0.6667 0.8118 srgb } def
0.4039 0.6667 0.8118 srgb
492.01 238.51 11.57 1.55 r p3
/bg { 0.3882 0.6549 0.8078 srgb } def
0.3882 0.6549 0.8078 srgb
492.01 240.07 11.57 1.55 r p3
/bg { 0.3725 0.6471 0.8000 srgb } def
0.3725 0.6471 0.8000 srgb
492.01 241.62 11.57 1.55 r p3
/bg { 0.3569 0.6353 0.7961 srgb } def
0.3569 0.6353 0.7961 srgb
492.01 243.17 11.57 1.55 r p3
/bg { 0.3412 0.6275 0.7922 srgb } def
0.3412 0.6275 0.7922 srgb
492.01 244.73 11.57 1.55 r p3
/bg { 0.3255 0.6157 0.7843 srgb } def
0.3255 0.6157 0.7843 srgb
492.01 246.28 11.57 1.55 r p3
/bg { 0.3098 0.6078 0.7804 srgb } def
0.3098 0.6078 0.7804 srgb
492.01 247.84 11.57 1.55 r p3
/bg { 0.2941 0.5961 0.7725 srgb } def
0.2941 0.5961 0.7725 srgb
492.01 249.39 11.57 1.55 r p3
/bg { 0.2784 0.5882 0.7686 srgb } def
0.2784 0.5882 0.7686 srgb
492.01 250.94 11.57 1.55 r p3
/bg { 0.2627 0.5765 0.7647 srgb } def
0.2627 0.5765 0.7647 srgb
492.01 252.50 11.57 1.55 r p3
/bg { 0.2549 0.5686 0.7608 srgb } def
0.2549 0.5686 0.7608 srgb
492.01 254.05 11.57 1.55 r p3
/bg { 0.2471 0.5569 0.7529 srgb } def
0.2471 0.5569 0.7529 srgb
492.01 255.61 11.57 1.55 r p3
/bg { 0.2431 0.5490 0.7490 srgb } def
0.2431 0.5490 0.7490 srgb
492.01 257.16 11.57 1.55 r p3
/bg { 0.2353 0.5412 0.7451 srgb } def
0.2353 0.5412 0.7451 srgb
492.01 258.71 11.57 1.55 r p3
/bg { 0.2275 0.5333 0.7412 srgb } def
0.2275 0.5333 0.7412 srgb
492.01 260.27 11.57 1.55 r p3
/bg { 0.2235 0.5216 0.7373 srgb } def
0.2235 0.5216 0.7373 srgb
492.01 261.82 11.57 1.55 r p3
/bg { 0.2157 0.5137 0.7333 srgb } def
0.2157 0.5137 0.7333 srgb
492.01 263.37 11.57 1.55 r p3
/bg { 0.2078 0.5059 0.7255 srgb } def
0.2078 0.5059 0.7255 srgb
492.01 264.93 11.57 1.55 r p3
/bg { 0.2000 0.4980 0.7216 srgb } def
0.2000 0.4980 0.7216 srgb
492.01 266.48 11.57 1.55 r p3
/bg { 0.1961 0.4863 0.7176 srgb } def
0.1961 0.4863 0.7176 srgb
492.01 268.04 11.57 1.55 r p3
/bg { 0.1882 0.4784 0.7137 srgb } def
0.1882 0.4784 0.7137 srgb
492.01 269.59 11.57 1.55 r p3
/bg { 0.1804 0.4706 0.7098 srgb } def
0.1804 0.4706 0.7098 srgb
492.01 271.14 11.57 1.55 r p3
/bg { 0.1765 0.4627 0.7059 srgb } def
0.1765 0.4627 0.7059 srgb
492.01 272.70 11.57 1.55 r p3
/bg { 0.1686 0.4510 0.7020 srgb } def
0.1686 0.4510 0.7020 srgb
492.01 274.25 11.57 1.55 r p3
/bg { 0.1608 0.4431 0.6941 srgb } def
0.1608 0.4431 0.6941 srgb
492.01 275.81 11.57 1.55 r p3
/bg { 0.1569 0.4353 0.6902 srgb } def
0.1569 0.4353 0.6902 srgb
492.01 277.36 11.57 1.55 r p3
/bg { 0.1490 0.4275 0.6863 srgb } def
0.1490 0.4275 0.6863 srgb
492.01 278.91 11.57 1.55 r p3
/bg { 0.1412 0.4157 0.6824 srgb } def
0.1412 0.4157 0.6824 srgb
492.01 280.47 11.57 1.55 r p3
/bg { 0.1333 0.4078 0.6784 srgb } def
0.1333 0.4078 0.6784 srgb
492.01 282.02 11.57 1.55 r p3
/bg { 0.1294 0.4000 0.6745 srgb } def
0.1294 0.4000 0.6745 srgb
492.01 283.58 11.57 1.55 r p3
/bg { 0.1216 0.3882 0.6588 srgb } def
0.1216 0.3882 0.6588 srgb
492.01 285.13 11.57 1.55 r p3
/bg { 0.1176 0.3765 0.6431 srgb } def
0.1176 0.3765 0.6431 srgb
492.01 286.68 11.57 1.55 r p3
/bg { 0.1098 0.3686 0.6314 srgb } def
0.1098 0.3686 0.6314 srgb
492.01 288.24 11.57 1.55 r p3
/bg { 0.1059 0.3569 0.6157 srgb } def
0.1059 0.3569 0.6157 srgb
492.01 289.79 11.57 1.55 r p3
/bg { 0.1020 0.3451 0.6000 srgb } def
0.1020 0.3451 0.6000 srgb
492.01 291.35 11.57 1.55 r p3
/bg { 0.0941 0.3333 0.5843 srgb } def
0.0941 0.3333 0.5843 srgb
492.01 292.90 11.57 1.55 r p3
/bg { 0.0902 0.3255 0.5686 srgb } def
0.0902 0.3255 0.5686 srgb
492.01 294.45 11.57 1.55 r p3
/bg { 0.0824 0.3137 0.5569 srgb } def
0.0824 0.3137 0.5569 srgb
492.01 296.01 11.57 1.55 r p3
/bg { 0.0784 0.3020 0.5412 srgb } def
0.0784 0.3020 0.5412 srgb
492.01 297.56 11.57 1.55 r p3
/bg { 0.0745 0.2941 0.5255 srgb } def
0.0745 0.2941 0.5255 srgb
492.01 299.12 11.57 1.55 r p3
/bg { 0.0667 0.2824 0.5098 srgb } def
0.0667 0.2824 0.5098 srgb
492.01 300.67 11.57 1.55 r p3
/bg { 0.0627 0.2706 0.4980 srgb } def
0.0627 0.2706 0.4980 srgb
492.01 302.22 11.57 1.55 r p3
/bg { 0.0549 0.2588 0.4824 srgb } def
0.0549 0.2588 0.4824 srgb
492.01 303.78 11.57 1.55 r p3
/bg { 0.0510 0.2510 0.4667 srgb } def
0.0510 0.2510 0.4667 srgb
492.01 305.33 11.57 1.55 r p3
/bg { 0.0471 0.2392 0.4510 srgb } def
0.0471 0.2392 0.4510 srgb
492.01 306.89 11.57 1.55 r p3
/bg { 0.0392 0.2275 0.4392 srgb } def
0.0392 0.2275 0.4392 srgb
492.01 308.44 11.57 1.55 r p3
/bg { 0.0353 0.2196 0.4235 srgb } def
0.0353 0.2196 0.4235 srgb
492.01 309.99 11.57 1.55 r p3
/bg { 0.0275 0.2078 0.4078 srgb } def
0.0275 0.2078 0.4078 srgb
492.01 311.55 11.57 1.55 r p3
/bg { 0.0235 0.1961 0.3922 srgb } def
0.0235 0.1961 0.3922 srgb
492.01 313.10 11.57 1.55 r p3
/bg { 0.0196 0.1882 0.3804 srgb } def
0.0196 0.1882 0.3804 srgb
492.01 314.66 11.57 1.55 r p3
0 0 0 srgb
492.01 5.42 11.57 310.79 r p1
np
503.58 5.42 m
2.32 0 l
o
np
503.58 36.50 m
2.32 0 l
o
np
503.58 67.58 m
2.32 0 l
o
np
503.58 98.66 m
2.32 0 l
o
np
503.58 129.73 m
2.32 0 l
o
np
503.58 160.81 m
2.32 0 l
o
np
503.58 191.89 m
2.32 0 l
o
np
503.58 222.97 m
2.32 0 l
o
np
503.58 254.05 m
2.32 0 l
o
np
503.58 285.13 m
2.32 0 l
o
np
503.58 316.21 m
2.32 0 l
o
/Font1 findfont 10 s
518.24 1.90 (-1) .5 0 t
518.24 33.08 (-0.8) .5 0 t
518.24 64.16 (-0.6) .5 0 t
518.24 95.24 (-0.4) .5 0 t
518.24 126.31 (-0.2) .5 0 t
518.24 157.39 (0) .5 0 t
518.24 188.47 (0.2) .5 0 t
518.24 219.55 (0.4) .5 0 t
518.24 250.63 (0.6) .5 0 t
518.24 281.71 (0.8) .5 0 t
518.24 312.69 (1) .5 0 t
/Font1 findfont 8 s
184.42 319.51 (SV 2D flight dist sig) 0 90 t
199.35 319.51 (n) 90 ta
-0.080 (um SVs) tb gr
213.42 319.51 (tr) 90 ta
0.120 (k eta rel 1) tb gr
227.60 319.51 (SV mass) 0 90 t
241.73 319.51 (n) 90 ta
-0.080 (um tr) tb
0.120 (ks from SV) tb gr
255.05 319.51 (SV energy r) 90 ta
-0.080 (atio) tb gr
269.98 319.51 (SV delta R) 0 90 t
283.23 319.51 (3D IP sig 1) 0 90 t
297.36 319.51 (3D IP sig 2) 0 90 t
311.48 319.51 (3D IP sig 3) 0 90 t
325.61 319.51 (3D IP sig 4) 0 90 t
339.79 319.51 (tr) 90 ta
0.120 (k relativ) tb
-0.200 (e pt 1) tb gr
354.69 319.51 (tr) 90 ta
0.120 (k delta R 1) tb gr
368.04 319.51 (tr) 90 ta
0.120 (k pt r) tb
-0.080 (atio 1) tb gr
382.94 319.51 (tr) 90 ta
0.120 (k distance 1) tb gr
396.25 319.51 (tr) 90 ta
0.120 (k deca) tb
-0.240 (y length 1) tb gr
411.19 319.51 (summed tr) 90 ta
0.120 (ks Et r) tb
-0.080 (atio) tb gr
425.32 319.51 (summed delta R) 0 90 t
438.67 319.51 (first tr) 90 ta
0.120 (k 2D IP sig abo) tb
-0.120 (v) tb
-0.200 (e char) tb
0.200 (m) tb gr
452.79 319.51 (n) 90 ta
-0.080 (um tr) tb
0.120 (ks per jet) tb gr
466.92 319.51 (jet pt) 0 90 t
481.05 319.51 (jet eta) 0 90 t
169.53 307.23 (SV 2D flight dist sig) 1 0 t
151.20 293.10 (n) 0 ta
-0.080 (um SVs) tb gr
157.77 278.98 (tr) 0 ta
0.120 (k eta rel 1) tb gr
211.91 264.85 (SV mass) 1 0 t
164.24 250.72 (n) 0 ta
-0.080 (um tr) tb
0.120 (ks from SV) tb gr
185.03 236.60 (SV energy r) 0 ta
-0.080 (atio) tb gr
254.29 222.47 (SV delta R) 1 0 t
268.42 208.34 (3D IP sig 1) 1 0 t
282.54 194.22 (3D IP sig 2) 1 0 t
296.67 180.09 (3D IP sig 3) 1 0 t
310.80 165.96 (3D IP sig 4) 1 0 t
272.46 151.84 (tr) 0 ta
0.120 (k relativ) tb
-0.200 (e pt 1) tb gr
295.92 137.71 (tr) 0 ta
0.120 (k delta R 1) tb gr
310.94 123.58 (tr) 0 ta
0.120 (k pt r) tb
-0.080 (atio 1) tb gr
319.73 109.46 (tr) 0 ta
0.120 (k distance 1) tb gr
318.29 95.33 (tr) 0 ta
0.120 (k deca) tb
-0.240 (y length 1) tb gr
322.21 81.20 (summed tr) 0 ta
0.120 (ks Et r) tb
-0.080 (atio) tb gr
409.68 67.08 (summed delta R) 1 0 t
316.67 52.95 (first tr) 0 ta
0.120 (k 2D IP sig abo) tb
-0.120 (v) tb
-0.200 (e char) tb
0.200 (m) tb gr
382.81 38.82 (n) 0 ta
-0.080 (um tr) tb
0.120 (ks per jet) tb gr
452.06 24.69 (jet pt) 1 0 t
466.19 10.57 (jet eta) 1 0 t
0.00 0.00 588.00 431.25 cl
ep
%%Trailer
%%Pages: 1
%%EOF
