%!PS-Adobe-3.0 EPSF-3.0
%%Title: training/correlation_tests/loss_cor.eps
%%Creator: matplotlib version 1.5.1, http://matplotlib.org/
%%CreationDate: Mon May 21 16:20:48 2018
%%Orientation: portrait
%%BoundingBox: -126 72 738 720
%%EndComments
%%BeginProlog
/mpldict 8 dict def
mpldict begin
/m { moveto } bind def
/l { lineto } bind def
/r { rlineto } bind def
/c { curveto } bind def
/cl { closepath } bind def
/box {
m
1 index 0 r
0 exch r
neg 0 r
cl
} bind def
/clipbox {
box
clip
newpath
} bind def
%!PS-Adobe-3.0 Resource-Font
%%Title: Bitstream Vera Sans
%%Copyright: Copyright (c) 2003 by Bitstream, Inc. All Rights Reserved.
%%Creator: Converted from TrueType to type 3 by PPR
25 dict begin
/_d{bind def}bind def
/_m{moveto}_d
/_l{lineto}_d
/_cl{closepath eofill}_d
/_c{curveto}_d
/_sc{7 -1 roll{setcachedevice}{pop pop pop pop pop pop}ifelse}_d
/_e{exec}_d
/FontName /BitstreamVeraSans-Roman def
/PaintType 0 def
/FontMatrix[.001 0 0 .001 0 0]def
/FontBBox[-183 -236 1287 928]def
/FontType 3 def
/Encoding [ /space /parenleft /parenright /period /zero /one /two /three /four /five /six /E /L /S /V /a /b /c /e /g /h /i /l /m /n /o /p /r /s /t /u /v /w ] def
/FontInfo 10 dict dup begin
/FamilyName (Bitstream Vera Sans) def
/FullName (Bitstream Vera Sans) def
/Notice (Copyright (c) 2003 by Bitstream, Inc. All Rights Reserved. Bitstream Vera is a trademark of Bitstream, Inc.) def
/Weight (Roman) def
/Version (Release 1.10) def
/ItalicAngle 0.0 def
/isFixedPitch false def
/UnderlinePosition -213 def
/UnderlineThickness 143 def
end readonly def
/CharStrings 33 dict dup begin
/space{318 0 0 0 0 0 _sc
}_d
/parenleft{390 0 86 -131 310 759 _sc
310 759 _m
266 683 234 609 213 536 _c
191 463 181 389 181 314 _c
181 238 191 164 213 91 _c
234 17 266 -56 310 -131 _c
232 -131 _l
183 -54 146 20 122 94 _c
98 168 86 241 86 314 _c
86 386 98 459 122 533 _c
146 607 182 682 232 759 _c
310 759 _l
_cl}_d
/parenright{390 0 80 -131 304 759 _sc
80 759 _m
158 759 _l
206 682 243 607 267 533 _c
291 459 304 386 304 314 _c
304 241 291 168 267 94 _c
243 20 206 -54 158 -131 _c
80 -131 _l
123 -56 155 17 177 91 _c
198 164 209 238 209 314 _c
209 389 198 463 177 536 _c
155 609 123 683 80 759 _c
_cl}_d
/period{318 0 107 0 210 124 _sc
107 124 _m
210 124 _l
210 0 _l
107 0 _l
107 124 _l
_cl}_d
/zero{636 0 66 -13 570 742 _sc
318 664 _m
267 664 229 639 203 589 _c
177 539 165 464 165 364 _c
165 264 177 189 203 139 _c
229 89 267 64 318 64 _c
369 64 407 89 433 139 _c
458 189 471 264 471 364 _c
471 464 458 539 433 589 _c
407 639 369 664 318 664 _c
318 742 _m
399 742 461 709 505 645 _c
548 580 570 486 570 364 _c
570 241 548 147 505 83 _c
461 19 399 -13 318 -13 _c
236 -13 173 19 130 83 _c
87 147 66 241 66 364 _c
66 486 87 580 130 645 _c
173 709 236 742 318 742 _c
_cl}_d
/one{636 0 110 0 544 729 _sc
124 83 _m
285 83 _l
285 639 _l
110 604 _l
110 694 _l
284 729 _l
383 729 _l
383 83 _l
544 83 _l
544 0 _l
124 0 _l
124 83 _l
_cl}_d
/two{{636 0 73 0 536 742 _sc
192 83 _m
536 83 _l
536 0 _l
73 0 _l
73 83 _l
110 121 161 173 226 239 _c
290 304 331 346 348 365 _c
380 400 402 430 414 455 _c
426 479 433 504 433 528 _c
433 566 419 598 392 622 _c
365 646 330 659 286 659 _c
255 659 222 653 188 643 _c
154 632 117 616 78 594 _c
78 694 _l
118 710 155 722 189 730 _c
223 738 255 742 284 742 _c
}_e{359 742 419 723 464 685 _c
509 647 532 597 532 534 _c
532 504 526 475 515 449 _c
504 422 484 390 454 354 _c
446 344 420 317 376 272 _c
332 227 271 164 192 83 _c
_cl}_e}_d
/three{{636 0 76 -13 556 742 _sc
406 393 _m
453 383 490 362 516 330 _c
542 298 556 258 556 212 _c
556 140 531 84 482 45 _c
432 6 362 -13 271 -13 _c
240 -13 208 -10 176 -4 _c
144 1 110 10 76 22 _c
76 117 _l
103 101 133 89 166 81 _c
198 73 232 69 268 69 _c
330 69 377 81 409 105 _c
441 129 458 165 458 212 _c
458 254 443 288 413 312 _c
383 336 341 349 287 349 _c
}_e{202 349 _l
202 430 _l
291 430 _l
339 430 376 439 402 459 _c
428 478 441 506 441 543 _c
441 580 427 609 401 629 _c
374 649 336 659 287 659 _c
260 659 231 656 200 650 _c
169 644 135 635 98 623 _c
98 711 _l
135 721 170 729 203 734 _c
235 739 266 742 296 742 _c
370 742 429 725 473 691 _c
517 657 539 611 539 553 _c
539 513 527 479 504 451 _c
481 423 448 403 406 393 _c
_cl}_e}_d
/four{636 0 49 0 580 729 _sc
378 643 _m
129 254 _l
378 254 _l
378 643 _l
352 729 _m
476 729 _l
476 254 _l
580 254 _l
580 172 _l
476 172 _l
476 0 _l
378 0 _l
378 172 _l
49 172 _l
49 267 _l
352 729 _l
_cl}_d
/five{{636 0 77 -13 549 729 _sc
108 729 _m
495 729 _l
495 646 _l
198 646 _l
198 467 _l
212 472 227 476 241 478 _c
255 480 270 482 284 482 _c
365 482 429 459 477 415 _c
525 370 549 310 549 234 _c
549 155 524 94 475 51 _c
426 8 357 -13 269 -13 _c
238 -13 207 -10 175 -6 _c
143 -1 111 6 77 17 _c
77 116 _l
106 100 136 88 168 80 _c
199 72 232 69 267 69 _c
}_e{323 69 368 83 401 113 _c
433 143 450 183 450 234 _c
450 284 433 324 401 354 _c
368 384 323 399 267 399 _c
241 399 214 396 188 390 _c
162 384 135 375 108 363 _c
108 729 _l
_cl}_e}_d
/six{{636 0 70 -13 573 742 _sc
330 404 _m
286 404 251 388 225 358 _c
199 328 186 286 186 234 _c
186 181 199 139 225 109 _c
251 79 286 64 330 64 _c
374 64 409 79 435 109 _c
461 139 474 181 474 234 _c
474 286 461 328 435 358 _c
409 388 374 404 330 404 _c
526 713 _m
526 623 _l
501 635 476 644 451 650 _c
425 656 400 659 376 659 _c
310 659 260 637 226 593 _c
}_e{192 549 172 482 168 394 _c
187 422 211 444 240 459 _c
269 474 301 482 336 482 _c
409 482 467 459 509 415 _c
551 371 573 310 573 234 _c
573 159 550 99 506 54 _c
462 9 403 -13 330 -13 _c
246 -13 181 19 137 83 _c
92 147 70 241 70 364 _c
70 479 97 571 152 639 _c
206 707 280 742 372 742 _c
396 742 421 739 447 735 _c
472 730 498 723 526 713 _c
_cl}_e}_d
/E{632 0 98 0 568 729 _sc
98 729 _m
559 729 _l
559 646 _l
197 646 _l
197 430 _l
544 430 _l
544 347 _l
197 347 _l
197 83 _l
568 83 _l
568 0 _l
98 0 _l
98 729 _l
_cl}_d
/L{557 0 98 0 552 729 _sc
98 729 _m
197 729 _l
197 83 _l
552 83 _l
552 0 _l
98 0 _l
98 729 _l
_cl}_d
/S{{635 0 66 -13 579 742 _sc
535 705 _m
535 609 _l
497 627 462 640 429 649 _c
395 657 363 662 333 662 _c
279 662 237 651 208 631 _c
179 610 165 580 165 542 _c
165 510 174 485 194 469 _c
213 452 250 439 304 429 _c
364 417 _l
437 403 491 378 526 343 _c
561 307 579 260 579 201 _c
579 130 555 77 508 41 _c
460 5 391 -13 300 -13 _c
265 -13 228 -9 189 -2 _c
}_e{150 5 110 16 69 32 _c
69 134 _l
109 111 148 94 186 83 _c
224 71 262 66 300 66 _c
356 66 399 77 430 99 _c
460 121 476 152 476 194 _c
476 230 465 258 443 278 _c
421 298 385 313 335 323 _c
275 335 _l
201 349 148 372 115 404 _c
82 435 66 478 66 534 _c
66 598 88 649 134 686 _c
179 723 242 742 322 742 _c
356 742 390 739 426 733 _c
461 727 497 717 535 705 _c
}_e{_cl}_e}_d
/V{684 0 8 0 676 729 _sc
286 0 _m
8 729 _l
111 729 _l
342 115 _l
573 729 _l
676 729 _l
398 0 _l
286 0 _l
_cl}_d
/a{{613 0 60 -13 522 560 _sc
343 275 _m
270 275 220 266 192 250 _c
164 233 150 205 150 165 _c
150 133 160 107 181 89 _c
202 70 231 61 267 61 _c
317 61 357 78 387 114 _c
417 149 432 196 432 255 _c
432 275 _l
343 275 _l
522 312 _m
522 0 _l
432 0 _l
432 83 _l
411 49 385 25 355 10 _c
325 -5 287 -13 243 -13 _c
187 -13 142 2 109 33 _c
76 64 60 106 60 159 _c
}_e{60 220 80 266 122 298 _c
163 329 224 345 306 345 _c
432 345 _l
432 354 _l
432 395 418 427 391 450 _c
364 472 326 484 277 484 _c
245 484 215 480 185 472 _c
155 464 127 453 100 439 _c
100 522 _l
132 534 164 544 195 550 _c
226 556 256 560 286 560 _c
365 560 424 539 463 498 _c
502 457 522 395 522 312 _c
_cl}_e}_d
/b{{635 0 91 -13 580 760 _sc
487 273 _m
487 339 473 390 446 428 _c
418 466 381 485 334 485 _c
286 485 249 466 222 428 _c
194 390 181 339 181 273 _c
181 207 194 155 222 117 _c
249 79 286 61 334 61 _c
381 61 418 79 446 117 _c
473 155 487 207 487 273 _c
181 464 _m
199 496 223 520 252 536 _c
281 552 316 560 356 560 _c
422 560 476 533 518 481 _c
559 428 580 359 580 273 _c
}_e{580 187 559 117 518 65 _c
476 13 422 -13 356 -13 _c
316 -13 281 -5 252 10 _c
223 25 199 49 181 82 _c
181 0 _l
91 0 _l
91 760 _l
181 760 _l
181 464 _l
_cl}_e}_d
/c{{550 0 55 -13 488 560 _sc
488 526 _m
488 442 _l
462 456 437 466 411 473 _c
385 480 360 484 334 484 _c
276 484 230 465 198 428 _c
166 391 150 339 150 273 _c
150 206 166 154 198 117 _c
230 80 276 62 334 62 _c
360 62 385 65 411 72 _c
437 79 462 90 488 104 _c
488 21 _l
462 9 436 0 410 -5 _c
383 -10 354 -13 324 -13 _c
242 -13 176 12 128 64 _c
}_e{79 115 55 185 55 273 _c
55 362 79 432 128 483 _c
177 534 244 560 330 560 _c
358 560 385 557 411 551 _c
437 545 463 537 488 526 _c
_cl}_e}_d
/e{{615 0 55 -13 562 560 _sc
562 296 _m
562 252 _l
149 252 _l
153 190 171 142 205 110 _c
238 78 284 62 344 62 _c
378 62 412 66 444 74 _c
476 82 509 95 541 113 _c
541 28 _l
509 14 476 3 442 -3 _c
408 -9 373 -13 339 -13 _c
251 -13 182 12 131 62 _c
80 112 55 181 55 268 _c
55 357 79 428 127 481 _c
175 533 241 560 323 560 _c
397 560 455 536 498 489 _c
}_e{540 441 562 377 562 296 _c
472 322 _m
471 371 457 410 431 440 _c
404 469 368 484 324 484 _c
274 484 234 469 204 441 _c
174 413 156 373 152 322 _c
472 322 _l
_cl}_e}_d
/g{{635 0 55 -207 544 560 _sc
454 280 _m
454 344 440 395 414 431 _c
387 467 349 485 301 485 _c
253 485 215 467 188 431 _c
161 395 148 344 148 280 _c
148 215 161 165 188 129 _c
215 93 253 75 301 75 _c
349 75 387 93 414 129 _c
440 165 454 215 454 280 _c
544 68 _m
544 -24 523 -93 482 -139 _c
440 -184 377 -207 292 -207 _c
260 -207 231 -204 203 -200 _c
175 -195 147 -188 121 -178 _c
}_e{121 -91 _l
147 -105 173 -115 199 -122 _c
225 -129 251 -133 278 -133 _c
336 -133 380 -117 410 -87 _c
439 -56 454 -10 454 52 _c
454 96 _l
435 64 411 40 382 24 _c
353 8 319 0 279 0 _c
211 0 157 25 116 76 _c
75 127 55 195 55 280 _c
55 364 75 432 116 483 _c
157 534 211 560 279 560 _c
319 560 353 552 382 536 _c
411 520 435 496 454 464 _c
454 547 _l
544 547 _l
}_e{544 68 _l
_cl}_e}_d
/h{634 0 91 0 549 760 _sc
549 330 _m
549 0 _l
459 0 _l
459 327 _l
459 379 448 417 428 443 _c
408 469 378 482 338 482 _c
289 482 251 466 223 435 _c
195 404 181 362 181 309 _c
181 0 _l
91 0 _l
91 760 _l
181 760 _l
181 462 _l
202 494 227 519 257 535 _c
286 551 320 560 358 560 _c
420 560 468 540 500 501 _c
532 462 549 405 549 330 _c
_cl}_d
/i{278 0 94 0 184 760 _sc
94 547 _m
184 547 _l
184 0 _l
94 0 _l
94 547 _l
94 760 _m
184 760 _l
184 646 _l
94 646 _l
94 760 _l
_cl}_d
/l{278 0 94 0 184 760 _sc
94 760 _m
184 760 _l
184 0 _l
94 0 _l
94 760 _l
_cl}_d
/m{{974 0 91 0 889 560 _sc
520 442 _m
542 482 569 511 600 531 _c
631 550 668 560 711 560 _c
767 560 811 540 842 500 _c
873 460 889 403 889 330 _c
889 0 _l
799 0 _l
799 327 _l
799 379 789 418 771 444 _c
752 469 724 482 686 482 _c
639 482 602 466 575 435 _c
548 404 535 362 535 309 _c
535 0 _l
445 0 _l
445 327 _l
445 379 435 418 417 444 _c
398 469 369 482 331 482 _c
}_e{285 482 248 466 221 435 _c
194 404 181 362 181 309 _c
181 0 _l
91 0 _l
91 547 _l
181 547 _l
181 462 _l
201 495 226 520 255 536 _c
283 552 317 560 357 560 _c
397 560 430 550 458 530 _c
486 510 506 480 520 442 _c
_cl}_e}_d
/n{634 0 91 0 549 560 _sc
549 330 _m
549 0 _l
459 0 _l
459 327 _l
459 379 448 417 428 443 _c
408 469 378 482 338 482 _c
289 482 251 466 223 435 _c
195 404 181 362 181 309 _c
181 0 _l
91 0 _l
91 547 _l
181 547 _l
181 462 _l
202 494 227 519 257 535 _c
286 551 320 560 358 560 _c
420 560 468 540 500 501 _c
532 462 549 405 549 330 _c
_cl}_d
/o{612 0 55 -13 557 560 _sc
306 484 _m
258 484 220 465 192 427 _c
164 389 150 338 150 273 _c
150 207 163 156 191 118 _c
219 80 257 62 306 62 _c
354 62 392 80 420 118 _c
448 156 462 207 462 273 _c
462 337 448 389 420 427 _c
392 465 354 484 306 484 _c
306 560 _m
384 560 445 534 490 484 _c
534 433 557 363 557 273 _c
557 183 534 113 490 63 _c
445 12 384 -13 306 -13 _c
227 -13 165 12 121 63 _c
77 113 55 183 55 273 _c
55 363 77 433 121 484 _c
165 534 227 560 306 560 _c
_cl}_d
/p{{635 0 91 -207 580 560 _sc
181 82 _m
181 -207 _l
91 -207 _l
91 547 _l
181 547 _l
181 464 _l
199 496 223 520 252 536 _c
281 552 316 560 356 560 _c
422 560 476 533 518 481 _c
559 428 580 359 580 273 _c
580 187 559 117 518 65 _c
476 13 422 -13 356 -13 _c
316 -13 281 -5 252 10 _c
223 25 199 49 181 82 _c
487 273 _m
487 339 473 390 446 428 _c
418 466 381 485 334 485 _c
}_e{286 485 249 466 222 428 _c
194 390 181 339 181 273 _c
181 207 194 155 222 117 _c
249 79 286 61 334 61 _c
381 61 418 79 446 117 _c
473 155 487 207 487 273 _c
_cl}_e}_d
/r{411 0 91 0 411 560 _sc
411 463 _m
401 469 390 473 378 476 _c
366 478 353 480 339 480 _c
288 480 249 463 222 430 _c
194 397 181 350 181 288 _c
181 0 _l
91 0 _l
91 547 _l
181 547 _l
181 462 _l
199 495 224 520 254 536 _c
284 552 321 560 365 560 _c
371 560 378 559 386 559 _c
393 558 401 557 411 555 _c
411 463 _l
_cl}_d
/s{{521 0 54 -13 472 560 _sc
443 531 _m
443 446 _l
417 458 391 468 364 475 _c
336 481 308 485 279 485 _c
234 485 200 478 178 464 _c
156 450 145 430 145 403 _c
145 382 153 366 169 354 _c
185 342 217 330 265 320 _c
296 313 _l
360 299 405 279 432 255 _c
458 230 472 195 472 151 _c
472 100 452 60 412 31 _c
372 1 316 -13 246 -13 _c
216 -13 186 -10 154 -5 _c
}_e{122 0 89 8 54 20 _c
54 113 _l
87 95 120 82 152 74 _c
184 65 216 61 248 61 _c
290 61 323 68 346 82 _c
368 96 380 117 380 144 _c
380 168 371 187 355 200 _c
339 213 303 226 247 238 _c
216 245 _l
160 257 119 275 95 299 _c
70 323 58 356 58 399 _c
58 450 76 490 112 518 _c
148 546 200 560 268 560 _c
301 560 332 557 362 552 _c
391 547 418 540 443 531 _c
}_e{_cl}_e}_d
/t{392 0 27 0 368 702 _sc
183 702 _m
183 547 _l
368 547 _l
368 477 _l
183 477 _l
183 180 _l
183 135 189 106 201 94 _c
213 81 238 75 276 75 _c
368 75 _l
368 0 _l
276 0 _l
206 0 158 13 132 39 _c
106 65 93 112 93 180 _c
93 477 _l
27 477 _l
27 547 _l
93 547 _l
93 702 _l
183 702 _l
_cl}_d
/u{634 0 85 -13 543 547 _sc
85 216 _m
85 547 _l
175 547 _l
175 219 _l
175 167 185 129 205 103 _c
225 77 255 64 296 64 _c
344 64 383 79 411 110 _c
439 141 453 183 453 237 _c
453 547 _l
543 547 _l
543 0 _l
453 0 _l
453 84 _l
431 50 405 26 377 10 _c
348 -5 315 -13 277 -13 _c
214 -13 166 6 134 45 _c
101 83 85 140 85 216 _c
_cl}_d
/v{592 0 30 0 562 547 _sc
30 547 _m
125 547 _l
296 88 _l
467 547 _l
562 547 _l
357 0 _l
235 0 _l
30 547 _l
_cl}_d
/w{818 0 42 0 776 547 _sc
42 547 _m
132 547 _l
244 120 _l
356 547 _l
462 547 _l
574 120 _l
686 547 _l
776 547 _l
633 0 _l
527 0 _l
409 448 _l
291 0 _l
185 0 _l
42 547 _l
_cl}_d
end readonly def

/BuildGlyph
 {exch begin
 CharStrings exch
 2 copy known not{pop /.notdef}if
 true 3 1 roll get exec
 end}_d

/BuildChar {
 1 index /Encoding get exch get
 1 index /BuildGlyph get exec
}_d

FontName currentdict end definefont pop
end
%%EndProlog
mpldict begin
-126 72 translate
864 648 0 0 clipbox
100000 setmiterlimit
gsave
0 0 m
864 0 l
864 648 l
0 648 l
cl
1.000 setgray
fill
grestore
gsave
108 347.563636 m
777.6 347.563636 l
777.6 583.2 l
108 583.2 l
cl
0.898 setgray
fill
grestore
0.500 setlinewidth
1 setlinejoin
2 setlinecap
[] 0 setdash
1.000 setgray
gsave
669.6 235.6 108 347.6 clipbox
108 347.563636 m
108 583.2 l
stroke
grestore
0 setlinecap
0.333 setgray
gsave
/o {
gsave
newpath
translate
0.5 setlinewidth
1 setlinejoin
0 setlinecap
0 0 m
0 -4 l

gsave
0.333 setgray
fill
grestore
stroke
grestore
} bind def
108 347.564 o
grestore
gsave
/o {
gsave
newpath
translate
0.5 setlinewidth
1 setlinejoin
0 setlinecap
0 0 m
0 4 l

gsave
0.333 setgray
fill
grestore
stroke
grestore
} bind def
108 583.2 o
grestore
2 setlinecap
1.000 setgray
gsave
669.6 235.6 108 347.6 clipbox
241.92 347.563636 m
241.92 583.2 l
stroke
grestore
0 setlinecap
0.333 setgray
gsave
/o {
gsave
newpath
translate
0.5 setlinewidth
1 setlinejoin
0 setlinecap
0 0 m
0 -4 l

gsave
0.333 setgray
fill
grestore
stroke
grestore
} bind def
241.92 347.564 o
grestore
gsave
/o {
gsave
newpath
translate
0.5 setlinewidth
1 setlinejoin
0 setlinecap
0 0 m
0 4 l

gsave
0.333 setgray
fill
grestore
stroke
grestore
} bind def
241.92 583.2 o
grestore
2 setlinecap
1.000 setgray
gsave
669.6 235.6 108 347.6 clipbox
375.84 347.563636 m
375.84 583.2 l
stroke
grestore
0 setlinecap
0.333 setgray
gsave
/o {
gsave
newpath
translate
0.5 setlinewidth
1 setlinejoin
0 setlinecap
0 0 m
0 -4 l

gsave
0.333 setgray
fill
grestore
stroke
grestore
} bind def
375.84 347.564 o
grestore
gsave
/o {
gsave
newpath
translate
0.5 setlinewidth
1 setlinejoin
0 setlinecap
0 0 m
0 4 l

gsave
0.333 setgray
fill
grestore
stroke
grestore
} bind def
375.84 583.2 o
grestore
2 setlinecap
1.000 setgray
gsave
669.6 235.6 108 347.6 clipbox
509.76 347.563636 m
509.76 583.2 l
stroke
grestore
0 setlinecap
0.333 setgray
gsave
/o {
gsave
newpath
translate
0.5 setlinewidth
1 setlinejoin
0 setlinecap
0 0 m
0 -4 l

gsave
0.333 setgray
fill
grestore
stroke
grestore
} bind def
509.76 347.564 o
grestore
gsave
/o {
gsave
newpath
translate
0.5 setlinewidth
1 setlinejoin
0 setlinecap
0 0 m
0 4 l

gsave
0.333 setgray
fill
grestore
stroke
grestore
} bind def
509.76 583.2 o
grestore
2 setlinecap
1.000 setgray
gsave
669.6 235.6 108 347.6 clipbox
643.68 347.563636 m
643.68 583.2 l
stroke
grestore
0 setlinecap
0.333 setgray
gsave
/o {
gsave
newpath
translate
0.5 setlinewidth
1 setlinejoin
0 setlinecap
0 0 m
0 -4 l

gsave
0.333 setgray
fill
grestore
stroke
grestore
} bind def
643.68 347.564 o
grestore
gsave
/o {
gsave
newpath
translate
0.5 setlinewidth
1 setlinejoin
0 setlinecap
0 0 m
0 4 l

gsave
0.333 setgray
fill
grestore
stroke
grestore
} bind def
643.68 583.2 o
grestore
2 setlinecap
1.000 setgray
gsave
669.6 235.6 108 347.6 clipbox
777.6 347.563636 m
777.6 583.2 l
stroke
grestore
0 setlinecap
0.333 setgray
gsave
/o {
gsave
newpath
translate
0.5 setlinewidth
1 setlinejoin
0 setlinecap
0 0 m
0 -4 l

gsave
0.333 setgray
fill
grestore
stroke
grestore
} bind def
777.6 347.564 o
grestore
gsave
/o {
gsave
newpath
translate
0.5 setlinewidth
1 setlinejoin
0 setlinecap
0 0 m
0 4 l

gsave
0.333 setgray
fill
grestore
stroke
grestore
} bind def
777.6 583.2 o
grestore
/BitstreamVeraSans-Roman findfont
12.000 scalefont
setfont
gsave
424.425000 333.438636 translate
0.000000 rotate
0.000000 0.000000 m /E glyphshow
7.582031 0.000000 m /p glyphshow
15.199219 0.000000 m /o glyphshow
22.541016 0.000000 m /c glyphshow
29.138672 0.000000 m /h glyphshow
grestore
2 setlinecap
1.000 setgray
gsave
669.6 235.6 108 347.6 clipbox
108 347.563636 m
777.6 347.563636 l
stroke
grestore
0 setlinecap
0.333 setgray
gsave
/o {
gsave
newpath
translate
0.5 setlinewidth
1 setlinejoin
0 setlinecap
0 0 m
-4 0 l

gsave
0.333 setgray
fill
grestore
stroke
grestore
} bind def
108 347.564 o
grestore
gsave
/o {
gsave
newpath
translate
0.5 setlinewidth
1 setlinejoin
0 setlinecap
0 0 m
4 0 l

gsave
0.333 setgray
fill
grestore
stroke
grestore
} bind def
777.6 347.564 o
grestore
/BitstreamVeraSans-Roman findfont
10.000 scalefont
setfont
gsave
77.734375 344.805824 translate
0.000000 rotate
0.000000 0.000000 m /zero glyphshow
6.362305 0.000000 m /period glyphshow
9.541016 0.000000 m /four glyphshow
15.903320 0.000000 m /zero glyphshow
grestore
2 setlinecap
1.000 setgray
gsave
669.6 235.6 108 347.6 clipbox
108 406.472727 m
777.6 406.472727 l
stroke
grestore
0 setlinecap
0.333 setgray
gsave
/o {
gsave
newpath
translate
0.5 setlinewidth
1 setlinejoin
0 setlinecap
0 0 m
-4 0 l

gsave
0.333 setgray
fill
grestore
stroke
grestore
} bind def
108 406.473 o
grestore
gsave
/o {
gsave
newpath
translate
0.5 setlinewidth
1 setlinejoin
0 setlinecap
0 0 m
4 0 l

gsave
0.333 setgray
fill
grestore
stroke
grestore
} bind def
777.6 406.473 o
grestore
gsave
77.734375 403.714915 translate
0.000000 rotate
0.000000 0.000000 m /zero glyphshow
6.362305 0.000000 m /period glyphshow
9.541016 0.000000 m /four glyphshow
15.903320 0.000000 m /five glyphshow
grestore
2 setlinecap
1.000 setgray
gsave
669.6 235.6 108 347.6 clipbox
108 465.381818 m
777.6 465.381818 l
stroke
grestore
0 setlinecap
0.333 setgray
gsave
/o {
gsave
newpath
translate
0.5 setlinewidth
1 setlinejoin
0 setlinecap
0 0 m
-4 0 l

gsave
0.333 setgray
fill
grestore
stroke
grestore
} bind def
108 465.382 o
grestore
gsave
/o {
gsave
newpath
translate
0.5 setlinewidth
1 setlinejoin
0 setlinecap
0 0 m
4 0 l

gsave
0.333 setgray
fill
grestore
stroke
grestore
} bind def
777.6 465.382 o
grestore
gsave
77.734375 462.624006 translate
0.000000 rotate
0.000000 0.000000 m /zero glyphshow
6.362305 0.000000 m /period glyphshow
9.541016 0.000000 m /five glyphshow
15.903320 0.000000 m /zero glyphshow
grestore
2 setlinecap
1.000 setgray
gsave
669.6 235.6 108 347.6 clipbox
108 524.290909 m
777.6 524.290909 l
stroke
grestore
0 setlinecap
0.333 setgray
gsave
/o {
gsave
newpath
translate
0.5 setlinewidth
1 setlinejoin
0 setlinecap
0 0 m
-4 0 l

gsave
0.333 setgray
fill
grestore
stroke
grestore
} bind def
108 524.291 o
grestore
gsave
/o {
gsave
newpath
translate
0.5 setlinewidth
1 setlinejoin
0 setlinecap
0 0 m
4 0 l

gsave
0.333 setgray
fill
grestore
stroke
grestore
} bind def
777.6 524.291 o
grestore
gsave
77.734375 521.533097 translate
0.000000 rotate
0.000000 0.000000 m /zero glyphshow
6.362305 0.000000 m /period glyphshow
9.541016 0.000000 m /five glyphshow
15.903320 0.000000 m /five glyphshow
grestore
2 setlinecap
1.000 setgray
gsave
669.6 235.6 108 347.6 clipbox
108 583.2 m
777.6 583.2 l
stroke
grestore
0 setlinecap
0.333 setgray
gsave
/o {
gsave
newpath
translate
0.5 setlinewidth
1 setlinejoin
0 setlinecap
0 0 m
-4 0 l

gsave
0.333 setgray
fill
grestore
stroke
grestore
} bind def
108 583.2 o
grestore
gsave
/o {
gsave
newpath
translate
0.5 setlinewidth
1 setlinejoin
0 setlinecap
0 0 m
4 0 l

gsave
0.333 setgray
fill
grestore
stroke
grestore
} bind def
777.6 583.2 o
grestore
gsave
77.734375 580.442188 translate
0.000000 rotate
0.000000 0.000000 m /zero glyphshow
6.362305 0.000000 m /period glyphshow
9.541016 0.000000 m /six glyphshow
15.903320 0.000000 m /zero glyphshow
grestore
/BitstreamVeraSans-Roman findfont
12.000 scalefont
setfont
gsave
70.234375 452.116193 translate
90.000000 rotate
0.000000 0.000000 m /L glyphshow
6.685547 0.000000 m /o glyphshow
14.027344 0.000000 m /s glyphshow
20.279297 0.000000 m /s glyphshow
grestore
1.000 setlinewidth
2 setlinecap
0.494 0.224 0.533 setrgbcolor
gsave
669.6 235.6 108 347.6 clipbox
108 563.981545 m
121.392 555.070287 l
134.784 549.775381 l
148.176 547.678324 l
161.568 549.685572 l
174.96 550.148466 l
188.352 547.185943 l
201.744 548.236735 l
215.136 547.271552 l
228.528 546.293842 l
241.92 548.011652 l
255.312 544.22898 l
268.704 548.084226 l
282.096 546.717152 l
295.488 547.256038 l
308.88 544.562805 l
322.272 545.913103 l
335.664 545.331943 l
349.056 545.056567 l
362.448 545.040987 l
375.84 545.549363 l
389.232 545.155328 l
402.624 546.790599 l
416.016 545.823072 l
429.408 545.009611 l
442.8 544.241317 l
456.192 546.053466 l
469.584 544.275382 l
482.976 543.288658 l
496.368 542.411768 l
509.76 544.830039 l
523.152 541.620877 l
536.544 543.645984 l
549.936 543.344316 l
563.328 543.497003 l
576.72 543.977836 l
590.112 545.25939 l
603.504 544.450403 l
616.896 543.510618 l
630.288 544.158794 l
643.68 543.435427 l
657.072 545.817376 l
670.464 542.992111 l
683.856 543.091608 l
697.248 543.70799 l
710.64 543.479943 l
724.032 541.273537 l
737.424 543.903087 l
750.816 543.288708 l
764.208 544.359778 l
stroke
grestore
0 setlinecap
[6 6] 0 setdash
gsave
669.6 235.6 108 347.6 clipbox
108 511.660305 m
121.392 489.167203 l
134.784 503.979785 l
148.176 502.884133 l
161.568 500.022811 l
174.96 498.734812 l
188.352 494.154309 l
201.744 482.494554 l
215.136 472.726733 l
228.528 484.914722 l
241.92 497.196812 l
255.312 485.159596 l
268.704 503.951414 l
282.096 463.083737 l
295.488 489.329423 l
308.88 497.019985 l
322.272 486.491977 l
335.664 500.463614 l
349.056 479.378033 l
362.448 482.24083 l
375.84 482.699049 l
389.232 504.253101 l
402.624 520.073976 l
416.016 489.855128 l
429.408 477.475495 l
442.8 496.250739 l
456.192 489.168186 l
469.584 489.944595 l
482.976 480.491242 l
496.368 483.013026 l
509.76 490.902044 l
523.152 483.867454 l
536.544 491.990042 l
549.936 483.516891 l
563.328 482.143498 l
576.72 483.874688 l
590.112 483.849336 l
603.504 484.185364 l
616.896 482.707968 l
630.288 483.187746 l
643.68 484.067736 l
657.072 482.705861 l
670.464 483.56029 l
683.856 484.618652 l
697.248 483.933326 l
710.64 483.929885 l
724.032 483.919 l
737.424 484.004253 l
750.816 484.061206 l
764.208 484.173776 l
stroke
grestore
2 setlinecap
[] 0 setdash
0.627 0.812 0.192 setrgbcolor
gsave
669.6 235.6 108 347.6 clipbox
108 546.433156 m
121.392 526.470114 l
134.784 520.328255 l
148.176 519.333671 l
161.568 520.587024 l
174.96 520.509362 l
188.352 515.854425 l
201.744 515.107378 l
215.136 512.351652 l
228.528 515.460707 l
241.92 512.103594 l
255.312 513.558691 l
268.704 513.320126 l
282.096 513.251292 l
295.488 514.178085 l
308.88 513.694055 l
322.272 510.170751 l
335.664 517.504169 l
349.056 509.383562 l
362.448 512.427052 l
375.84 511.575635 l
389.232 509.631261 l
402.624 511.803057 l
416.016 511.086288 l
429.408 509.841768 l
442.8 510.924421 l
456.192 513.961072 l
469.584 510.843838 l
482.976 510.836772 l
496.368 509.915775 l
509.76 509.178406 l
523.152 511.267568 l
536.544 510.959541 l
549.936 512.207124 l
563.328 510.453949 l
576.72 511.498346 l
590.112 508.018107 l
603.504 508.649629 l
616.896 509.530804 l
630.288 505.484487 l
643.68 505.467373 l
657.072 507.410978 l
670.464 508.387752 l
683.856 506.467556 l
697.248 509.129729 l
710.64 508.801536 l
724.032 506.95884 l
737.424 507.098328 l
750.816 507.685095 l
764.208 504.749099 l
stroke
grestore
0 setlinecap
[6 6] 0 setdash
gsave
669.6 235.6 108 347.6 clipbox
108 456.772852 m
121.392 462.274462 l
134.784 437.60389 l
148.176 451.724158 l
161.568 439.356568 l
174.96 454.745629 l
188.352 449.93254 l
201.744 425.805475 l
215.136 430.888649 l
228.528 422.442324 l
241.92 426.589925 l
255.312 452.092032 l
268.704 438.974122 l
282.096 446.485295 l
295.488 435.326946 l
308.88 447.263881 l
322.272 450.097077 l
335.664 452.704641 l
349.056 436.101073 l
362.448 420.012465 l
375.84 433.721776 l
389.232 435.923579 l
402.624 453.751873 l
416.016 421.322164 l
429.408 437.858632 l
442.8 424.408382 l
456.192 434.575327 l
469.584 401.985434 l
482.976 442.63745 l
496.368 425.167023 l
509.76 424.98974 l
523.152 441.620591 l
536.544 442.798371 l
549.936 432.342941 l
563.328 447.001028 l
576.72 460.780704 l
590.112 436.198264 l
603.504 422.291867 l
616.896 429.378704 l
630.288 433.349934 l
643.68 436.334887 l
657.072 430.006727 l
670.464 423.528356 l
683.856 431.596343 l
697.248 435.187234 l
710.64 438.005367 l
724.032 423.820106 l
737.424 434.438669 l
750.816 428.413214 l
764.208 430.105078 l
stroke
grestore
2 setlinecap
[] 0 setdash
0.863 0.278 0.208 setrgbcolor
gsave
669.6 235.6 108 347.6 clipbox
108 542.85633 m
121.392 531.48768 l
134.784 525.67285 l
148.176 521.921981 l
161.568 522.417255 l
174.96 525.543782 l
188.352 524.305175 l
201.744 519.528784 l
215.136 523.467553 l
228.528 524.878739 l
241.92 520.801897 l
255.312 525.647298 l
268.704 521.99011 l
282.096 521.757267 l
295.488 520.939515 l
308.88 521.354761 l
322.272 522.104566 l
335.664 523.234595 l
349.056 523.626456 l
362.448 520.902311 l
375.84 523.048988 l
389.232 523.649251 l
402.624 521.101102 l
416.016 522.154175 l
429.408 522.35198 l
442.8 517.460459 l
456.192 521.558665 l
469.584 522.342789 l
482.976 521.512368 l
496.368 522.919708 l
509.76 520.52815 l
523.152 520.119973 l
536.544 521.991496 l
549.936 521.864394 l
563.328 520.091312 l
576.72 518.415156 l
590.112 521.452656 l
603.504 519.644256 l
616.896 519.581119 l
630.288 519.149388 l
643.68 521.59057 l
657.072 523.684382 l
670.464 521.173659 l
683.856 518.024345 l
697.248 518.644567 l
710.64 518.278456 l
724.032 520.788799 l
737.424 518.620482 l
750.816 518.959598 l
764.208 521.346104 l
stroke
grestore
0 setlinecap
[6 6] 0 setdash
gsave
669.6 235.6 108 347.6 clipbox
108 444.681352 m
121.392 463.832442 l
134.784 484.268861 l
148.176 463.136476 l
161.568 466.571502 l
174.96 462.121898 l
188.352 463.606211 l
201.744 453.956263 l
215.136 442.397 l
228.528 463.971874 l
241.92 468.611541 l
255.312 453.620271 l
268.704 464.27658 l
282.096 474.059746 l
295.488 462.974221 l
308.88 459.782384 l
322.272 456.335349 l
335.664 455.838296 l
349.056 434.862513 l
362.448 469.829877 l
375.84 465.683997 l
389.232 473.389798 l
402.624 458.152916 l
416.016 453.081469 l
429.408 450.321798 l
442.8 456.973871 l
456.192 463.516499 l
469.584 456.801363 l
482.976 465.322548 l
496.368 452.438839 l
509.76 463.080682 l
523.152 459.315141 l
536.544 459.9636 l
549.936 467.173331 l
563.328 457.036231 l
576.72 458.162396 l
590.112 460.309985 l
603.504 458.65952 l
616.896 457.477385 l
630.288 457.802808 l
643.68 457.527386 l
657.072 458.064397 l
670.464 458.463486 l
683.856 458.96068 l
697.248 458.361379 l
710.64 457.047327 l
724.032 457.812148 l
737.424 456.878154 l
750.816 458.502356 l
764.208 458.535432 l
stroke
grestore
2 setlinecap
[] 0 setdash
0.298 0.698 0.831 setrgbcolor
gsave
669.6 235.6 108 347.6 clipbox
108 538.412916 m
121.392 524.804009 l
134.784 523.91964 l
148.176 520.864085 l
161.568 515.726701 l
174.96 515.999889 l
188.352 516.742989 l
201.744 515.775404 l
215.136 516.583979 l
228.528 516.602638 l
241.92 516.176727 l
255.312 513.804845 l
268.704 515.564018 l
282.096 515.268872 l
295.488 520.667088 l
308.88 514.936005 l
322.272 516.243743 l
335.664 516.853611 l
349.056 516.945675 l
362.448 518.105192 l
375.84 509.547179 l
389.232 513.507677 l
402.624 512.163116 l
416.016 511.814069 l
429.408 511.331294 l
442.8 511.022775 l
456.192 512.995188 l
469.584 511.143066 l
482.976 514.878744 l
496.368 511.028145 l
509.76 514.328879 l
523.152 509.852834 l
536.544 510.236716 l
549.936 510.529315 l
563.328 510.999159 l
576.72 509.850159 l
590.112 511.748848 l
603.504 510.69336 l
616.896 512.737585 l
630.288 511.800082 l
643.68 510.392644 l
657.072 511.086077 l
670.464 508.585332 l
683.856 510.968416 l
697.248 510.887849 l
710.64 511.641974 l
724.032 509.186913 l
737.424 512.169299 l
750.816 508.168912 l
764.208 510.406884 l
stroke
grestore
0 setlinecap
[6 6] 0 setdash
gsave
669.6 235.6 108 347.6 clipbox
108 458.964858 m
121.392 484.049759 l
134.784 440.792602 l
148.176 445.472122 l
161.568 470.202491 l
174.96 440.939442 l
188.352 457.723033 l
201.744 439.516857 l
215.136 455.837489 l
228.528 444.746626 l
241.92 472.66978 l
255.312 437.453784 l
268.704 480.556902 l
282.096 468.562735 l
295.488 451.556741 l
308.88 442.008093 l
322.272 442.240573 l
335.664 465.944883 l
349.056 465.083888 l
362.448 459.109066 l
375.84 453.03175 l
389.232 452.59365 l
402.624 447.295973 l
416.016 451.359479 l
429.408 449.539525 l
442.8 451.342871 l
456.192 446.716792 l
469.584 443.419512 l
482.976 444.44831 l
496.368 450.756035 l
509.76 452.190172 l
523.152 442.784326 l
536.544 447.702331 l
549.936 448.812555 l
563.328 447.154224 l
576.72 446.592213 l
590.112 447.260545 l
603.504 446.855065 l
616.896 448.817997 l
630.288 449.998622 l
643.68 448.554091 l
657.072 447.834249 l
670.464 447.198922 l
683.856 447.185755 l
697.248 447.23407 l
710.64 447.506438 l
724.032 447.582141 l
737.424 447.511916 l
750.816 447.611951 l
764.208 447.568798 l
stroke
grestore
2 setlinecap
[] 0 setdash
0.286 0.224 0.592 setrgbcolor
gsave
669.6 235.6 108 347.6 clipbox
108 526.515335 m
121.392 501.746041 l
134.784 494.315284 l
148.176 491.032478 l
161.568 487.166705 l
174.96 486.365838 l
188.352 484.161974 l
201.744 482.27316 l
215.136 483.50834 l
228.528 479.483734 l
241.92 487.602421 l
255.312 485.204172 l
268.704 484.488069 l
282.096 480.314652 l
295.488 481.93927 l
308.88 483.330087 l
322.272 482.117418 l
335.664 480.220217 l
349.056 482.244749 l
362.448 481.025697 l
375.84 479.371569 l
389.232 479.353733 l
402.624 481.532988 l
416.016 477.140951 l
429.408 473.573232 l
442.8 480.40015 l
456.192 478.357132 l
469.584 481.027161 l
482.976 480.988524 l
496.368 479.93187 l
509.76 477.2175 l
523.152 478.582216 l
536.544 478.749583 l
549.936 478.528644 l
563.328 478.241879 l
576.72 479.119724 l
590.112 475.754494 l
603.504 476.329917 l
616.896 474.851858 l
630.288 472.526711 l
643.68 473.431761 l
657.072 473.822884 l
670.464 475.035103 l
683.856 476.924039 l
697.248 474.36981 l
710.64 474.554003 l
724.032 476.686497 l
737.424 476.474012 l
750.816 475.714386 l
764.208 473.129313 l
stroke
grestore
0 setlinecap
[6 6] 0 setdash
gsave
669.6 235.6 108 347.6 clipbox
108 426.080793 m
121.392 411.735278 l
134.784 416.869857 l
148.176 415.735862 l
161.568 395.220544 l
174.96 398.429305 l
188.352 397.590115 l
201.744 420.000211 l
215.136 391.340853 l
228.528 385.476459 l
241.92 397.549103 l
255.312 383.99011 l
268.704 395.999411 l
282.096 403.286284 l
295.488 404.422105 l
308.88 373.715333 l
322.272 392.738859 l
335.664 395.140136 l
349.056 391.682147 l
362.448 395.573109 l
375.84 414.421212 l
389.232 399.503714 l
402.624 360.61649 l
416.016 349.675102 l
429.408 405.91646 l
442.8 401.357903 l
456.192 387.776577 l
469.584 415.576731 l
482.976 413.332969 l
496.368 382.517278 l
509.76 393.365653 l
523.152 406.344096 l
536.544 387.156209 l
549.936 391.744577 l
563.328 398.730535 l
576.72 396.050464 l
590.112 391.061567 l
603.504 382.180163 l
616.896 389.984314 l
630.288 389.878344 l
643.68 387.240865 l
657.072 390.386142 l
670.464 390.468587 l
683.856 401.690559 l
697.248 386.508522 l
710.64 388.439256 l
724.032 389.396741 l
737.424 389.599797 l
750.816 389.41672 l
764.208 389.281607 l
stroke
grestore
0 setlinejoin
2 setlinecap
[] 0 setdash
1.000 setgray
gsave
108 347.563636 m
108 583.2 l
stroke
grestore
gsave
108 583.2 m
777.6 583.2 l
stroke
grestore
gsave
777.6 347.563636 m
777.6 583.2 l
stroke
grestore
gsave
108 347.563636 m
777.6 347.563636 l
stroke
grestore
0.500 setlinewidth
0 setlinecap
gsave
604.49375 397.35 m
771.6 397.35 l
771.6 577.2 l
604.49375 577.2 l
cl
gsave
0.898 setgray
fill
grestore
stroke
grestore
1.000 setlinewidth
1 setlinejoin
2 setlinecap
0.494 0.224 0.533 setrgbcolor
gsave
612.89375 567.475 m
629.69375 567.475 l
stroke
grestore
0.000 setgray
gsave
642.893750 563.275000 translate
0.000000 rotate
0.000000 0.000000 m /l glyphshow
3.333984 0.000000 m /i glyphshow
6.667969 0.000000 m /s glyphshow
12.919922 0.000000 m /t glyphshow
17.625000 0.000000 m /space glyphshow
21.439453 0.000000 m /one glyphshow
29.074219 0.000000 m /space glyphshow
32.888672 0.000000 m /parenleft glyphshow
37.570312 0.000000 m /t glyphshow
42.275391 0.000000 m /o glyphshow
49.617188 0.000000 m /p glyphshow
57.234375 0.000000 m /space glyphshow
61.048828 0.000000 m /three glyphshow
68.683594 0.000000 m /parenright glyphshow
73.365234 0.000000 m /space glyphshow
77.179688 0.000000 m /t glyphshow
81.884766 0.000000 m /r glyphshow
86.818359 0.000000 m /a glyphshow
94.171875 0.000000 m /i glyphshow
97.505859 0.000000 m /n glyphshow
grestore
0 setlinecap
[6 6] 0 setdash
0.494 0.224 0.533 setrgbcolor
gsave
612.89375 549.85 m
629.69375 549.85 l
stroke
grestore
0.000 setgray
gsave
642.893750 545.650000 translate
0.000000 rotate
0.000000 0.000000 m /l glyphshow
3.333984 0.000000 m /i glyphshow
6.667969 0.000000 m /s glyphshow
12.919922 0.000000 m /t glyphshow
17.625000 0.000000 m /space glyphshow
21.439453 0.000000 m /one glyphshow
29.074219 0.000000 m /space glyphshow
32.888672 0.000000 m /parenleft glyphshow
37.570312 0.000000 m /t glyphshow
42.275391 0.000000 m /o glyphshow
49.617188 0.000000 m /p glyphshow
57.234375 0.000000 m /space glyphshow
61.048828 0.000000 m /three glyphshow
68.683594 0.000000 m /parenright glyphshow
73.365234 0.000000 m /space glyphshow
77.179688 0.000000 m /t glyphshow
81.884766 0.000000 m /e glyphshow
89.267578 0.000000 m /s glyphshow
95.519531 0.000000 m /t glyphshow
grestore
2 setlinecap
[] 0 setdash
0.627 0.812 0.192 setrgbcolor
gsave
612.89375 532.225 m
629.69375 532.225 l
stroke
grestore
0.000 setgray
gsave
642.893750 528.025000 translate
0.000000 rotate
0.000000 0.000000 m /l glyphshow
3.333984 0.000000 m /i glyphshow
6.667969 0.000000 m /s glyphshow
12.919922 0.000000 m /t glyphshow
17.625000 0.000000 m /space glyphshow
21.439453 0.000000 m /one glyphshow
29.074219 0.000000 m /space glyphshow
32.888672 0.000000 m /parenleft glyphshow
37.570312 0.000000 m /a glyphshow
44.923828 0.000000 m /l glyphshow
48.257812 0.000000 m /l glyphshow
51.591797 0.000000 m /space glyphshow
55.406250 0.000000 m /six glyphshow
63.041016 0.000000 m /parenright glyphshow
67.722656 0.000000 m /space glyphshow
71.537109 0.000000 m /t glyphshow
76.242188 0.000000 m /r glyphshow
81.175781 0.000000 m /a glyphshow
88.529297 0.000000 m /i glyphshow
91.863281 0.000000 m /n glyphshow
grestore
0 setlinecap
[6 6] 0 setdash
0.627 0.812 0.192 setrgbcolor
gsave
612.89375 514.6 m
629.69375 514.6 l
stroke
grestore
0.000 setgray
gsave
642.893750 510.400000 translate
0.000000 rotate
0.000000 0.000000 m /l glyphshow
3.333984 0.000000 m /i glyphshow
6.667969 0.000000 m /s glyphshow
12.919922 0.000000 m /t glyphshow
17.625000 0.000000 m /space glyphshow
21.439453 0.000000 m /one glyphshow
29.074219 0.000000 m /space glyphshow
32.888672 0.000000 m /parenleft glyphshow
37.570312 0.000000 m /a glyphshow
44.923828 0.000000 m /l glyphshow
48.257812 0.000000 m /l glyphshow
51.591797 0.000000 m /space glyphshow
55.406250 0.000000 m /six glyphshow
63.041016 0.000000 m /parenright glyphshow
67.722656 0.000000 m /space glyphshow
71.537109 0.000000 m /t glyphshow
76.242188 0.000000 m /e glyphshow
83.625000 0.000000 m /s glyphshow
89.876953 0.000000 m /t glyphshow
grestore
2 setlinecap
[] 0 setdash
0.863 0.278 0.208 setrgbcolor
gsave
612.89375 496.975 m
629.69375 496.975 l
stroke
grestore
0.000 setgray
gsave
642.893750 492.775000 translate
0.000000 rotate
0.000000 0.000000 m /l glyphshow
3.333984 0.000000 m /i glyphshow
6.667969 0.000000 m /s glyphshow
12.919922 0.000000 m /t glyphshow
17.625000 0.000000 m /space glyphshow
21.439453 0.000000 m /two glyphshow
29.074219 0.000000 m /space glyphshow
32.888672 0.000000 m /parenleft glyphshow
37.570312 0.000000 m /t glyphshow
42.275391 0.000000 m /o glyphshow
49.617188 0.000000 m /p glyphshow
57.234375 0.000000 m /space glyphshow
61.048828 0.000000 m /three glyphshow
68.683594 0.000000 m /parenright glyphshow
73.365234 0.000000 m /space glyphshow
77.179688 0.000000 m /t glyphshow
81.884766 0.000000 m /r glyphshow
86.818359 0.000000 m /a glyphshow
94.171875 0.000000 m /i glyphshow
97.505859 0.000000 m /n glyphshow
grestore
0 setlinecap
[6 6] 0 setdash
0.863 0.278 0.208 setrgbcolor
gsave
612.89375 479.35 m
629.69375 479.35 l
stroke
grestore
0.000 setgray
gsave
642.893750 475.150000 translate
0.000000 rotate
0.000000 0.000000 m /l glyphshow
3.333984 0.000000 m /i glyphshow
6.667969 0.000000 m /s glyphshow
12.919922 0.000000 m /t glyphshow
17.625000 0.000000 m /space glyphshow
21.439453 0.000000 m /two glyphshow
29.074219 0.000000 m /space glyphshow
32.888672 0.000000 m /parenleft glyphshow
37.570312 0.000000 m /t glyphshow
42.275391 0.000000 m /o glyphshow
49.617188 0.000000 m /p glyphshow
57.234375 0.000000 m /space glyphshow
61.048828 0.000000 m /three glyphshow
68.683594 0.000000 m /parenright glyphshow
73.365234 0.000000 m /space glyphshow
77.179688 0.000000 m /t glyphshow
81.884766 0.000000 m /e glyphshow
89.267578 0.000000 m /s glyphshow
95.519531 0.000000 m /t glyphshow
grestore
2 setlinecap
[] 0 setdash
0.298 0.698 0.831 setrgbcolor
gsave
612.89375 461.725 m
629.69375 461.725 l
stroke
grestore
0.000 setgray
gsave
642.893750 457.525000 translate
0.000000 rotate
0.000000 0.000000 m /l glyphshow
3.333984 0.000000 m /i glyphshow
6.667969 0.000000 m /s glyphshow
12.919922 0.000000 m /t glyphshow
17.625000 0.000000 m /space glyphshow
21.439453 0.000000 m /two glyphshow
29.074219 0.000000 m /space glyphshow
32.888672 0.000000 m /parenleft glyphshow
37.570312 0.000000 m /a glyphshow
44.923828 0.000000 m /l glyphshow
48.257812 0.000000 m /l glyphshow
51.591797 0.000000 m /space glyphshow
55.406250 0.000000 m /six glyphshow
63.041016 0.000000 m /parenright glyphshow
67.722656 0.000000 m /space glyphshow
71.537109 0.000000 m /t glyphshow
76.242188 0.000000 m /r glyphshow
81.175781 0.000000 m /a glyphshow
88.529297 0.000000 m /i glyphshow
91.863281 0.000000 m /n glyphshow
grestore
0 setlinecap
[6 6] 0 setdash
0.298 0.698 0.831 setrgbcolor
gsave
612.89375 444.1 m
629.69375 444.1 l
stroke
grestore
0.000 setgray
gsave
642.893750 439.900000 translate
0.000000 rotate
0.000000 0.000000 m /l glyphshow
3.333984 0.000000 m /i glyphshow
6.667969 0.000000 m /s glyphshow
12.919922 0.000000 m /t glyphshow
17.625000 0.000000 m /space glyphshow
21.439453 0.000000 m /two glyphshow
29.074219 0.000000 m /space glyphshow
32.888672 0.000000 m /parenleft glyphshow
37.570312 0.000000 m /a glyphshow
44.923828 0.000000 m /l glyphshow
48.257812 0.000000 m /l glyphshow
51.591797 0.000000 m /space glyphshow
55.406250 0.000000 m /six glyphshow
63.041016 0.000000 m /parenright glyphshow
67.722656 0.000000 m /space glyphshow
71.537109 0.000000 m /t glyphshow
76.242188 0.000000 m /e glyphshow
83.625000 0.000000 m /s glyphshow
89.876953 0.000000 m /t glyphshow
grestore
2 setlinecap
[] 0 setdash
0.286 0.224 0.592 setrgbcolor
gsave
612.89375 426.475 m
629.69375 426.475 l
stroke
grestore
0.000 setgray
gsave
642.893750 422.275000 translate
0.000000 rotate
0.000000 0.000000 m /a glyphshow
7.353516 0.000000 m /l glyphshow
10.687500 0.000000 m /l glyphshow
14.021484 0.000000 m /space glyphshow
17.835938 0.000000 m /S glyphshow
25.453125 0.000000 m /V glyphshow
33.662109 0.000000 m /space glyphshow
37.476562 0.000000 m /v glyphshow
44.578125 0.000000 m /a glyphshow
51.931641 0.000000 m /r glyphshow
56.865234 0.000000 m /i glyphshow
60.199219 0.000000 m /a glyphshow
67.552734 0.000000 m /b glyphshow
75.169922 0.000000 m /l glyphshow
78.503906 0.000000 m /e glyphshow
85.886719 0.000000 m /s glyphshow
92.138672 0.000000 m /space glyphshow
95.953125 0.000000 m /t glyphshow
100.658203 0.000000 m /r glyphshow
105.591797 0.000000 m /a glyphshow
112.945312 0.000000 m /i glyphshow
116.279297 0.000000 m /n glyphshow
grestore
0 setlinecap
[6 6] 0 setdash
0.286 0.224 0.592 setrgbcolor
gsave
612.89375 408.85 m
629.69375 408.85 l
stroke
grestore
0.000 setgray
gsave
642.893750 404.650000 translate
0.000000 rotate
0.000000 0.000000 m /a glyphshow
7.353516 0.000000 m /l glyphshow
10.687500 0.000000 m /l glyphshow
14.021484 0.000000 m /space glyphshow
17.835938 0.000000 m /S glyphshow
25.453125 0.000000 m /V glyphshow
33.662109 0.000000 m /space glyphshow
37.476562 0.000000 m /v glyphshow
44.578125 0.000000 m /a glyphshow
51.931641 0.000000 m /r glyphshow
56.865234 0.000000 m /i glyphshow
60.199219 0.000000 m /a glyphshow
67.552734 0.000000 m /b glyphshow
75.169922 0.000000 m /l glyphshow
78.503906 0.000000 m /e glyphshow
85.886719 0.000000 m /s glyphshow
92.138672 0.000000 m /space glyphshow
95.953125 0.000000 m /t glyphshow
100.658203 0.000000 m /e glyphshow
108.041016 0.000000 m /s glyphshow
114.292969 0.000000 m /t glyphshow
grestore
gsave
108 64.8 m
777.6 64.8 l
777.6 300.436364 l
108 300.436364 l
cl
0.898 setgray
fill
grestore
0.500 setlinewidth
2 setlinecap
[] 0 setdash
1.000 setgray
gsave
669.6 235.6 108 64.8 clipbox
108 64.8 m
108 300.436364 l
stroke
grestore
0 setlinecap
0.333 setgray
gsave
/o {
gsave
newpath
translate
0.5 setlinewidth
1 setlinejoin
0 setlinecap
0 0 m
0 -4 l

gsave
0.333 setgray
fill
grestore
stroke
grestore
} bind def
108 64.8 o
grestore
gsave
/o {
gsave
newpath
translate
0.5 setlinewidth
1 setlinejoin
0 setlinecap
0 0 m
0 4 l

gsave
0.333 setgray
fill
grestore
stroke
grestore
} bind def
108 300.436 o
grestore
/BitstreamVeraSans-Roman findfont
10.000 scalefont
setfont
gsave
104.820312 49.206250 translate
0.000000 rotate
0.000000 0.000000 m /zero glyphshow
grestore
2 setlinecap
1.000 setgray
gsave
669.6 235.6 108 64.8 clipbox
241.92 64.8 m
241.92 300.436364 l
stroke
grestore
0 setlinecap
0.333 setgray
gsave
/o {
gsave
newpath
translate
0.5 setlinewidth
1 setlinejoin
0 setlinecap
0 0 m
0 -4 l

gsave
0.333 setgray
fill
grestore
stroke
grestore
} bind def
241.92 64.8 o
grestore
gsave
/o {
gsave
newpath
translate
0.5 setlinewidth
1 setlinejoin
0 setlinecap
0 0 m
0 4 l

gsave
0.333 setgray
fill
grestore
stroke
grestore
} bind def
241.92 300.436 o
grestore
gsave
235.560625 49.206250 translate
0.000000 rotate
0.000000 0.000000 m /one glyphshow
6.362305 0.000000 m /zero glyphshow
grestore
2 setlinecap
1.000 setgray
gsave
669.6 235.6 108 64.8 clipbox
375.84 64.8 m
375.84 300.436364 l
stroke
grestore
0 setlinecap
0.333 setgray
gsave
/o {
gsave
newpath
translate
0.5 setlinewidth
1 setlinejoin
0 setlinecap
0 0 m
0 -4 l

gsave
0.333 setgray
fill
grestore
stroke
grestore
} bind def
375.84 64.8 o
grestore
gsave
/o {
gsave
newpath
translate
0.5 setlinewidth
1 setlinejoin
0 setlinecap
0 0 m
0 4 l

gsave
0.333 setgray
fill
grestore
stroke
grestore
} bind def
375.84 300.436 o
grestore
gsave
369.480625 49.206250 translate
0.000000 rotate
0.000000 0.000000 m /two glyphshow
6.362305 0.000000 m /zero glyphshow
grestore
2 setlinecap
1.000 setgray
gsave
669.6 235.6 108 64.8 clipbox
509.76 64.8 m
509.76 300.436364 l
stroke
grestore
0 setlinecap
0.333 setgray
gsave
/o {
gsave
newpath
translate
0.5 setlinewidth
1 setlinejoin
0 setlinecap
0 0 m
0 -4 l

gsave
0.333 setgray
fill
grestore
stroke
grestore
} bind def
509.76 64.8 o
grestore
gsave
/o {
gsave
newpath
translate
0.5 setlinewidth
1 setlinejoin
0 setlinecap
0 0 m
0 4 l

gsave
0.333 setgray
fill
grestore
stroke
grestore
} bind def
509.76 300.436 o
grestore
gsave
503.400625 49.206250 translate
0.000000 rotate
0.000000 0.000000 m /three glyphshow
6.362305 0.000000 m /zero glyphshow
grestore
2 setlinecap
1.000 setgray
gsave
669.6 235.6 108 64.8 clipbox
643.68 64.8 m
643.68 300.436364 l
stroke
grestore
0 setlinecap
0.333 setgray
gsave
/o {
gsave
newpath
translate
0.5 setlinewidth
1 setlinejoin
0 setlinecap
0 0 m
0 -4 l

gsave
0.333 setgray
fill
grestore
stroke
grestore
} bind def
643.68 64.8 o
grestore
gsave
/o {
gsave
newpath
translate
0.5 setlinewidth
1 setlinejoin
0 setlinecap
0 0 m
0 4 l

gsave
0.333 setgray
fill
grestore
stroke
grestore
} bind def
643.68 300.436 o
grestore
gsave
637.320625 49.206250 translate
0.000000 rotate
0.000000 0.000000 m /four glyphshow
6.362305 0.000000 m /zero glyphshow
grestore
2 setlinecap
1.000 setgray
gsave
669.6 235.6 108 64.8 clipbox
777.6 64.8 m
777.6 300.436364 l
stroke
grestore
0 setlinecap
0.333 setgray
gsave
/o {
gsave
newpath
translate
0.5 setlinewidth
1 setlinejoin
0 setlinecap
0 0 m
0 -4 l

gsave
0.333 setgray
fill
grestore
stroke
grestore
} bind def
777.6 64.8 o
grestore
gsave
/o {
gsave
newpath
translate
0.5 setlinewidth
1 setlinejoin
0 setlinecap
0 0 m
0 4 l

gsave
0.333 setgray
fill
grestore
stroke
grestore
} bind def
777.6 300.436 o
grestore
gsave
771.240625 49.206250 translate
0.000000 rotate
0.000000 0.000000 m /five glyphshow
6.362305 0.000000 m /zero glyphshow
grestore
0.024 0.024 0.027 setrgbcolor
/BitstreamVeraSans-Roman findfont
12.000 scalefont
setfont
gsave
424.425000 33.003125 translate
0.000000 rotate
0.000000 0.000000 m /E glyphshow
7.582031 0.000000 m /p glyphshow
15.199219 0.000000 m /o glyphshow
22.541016 0.000000 m /c glyphshow
29.138672 0.000000 m /h glyphshow
grestore
2 setlinecap
1.000 setgray
gsave
669.6 235.6 108 64.8 clipbox
108 64.8 m
777.6 64.8 l
stroke
grestore
0 setlinecap
0.333 setgray
gsave
/o {
gsave
newpath
translate
0.5 setlinewidth
1 setlinejoin
0 setlinecap
0 0 m
-4 0 l

gsave
0.333 setgray
fill
grestore
stroke
grestore
} bind def
108 64.8 o
grestore
gsave
/o {
gsave
newpath
translate
0.5 setlinewidth
1 setlinejoin
0 setlinecap
0 0 m
4 0 l

gsave
0.333 setgray
fill
grestore
stroke
grestore
} bind def
777.6 64.8 o
grestore
/BitstreamVeraSans-Roman findfont
10.000 scalefont
setfont
gsave
87.281250 62.042187 translate
0.000000 rotate
0.000000 0.000000 m /one glyphshow
6.362305 0.000000 m /five glyphshow
grestore
2 setlinecap
1.000 setgray
gsave
669.6 235.6 108 64.8 clipbox
108 98.462338 m
777.6 98.462338 l
stroke
grestore
0 setlinecap
0.333 setgray
gsave
/o {
gsave
newpath
translate
0.5 setlinewidth
1 setlinejoin
0 setlinecap
0 0 m
-4 0 l

gsave
0.333 setgray
fill
grestore
stroke
grestore
} bind def
108 98.4623 o
grestore
gsave
/o {
gsave
newpath
translate
0.5 setlinewidth
1 setlinejoin
0 setlinecap
0 0 m
4 0 l

gsave
0.333 setgray
fill
grestore
stroke
grestore
} bind def
777.6 98.4623 o
grestore
gsave
87.281250 95.704525 translate
0.000000 rotate
0.000000 0.000000 m /two glyphshow
6.362305 0.000000 m /zero glyphshow
grestore
2 setlinecap
1.000 setgray
gsave
669.6 235.6 108 64.8 clipbox
108 132.124675 m
777.6 132.124675 l
stroke
grestore
0 setlinecap
0.333 setgray
gsave
/o {
gsave
newpath
translate
0.5 setlinewidth
1 setlinejoin
0 setlinecap
0 0 m
-4 0 l

gsave
0.333 setgray
fill
grestore
stroke
grestore
} bind def
108 132.125 o
grestore
gsave
/o {
gsave
newpath
translate
0.5 setlinewidth
1 setlinejoin
0 setlinecap
0 0 m
4 0 l

gsave
0.333 setgray
fill
grestore
stroke
grestore
} bind def
777.6 132.125 o
grestore
gsave
87.281250 129.366863 translate
0.000000 rotate
0.000000 0.000000 m /two glyphshow
6.362305 0.000000 m /five glyphshow
grestore
2 setlinecap
1.000 setgray
gsave
669.6 235.6 108 64.8 clipbox
108 165.787013 m
777.6 165.787013 l
stroke
grestore
0 setlinecap
0.333 setgray
gsave
/o {
gsave
newpath
translate
0.5 setlinewidth
1 setlinejoin
0 setlinecap
0 0 m
-4 0 l

gsave
0.333 setgray
fill
grestore
stroke
grestore
} bind def
108 165.787 o
grestore
gsave
/o {
gsave
newpath
translate
0.5 setlinewidth
1 setlinejoin
0 setlinecap
0 0 m
4 0 l

gsave
0.333 setgray
fill
grestore
stroke
grestore
} bind def
777.6 165.787 o
grestore
gsave
87.281250 163.029200 translate
0.000000 rotate
0.000000 0.000000 m /three glyphshow
6.362305 0.000000 m /zero glyphshow
grestore
2 setlinecap
1.000 setgray
gsave
669.6 235.6 108 64.8 clipbox
108 199.449351 m
777.6 199.449351 l
stroke
grestore
0 setlinecap
0.333 setgray
gsave
/o {
gsave
newpath
translate
0.5 setlinewidth
1 setlinejoin
0 setlinecap
0 0 m
-4 0 l

gsave
0.333 setgray
fill
grestore
stroke
grestore
} bind def
108 199.449 o
grestore
gsave
/o {
gsave
newpath
translate
0.5 setlinewidth
1 setlinejoin
0 setlinecap
0 0 m
4 0 l

gsave
0.333 setgray
fill
grestore
stroke
grestore
} bind def
777.6 199.449 o
grestore
gsave
87.281250 196.691538 translate
0.000000 rotate
0.000000 0.000000 m /three glyphshow
6.362305 0.000000 m /five glyphshow
grestore
2 setlinecap
1.000 setgray
gsave
669.6 235.6 108 64.8 clipbox
108 233.111688 m
777.6 233.111688 l
stroke
grestore
0 setlinecap
0.333 setgray
gsave
/o {
gsave
newpath
translate
0.5 setlinewidth
1 setlinejoin
0 setlinecap
0 0 m
-4 0 l

gsave
0.333 setgray
fill
grestore
stroke
grestore
} bind def
108 233.112 o
grestore
gsave
/o {
gsave
newpath
translate
0.5 setlinewidth
1 setlinejoin
0 setlinecap
0 0 m
4 0 l

gsave
0.333 setgray
fill
grestore
stroke
grestore
} bind def
777.6 233.112 o
grestore
gsave
87.281250 230.353876 translate
0.000000 rotate
0.000000 0.000000 m /four glyphshow
6.362305 0.000000 m /zero glyphshow
grestore
2 setlinecap
1.000 setgray
gsave
669.6 235.6 108 64.8 clipbox
108 266.774026 m
777.6 266.774026 l
stroke
grestore
0 setlinecap
0.333 setgray
gsave
/o {
gsave
newpath
translate
0.5 setlinewidth
1 setlinejoin
0 setlinecap
0 0 m
-4 0 l

gsave
0.333 setgray
fill
grestore
stroke
grestore
} bind def
108 266.774 o
grestore
gsave
/o {
gsave
newpath
translate
0.5 setlinewidth
1 setlinejoin
0 setlinecap
0 0 m
4 0 l

gsave
0.333 setgray
fill
grestore
stroke
grestore
} bind def
777.6 266.774 o
grestore
gsave
87.281250 264.016213 translate
0.000000 rotate
0.000000 0.000000 m /four glyphshow
6.362305 0.000000 m /five glyphshow
grestore
2 setlinecap
1.000 setgray
gsave
669.6 235.6 108 64.8 clipbox
108 300.436364 m
777.6 300.436364 l
stroke
grestore
0 setlinecap
0.333 setgray
gsave
/o {
gsave
newpath
translate
0.5 setlinewidth
1 setlinejoin
0 setlinecap
0 0 m
-4 0 l

gsave
0.333 setgray
fill
grestore
stroke
grestore
} bind def
108 300.436 o
grestore
gsave
/o {
gsave
newpath
translate
0.5 setlinewidth
1 setlinejoin
0 setlinecap
0 0 m
4 0 l

gsave
0.333 setgray
fill
grestore
stroke
grestore
} bind def
777.6 300.436 o
grestore
gsave
87.281250 297.678551 translate
0.000000 rotate
0.000000 0.000000 m /five glyphshow
6.362305 0.000000 m /zero glyphshow
grestore
0.024 0.024 0.027 setrgbcolor
/BitstreamVeraSans-Roman findfont
12.000 scalefont
setfont
gsave
79.781250 147.016619 translate
90.000000 rotate
0.000000 0.000000 m /S glyphshow
7.617188 0.000000 m /u glyphshow
15.222656 0.000000 m /m glyphshow
26.912109 0.000000 m /space glyphshow
30.726562 0.000000 m /w glyphshow
40.541016 0.000000 m /e glyphshow
47.923828 0.000000 m /i glyphshow
51.257812 0.000000 m /g glyphshow
58.875000 0.000000 m /h glyphshow
66.480469 0.000000 m /t glyphshow
grestore
1.000 setlinewidth
2 setlinecap
0.494 0.224 0.533 setrgbcolor
gsave
669.6 235.6 108 64.8 clipbox
108 94.907394 m
121.392 104.707453 l
134.784 109.124779 l
148.176 114.957459 l
161.568 114.038623 l
174.96 115.565987 l
188.352 114.93998 l
201.744 115.644668 l
215.136 116.939632 l
228.528 118.229758 l
241.92 118.88141 l
255.312 119.061133 l
268.704 117.515091 l
282.096 119.560771 l
295.488 120.437781 l
308.88 123.346372 l
322.272 120.836952 l
335.664 120.679135 l
349.056 123.043583 l
362.448 126.540067 l
375.84 124.836064 l
389.232 127.801697 l
402.624 126.009895 l
416.016 123.101336 l
429.408 124.292995 l
442.8 125.433217 l
456.192 125.193708 l
469.584 125.792915 l
482.976 125.408783 l
496.368 126.527843 l
509.76 126.325009 l
523.152 126.440851 l
536.544 127.060306 l
549.936 125.838503 l
563.328 126.319937 l
576.72 126.359683 l
590.112 126.292286 l
603.504 126.358024 l
616.896 126.31462 l
630.288 126.275622 l
643.68 126.347786 l
657.072 126.39004 l
670.464 126.438657 l
683.856 126.420457 l
697.248 126.265344 l
710.64 126.27476 l
724.032 126.295826 l
737.424 126.303308 l
750.816 126.323686 l
764.208 126.322811 l
stroke
grestore
0.627 0.812 0.192 setrgbcolor
gsave
669.6 235.6 108 64.8 clipbox
108 160.063854 m
121.392 174.669276 l
134.784 189.276472 l
148.176 199.822419 l
161.568 205.08933 l
174.96 206.007425 l
188.352 210.447193 l
201.744 216.255249 l
215.136 215.670918 l
228.528 214.333081 l
241.92 214.104629 l
255.312 219.951894 l
268.704 219.32356 l
282.096 218.371427 l
295.488 219.59501 l
308.88 219.593442 l
322.272 220.278306 l
335.664 216.417848 l
349.056 222.393643 l
362.448 220.529804 l
375.84 222.34746 l
389.232 222.353056 l
402.624 223.061666 l
416.016 223.018126 l
429.408 224.300365 l
442.8 223.83889 l
456.192 222.024107 l
469.584 224.91472 l
482.976 224.711694 l
496.368 223.88578 l
509.76 228.694713 l
523.152 224.574394 l
536.544 229.186442 l
549.936 227.082884 l
563.328 226.477842 l
576.72 225.750142 l
590.112 230.435883 l
603.504 231.935188 l
616.896 236.1752 l
630.288 236.019626 l
643.68 236.602255 l
657.072 235.912217 l
670.464 236.02785 l
683.856 236.106024 l
697.248 235.654754 l
710.64 236.174251 l
724.032 236.867962 l
737.424 236.930251 l
750.816 236.409352 l
764.208 236.567522 l
stroke
grestore
0.863 0.278 0.208 setrgbcolor
gsave
669.6 235.6 108 64.8 clipbox
108 78.97502 m
121.392 88.094437 l
134.784 97.249031 l
148.176 101.353475 l
161.568 103.782324 l
174.96 106.875787 l
188.352 106.840319 l
201.744 110.213634 l
215.136 110.192481 l
228.528 111.479036 l
241.92 113.640082 l
255.312 113.156331 l
268.704 114.755849 l
282.096 114.790876 l
295.488 112.642324 l
308.88 114.186704 l
322.272 114.26018 l
335.664 112.451795 l
349.056 115.751082 l
362.448 116.652325 l
375.84 115.962392 l
389.232 114.057757 l
402.624 117.977517 l
416.016 116.640796 l
429.408 118.416556 l
442.8 121.874937 l
456.192 118.224801 l
469.584 120.153389 l
482.976 120.489612 l
496.368 122.889322 l
509.76 121.991371 l
523.152 121.999255 l
536.544 122.262831 l
549.936 122.369263 l
563.328 122.446356 l
576.72 121.900323 l
590.112 123.01781 l
603.504 123.228659 l
616.896 123.95767 l
630.288 124.00546 l
643.68 123.955261 l
657.072 123.871562 l
670.464 123.831443 l
683.856 123.79268 l
697.248 123.795446 l
710.64 123.804648 l
724.032 123.788482 l
737.424 123.783639 l
750.816 123.790885 l
764.208 123.826055 l
stroke
grestore
0.298 0.698 0.831 setrgbcolor
gsave
669.6 235.6 108 64.8 clipbox
108 138.966392 m
121.392 153.034964 l
134.784 158.138865 l
148.176 164.012086 l
161.568 169.414524 l
174.96 174.03436 l
188.352 177.17176 l
201.744 178.128138 l
215.136 176.249918 l
228.528 177.383376 l
241.92 180.768383 l
255.312 180.711264 l
268.704 182.101478 l
282.096 180.321883 l
295.488 179.226086 l
308.88 182.08575 l
322.272 183.23841 l
335.664 185.437977 l
349.056 188.795082 l
362.448 187.180365 l
375.84 191.235892 l
389.232 190.529585 l
402.624 194.91923 l
416.016 194.620153 l
429.408 193.820209 l
442.8 194.035424 l
456.192 193.936539 l
469.584 193.521887 l
482.976 193.179608 l
496.368 194.628064 l
509.76 194.20242 l
523.152 194.413627 l
536.544 194.440051 l
549.936 194.317235 l
563.328 194.164517 l
576.72 194.099859 l
590.112 194.089945 l
603.504 194.07582 l
616.896 194.151187 l
630.288 194.170224 l
643.68 194.102472 l
657.072 194.131221 l
670.464 194.182088 l
683.856 194.17275 l
697.248 194.167514 l
710.64 194.172907 l
724.032 194.19775 l
737.424 194.198234 l
750.816 194.213441 l
764.208 194.206449 l
stroke
grestore
0.286 0.224 0.592 setrgbcolor
gsave
669.6 235.6 108 64.8 clipbox
108 160.926663 m
121.392 182.540663 l
134.784 206.612266 l
148.176 221.277247 l
161.568 223.576676 l
174.96 230.118349 l
188.352 235.346691 l
201.744 243.333575 l
215.136 246.291055 l
228.528 247.708939 l
241.92 246.950783 l
255.312 246.113063 l
268.704 248.814195 l
282.096 252.808364 l
295.488 253.194946 l
308.88 251.992942 l
322.272 251.967524 l
335.664 250.969685 l
349.056 255.382871 l
362.448 261.818979 l
375.84 264.849426 l
389.232 264.28472 l
402.624 262.126143 l
416.016 267.713903 l
429.408 276.425503 l
442.8 274.522564 l
456.192 275.477216 l
469.584 275.846973 l
482.976 276.948461 l
496.368 274.286961 l
509.76 277.459362 l
523.152 275.858428 l
536.544 276.644103 l
549.936 275.810329 l
563.328 279.309549 l
576.72 279.36075 l
590.112 279.134398 l
603.504 279.026328 l
616.896 280.426905 l
630.288 280.463335 l
643.68 280.490566 l
657.072 280.632928 l
670.464 281.346888 l
683.856 282.048393 l
697.248 281.421245 l
710.64 281.411732 l
724.032 281.344341 l
737.424 281.264147 l
750.816 281.233545 l
764.208 281.155659 l
stroke
grestore
0 setlinejoin
1.000 setgray
gsave
108 64.8 m
108 300.436364 l
stroke
grestore
gsave
108 300.436364 m
777.6 300.436364 l
stroke
grestore
gsave
777.6 64.8 m
777.6 300.436364 l
stroke
grestore
gsave
108 64.8 m
777.6 64.8 l
stroke
grestore

end
showpage
