%!PS-Adobe-3.0 EPSF-3.0
%%Title: training/CSVv2_tests/training_plot.eps
%%Creator: matplotlib version 1.5.1, http://matplotlib.org/
%%CreationDate: Mon May 21 17:07:42 2018
%%Orientation: portrait
%%BoundingBox: -126 72 738 720
%%EndComments
%%BeginProlog
/mpldict 8 dict def
mpldict begin
/m { moveto } bind def
/l { lineto } bind def
/r { rlineto } bind def
/c { curveto } bind def
/cl { closepath } bind def
/box {
m
1 index 0 r
0 exch r
neg 0 r
cl
} bind def
/clipbox {
box
clip
newpath
} bind def
%!PS-Adobe-3.0 Resource-Font
%%Title: Bitstream Vera Sans
%%Copyright: Copyright (c) 2003 by Bitstream, Inc. All Rights Reserved.
%%Creator: Converted from TrueType to type 3 by PPR
25 dict begin
/_d{bind def}bind def
/_m{moveto}_d
/_l{lineto}_d
/_cl{closepath eofill}_d
/_c{curveto}_d
/_sc{7 -1 roll{setcachedevice}{pop pop pop pop pop pop}ifelse}_d
/_e{exec}_d
/FontName /BitstreamVeraSans-Roman def
/PaintType 0 def
/FontMatrix[.001 0 0 .001 0 0]def
/FontBBox[-183 -236 1287 928]def
/FontType 3 def
/Encoding [ /space /period /zero /one /two /three /four /five /six /eight /C /E /L /S /V /a /b /c /e /g /h /i /l /m /n /o /p /r /s /t /u /v /w ] def
/FontInfo 10 dict dup begin
/FamilyName (Bitstream Vera Sans) def
/FullName (Bitstream Vera Sans) def
/Notice (Copyright (c) 2003 by Bitstream, Inc. All Rights Reserved. Bitstream Vera is a trademark of Bitstream, Inc.) def
/Weight (Roman) def
/Version (Release 1.10) def
/ItalicAngle 0.0 def
/isFixedPitch false def
/UnderlinePosition -213 def
/UnderlineThickness 143 def
end readonly def
/CharStrings 33 dict dup begin
/space{318 0 0 0 0 0 _sc
}_d
/period{318 0 107 0 210 124 _sc
107 124 _m
210 124 _l
210 0 _l
107 0 _l
107 124 _l
_cl}_d
/zero{636 0 66 -13 570 742 _sc
318 664 _m
267 664 229 639 203 589 _c
177 539 165 464 165 364 _c
165 264 177 189 203 139 _c
229 89 267 64 318 64 _c
369 64 407 89 433 139 _c
458 189 471 264 471 364 _c
471 464 458 539 433 589 _c
407 639 369 664 318 664 _c
318 742 _m
399 742 461 709 505 645 _c
548 580 570 486 570 364 _c
570 241 548 147 505 83 _c
461 19 399 -13 318 -13 _c
236 -13 173 19 130 83 _c
87 147 66 241 66 364 _c
66 486 87 580 130 645 _c
173 709 236 742 318 742 _c
_cl}_d
/one{636 0 110 0 544 729 _sc
124 83 _m
285 83 _l
285 639 _l
110 604 _l
110 694 _l
284 729 _l
383 729 _l
383 83 _l
544 83 _l
544 0 _l
124 0 _l
124 83 _l
_cl}_d
/two{{636 0 73 0 536 742 _sc
192 83 _m
536 83 _l
536 0 _l
73 0 _l
73 83 _l
110 121 161 173 226 239 _c
290 304 331 346 348 365 _c
380 400 402 430 414 455 _c
426 479 433 504 433 528 _c
433 566 419 598 392 622 _c
365 646 330 659 286 659 _c
255 659 222 653 188 643 _c
154 632 117 616 78 594 _c
78 694 _l
118 710 155 722 189 730 _c
223 738 255 742 284 742 _c
}_e{359 742 419 723 464 685 _c
509 647 532 597 532 534 _c
532 504 526 475 515 449 _c
504 422 484 390 454 354 _c
446 344 420 317 376 272 _c
332 227 271 164 192 83 _c
_cl}_e}_d
/three{{636 0 76 -13 556 742 _sc
406 393 _m
453 383 490 362 516 330 _c
542 298 556 258 556 212 _c
556 140 531 84 482 45 _c
432 6 362 -13 271 -13 _c
240 -13 208 -10 176 -4 _c
144 1 110 10 76 22 _c
76 117 _l
103 101 133 89 166 81 _c
198 73 232 69 268 69 _c
330 69 377 81 409 105 _c
441 129 458 165 458 212 _c
458 254 443 288 413 312 _c
383 336 341 349 287 349 _c
}_e{202 349 _l
202 430 _l
291 430 _l
339 430 376 439 402 459 _c
428 478 441 506 441 543 _c
441 580 427 609 401 629 _c
374 649 336 659 287 659 _c
260 659 231 656 200 650 _c
169 644 135 635 98 623 _c
98 711 _l
135 721 170 729 203 734 _c
235 739 266 742 296 742 _c
370 742 429 725 473 691 _c
517 657 539 611 539 553 _c
539 513 527 479 504 451 _c
481 423 448 403 406 393 _c
_cl}_e}_d
/four{636 0 49 0 580 729 _sc
378 643 _m
129 254 _l
378 254 _l
378 643 _l
352 729 _m
476 729 _l
476 254 _l
580 254 _l
580 172 _l
476 172 _l
476 0 _l
378 0 _l
378 172 _l
49 172 _l
49 267 _l
352 729 _l
_cl}_d
/five{{636 0 77 -13 549 729 _sc
108 729 _m
495 729 _l
495 646 _l
198 646 _l
198 467 _l
212 472 227 476 241 478 _c
255 480 270 482 284 482 _c
365 482 429 459 477 415 _c
525 370 549 310 549 234 _c
549 155 524 94 475 51 _c
426 8 357 -13 269 -13 _c
238 -13 207 -10 175 -6 _c
143 -1 111 6 77 17 _c
77 116 _l
106 100 136 88 168 80 _c
199 72 232 69 267 69 _c
}_e{323 69 368 83 401 113 _c
433 143 450 183 450 234 _c
450 284 433 324 401 354 _c
368 384 323 399 267 399 _c
241 399 214 396 188 390 _c
162 384 135 375 108 363 _c
108 729 _l
_cl}_e}_d
/six{{636 0 70 -13 573 742 _sc
330 404 _m
286 404 251 388 225 358 _c
199 328 186 286 186 234 _c
186 181 199 139 225 109 _c
251 79 286 64 330 64 _c
374 64 409 79 435 109 _c
461 139 474 181 474 234 _c
474 286 461 328 435 358 _c
409 388 374 404 330 404 _c
526 713 _m
526 623 _l
501 635 476 644 451 650 _c
425 656 400 659 376 659 _c
310 659 260 637 226 593 _c
}_e{192 549 172 482 168 394 _c
187 422 211 444 240 459 _c
269 474 301 482 336 482 _c
409 482 467 459 509 415 _c
551 371 573 310 573 234 _c
573 159 550 99 506 54 _c
462 9 403 -13 330 -13 _c
246 -13 181 19 137 83 _c
92 147 70 241 70 364 _c
70 479 97 571 152 639 _c
206 707 280 742 372 742 _c
396 742 421 739 447 735 _c
472 730 498 723 526 713 _c
_cl}_e}_d
/eight{{636 0 68 -13 568 742 _sc
318 346 _m
271 346 234 333 207 308 _c
180 283 167 249 167 205 _c
167 161 180 126 207 101 _c
234 76 271 64 318 64 _c
364 64 401 76 428 102 _c
455 127 469 161 469 205 _c
469 249 455 283 429 308 _c
402 333 365 346 318 346 _c
219 388 _m
177 398 144 418 120 447 _c
96 476 85 511 85 553 _c
85 611 105 657 147 691 _c
188 725 245 742 318 742 _c
}_e{390 742 447 725 489 691 _c
530 657 551 611 551 553 _c
551 511 539 476 515 447 _c
491 418 459 398 417 388 _c
464 377 501 355 528 323 _c
554 291 568 251 568 205 _c
568 134 546 80 503 43 _c
459 5 398 -13 318 -13 _c
237 -13 175 5 132 43 _c
89 80 68 134 68 205 _c
68 251 81 291 108 323 _c
134 355 171 377 219 388 _c
183 544 _m
183 506 194 476 218 455 _c
}_e{242 434 275 424 318 424 _c
360 424 393 434 417 455 _c
441 476 453 506 453 544 _c
453 582 441 611 417 632 _c
393 653 360 664 318 664 _c
275 664 242 653 218 632 _c
194 611 183 582 183 544 _c
_cl}_e}_d
/C{{698 0 56 -13 644 742 _sc
644 673 _m
644 569 _l
610 599 575 622 537 638 _c
499 653 460 661 418 661 _c
334 661 270 635 226 584 _c
182 533 160 460 160 364 _c
160 268 182 194 226 143 _c
270 92 334 67 418 67 _c
460 67 499 74 537 90 _c
575 105 610 128 644 159 _c
644 56 _l
609 32 572 15 534 4 _c
496 -7 455 -13 412 -13 _c
302 -13 215 20 151 87 _c
}_e{87 154 56 246 56 364 _c
56 481 87 573 151 641 _c
215 708 302 742 412 742 _c
456 742 497 736 535 725 _c
573 713 610 696 644 673 _c
_cl}_e}_d
/E{632 0 98 0 568 729 _sc
98 729 _m
559 729 _l
559 646 _l
197 646 _l
197 430 _l
544 430 _l
544 347 _l
197 347 _l
197 83 _l
568 83 _l
568 0 _l
98 0 _l
98 729 _l
_cl}_d
/L{557 0 98 0 552 729 _sc
98 729 _m
197 729 _l
197 83 _l
552 83 _l
552 0 _l
98 0 _l
98 729 _l
_cl}_d
/S{{635 0 66 -13 579 742 _sc
535 705 _m
535 609 _l
497 627 462 640 429 649 _c
395 657 363 662 333 662 _c
279 662 237 651 208 631 _c
179 610 165 580 165 542 _c
165 510 174 485 194 469 _c
213 452 250 439 304 429 _c
364 417 _l
437 403 491 378 526 343 _c
561 307 579 260 579 201 _c
579 130 555 77 508 41 _c
460 5 391 -13 300 -13 _c
265 -13 228 -9 189 -2 _c
}_e{150 5 110 16 69 32 _c
69 134 _l
109 111 148 94 186 83 _c
224 71 262 66 300 66 _c
356 66 399 77 430 99 _c
460 121 476 152 476 194 _c
476 230 465 258 443 278 _c
421 298 385 313 335 323 _c
275 335 _l
201 349 148 372 115 404 _c
82 435 66 478 66 534 _c
66 598 88 649 134 686 _c
179 723 242 742 322 742 _c
356 742 390 739 426 733 _c
461 727 497 717 535 705 _c
}_e{_cl}_e}_d
/V{684 0 8 0 676 729 _sc
286 0 _m
8 729 _l
111 729 _l
342 115 _l
573 729 _l
676 729 _l
398 0 _l
286 0 _l
_cl}_d
/a{{613 0 60 -13 522 560 _sc
343 275 _m
270 275 220 266 192 250 _c
164 233 150 205 150 165 _c
150 133 160 107 181 89 _c
202 70 231 61 267 61 _c
317 61 357 78 387 114 _c
417 149 432 196 432 255 _c
432 275 _l
343 275 _l
522 312 _m
522 0 _l
432 0 _l
432 83 _l
411 49 385 25 355 10 _c
325 -5 287 -13 243 -13 _c
187 -13 142 2 109 33 _c
76 64 60 106 60 159 _c
}_e{60 220 80 266 122 298 _c
163 329 224 345 306 345 _c
432 345 _l
432 354 _l
432 395 418 427 391 450 _c
364 472 326 484 277 484 _c
245 484 215 480 185 472 _c
155 464 127 453 100 439 _c
100 522 _l
132 534 164 544 195 550 _c
226 556 256 560 286 560 _c
365 560 424 539 463 498 _c
502 457 522 395 522 312 _c
_cl}_e}_d
/b{{635 0 91 -13 580 760 _sc
487 273 _m
487 339 473 390 446 428 _c
418 466 381 485 334 485 _c
286 485 249 466 222 428 _c
194 390 181 339 181 273 _c
181 207 194 155 222 117 _c
249 79 286 61 334 61 _c
381 61 418 79 446 117 _c
473 155 487 207 487 273 _c
181 464 _m
199 496 223 520 252 536 _c
281 552 316 560 356 560 _c
422 560 476 533 518 481 _c
559 428 580 359 580 273 _c
}_e{580 187 559 117 518 65 _c
476 13 422 -13 356 -13 _c
316 -13 281 -5 252 10 _c
223 25 199 49 181 82 _c
181 0 _l
91 0 _l
91 760 _l
181 760 _l
181 464 _l
_cl}_e}_d
/c{{550 0 55 -13 488 560 _sc
488 526 _m
488 442 _l
462 456 437 466 411 473 _c
385 480 360 484 334 484 _c
276 484 230 465 198 428 _c
166 391 150 339 150 273 _c
150 206 166 154 198 117 _c
230 80 276 62 334 62 _c
360 62 385 65 411 72 _c
437 79 462 90 488 104 _c
488 21 _l
462 9 436 0 410 -5 _c
383 -10 354 -13 324 -13 _c
242 -13 176 12 128 64 _c
}_e{79 115 55 185 55 273 _c
55 362 79 432 128 483 _c
177 534 244 560 330 560 _c
358 560 385 557 411 551 _c
437 545 463 537 488 526 _c
_cl}_e}_d
/e{{615 0 55 -13 562 560 _sc
562 296 _m
562 252 _l
149 252 _l
153 190 171 142 205 110 _c
238 78 284 62 344 62 _c
378 62 412 66 444 74 _c
476 82 509 95 541 113 _c
541 28 _l
509 14 476 3 442 -3 _c
408 -9 373 -13 339 -13 _c
251 -13 182 12 131 62 _c
80 112 55 181 55 268 _c
55 357 79 428 127 481 _c
175 533 241 560 323 560 _c
397 560 455 536 498 489 _c
}_e{540 441 562 377 562 296 _c
472 322 _m
471 371 457 410 431 440 _c
404 469 368 484 324 484 _c
274 484 234 469 204 441 _c
174 413 156 373 152 322 _c
472 322 _l
_cl}_e}_d
/g{{635 0 55 -207 544 560 _sc
454 280 _m
454 344 440 395 414 431 _c
387 467 349 485 301 485 _c
253 485 215 467 188 431 _c
161 395 148 344 148 280 _c
148 215 161 165 188 129 _c
215 93 253 75 301 75 _c
349 75 387 93 414 129 _c
440 165 454 215 454 280 _c
544 68 _m
544 -24 523 -93 482 -139 _c
440 -184 377 -207 292 -207 _c
260 -207 231 -204 203 -200 _c
175 -195 147 -188 121 -178 _c
}_e{121 -91 _l
147 -105 173 -115 199 -122 _c
225 -129 251 -133 278 -133 _c
336 -133 380 -117 410 -87 _c
439 -56 454 -10 454 52 _c
454 96 _l
435 64 411 40 382 24 _c
353 8 319 0 279 0 _c
211 0 157 25 116 76 _c
75 127 55 195 55 280 _c
55 364 75 432 116 483 _c
157 534 211 560 279 560 _c
319 560 353 552 382 536 _c
411 520 435 496 454 464 _c
454 547 _l
544 547 _l
}_e{544 68 _l
_cl}_e}_d
/h{634 0 91 0 549 760 _sc
549 330 _m
549 0 _l
459 0 _l
459 327 _l
459 379 448 417 428 443 _c
408 469 378 482 338 482 _c
289 482 251 466 223 435 _c
195 404 181 362 181 309 _c
181 0 _l
91 0 _l
91 760 _l
181 760 _l
181 462 _l
202 494 227 519 257 535 _c
286 551 320 560 358 560 _c
420 560 468 540 500 501 _c
532 462 549 405 549 330 _c
_cl}_d
/i{278 0 94 0 184 760 _sc
94 547 _m
184 547 _l
184 0 _l
94 0 _l
94 547 _l
94 760 _m
184 760 _l
184 646 _l
94 646 _l
94 760 _l
_cl}_d
/l{278 0 94 0 184 760 _sc
94 760 _m
184 760 _l
184 0 _l
94 0 _l
94 760 _l
_cl}_d
/m{{974 0 91 0 889 560 _sc
520 442 _m
542 482 569 511 600 531 _c
631 550 668 560 711 560 _c
767 560 811 540 842 500 _c
873 460 889 403 889 330 _c
889 0 _l
799 0 _l
799 327 _l
799 379 789 418 771 444 _c
752 469 724 482 686 482 _c
639 482 602 466 575 435 _c
548 404 535 362 535 309 _c
535 0 _l
445 0 _l
445 327 _l
445 379 435 418 417 444 _c
398 469 369 482 331 482 _c
}_e{285 482 248 466 221 435 _c
194 404 181 362 181 309 _c
181 0 _l
91 0 _l
91 547 _l
181 547 _l
181 462 _l
201 495 226 520 255 536 _c
283 552 317 560 357 560 _c
397 560 430 550 458 530 _c
486 510 506 480 520 442 _c
_cl}_e}_d
/n{634 0 91 0 549 560 _sc
549 330 _m
549 0 _l
459 0 _l
459 327 _l
459 379 448 417 428 443 _c
408 469 378 482 338 482 _c
289 482 251 466 223 435 _c
195 404 181 362 181 309 _c
181 0 _l
91 0 _l
91 547 _l
181 547 _l
181 462 _l
202 494 227 519 257 535 _c
286 551 320 560 358 560 _c
420 560 468 540 500 501 _c
532 462 549 405 549 330 _c
_cl}_d
/o{612 0 55 -13 557 560 _sc
306 484 _m
258 484 220 465 192 427 _c
164 389 150 338 150 273 _c
150 207 163 156 191 118 _c
219 80 257 62 306 62 _c
354 62 392 80 420 118 _c
448 156 462 207 462 273 _c
462 337 448 389 420 427 _c
392 465 354 484 306 484 _c
306 560 _m
384 560 445 534 490 484 _c
534 433 557 363 557 273 _c
557 183 534 113 490 63 _c
445 12 384 -13 306 -13 _c
227 -13 165 12 121 63 _c
77 113 55 183 55 273 _c
55 363 77 433 121 484 _c
165 534 227 560 306 560 _c
_cl}_d
/p{{635 0 91 -207 580 560 _sc
181 82 _m
181 -207 _l
91 -207 _l
91 547 _l
181 547 _l
181 464 _l
199 496 223 520 252 536 _c
281 552 316 560 356 560 _c
422 560 476 533 518 481 _c
559 428 580 359 580 273 _c
580 187 559 117 518 65 _c
476 13 422 -13 356 -13 _c
316 -13 281 -5 252 10 _c
223 25 199 49 181 82 _c
487 273 _m
487 339 473 390 446 428 _c
418 466 381 485 334 485 _c
}_e{286 485 249 466 222 428 _c
194 390 181 339 181 273 _c
181 207 194 155 222 117 _c
249 79 286 61 334 61 _c
381 61 418 79 446 117 _c
473 155 487 207 487 273 _c
_cl}_e}_d
/r{411 0 91 0 411 560 _sc
411 463 _m
401 469 390 473 378 476 _c
366 478 353 480 339 480 _c
288 480 249 463 222 430 _c
194 397 181 350 181 288 _c
181 0 _l
91 0 _l
91 547 _l
181 547 _l
181 462 _l
199 495 224 520 254 536 _c
284 552 321 560 365 560 _c
371 560 378 559 386 559 _c
393 558 401 557 411 555 _c
411 463 _l
_cl}_d
/s{{521 0 54 -13 472 560 _sc
443 531 _m
443 446 _l
417 458 391 468 364 475 _c
336 481 308 485 279 485 _c
234 485 200 478 178 464 _c
156 450 145 430 145 403 _c
145 382 153 366 169 354 _c
185 342 217 330 265 320 _c
296 313 _l
360 299 405 279 432 255 _c
458 230 472 195 472 151 _c
472 100 452 60 412 31 _c
372 1 316 -13 246 -13 _c
216 -13 186 -10 154 -5 _c
}_e{122 0 89 8 54 20 _c
54 113 _l
87 95 120 82 152 74 _c
184 65 216 61 248 61 _c
290 61 323 68 346 82 _c
368 96 380 117 380 144 _c
380 168 371 187 355 200 _c
339 213 303 226 247 238 _c
216 245 _l
160 257 119 275 95 299 _c
70 323 58 356 58 399 _c
58 450 76 490 112 518 _c
148 546 200 560 268 560 _c
301 560 332 557 362 552 _c
391 547 418 540 443 531 _c
}_e{_cl}_e}_d
/t{392 0 27 0 368 702 _sc
183 702 _m
183 547 _l
368 547 _l
368 477 _l
183 477 _l
183 180 _l
183 135 189 106 201 94 _c
213 81 238 75 276 75 _c
368 75 _l
368 0 _l
276 0 _l
206 0 158 13 132 39 _c
106 65 93 112 93 180 _c
93 477 _l
27 477 _l
27 547 _l
93 547 _l
93 702 _l
183 702 _l
_cl}_d
/u{634 0 85 -13 543 547 _sc
85 216 _m
85 547 _l
175 547 _l
175 219 _l
175 167 185 129 205 103 _c
225 77 255 64 296 64 _c
344 64 383 79 411 110 _c
439 141 453 183 453 237 _c
453 547 _l
543 547 _l
543 0 _l
453 0 _l
453 84 _l
431 50 405 26 377 10 _c
348 -5 315 -13 277 -13 _c
214 -13 166 6 134 45 _c
101 83 85 140 85 216 _c
_cl}_d
/v{592 0 30 0 562 547 _sc
30 547 _m
125 547 _l
296 88 _l
467 547 _l
562 547 _l
357 0 _l
235 0 _l
30 547 _l
_cl}_d
/w{818 0 42 0 776 547 _sc
42 547 _m
132 547 _l
244 120 _l
356 547 _l
462 547 _l
574 120 _l
686 547 _l
776 547 _l
633 0 _l
527 0 _l
409 448 _l
291 0 _l
185 0 _l
42 547 _l
_cl}_d
end readonly def

/BuildGlyph
 {exch begin
 CharStrings exch
 2 copy known not{pop /.notdef}if
 true 3 1 roll get exec
 end}_d

/BuildChar {
 1 index /Encoding get exch get
 1 index /BuildGlyph get exec
}_d

FontName currentdict end definefont pop
end
%%EndProlog
mpldict begin
-126 72 translate
864 648 0 0 clipbox
100000 setmiterlimit
gsave
0 0 m
864 0 l
864 648 l
0 648 l
cl
1.000 setgray
fill
grestore
gsave
108 347.563636 m
777.6 347.563636 l
777.6 583.2 l
108 583.2 l
cl
0.898 setgray
fill
grestore
0.500 setlinewidth
1 setlinejoin
2 setlinecap
[] 0 setdash
1.000 setgray
gsave
669.6 235.6 108 347.6 clipbox
108 347.563636 m
108 583.2 l
stroke
grestore
0 setlinecap
0.333 setgray
gsave
/o {
gsave
newpath
translate
0.5 setlinewidth
1 setlinejoin
0 setlinecap
0 0 m
0 -4 l

gsave
0.333 setgray
fill
grestore
stroke
grestore
} bind def
108 347.564 o
grestore
gsave
/o {
gsave
newpath
translate
0.5 setlinewidth
1 setlinejoin
0 setlinecap
0 0 m
0 4 l

gsave
0.333 setgray
fill
grestore
stroke
grestore
} bind def
108 583.2 o
grestore
2 setlinecap
1.000 setgray
gsave
669.6 235.6 108 347.6 clipbox
241.92 347.563636 m
241.92 583.2 l
stroke
grestore
0 setlinecap
0.333 setgray
gsave
/o {
gsave
newpath
translate
0.5 setlinewidth
1 setlinejoin
0 setlinecap
0 0 m
0 -4 l

gsave
0.333 setgray
fill
grestore
stroke
grestore
} bind def
241.92 347.564 o
grestore
gsave
/o {
gsave
newpath
translate
0.5 setlinewidth
1 setlinejoin
0 setlinecap
0 0 m
0 4 l

gsave
0.333 setgray
fill
grestore
stroke
grestore
} bind def
241.92 583.2 o
grestore
2 setlinecap
1.000 setgray
gsave
669.6 235.6 108 347.6 clipbox
375.84 347.563636 m
375.84 583.2 l
stroke
grestore
0 setlinecap
0.333 setgray
gsave
/o {
gsave
newpath
translate
0.5 setlinewidth
1 setlinejoin
0 setlinecap
0 0 m
0 -4 l

gsave
0.333 setgray
fill
grestore
stroke
grestore
} bind def
375.84 347.564 o
grestore
gsave
/o {
gsave
newpath
translate
0.5 setlinewidth
1 setlinejoin
0 setlinecap
0 0 m
0 4 l

gsave
0.333 setgray
fill
grestore
stroke
grestore
} bind def
375.84 583.2 o
grestore
2 setlinecap
1.000 setgray
gsave
669.6 235.6 108 347.6 clipbox
509.76 347.563636 m
509.76 583.2 l
stroke
grestore
0 setlinecap
0.333 setgray
gsave
/o {
gsave
newpath
translate
0.5 setlinewidth
1 setlinejoin
0 setlinecap
0 0 m
0 -4 l

gsave
0.333 setgray
fill
grestore
stroke
grestore
} bind def
509.76 347.564 o
grestore
gsave
/o {
gsave
newpath
translate
0.5 setlinewidth
1 setlinejoin
0 setlinecap
0 0 m
0 4 l

gsave
0.333 setgray
fill
grestore
stroke
grestore
} bind def
509.76 583.2 o
grestore
2 setlinecap
1.000 setgray
gsave
669.6 235.6 108 347.6 clipbox
643.68 347.563636 m
643.68 583.2 l
stroke
grestore
0 setlinecap
0.333 setgray
gsave
/o {
gsave
newpath
translate
0.5 setlinewidth
1 setlinejoin
0 setlinecap
0 0 m
0 -4 l

gsave
0.333 setgray
fill
grestore
stroke
grestore
} bind def
643.68 347.564 o
grestore
gsave
/o {
gsave
newpath
translate
0.5 setlinewidth
1 setlinejoin
0 setlinecap
0 0 m
0 4 l

gsave
0.333 setgray
fill
grestore
stroke
grestore
} bind def
643.68 583.2 o
grestore
2 setlinecap
1.000 setgray
gsave
669.6 235.6 108 347.6 clipbox
777.6 347.563636 m
777.6 583.2 l
stroke
grestore
0 setlinecap
0.333 setgray
gsave
/o {
gsave
newpath
translate
0.5 setlinewidth
1 setlinejoin
0 setlinecap
0 0 m
0 -4 l

gsave
0.333 setgray
fill
grestore
stroke
grestore
} bind def
777.6 347.564 o
grestore
gsave
/o {
gsave
newpath
translate
0.5 setlinewidth
1 setlinejoin
0 setlinecap
0 0 m
0 4 l

gsave
0.333 setgray
fill
grestore
stroke
grestore
} bind def
777.6 583.2 o
grestore
/BitstreamVeraSans-Roman findfont
12.000 scalefont
setfont
gsave
424.425000 333.438636 translate
0.000000 rotate
0.000000 0.000000 m /E glyphshow
7.582031 0.000000 m /p glyphshow
15.199219 0.000000 m /o glyphshow
22.541016 0.000000 m /c glyphshow
29.138672 0.000000 m /h glyphshow
grestore
2 setlinecap
1.000 setgray
gsave
669.6 235.6 108 347.6 clipbox
108 347.563636 m
777.6 347.563636 l
stroke
grestore
0 setlinecap
0.333 setgray
gsave
/o {
gsave
newpath
translate
0.5 setlinewidth
1 setlinejoin
0 setlinecap
0 0 m
-4 0 l

gsave
0.333 setgray
fill
grestore
stroke
grestore
} bind def
108 347.564 o
grestore
gsave
/o {
gsave
newpath
translate
0.5 setlinewidth
1 setlinejoin
0 setlinecap
0 0 m
4 0 l

gsave
0.333 setgray
fill
grestore
stroke
grestore
} bind def
777.6 347.564 o
grestore
/BitstreamVeraSans-Roman findfont
10.000 scalefont
setfont
gsave
77.734375 344.805824 translate
0.000000 rotate
0.000000 0.000000 m /zero glyphshow
6.362305 0.000000 m /period glyphshow
9.541016 0.000000 m /three glyphshow
15.903320 0.000000 m /five glyphshow
grestore
2 setlinecap
1.000 setgray
gsave
669.6 235.6 108 347.6 clipbox
108 394.690909 m
777.6 394.690909 l
stroke
grestore
0 setlinecap
0.333 setgray
gsave
/o {
gsave
newpath
translate
0.5 setlinewidth
1 setlinejoin
0 setlinecap
0 0 m
-4 0 l

gsave
0.333 setgray
fill
grestore
stroke
grestore
} bind def
108 394.691 o
grestore
gsave
/o {
gsave
newpath
translate
0.5 setlinewidth
1 setlinejoin
0 setlinecap
0 0 m
4 0 l

gsave
0.333 setgray
fill
grestore
stroke
grestore
} bind def
777.6 394.691 o
grestore
gsave
77.734375 391.933097 translate
0.000000 rotate
0.000000 0.000000 m /zero glyphshow
6.362305 0.000000 m /period glyphshow
9.541016 0.000000 m /four glyphshow
15.903320 0.000000 m /zero glyphshow
grestore
2 setlinecap
1.000 setgray
gsave
669.6 235.6 108 347.6 clipbox
108 441.818182 m
777.6 441.818182 l
stroke
grestore
0 setlinecap
0.333 setgray
gsave
/o {
gsave
newpath
translate
0.5 setlinewidth
1 setlinejoin
0 setlinecap
0 0 m
-4 0 l

gsave
0.333 setgray
fill
grestore
stroke
grestore
} bind def
108 441.818 o
grestore
gsave
/o {
gsave
newpath
translate
0.5 setlinewidth
1 setlinejoin
0 setlinecap
0 0 m
4 0 l

gsave
0.333 setgray
fill
grestore
stroke
grestore
} bind def
777.6 441.818 o
grestore
gsave
77.734375 439.060369 translate
0.000000 rotate
0.000000 0.000000 m /zero glyphshow
6.362305 0.000000 m /period glyphshow
9.541016 0.000000 m /four glyphshow
15.903320 0.000000 m /five glyphshow
grestore
2 setlinecap
1.000 setgray
gsave
669.6 235.6 108 347.6 clipbox
108 488.945455 m
777.6 488.945455 l
stroke
grestore
0 setlinecap
0.333 setgray
gsave
/o {
gsave
newpath
translate
0.5 setlinewidth
1 setlinejoin
0 setlinecap
0 0 m
-4 0 l

gsave
0.333 setgray
fill
grestore
stroke
grestore
} bind def
108 488.945 o
grestore
gsave
/o {
gsave
newpath
translate
0.5 setlinewidth
1 setlinejoin
0 setlinecap
0 0 m
4 0 l

gsave
0.333 setgray
fill
grestore
stroke
grestore
} bind def
777.6 488.945 o
grestore
gsave
77.734375 486.187642 translate
0.000000 rotate
0.000000 0.000000 m /zero glyphshow
6.362305 0.000000 m /period glyphshow
9.541016 0.000000 m /five glyphshow
15.903320 0.000000 m /zero glyphshow
grestore
2 setlinecap
1.000 setgray
gsave
669.6 235.6 108 347.6 clipbox
108 536.072727 m
777.6 536.072727 l
stroke
grestore
0 setlinecap
0.333 setgray
gsave
/o {
gsave
newpath
translate
0.5 setlinewidth
1 setlinejoin
0 setlinecap
0 0 m
-4 0 l

gsave
0.333 setgray
fill
grestore
stroke
grestore
} bind def
108 536.073 o
grestore
gsave
/o {
gsave
newpath
translate
0.5 setlinewidth
1 setlinejoin
0 setlinecap
0 0 m
4 0 l

gsave
0.333 setgray
fill
grestore
stroke
grestore
} bind def
777.6 536.073 o
grestore
gsave
77.734375 533.314915 translate
0.000000 rotate
0.000000 0.000000 m /zero glyphshow
6.362305 0.000000 m /period glyphshow
9.541016 0.000000 m /five glyphshow
15.903320 0.000000 m /five glyphshow
grestore
2 setlinecap
1.000 setgray
gsave
669.6 235.6 108 347.6 clipbox
108 583.2 m
777.6 583.2 l
stroke
grestore
0 setlinecap
0.333 setgray
gsave
/o {
gsave
newpath
translate
0.5 setlinewidth
1 setlinejoin
0 setlinecap
0 0 m
-4 0 l

gsave
0.333 setgray
fill
grestore
stroke
grestore
} bind def
108 583.2 o
grestore
gsave
/o {
gsave
newpath
translate
0.5 setlinewidth
1 setlinejoin
0 setlinecap
0 0 m
4 0 l

gsave
0.333 setgray
fill
grestore
stroke
grestore
} bind def
777.6 583.2 o
grestore
gsave
77.734375 580.442188 translate
0.000000 rotate
0.000000 0.000000 m /zero glyphshow
6.362305 0.000000 m /period glyphshow
9.541016 0.000000 m /six glyphshow
15.903320 0.000000 m /zero glyphshow
grestore
/BitstreamVeraSans-Roman findfont
12.000 scalefont
setfont
gsave
70.234375 452.116193 translate
90.000000 rotate
0.000000 0.000000 m /L glyphshow
6.685547 0.000000 m /o glyphshow
14.027344 0.000000 m /s glyphshow
20.279297 0.000000 m /s glyphshow
grestore
1.000 setlinewidth
2 setlinecap
0.494 0.224 0.533 setrgbcolor
gsave
669.6 235.6 108 347.6 clipbox
108 498.349736 m
114.696 465.026191 l
121.392 454.291894 l
128.088 449.623961 l
134.784 446.216242 l
141.48 438.524942 l
148.176 437.64242 l
154.872 435.928238 l
161.568 430.150504 l
168.264 428.960575 l
174.96 430.388888 l
181.656 428.648375 l
188.352 426.019487 l
195.048 424.304317 l
201.744 422.796773 l
208.44 427.061026 l
215.136 424.025195 l
221.832 423.849382 l
228.528 422.18211 l
235.224 421.974997 l
241.92 422.531084 l
248.616 422.988961 l
255.312 413.003014 l
262.008 415.094603 l
268.704 414.319846 l
275.4 413.47999 l
282.096 413.840663 l
288.792 413.610529 l
295.488 412.477975 l
302.184 413.243455 l
308.88 412.923072 l
315.576 411.03176 l
322.272 410.235447 l
328.968 408.667213 l
335.664 410.657942 l
342.36 410.354876 l
349.056 408.984174 l
355.752 410.931384 l
362.448 410.840913 l
369.144 410.854303 l
375.84 410.895513 l
382.536 406.732914 l
389.232 411.05638 l
395.928 408.196511 l
402.624 411.977871 l
409.32 408.038802 l
416.016 411.093638 l
422.712 410.055263 l
429.408 409.000248 l
436.104 408.615936 l
442.8 409.724883 l
449.496 409.586185 l
456.192 407.895569 l
462.888 409.029878 l
469.584 408.377049 l
476.28 410.724499 l
482.976 409.081628 l
489.672 412.160634 l
496.368 408.114318 l
503.064 410.720918 l
509.76 411.487896 l
516.456 411.923498 l
523.152 408.814699 l
529.848 410.604331 l
536.544 409.329063 l
543.24 410.613474 l
549.936 409.309612 l
556.632 409.950769 l
563.328 409.099447 l
570.024 411.858317 l
576.72 407.188579 l
583.416 411.755372 l
590.112 410.567403 l
596.808 409.800889 l
603.504 407.96875 l
610.2 414.028515 l
616.896 413.116939 l
623.592 408.786366 l
630.288 411.689165 l
636.984 407.499368 l
643.68 413.111342 l
650.376 410.386154 l
657.072 410.793645 l
663.768 411.457933 l
670.464 408.798785 l
677.16 411.633584 l
683.856 412.281779 l
690.552 410.576712 l
697.248 407.742153 l
703.944 410.948084 l
710.64 409.762021 l
717.336 409.905394 l
724.032 410.456469 l
730.728 408.06545 l
737.424 411.630318 l
744.12 410.439642 l
750.816 410.194575 l
757.512 410.91001 l
764.208 411.700853 l
770.904 412.751625 l
stroke
grestore
0 setlinecap
[6 6] 0 setdash
gsave
669.6 235.6 108 347.6 clipbox
108 416.706964 m
114.696 415.563446 l
121.392 384.905495 l
128.088 377.285987 l
134.784 389.493414 l
141.48 376.292526 l
148.176 381.526825 l
154.872 393.653915 l
161.568 372.582899 l
168.264 368.607146 l
174.96 351.224129 l
181.656 371.276487 l
188.352 377.908265 l
195.048 383.071946 l
201.744 380.333335 l
208.44 383.075401 l
215.136 370.126424 l
221.832 375.392802 l
228.528 395.608448 l
235.224 387.557757 l
241.92 379.800804 l
248.616 395.106395 l
255.312 366.883906 l
262.008 360.229797 l
268.704 369.768136 l
275.4 364.894794 l
282.096 366.11688 l
288.792 372.907058 l
295.488 368.339336 l
302.184 369.822069 l
308.88 362.639978 l
315.576 371.966126 l
322.272 367.952199 l
328.968 369.469707 l
335.664 365.680557 l
342.36 368.880519 l
349.056 366.299774 l
355.752 364.110717 l
362.448 364.241223 l
369.144 365.53977 l
375.84 367.096632 l
382.536 367.651776 l
389.232 367.463573 l
395.928 367.305089 l
402.624 366.409775 l
409.32 366.471769 l
416.016 366.208257 l
422.712 365.968227 l
429.408 365.841906 l
436.104 365.802103 l
442.8 366.00216 l
449.496 365.983396 l
456.192 365.966542 l
462.888 366.008508 l
469.584 366.016289 l
476.28 366.017272 l
482.976 366.037919 l
489.672 366.055924 l
496.368 366.066037 l
503.064 366.074604 l
509.76 366.034267 l
516.456 366.047104 l
523.152 366.046261 l
529.848 366.045082 l
536.544 366.043115 l
543.24 366.042694 l
549.936 366.042891 l
556.632 366.04157 l
563.328 366.040278 l
570.024 366.038031 l
576.72 366.03716 l
583.416 366.036711 l
590.112 366.036683 l
596.808 366.036655 l
603.504 366.036627 l
610.2 366.036598 l
616.896 366.03657 l
623.592 366.036542 l
630.288 366.036542 l
636.984 366.036514 l
643.68 366.036486 l
650.376 366.036458 l
657.072 366.036458 l
663.768 366.036458 l
670.464 366.036458 l
677.16 366.036458 l
683.856 366.036458 l
690.552 366.036458 l
697.248 366.036458 l
703.944 366.03643 l
710.64 366.03643 l
717.336 366.03643 l
724.032 366.03643 l
730.728 366.03643 l
737.424 366.03643 l
744.12 366.03643 l
750.816 366.03643 l
757.512 366.03643 l
764.208 366.03643 l
770.904 366.03643 l
stroke
grestore
2 setlinecap
[] 0 setdash
0.627 0.812 0.192 setrgbcolor
gsave
669.6 235.6 108 347.6 clipbox
108 537.852268 m
114.696 518.036833 l
121.392 512.092227 l
128.088 509.465982 l
134.784 506.373364 l
141.48 505.73267 l
148.176 503.969579 l
154.872 502.458528 l
161.568 503.446672 l
168.264 500.226987 l
174.96 506.721937 l
181.656 504.803338 l
188.352 504.230456 l
195.048 500.891722 l
201.744 502.191416 l
208.44 503.30407 l
215.136 502.333934 l
221.832 500.816174 l
228.528 502.435799 l
235.224 501.460557 l
241.92 500.137255 l
248.616 500.122986 l
255.312 501.86639 l
262.008 498.352761 l
268.704 495.498585 l
275.4 500.96012 l
282.096 499.325705 l
288.792 501.461729 l
295.488 501.430819 l
302.184 500.585496 l
308.88 498.414 l
315.576 499.505773 l
322.272 499.639667 l
328.968 499.462915 l
335.664 499.233503 l
342.36 499.935779 l
349.056 497.243595 l
355.752 497.703934 l
362.448 496.521486 l
369.144 494.661369 l
375.84 495.385409 l
382.536 495.698308 l
389.232 496.668083 l
395.928 498.179231 l
402.624 496.135848 l
409.32 496.283203 l
416.016 497.989198 l
422.712 497.81921 l
429.408 497.211509 l
436.104 495.14345 l
442.8 496.312297 l
449.496 496.260999 l
456.192 497.226115 l
462.888 495.939106 l
469.584 495.400279 l
476.28 496.24909 l
482.976 499.543282 l
489.672 496.52905 l
496.368 494.396661 l
503.064 495.416965 l
509.76 495.852512 l
516.456 495.437466 l
523.152 496.206094 l
529.848 499.23355 l
536.544 496.291193 l
543.24 496.519051 l
549.936 496.774771 l
556.632 497.138749 l
563.328 496.433036 l
570.024 497.491038 l
576.72 496.095211 l
583.416 499.625036 l
590.112 497.719395 l
596.808 495.879301 l
603.504 494.425136 l
610.2 496.005887 l
616.896 495.468387 l
623.592 495.259933 l
630.288 494.289918 l
636.984 496.037032 l
643.68 495.072492 l
650.376 497.610592 l
657.072 497.097285 l
663.768 496.60127 l
670.464 496.466591 l
677.16 495.389514 l
683.856 497.221334 l
690.552 497.318075 l
697.248 496.811786 l
703.944 497.497448 l
710.64 493.696121 l
717.336 495.183559 l
724.032 499.206521 l
730.728 496.00913 l
737.424 498.622895 l
744.12 497.395437 l
750.816 495.920148 l
757.512 497.924326 l
764.208 494.657524 l
770.904 494.988255 l
stroke
grestore
0 setlinecap
[6 6] 0 setdash
gsave
669.6 235.6 108 347.6 clipbox
108 457.504634 m
114.696 446.028222 l
121.392 450.135885 l
128.088 449.228689 l
134.784 432.816435 l
141.48 435.383444 l
148.176 434.712092 l
154.872 452.640169 l
161.568 429.712682 l
168.264 425.021167 l
174.96 434.679283 l
181.656 423.832088 l
188.352 433.439529 l
195.048 439.269027 l
201.744 440.177684 l
208.44 415.612267 l
215.136 430.831087 l
221.832 432.752109 l
228.528 429.985717 l
235.224 433.098487 l
241.92 448.17697 l
248.616 436.242971 l
255.312 405.133192 l
262.008 396.380081 l
268.704 441.373168 l
275.4 437.726322 l
282.096 426.861262 l
288.792 449.101385 l
295.488 447.306375 l
302.184 422.653823 l
308.88 431.332523 l
315.576 441.715277 l
322.272 426.364967 l
328.968 430.035661 l
335.664 435.624428 l
342.36 433.480372 l
349.056 429.489254 l
355.752 422.38413 l
362.448 428.627451 l
369.144 428.542676 l
375.84 426.432692 l
382.536 428.948914 l
389.232 429.014869 l
395.928 437.992447 l
402.624 425.846818 l
409.32 427.391405 l
416.016 428.157393 l
422.712 428.319837 l
429.408 428.173376 l
436.104 428.065285 l
442.8 428.662508 l
449.496 428.766806 l
456.192 427.002723 l
462.888 427.234607 l
469.584 428.410091 l
476.28 428.311635 l
482.976 428.397478 l
489.672 428.322337 l
496.368 428.298011 l
503.064 428.345933 l
509.76 428.344585 l
516.456 428.420315 l
523.152 428.743632 l
529.848 428.830711 l
536.544 428.667929 l
543.24 428.658322 l
549.936 428.678463 l
556.632 428.683294 l
563.328 428.702705 l
570.024 428.704109 l
576.72 428.697452 l
583.416 428.703603 l
590.112 428.709811 l
596.808 428.714446 l
603.504 428.722368 l
610.2 428.722508 l
616.896 428.722452 l
623.592 428.722199 l
630.288 428.722255 l
636.984 428.72262 l
643.68 428.722817 l
650.376 428.722705 l
657.072 428.722733 l
663.768 428.722564 l
670.464 428.722536 l
677.16 428.722536 l
683.856 428.722536 l
690.552 428.722536 l
697.248 428.722536 l
703.944 428.722536 l
710.64 428.722536 l
717.336 428.722564 l
724.032 428.722536 l
730.728 428.722536 l
737.424 428.722564 l
744.12 428.722564 l
750.816 428.722564 l
757.512 428.722564 l
764.208 428.722564 l
770.904 428.722564 l
stroke
grestore
2 setlinecap
[] 0 setdash
0.863 0.278 0.208 setrgbcolor
gsave
669.6 235.6 108 347.6 clipbox
108 550.90164 m
114.696 530.398874 l
121.392 524.744498 l
128.088 517.499198 l
134.784 519.060029 l
141.48 516.81673 l
148.176 515.515528 l
154.872 514.554282 l
161.568 512.957354 l
168.264 511.649047 l
174.96 513.847041 l
181.656 513.185611 l
188.352 509.469555 l
195.048 508.947769 l
201.744 510.530736 l
208.44 512.865684 l
215.136 509.013481 l
221.832 508.403187 l
228.528 509.27769 l
235.224 510.256379 l
241.92 510.019198 l
248.616 511.488188 l
255.312 510.149187 l
262.008 509.465822 l
268.704 509.08066 l
275.4 508.292958 l
282.096 509.259809 l
288.792 510.16755 l
295.488 508.114962 l
302.184 509.491619 l
308.88 510.869686 l
315.576 509.559535 l
322.272 508.826678 l
328.968 510.546105 l
335.664 507.991822 l
342.36 504.334787 l
349.056 506.034933 l
355.752 507.820689 l
362.448 508.756409 l
369.144 507.339824 l
375.84 510.073478 l
382.536 507.621364 l
389.232 506.562068 l
395.928 507.068789 l
402.624 507.305846 l
409.32 508.119523 l
416.016 505.154908 l
422.712 507.58024 l
429.408 507.056769 l
436.104 504.732131 l
442.8 507.913977 l
449.496 504.611035 l
456.192 507.044619 l
462.888 504.700673 l
469.584 506.026285 l
476.28 507.831732 l
482.976 504.964474 l
489.672 506.506532 l
496.368 506.832137 l
503.064 508.009126 l
509.76 507.145657 l
516.456 506.608194 l
523.152 507.844975 l
529.848 508.066002 l
536.544 507.426103 l
543.24 507.15258 l
549.936 508.096638 l
556.632 506.734898 l
563.328 506.839606 l
570.024 507.686524 l
576.72 506.968048 l
583.416 504.588304 l
590.112 505.147601 l
596.808 505.440932 l
603.504 506.863056 l
610.2 507.993251 l
616.896 507.956268 l
623.592 506.647508 l
630.288 507.913506 l
636.984 506.526969 l
643.68 507.815213 l
650.376 507.070569 l
657.072 505.786499 l
663.768 508.936474 l
670.464 505.669206 l
677.16 506.995818 l
683.856 506.499318 l
690.552 504.380458 l
697.248 506.365901 l
703.944 502.501184 l
710.64 507.229093 l
717.336 506.002585 l
724.032 505.242942 l
730.728 507.264372 l
737.424 506.083663 l
744.12 505.617973 l
750.816 506.659769 l
757.512 508.345926 l
764.208 508.006615 l
770.904 506.846231 l
stroke
grestore
0 setlinecap
[6 6] 0 setdash
gsave
669.6 235.6 108 347.6 clipbox
108 492.66188 m
114.696 461.00294 l
121.392 460.804091 l
128.088 466.639432 l
134.784 453.644191 l
141.48 443.924109 l
148.176 441.154937 l
154.872 451.204234 l
161.568 458.036884 l
168.264 450.192178 l
174.96 450.972772 l
181.656 442.092666 l
188.352 443.592703 l
195.048 437.082891 l
201.744 439.806193 l
208.44 439.708552 l
215.136 436.242718 l
221.832 465.95426 l
228.528 432.134887 l
235.224 450.917631 l
241.92 453.442701 l
248.616 462.500617 l
255.312 432.572164 l
262.008 445.592293 l
268.704 460.819737 l
275.4 457.992502 l
282.096 428.148769 l
288.792 447.265982 l
295.488 446.480809 l
302.184 447.991997 l
308.88 426.771008 l
315.576 457.884973 l
322.272 436.952413 l
328.968 431.526344 l
335.664 444.217566 l
342.36 427.699497 l
349.056 442.301067 l
355.752 421.951291 l
362.448 439.472118 l
369.144 440.124341 l
375.84 452.48705 l
382.536 443.498377 l
389.232 439.459899 l
395.928 438.715541 l
402.624 439.037593 l
409.32 451.141144 l
416.016 424.948386 l
422.712 428.032111 l
429.408 457.825141 l
436.104 446.600809 l
442.8 448.343235 l
449.496 439.04765 l
456.192 441.874547 l
462.888 445.059228 l
469.584 444.55459 l
476.28 446.025048 l
482.976 447.024773 l
489.672 445.742293 l
496.368 442.100813 l
503.064 444.537427 l
509.76 444.037846 l
516.456 443.583349 l
523.152 442.741294 l
529.848 442.65104 l
536.544 441.766738 l
543.24 442.539804 l
549.936 442.436573 l
556.632 443.342673 l
563.328 441.183813 l
570.024 441.384151 l
576.72 441.929632 l
583.416 442.243959 l
590.112 442.680647 l
596.808 442.638316 l
603.504 442.902587 l
610.2 442.649917 l
616.896 442.438539 l
623.592 442.538034 l
630.288 442.626462 l
636.984 442.624776 l
643.68 442.629383 l
650.376 442.634945 l
657.072 442.620928 l
663.768 442.612641 l
670.464 442.616237 l
677.16 442.59854 l
683.856 442.609888 l
690.552 442.61399 l
697.248 442.632922 l
703.944 442.632698 l
710.64 442.632726 l
717.336 442.632782 l
724.032 442.632978 l
730.728 442.632894 l
737.424 442.632782 l
744.12 442.632698 l
750.816 442.63281 l
757.512 442.632894 l
764.208 442.633007 l
770.904 442.633007 l
stroke
grestore
0 setlinejoin
2 setlinecap
[] 0 setdash
1.000 setgray
gsave
108 347.563636 m
108 583.2 l
stroke
grestore
gsave
108 347.563636 m
777.6 347.563636 l
stroke
grestore
gsave
777.6 347.563636 m
777.6 583.2 l
stroke
grestore
gsave
108 583.2 m
777.6 583.2 l
stroke
grestore
0.500 setlinewidth
0 setlinecap
gsave
599.196875 467.85 m
771.6 467.85 l
771.6 577.2 l
599.196875 577.2 l
cl
gsave
0.898 setgray
fill
grestore
stroke
grestore
1.000 setlinewidth
1 setlinejoin
2 setlinecap
0.494 0.224 0.533 setrgbcolor
gsave
607.596875 567.475 m
624.396875 567.475 l
stroke
grestore
0.000 setgray
gsave
637.596875 563.275000 translate
0.000000 rotate
0.000000 0.000000 m /C glyphshow
8.378906 0.000000 m /S glyphshow
15.996094 0.000000 m /V glyphshow
24.205078 0.000000 m /v glyphshow
31.306641 0.000000 m /two glyphshow
38.941406 0.000000 m /space glyphshow
42.755859 0.000000 m /v glyphshow
49.857422 0.000000 m /a glyphshow
57.210938 0.000000 m /r glyphshow
62.144531 0.000000 m /i glyphshow
65.478516 0.000000 m /a glyphshow
72.832031 0.000000 m /b glyphshow
80.449219 0.000000 m /l glyphshow
83.783203 0.000000 m /e glyphshow
91.166016 0.000000 m /s glyphshow
97.417969 0.000000 m /space glyphshow
101.232422 0.000000 m /t glyphshow
105.937500 0.000000 m /r glyphshow
110.871094 0.000000 m /a glyphshow
118.224609 0.000000 m /i glyphshow
121.558594 0.000000 m /n glyphshow
grestore
0 setlinecap
[6 6] 0 setdash
0.494 0.224 0.533 setrgbcolor
gsave
607.596875 549.85 m
624.396875 549.85 l
stroke
grestore
0.000 setgray
gsave
637.596875 545.650000 translate
0.000000 rotate
0.000000 0.000000 m /C glyphshow
8.378906 0.000000 m /S glyphshow
15.996094 0.000000 m /V glyphshow
24.205078 0.000000 m /v glyphshow
31.306641 0.000000 m /two glyphshow
38.941406 0.000000 m /space glyphshow
42.755859 0.000000 m /v glyphshow
49.857422 0.000000 m /a glyphshow
57.210938 0.000000 m /r glyphshow
62.144531 0.000000 m /i glyphshow
65.478516 0.000000 m /a glyphshow
72.832031 0.000000 m /b glyphshow
80.449219 0.000000 m /l glyphshow
83.783203 0.000000 m /e glyphshow
91.166016 0.000000 m /s glyphshow
97.417969 0.000000 m /space glyphshow
101.232422 0.000000 m /t glyphshow
105.937500 0.000000 m /e glyphshow
113.320312 0.000000 m /s glyphshow
119.572266 0.000000 m /t glyphshow
grestore
2 setlinecap
[] 0 setdash
0.627 0.812 0.192 setrgbcolor
gsave
607.596875 532.225 m
624.396875 532.225 l
stroke
grestore
0.000 setgray
gsave
637.596875 528.025000 translate
0.000000 rotate
0.000000 0.000000 m /C glyphshow
8.378906 0.000000 m /S glyphshow
15.996094 0.000000 m /V glyphshow
24.205078 0.000000 m /v glyphshow
31.306641 0.000000 m /one glyphshow
38.941406 0.000000 m /space glyphshow
42.755859 0.000000 m /v glyphshow
49.857422 0.000000 m /a glyphshow
57.210938 0.000000 m /r glyphshow
62.144531 0.000000 m /i glyphshow
65.478516 0.000000 m /a glyphshow
72.832031 0.000000 m /b glyphshow
80.449219 0.000000 m /l glyphshow
83.783203 0.000000 m /e glyphshow
91.166016 0.000000 m /s glyphshow
97.417969 0.000000 m /space glyphshow
101.232422 0.000000 m /t glyphshow
105.937500 0.000000 m /r glyphshow
110.871094 0.000000 m /a glyphshow
118.224609 0.000000 m /i glyphshow
121.558594 0.000000 m /n glyphshow
grestore
0 setlinecap
[6 6] 0 setdash
0.627 0.812 0.192 setrgbcolor
gsave
607.596875 514.6 m
624.396875 514.6 l
stroke
grestore
0.000 setgray
gsave
637.596875 510.400000 translate
0.000000 rotate
0.000000 0.000000 m /C glyphshow
8.378906 0.000000 m /S glyphshow
15.996094 0.000000 m /V glyphshow
24.205078 0.000000 m /v glyphshow
31.306641 0.000000 m /one glyphshow
38.941406 0.000000 m /space glyphshow
42.755859 0.000000 m /v glyphshow
49.857422 0.000000 m /a glyphshow
57.210938 0.000000 m /r glyphshow
62.144531 0.000000 m /i glyphshow
65.478516 0.000000 m /a glyphshow
72.832031 0.000000 m /b glyphshow
80.449219 0.000000 m /l glyphshow
83.783203 0.000000 m /e glyphshow
91.166016 0.000000 m /s glyphshow
97.417969 0.000000 m /space glyphshow
101.232422 0.000000 m /t glyphshow
105.937500 0.000000 m /e glyphshow
113.320312 0.000000 m /s glyphshow
119.572266 0.000000 m /t glyphshow
grestore
2 setlinecap
[] 0 setdash
0.863 0.278 0.208 setrgbcolor
gsave
607.596875 496.975 m
624.396875 496.975 l
stroke
grestore
0.000 setgray
gsave
637.596875 492.775000 translate
0.000000 rotate
0.000000 0.000000 m /a glyphshow
7.353516 0.000000 m /l glyphshow
10.687500 0.000000 m /l glyphshow
14.021484 0.000000 m /space glyphshow
17.835938 0.000000 m /S glyphshow
25.453125 0.000000 m /V glyphshow
33.662109 0.000000 m /space glyphshow
37.476562 0.000000 m /v glyphshow
44.578125 0.000000 m /a glyphshow
51.931641 0.000000 m /r glyphshow
56.865234 0.000000 m /i glyphshow
60.199219 0.000000 m /a glyphshow
67.552734 0.000000 m /b glyphshow
75.169922 0.000000 m /l glyphshow
78.503906 0.000000 m /e glyphshow
85.886719 0.000000 m /s glyphshow
92.138672 0.000000 m /space glyphshow
95.953125 0.000000 m /t glyphshow
100.658203 0.000000 m /r glyphshow
105.591797 0.000000 m /a glyphshow
112.945312 0.000000 m /i glyphshow
116.279297 0.000000 m /n glyphshow
grestore
0 setlinecap
[6 6] 0 setdash
0.863 0.278 0.208 setrgbcolor
gsave
607.596875 479.35 m
624.396875 479.35 l
stroke
grestore
0.000 setgray
gsave
637.596875 475.150000 translate
0.000000 rotate
0.000000 0.000000 m /a glyphshow
7.353516 0.000000 m /l glyphshow
10.687500 0.000000 m /l glyphshow
14.021484 0.000000 m /space glyphshow
17.835938 0.000000 m /S glyphshow
25.453125 0.000000 m /V glyphshow
33.662109 0.000000 m /space glyphshow
37.476562 0.000000 m /v glyphshow
44.578125 0.000000 m /a glyphshow
51.931641 0.000000 m /r glyphshow
56.865234 0.000000 m /i glyphshow
60.199219 0.000000 m /a glyphshow
67.552734 0.000000 m /b glyphshow
75.169922 0.000000 m /l glyphshow
78.503906 0.000000 m /e glyphshow
85.886719 0.000000 m /s glyphshow
92.138672 0.000000 m /space glyphshow
95.953125 0.000000 m /t glyphshow
100.658203 0.000000 m /e glyphshow
108.041016 0.000000 m /s glyphshow
114.292969 0.000000 m /t glyphshow
grestore
gsave
108 64.8 m
777.6 64.8 l
777.6 300.436364 l
108 300.436364 l
cl
0.898 setgray
fill
grestore
0.500 setlinewidth
2 setlinecap
[] 0 setdash
1.000 setgray
gsave
669.6 235.6 108 64.8 clipbox
108 64.8 m
108 300.436364 l
stroke
grestore
0 setlinecap
0.333 setgray
gsave
/o {
gsave
newpath
translate
0.5 setlinewidth
1 setlinejoin
0 setlinecap
0 0 m
0 -4 l

gsave
0.333 setgray
fill
grestore
stroke
grestore
} bind def
108 64.8 o
grestore
gsave
/o {
gsave
newpath
translate
0.5 setlinewidth
1 setlinejoin
0 setlinecap
0 0 m
0 4 l

gsave
0.333 setgray
fill
grestore
stroke
grestore
} bind def
108 300.436 o
grestore
/BitstreamVeraSans-Roman findfont
10.000 scalefont
setfont
gsave
104.820312 49.206250 translate
0.000000 rotate
0.000000 0.000000 m /zero glyphshow
grestore
2 setlinecap
1.000 setgray
gsave
669.6 235.6 108 64.8 clipbox
241.92 64.8 m
241.92 300.436364 l
stroke
grestore
0 setlinecap
0.333 setgray
gsave
/o {
gsave
newpath
translate
0.5 setlinewidth
1 setlinejoin
0 setlinecap
0 0 m
0 -4 l

gsave
0.333 setgray
fill
grestore
stroke
grestore
} bind def
241.92 64.8 o
grestore
gsave
/o {
gsave
newpath
translate
0.5 setlinewidth
1 setlinejoin
0 setlinecap
0 0 m
0 4 l

gsave
0.333 setgray
fill
grestore
stroke
grestore
} bind def
241.92 300.436 o
grestore
gsave
235.560625 49.206250 translate
0.000000 rotate
0.000000 0.000000 m /two glyphshow
6.362305 0.000000 m /zero glyphshow
grestore
2 setlinecap
1.000 setgray
gsave
669.6 235.6 108 64.8 clipbox
375.84 64.8 m
375.84 300.436364 l
stroke
grestore
0 setlinecap
0.333 setgray
gsave
/o {
gsave
newpath
translate
0.5 setlinewidth
1 setlinejoin
0 setlinecap
0 0 m
0 -4 l

gsave
0.333 setgray
fill
grestore
stroke
grestore
} bind def
375.84 64.8 o
grestore
gsave
/o {
gsave
newpath
translate
0.5 setlinewidth
1 setlinejoin
0 setlinecap
0 0 m
0 4 l

gsave
0.333 setgray
fill
grestore
stroke
grestore
} bind def
375.84 300.436 o
grestore
gsave
369.480625 49.206250 translate
0.000000 rotate
0.000000 0.000000 m /four glyphshow
6.362305 0.000000 m /zero glyphshow
grestore
2 setlinecap
1.000 setgray
gsave
669.6 235.6 108 64.8 clipbox
509.76 64.8 m
509.76 300.436364 l
stroke
grestore
0 setlinecap
0.333 setgray
gsave
/o {
gsave
newpath
translate
0.5 setlinewidth
1 setlinejoin
0 setlinecap
0 0 m
0 -4 l

gsave
0.333 setgray
fill
grestore
stroke
grestore
} bind def
509.76 64.8 o
grestore
gsave
/o {
gsave
newpath
translate
0.5 setlinewidth
1 setlinejoin
0 setlinecap
0 0 m
0 4 l

gsave
0.333 setgray
fill
grestore
stroke
grestore
} bind def
509.76 300.436 o
grestore
gsave
503.400625 49.206250 translate
0.000000 rotate
0.000000 0.000000 m /six glyphshow
6.362305 0.000000 m /zero glyphshow
grestore
2 setlinecap
1.000 setgray
gsave
669.6 235.6 108 64.8 clipbox
643.68 64.8 m
643.68 300.436364 l
stroke
grestore
0 setlinecap
0.333 setgray
gsave
/o {
gsave
newpath
translate
0.5 setlinewidth
1 setlinejoin
0 setlinecap
0 0 m
0 -4 l

gsave
0.333 setgray
fill
grestore
stroke
grestore
} bind def
643.68 64.8 o
grestore
gsave
/o {
gsave
newpath
translate
0.5 setlinewidth
1 setlinejoin
0 setlinecap
0 0 m
0 4 l

gsave
0.333 setgray
fill
grestore
stroke
grestore
} bind def
643.68 300.436 o
grestore
gsave
637.320625 49.206250 translate
0.000000 rotate
0.000000 0.000000 m /eight glyphshow
6.362305 0.000000 m /zero glyphshow
grestore
2 setlinecap
1.000 setgray
gsave
669.6 235.6 108 64.8 clipbox
777.6 64.8 m
777.6 300.436364 l
stroke
grestore
0 setlinecap
0.333 setgray
gsave
/o {
gsave
newpath
translate
0.5 setlinewidth
1 setlinejoin
0 setlinecap
0 0 m
0 -4 l

gsave
0.333 setgray
fill
grestore
stroke
grestore
} bind def
777.6 64.8 o
grestore
gsave
/o {
gsave
newpath
translate
0.5 setlinewidth
1 setlinejoin
0 setlinecap
0 0 m
0 4 l

gsave
0.333 setgray
fill
grestore
stroke
grestore
} bind def
777.6 300.436 o
grestore
gsave
768.060938 49.206250 translate
0.000000 rotate
0.000000 0.000000 m /one glyphshow
6.362305 0.000000 m /zero glyphshow
12.724609 0.000000 m /zero glyphshow
grestore
0.024 0.024 0.027 setrgbcolor
/BitstreamVeraSans-Roman findfont
12.000 scalefont
setfont
gsave
424.425000 33.003125 translate
0.000000 rotate
0.000000 0.000000 m /E glyphshow
7.582031 0.000000 m /p glyphshow
15.199219 0.000000 m /o glyphshow
22.541016 0.000000 m /c glyphshow
29.138672 0.000000 m /h glyphshow
grestore
2 setlinecap
1.000 setgray
gsave
669.6 235.6 108 64.8 clipbox
108 64.8 m
777.6 64.8 l
stroke
grestore
0 setlinecap
0.333 setgray
gsave
/o {
gsave
newpath
translate
0.5 setlinewidth
1 setlinejoin
0 setlinecap
0 0 m
-4 0 l

gsave
0.333 setgray
fill
grestore
stroke
grestore
} bind def
108 64.8 o
grestore
gsave
/o {
gsave
newpath
translate
0.5 setlinewidth
1 setlinejoin
0 setlinecap
0 0 m
4 0 l

gsave
0.333 setgray
fill
grestore
stroke
grestore
} bind def
777.6 64.8 o
grestore
/BitstreamVeraSans-Roman findfont
10.000 scalefont
setfont
gsave
93.640625 62.042187 translate
0.000000 rotate
0.000000 0.000000 m /zero glyphshow
grestore
2 setlinecap
1.000 setgray
gsave
669.6 235.6 108 64.8 clipbox
108 111.927273 m
777.6 111.927273 l
stroke
grestore
0 setlinecap
0.333 setgray
gsave
/o {
gsave
newpath
translate
0.5 setlinewidth
1 setlinejoin
0 setlinecap
0 0 m
-4 0 l

gsave
0.333 setgray
fill
grestore
stroke
grestore
} bind def
108 111.927 o
grestore
gsave
/o {
gsave
newpath
translate
0.5 setlinewidth
1 setlinejoin
0 setlinecap
0 0 m
4 0 l

gsave
0.333 setgray
fill
grestore
stroke
grestore
} bind def
777.6 111.927 o
grestore
gsave
87.281250 109.169460 translate
0.000000 rotate
0.000000 0.000000 m /five glyphshow
6.362305 0.000000 m /zero glyphshow
grestore
2 setlinecap
1.000 setgray
gsave
669.6 235.6 108 64.8 clipbox
108 159.054545 m
777.6 159.054545 l
stroke
grestore
0 setlinecap
0.333 setgray
gsave
/o {
gsave
newpath
translate
0.5 setlinewidth
1 setlinejoin
0 setlinecap
0 0 m
-4 0 l

gsave
0.333 setgray
fill
grestore
stroke
grestore
} bind def
108 159.055 o
grestore
gsave
/o {
gsave
newpath
translate
0.5 setlinewidth
1 setlinejoin
0 setlinecap
0 0 m
4 0 l

gsave
0.333 setgray
fill
grestore
stroke
grestore
} bind def
777.6 159.055 o
grestore
gsave
80.921875 156.296733 translate
0.000000 rotate
0.000000 0.000000 m /one glyphshow
6.362305 0.000000 m /zero glyphshow
12.724609 0.000000 m /zero glyphshow
grestore
2 setlinecap
1.000 setgray
gsave
669.6 235.6 108 64.8 clipbox
108 206.181818 m
777.6 206.181818 l
stroke
grestore
0 setlinecap
0.333 setgray
gsave
/o {
gsave
newpath
translate
0.5 setlinewidth
1 setlinejoin
0 setlinecap
0 0 m
-4 0 l

gsave
0.333 setgray
fill
grestore
stroke
grestore
} bind def
108 206.182 o
grestore
gsave
/o {
gsave
newpath
translate
0.5 setlinewidth
1 setlinejoin
0 setlinecap
0 0 m
4 0 l

gsave
0.333 setgray
fill
grestore
stroke
grestore
} bind def
777.6 206.182 o
grestore
gsave
80.921875 203.424006 translate
0.000000 rotate
0.000000 0.000000 m /one glyphshow
6.362305 0.000000 m /five glyphshow
12.724609 0.000000 m /zero glyphshow
grestore
2 setlinecap
1.000 setgray
gsave
669.6 235.6 108 64.8 clipbox
108 253.309091 m
777.6 253.309091 l
stroke
grestore
0 setlinecap
0.333 setgray
gsave
/o {
gsave
newpath
translate
0.5 setlinewidth
1 setlinejoin
0 setlinecap
0 0 m
-4 0 l

gsave
0.333 setgray
fill
grestore
stroke
grestore
} bind def
108 253.309 o
grestore
gsave
/o {
gsave
newpath
translate
0.5 setlinewidth
1 setlinejoin
0 setlinecap
0 0 m
4 0 l

gsave
0.333 setgray
fill
grestore
stroke
grestore
} bind def
777.6 253.309 o
grestore
gsave
80.921875 250.551278 translate
0.000000 rotate
0.000000 0.000000 m /two glyphshow
6.362305 0.000000 m /zero glyphshow
12.724609 0.000000 m /zero glyphshow
grestore
2 setlinecap
1.000 setgray
gsave
669.6 235.6 108 64.8 clipbox
108 300.436364 m
777.6 300.436364 l
stroke
grestore
0 setlinecap
0.333 setgray
gsave
/o {
gsave
newpath
translate
0.5 setlinewidth
1 setlinejoin
0 setlinecap
0 0 m
-4 0 l

gsave
0.333 setgray
fill
grestore
stroke
grestore
} bind def
108 300.436 o
grestore
gsave
/o {
gsave
newpath
translate
0.5 setlinewidth
1 setlinejoin
0 setlinecap
0 0 m
4 0 l

gsave
0.333 setgray
fill
grestore
stroke
grestore
} bind def
777.6 300.436 o
grestore
gsave
80.921875 297.678551 translate
0.000000 rotate
0.000000 0.000000 m /two glyphshow
6.362305 0.000000 m /five glyphshow
12.724609 0.000000 m /zero glyphshow
grestore
0.024 0.024 0.027 setrgbcolor
/BitstreamVeraSans-Roman findfont
12.000 scalefont
setfont
gsave
73.421875 147.016619 translate
90.000000 rotate
0.000000 0.000000 m /S glyphshow
7.617188 0.000000 m /u glyphshow
15.222656 0.000000 m /m glyphshow
26.912109 0.000000 m /space glyphshow
30.726562 0.000000 m /w glyphshow
40.541016 0.000000 m /e glyphshow
47.923828 0.000000 m /i glyphshow
51.257812 0.000000 m /g glyphshow
58.875000 0.000000 m /h glyphshow
66.480469 0.000000 m /t glyphshow
grestore
1.000 setlinewidth
2 setlinecap
0.494 0.224 0.533 setrgbcolor
gsave
669.6 235.6 108 64.8 clipbox
108 181.797172 m
114.696 197.659445 l
121.392 209.180334 l
128.088 216.592199 l
134.784 223.256104 l
141.48 229.126144 l
148.176 232.85785 l
154.872 237.102447 l
161.568 239.312038 l
168.264 241.559197 l
174.96 242.290285 l
181.656 243.735937 l
188.352 244.008904 l
195.048 246.236412 l
201.744 247.221113 l
208.44 247.643982 l
215.136 249.026095 l
221.832 248.775796 l
228.528 248.841131 l
235.224 250.022766 l
241.92 249.111113 l
248.616 248.388109 l
255.312 248.06671 l
262.008 248.695904 l
268.704 249.082943 l
275.4 249.604641 l
282.096 250.279348 l
288.792 251.01648 l
295.488 251.746805 l
302.184 252.712766 l
308.88 253.022353 l
315.576 254.0509 l
322.272 254.100312 l
328.968 254.186792 l
335.664 254.259148 l
342.36 254.344383 l
349.056 254.392835 l
355.752 254.483647 l
362.448 254.489262 l
369.144 254.562816 l
375.84 254.683863 l
382.536 254.74783 l
389.232 254.756078 l
395.928 254.762358 l
402.624 254.768196 l
409.32 254.773222 l
416.016 254.775145 l
422.712 254.783659 l
429.408 254.785019 l
436.104 254.790198 l
442.8 254.796473 l
449.496 254.800439 l
456.192 254.801386 l
462.888 254.801669 l
469.584 254.801834 l
476.28 254.803256 l
482.976 254.804092 l
489.672 254.803865 l
496.368 254.803801 l
503.064 254.803824 l
509.76 254.803956 l
516.456 254.803902 l
523.152 254.803939 l
529.848 254.803941 l
536.544 254.803937 l
543.24 254.80398 l
549.936 254.803994 l
556.632 254.80404 l
563.328 254.804113 l
570.024 254.804118 l
576.72 254.804139 l
583.416 254.804147 l
590.112 254.804148 l
596.808 254.804147 l
603.504 254.804147 l
610.2 254.804147 l
616.896 254.804148 l
623.592 254.804147 l
630.288 254.804147 l
636.984 254.804148 l
643.68 254.804147 l
650.376 254.804147 l
657.072 254.804147 l
663.768 254.804147 l
670.464 254.804147 l
677.16 254.804147 l
683.856 254.804147 l
690.552 254.804147 l
697.248 254.804147 l
703.944 254.804147 l
710.64 254.804147 l
717.336 254.804147 l
724.032 254.804147 l
730.728 254.804147 l
737.424 254.804147 l
744.12 254.804147 l
750.816 254.804147 l
757.512 254.804147 l
764.208 254.804147 l
770.904 254.804147 l
stroke
grestore
0.627 0.812 0.192 setrgbcolor
gsave
669.6 235.6 108 64.8 clipbox
108 92.395915 m
114.696 95.421875 l
121.392 98.791899 l
128.088 100.844996 l
134.784 101.166917 l
141.48 102.082751 l
148.176 102.814719 l
154.872 103.932882 l
161.568 104.346929 l
168.264 104.545433 l
174.96 104.439291 l
181.656 104.322011 l
188.352 104.700169 l
195.048 105.259353 l
201.744 105.313474 l
208.44 105.145194 l
215.136 105.141635 l
221.832 105.001938 l
228.528 105.619784 l
235.224 106.520839 l
241.92 106.945102 l
248.616 106.866043 l
255.312 106.563842 l
262.008 107.346128 l
268.704 108.565752 l
275.4 108.299341 l
282.096 108.432992 l
288.792 108.484758 l
295.488 108.638966 l
302.184 108.266356 l
308.88 108.710493 l
315.576 108.486362 l
322.272 108.596356 l
328.968 108.479628 l
335.664 108.969519 l
342.36 108.976687 l
349.056 108.944997 l
355.752 108.929868 l
362.448 109.125948 l
369.144 109.131049 l
375.84 109.134861 l
382.536 109.154792 l
389.232 109.254746 l
395.928 109.352957 l
402.624 109.265156 l
409.32 109.263824 l
416.016 109.25439 l
422.712 109.243162 l
429.408 109.238878 l
436.104 109.227974 l
442.8 109.241247 l
449.496 109.251256 l
456.192 109.239708 l
462.888 109.23694 l
469.584 109.245296 l
476.28 109.246052 l
482.976 109.245528 l
489.672 109.245103 l
496.368 109.244946 l
503.064 109.245219 l
509.76 109.245935 l
516.456 109.246612 l
523.152 109.248129 l
529.848 109.248127 l
536.544 109.247156 l
543.24 109.247023 l
549.936 109.247187 l
556.632 109.247282 l
563.328 109.247355 l
570.024 109.247462 l
576.72 109.247535 l
583.416 109.247643 l
590.112 109.247617 l
596.808 109.247775 l
603.504 109.248007 l
610.2 109.248017 l
616.896 109.248023 l
623.592 109.248024 l
630.288 109.248019 l
636.984 109.248021 l
643.68 109.248026 l
650.376 109.248023 l
657.072 109.248031 l
663.768 109.248029 l
670.464 109.248032 l
677.16 109.248032 l
683.856 109.248033 l
690.552 109.248033 l
697.248 109.248033 l
703.944 109.248033 l
710.64 109.248033 l
717.336 109.248033 l
724.032 109.248033 l
730.728 109.248034 l
737.424 109.248034 l
744.12 109.248034 l
750.816 109.248034 l
757.512 109.248034 l
764.208 109.248034 l
770.904 109.248034 l
stroke
grestore
0.863 0.278 0.208 setrgbcolor
gsave
669.6 235.6 108 64.8 clipbox
108 91.406013 m
114.696 96.043953 l
121.392 98.492056 l
128.088 100.594761 l
134.784 102.280547 l
141.48 103.436712 l
148.176 104.520378 l
154.872 105.890249 l
161.568 106.312213 l
168.264 107.885904 l
174.96 107.736002 l
181.656 108.293889 l
188.352 108.735128 l
195.048 109.375808 l
201.744 109.568611 l
208.44 109.055258 l
215.136 110.117752 l
221.832 109.884227 l
228.528 110.080907 l
235.224 109.95963 l
241.92 110.146653 l
248.616 110.106505 l
255.312 110.360143 l
262.008 110.764002 l
268.704 110.832815 l
275.4 110.876923 l
282.096 110.502589 l
288.792 110.762402 l
295.488 110.775632 l
302.184 110.879307 l
308.88 110.740507 l
315.576 110.777054 l
322.272 110.560727 l
328.968 110.473419 l
335.664 110.800501 l
342.36 111.107128 l
349.056 111.904113 l
355.752 110.964082 l
362.448 110.787952 l
369.144 110.957852 l
375.84 110.483279 l
382.536 110.824643 l
389.232 110.969477 l
395.928 110.637123 l
402.624 110.447079 l
409.32 110.69976 l
416.016 110.655356 l
422.712 110.504829 l
429.408 110.918078 l
436.104 111.035936 l
442.8 111.013244 l
449.496 110.999829 l
456.192 110.97868 l
462.888 111.044996 l
469.584 110.998692 l
476.28 111.023174 l
482.976 110.987856 l
489.672 111.031703 l
496.368 111.02397 l
503.064 111.026276 l
509.76 111.025037 l
516.456 111.031461 l
523.152 111.036821 l
529.848 111.031019 l
536.544 111.024085 l
543.24 111.026785 l
549.936 111.027883 l
556.632 111.037234 l
563.328 111.040659 l
570.024 111.040889 l
576.72 111.04198 l
583.416 111.045211 l
590.112 111.048427 l
596.808 111.048915 l
603.504 111.050575 l
610.2 111.049747 l
616.896 111.049429 l
623.592 111.049316 l
630.288 111.049843 l
636.984 111.04991 l
643.68 111.050067 l
650.376 111.050102 l
657.072 111.050136 l
663.768 111.05012 l
670.464 111.05028 l
677.16 111.050242 l
683.856 111.050242 l
690.552 111.050397 l
697.248 111.0505 l
703.944 111.050493 l
710.64 111.050491 l
717.336 111.050486 l
724.032 111.050488 l
730.728 111.050484 l
737.424 111.050483 l
744.12 111.050484 l
750.816 111.05049 l
757.512 111.050491 l
764.208 111.050478 l
770.904 111.050478 l
stroke
grestore
0 setlinejoin
1.000 setgray
gsave
108 64.8 m
108 300.436364 l
stroke
grestore
gsave
108 64.8 m
777.6 64.8 l
stroke
grestore
gsave
777.6 64.8 m
777.6 300.436364 l
stroke
grestore
gsave
108 300.436364 m
777.6 300.436364 l
stroke
grestore

end
showpage
