%!PS-Adobe-3.0 EPSF-3.0
%%Title: training/reweigh_tests/loss_plot.eps
%%Creator: matplotlib version 1.5.1, http://matplotlib.org/
%%CreationDate: Mon May 21 15:09:16 2018
%%Orientation: portrait
%%BoundingBox: -126 72 738 720
%%EndComments
%%BeginProlog
/mpldict 8 dict def
mpldict begin
/m { moveto } bind def
/l { lineto } bind def
/r { rlineto } bind def
/c { curveto } bind def
/cl { closepath } bind def
/box {
m
1 index 0 r
0 exch r
neg 0 r
cl
} bind def
/clipbox {
box
clip
newpath
} bind def
%!PS-Adobe-3.0 Resource-Font
%%Title: Bitstream Vera Sans
%%Copyright: Copyright (c) 2003 by Bitstream, Inc. All Rights Reserved.
%%Creator: Converted from TrueType to type 3 by PPR
25 dict begin
/_d{bind def}bind def
/_m{moveto}_d
/_l{lineto}_d
/_cl{closepath eofill}_d
/_c{curveto}_d
/_sc{7 -1 roll{setcachedevice}{pop pop pop pop pop pop}ifelse}_d
/_e{exec}_d
/FontName /BitstreamVeraSans-Roman def
/PaintType 0 def
/FontMatrix[.001 0 0 .001 0 0]def
/FontBBox[-183 -236 1287 928]def
/FontType 3 def
/Encoding [ /space /period /zero /one /two /three /four /five /six /seven /eight /nine /E /L /S /a /c /d /e /g /h /i /m /n /o /p /r /s /t /u /w ] def
/FontInfo 10 dict dup begin
/FamilyName (Bitstream Vera Sans) def
/FullName (Bitstream Vera Sans) def
/Notice (Copyright (c) 2003 by Bitstream, Inc. All Rights Reserved. Bitstream Vera is a trademark of Bitstream, Inc.) def
/Weight (Roman) def
/Version (Release 1.10) def
/ItalicAngle 0.0 def
/isFixedPitch false def
/UnderlinePosition -213 def
/UnderlineThickness 143 def
end readonly def
/CharStrings 31 dict dup begin
/space{318 0 0 0 0 0 _sc
}_d
/period{318 0 107 0 210 124 _sc
107 124 _m
210 124 _l
210 0 _l
107 0 _l
107 124 _l
_cl}_d
/zero{636 0 66 -13 570 742 _sc
318 664 _m
267 664 229 639 203 589 _c
177 539 165 464 165 364 _c
165 264 177 189 203 139 _c
229 89 267 64 318 64 _c
369 64 407 89 433 139 _c
458 189 471 264 471 364 _c
471 464 458 539 433 589 _c
407 639 369 664 318 664 _c
318 742 _m
399 742 461 709 505 645 _c
548 580 570 486 570 364 _c
570 241 548 147 505 83 _c
461 19 399 -13 318 -13 _c
236 -13 173 19 130 83 _c
87 147 66 241 66 364 _c
66 486 87 580 130 645 _c
173 709 236 742 318 742 _c
_cl}_d
/one{636 0 110 0 544 729 _sc
124 83 _m
285 83 _l
285 639 _l
110 604 _l
110 694 _l
284 729 _l
383 729 _l
383 83 _l
544 83 _l
544 0 _l
124 0 _l
124 83 _l
_cl}_d
/two{{636 0 73 0 536 742 _sc
192 83 _m
536 83 _l
536 0 _l
73 0 _l
73 83 _l
110 121 161 173 226 239 _c
290 304 331 346 348 365 _c
380 400 402 430 414 455 _c
426 479 433 504 433 528 _c
433 566 419 598 392 622 _c
365 646 330 659 286 659 _c
255 659 222 653 188 643 _c
154 632 117 616 78 594 _c
78 694 _l
118 710 155 722 189 730 _c
223 738 255 742 284 742 _c
}_e{359 742 419 723 464 685 _c
509 647 532 597 532 534 _c
532 504 526 475 515 449 _c
504 422 484 390 454 354 _c
446 344 420 317 376 272 _c
332 227 271 164 192 83 _c
_cl}_e}_d
/three{{636 0 76 -13 556 742 _sc
406 393 _m
453 383 490 362 516 330 _c
542 298 556 258 556 212 _c
556 140 531 84 482 45 _c
432 6 362 -13 271 -13 _c
240 -13 208 -10 176 -4 _c
144 1 110 10 76 22 _c
76 117 _l
103 101 133 89 166 81 _c
198 73 232 69 268 69 _c
330 69 377 81 409 105 _c
441 129 458 165 458 212 _c
458 254 443 288 413 312 _c
383 336 341 349 287 349 _c
}_e{202 349 _l
202 430 _l
291 430 _l
339 430 376 439 402 459 _c
428 478 441 506 441 543 _c
441 580 427 609 401 629 _c
374 649 336 659 287 659 _c
260 659 231 656 200 650 _c
169 644 135 635 98 623 _c
98 711 _l
135 721 170 729 203 734 _c
235 739 266 742 296 742 _c
370 742 429 725 473 691 _c
517 657 539 611 539 553 _c
539 513 527 479 504 451 _c
481 423 448 403 406 393 _c
_cl}_e}_d
/four{636 0 49 0 580 729 _sc
378 643 _m
129 254 _l
378 254 _l
378 643 _l
352 729 _m
476 729 _l
476 254 _l
580 254 _l
580 172 _l
476 172 _l
476 0 _l
378 0 _l
378 172 _l
49 172 _l
49 267 _l
352 729 _l
_cl}_d
/five{{636 0 77 -13 549 729 _sc
108 729 _m
495 729 _l
495 646 _l
198 646 _l
198 467 _l
212 472 227 476 241 478 _c
255 480 270 482 284 482 _c
365 482 429 459 477 415 _c
525 370 549 310 549 234 _c
549 155 524 94 475 51 _c
426 8 357 -13 269 -13 _c
238 -13 207 -10 175 -6 _c
143 -1 111 6 77 17 _c
77 116 _l
106 100 136 88 168 80 _c
199 72 232 69 267 69 _c
}_e{323 69 368 83 401 113 _c
433 143 450 183 450 234 _c
450 284 433 324 401 354 _c
368 384 323 399 267 399 _c
241 399 214 396 188 390 _c
162 384 135 375 108 363 _c
108 729 _l
_cl}_e}_d
/six{{636 0 70 -13 573 742 _sc
330 404 _m
286 404 251 388 225 358 _c
199 328 186 286 186 234 _c
186 181 199 139 225 109 _c
251 79 286 64 330 64 _c
374 64 409 79 435 109 _c
461 139 474 181 474 234 _c
474 286 461 328 435 358 _c
409 388 374 404 330 404 _c
526 713 _m
526 623 _l
501 635 476 644 451 650 _c
425 656 400 659 376 659 _c
310 659 260 637 226 593 _c
}_e{192 549 172 482 168 394 _c
187 422 211 444 240 459 _c
269 474 301 482 336 482 _c
409 482 467 459 509 415 _c
551 371 573 310 573 234 _c
573 159 550 99 506 54 _c
462 9 403 -13 330 -13 _c
246 -13 181 19 137 83 _c
92 147 70 241 70 364 _c
70 479 97 571 152 639 _c
206 707 280 742 372 742 _c
396 742 421 739 447 735 _c
472 730 498 723 526 713 _c
_cl}_e}_d
/seven{636 0 82 0 551 729 _sc
82 729 _m
551 729 _l
551 687 _l
286 0 _l
183 0 _l
432 646 _l
82 646 _l
82 729 _l
_cl}_d
/eight{{636 0 68 -13 568 742 _sc
318 346 _m
271 346 234 333 207 308 _c
180 283 167 249 167 205 _c
167 161 180 126 207 101 _c
234 76 271 64 318 64 _c
364 64 401 76 428 102 _c
455 127 469 161 469 205 _c
469 249 455 283 429 308 _c
402 333 365 346 318 346 _c
219 388 _m
177 398 144 418 120 447 _c
96 476 85 511 85 553 _c
85 611 105 657 147 691 _c
188 725 245 742 318 742 _c
}_e{390 742 447 725 489 691 _c
530 657 551 611 551 553 _c
551 511 539 476 515 447 _c
491 418 459 398 417 388 _c
464 377 501 355 528 323 _c
554 291 568 251 568 205 _c
568 134 546 80 503 43 _c
459 5 398 -13 318 -13 _c
237 -13 175 5 132 43 _c
89 80 68 134 68 205 _c
68 251 81 291 108 323 _c
134 355 171 377 219 388 _c
183 544 _m
183 506 194 476 218 455 _c
}_e{242 434 275 424 318 424 _c
360 424 393 434 417 455 _c
441 476 453 506 453 544 _c
453 582 441 611 417 632 _c
393 653 360 664 318 664 _c
275 664 242 653 218 632 _c
194 611 183 582 183 544 _c
_cl}_e}_d
/nine{{636 0 63 -13 566 742 _sc
110 15 _m
110 105 _l
134 93 159 84 185 78 _c
210 72 235 69 260 69 _c
324 69 374 90 408 134 _c
442 178 462 244 468 334 _c
448 306 424 284 396 269 _c
367 254 335 247 300 247 _c
226 247 168 269 126 313 _c
84 357 63 417 63 494 _c
63 568 85 628 129 674 _c
173 719 232 742 306 742 _c
390 742 455 709 499 645 _c
543 580 566 486 566 364 _c
}_e{566 248 538 157 484 89 _c
429 21 356 -13 264 -13 _c
239 -13 214 -10 189 -6 _c
163 -2 137 5 110 15 _c
306 324 _m
350 324 385 339 411 369 _c
437 399 450 441 450 494 _c
450 546 437 588 411 618 _c
385 648 350 664 306 664 _c
262 664 227 648 201 618 _c
175 588 162 546 162 494 _c
162 441 175 399 201 369 _c
227 339 262 324 306 324 _c
_cl}_e}_d
/E{632 0 98 0 568 729 _sc
98 729 _m
559 729 _l
559 646 _l
197 646 _l
197 430 _l
544 430 _l
544 347 _l
197 347 _l
197 83 _l
568 83 _l
568 0 _l
98 0 _l
98 729 _l
_cl}_d
/L{557 0 98 0 552 729 _sc
98 729 _m
197 729 _l
197 83 _l
552 83 _l
552 0 _l
98 0 _l
98 729 _l
_cl}_d
/S{{635 0 66 -13 579 742 _sc
535 705 _m
535 609 _l
497 627 462 640 429 649 _c
395 657 363 662 333 662 _c
279 662 237 651 208 631 _c
179 610 165 580 165 542 _c
165 510 174 485 194 469 _c
213 452 250 439 304 429 _c
364 417 _l
437 403 491 378 526 343 _c
561 307 579 260 579 201 _c
579 130 555 77 508 41 _c
460 5 391 -13 300 -13 _c
265 -13 228 -9 189 -2 _c
}_e{150 5 110 16 69 32 _c
69 134 _l
109 111 148 94 186 83 _c
224 71 262 66 300 66 _c
356 66 399 77 430 99 _c
460 121 476 152 476 194 _c
476 230 465 258 443 278 _c
421 298 385 313 335 323 _c
275 335 _l
201 349 148 372 115 404 _c
82 435 66 478 66 534 _c
66 598 88 649 134 686 _c
179 723 242 742 322 742 _c
356 742 390 739 426 733 _c
461 727 497 717 535 705 _c
}_e{_cl}_e}_d
/a{{613 0 60 -13 522 560 _sc
343 275 _m
270 275 220 266 192 250 _c
164 233 150 205 150 165 _c
150 133 160 107 181 89 _c
202 70 231 61 267 61 _c
317 61 357 78 387 114 _c
417 149 432 196 432 255 _c
432 275 _l
343 275 _l
522 312 _m
522 0 _l
432 0 _l
432 83 _l
411 49 385 25 355 10 _c
325 -5 287 -13 243 -13 _c
187 -13 142 2 109 33 _c
76 64 60 106 60 159 _c
}_e{60 220 80 266 122 298 _c
163 329 224 345 306 345 _c
432 345 _l
432 354 _l
432 395 418 427 391 450 _c
364 472 326 484 277 484 _c
245 484 215 480 185 472 _c
155 464 127 453 100 439 _c
100 522 _l
132 534 164 544 195 550 _c
226 556 256 560 286 560 _c
365 560 424 539 463 498 _c
502 457 522 395 522 312 _c
_cl}_e}_d
/c{{550 0 55 -13 488 560 _sc
488 526 _m
488 442 _l
462 456 437 466 411 473 _c
385 480 360 484 334 484 _c
276 484 230 465 198 428 _c
166 391 150 339 150 273 _c
150 206 166 154 198 117 _c
230 80 276 62 334 62 _c
360 62 385 65 411 72 _c
437 79 462 90 488 104 _c
488 21 _l
462 9 436 0 410 -5 _c
383 -10 354 -13 324 -13 _c
242 -13 176 12 128 64 _c
}_e{79 115 55 185 55 273 _c
55 362 79 432 128 483 _c
177 534 244 560 330 560 _c
358 560 385 557 411 551 _c
437 545 463 537 488 526 _c
_cl}_e}_d
/d{{635 0 55 -13 544 760 _sc
454 464 _m
454 760 _l
544 760 _l
544 0 _l
454 0 _l
454 82 _l
435 49 411 25 382 10 _c
353 -5 319 -13 279 -13 _c
213 -13 159 13 117 65 _c
75 117 55 187 55 273 _c
55 359 75 428 117 481 _c
159 533 213 560 279 560 _c
319 560 353 552 382 536 _c
411 520 435 496 454 464 _c
148 273 _m
148 207 161 155 188 117 _c
215 79 253 61 301 61 _c
}_e{348 61 385 79 413 117 _c
440 155 454 207 454 273 _c
454 339 440 390 413 428 _c
385 466 348 485 301 485 _c
253 485 215 466 188 428 _c
161 390 148 339 148 273 _c
_cl}_e}_d
/e{{615 0 55 -13 562 560 _sc
562 296 _m
562 252 _l
149 252 _l
153 190 171 142 205 110 _c
238 78 284 62 344 62 _c
378 62 412 66 444 74 _c
476 82 509 95 541 113 _c
541 28 _l
509 14 476 3 442 -3 _c
408 -9 373 -13 339 -13 _c
251 -13 182 12 131 62 _c
80 112 55 181 55 268 _c
55 357 79 428 127 481 _c
175 533 241 560 323 560 _c
397 560 455 536 498 489 _c
}_e{540 441 562 377 562 296 _c
472 322 _m
471 371 457 410 431 440 _c
404 469 368 484 324 484 _c
274 484 234 469 204 441 _c
174 413 156 373 152 322 _c
472 322 _l
_cl}_e}_d
/g{{635 0 55 -207 544 560 _sc
454 280 _m
454 344 440 395 414 431 _c
387 467 349 485 301 485 _c
253 485 215 467 188 431 _c
161 395 148 344 148 280 _c
148 215 161 165 188 129 _c
215 93 253 75 301 75 _c
349 75 387 93 414 129 _c
440 165 454 215 454 280 _c
544 68 _m
544 -24 523 -93 482 -139 _c
440 -184 377 -207 292 -207 _c
260 -207 231 -204 203 -200 _c
175 -195 147 -188 121 -178 _c
}_e{121 -91 _l
147 -105 173 -115 199 -122 _c
225 -129 251 -133 278 -133 _c
336 -133 380 -117 410 -87 _c
439 -56 454 -10 454 52 _c
454 96 _l
435 64 411 40 382 24 _c
353 8 319 0 279 0 _c
211 0 157 25 116 76 _c
75 127 55 195 55 280 _c
55 364 75 432 116 483 _c
157 534 211 560 279 560 _c
319 560 353 552 382 536 _c
411 520 435 496 454 464 _c
454 547 _l
544 547 _l
}_e{544 68 _l
_cl}_e}_d
/h{634 0 91 0 549 760 _sc
549 330 _m
549 0 _l
459 0 _l
459 327 _l
459 379 448 417 428 443 _c
408 469 378 482 338 482 _c
289 482 251 466 223 435 _c
195 404 181 362 181 309 _c
181 0 _l
91 0 _l
91 760 _l
181 760 _l
181 462 _l
202 494 227 519 257 535 _c
286 551 320 560 358 560 _c
420 560 468 540 500 501 _c
532 462 549 405 549 330 _c
_cl}_d
/i{278 0 94 0 184 760 _sc
94 547 _m
184 547 _l
184 0 _l
94 0 _l
94 547 _l
94 760 _m
184 760 _l
184 646 _l
94 646 _l
94 760 _l
_cl}_d
/m{{974 0 91 0 889 560 _sc
520 442 _m
542 482 569 511 600 531 _c
631 550 668 560 711 560 _c
767 560 811 540 842 500 _c
873 460 889 403 889 330 _c
889 0 _l
799 0 _l
799 327 _l
799 379 789 418 771 444 _c
752 469 724 482 686 482 _c
639 482 602 466 575 435 _c
548 404 535 362 535 309 _c
535 0 _l
445 0 _l
445 327 _l
445 379 435 418 417 444 _c
398 469 369 482 331 482 _c
}_e{285 482 248 466 221 435 _c
194 404 181 362 181 309 _c
181 0 _l
91 0 _l
91 547 _l
181 547 _l
181 462 _l
201 495 226 520 255 536 _c
283 552 317 560 357 560 _c
397 560 430 550 458 530 _c
486 510 506 480 520 442 _c
_cl}_e}_d
/n{634 0 91 0 549 560 _sc
549 330 _m
549 0 _l
459 0 _l
459 327 _l
459 379 448 417 428 443 _c
408 469 378 482 338 482 _c
289 482 251 466 223 435 _c
195 404 181 362 181 309 _c
181 0 _l
91 0 _l
91 547 _l
181 547 _l
181 462 _l
202 494 227 519 257 535 _c
286 551 320 560 358 560 _c
420 560 468 540 500 501 _c
532 462 549 405 549 330 _c
_cl}_d
/o{612 0 55 -13 557 560 _sc
306 484 _m
258 484 220 465 192 427 _c
164 389 150 338 150 273 _c
150 207 163 156 191 118 _c
219 80 257 62 306 62 _c
354 62 392 80 420 118 _c
448 156 462 207 462 273 _c
462 337 448 389 420 427 _c
392 465 354 484 306 484 _c
306 560 _m
384 560 445 534 490 484 _c
534 433 557 363 557 273 _c
557 183 534 113 490 63 _c
445 12 384 -13 306 -13 _c
227 -13 165 12 121 63 _c
77 113 55 183 55 273 _c
55 363 77 433 121 484 _c
165 534 227 560 306 560 _c
_cl}_d
/p{{635 0 91 -207 580 560 _sc
181 82 _m
181 -207 _l
91 -207 _l
91 547 _l
181 547 _l
181 464 _l
199 496 223 520 252 536 _c
281 552 316 560 356 560 _c
422 560 476 533 518 481 _c
559 428 580 359 580 273 _c
580 187 559 117 518 65 _c
476 13 422 -13 356 -13 _c
316 -13 281 -5 252 10 _c
223 25 199 49 181 82 _c
487 273 _m
487 339 473 390 446 428 _c
418 466 381 485 334 485 _c
}_e{286 485 249 466 222 428 _c
194 390 181 339 181 273 _c
181 207 194 155 222 117 _c
249 79 286 61 334 61 _c
381 61 418 79 446 117 _c
473 155 487 207 487 273 _c
_cl}_e}_d
/r{411 0 91 0 411 560 _sc
411 463 _m
401 469 390 473 378 476 _c
366 478 353 480 339 480 _c
288 480 249 463 222 430 _c
194 397 181 350 181 288 _c
181 0 _l
91 0 _l
91 547 _l
181 547 _l
181 462 _l
199 495 224 520 254 536 _c
284 552 321 560 365 560 _c
371 560 378 559 386 559 _c
393 558 401 557 411 555 _c
411 463 _l
_cl}_d
/s{{521 0 54 -13 472 560 _sc
443 531 _m
443 446 _l
417 458 391 468 364 475 _c
336 481 308 485 279 485 _c
234 485 200 478 178 464 _c
156 450 145 430 145 403 _c
145 382 153 366 169 354 _c
185 342 217 330 265 320 _c
296 313 _l
360 299 405 279 432 255 _c
458 230 472 195 472 151 _c
472 100 452 60 412 31 _c
372 1 316 -13 246 -13 _c
216 -13 186 -10 154 -5 _c
}_e{122 0 89 8 54 20 _c
54 113 _l
87 95 120 82 152 74 _c
184 65 216 61 248 61 _c
290 61 323 68 346 82 _c
368 96 380 117 380 144 _c
380 168 371 187 355 200 _c
339 213 303 226 247 238 _c
216 245 _l
160 257 119 275 95 299 _c
70 323 58 356 58 399 _c
58 450 76 490 112 518 _c
148 546 200 560 268 560 _c
301 560 332 557 362 552 _c
391 547 418 540 443 531 _c
}_e{_cl}_e}_d
/t{392 0 27 0 368 702 _sc
183 702 _m
183 547 _l
368 547 _l
368 477 _l
183 477 _l
183 180 _l
183 135 189 106 201 94 _c
213 81 238 75 276 75 _c
368 75 _l
368 0 _l
276 0 _l
206 0 158 13 132 39 _c
106 65 93 112 93 180 _c
93 477 _l
27 477 _l
27 547 _l
93 547 _l
93 702 _l
183 702 _l
_cl}_d
/u{634 0 85 -13 543 547 _sc
85 216 _m
85 547 _l
175 547 _l
175 219 _l
175 167 185 129 205 103 _c
225 77 255 64 296 64 _c
344 64 383 79 411 110 _c
439 141 453 183 453 237 _c
453 547 _l
543 547 _l
543 0 _l
453 0 _l
453 84 _l
431 50 405 26 377 10 _c
348 -5 315 -13 277 -13 _c
214 -13 166 6 134 45 _c
101 83 85 140 85 216 _c
_cl}_d
/w{818 0 42 0 776 547 _sc
42 547 _m
132 547 _l
244 120 _l
356 547 _l
462 547 _l
574 120 _l
686 547 _l
776 547 _l
633 0 _l
527 0 _l
409 448 _l
291 0 _l
185 0 _l
42 547 _l
_cl}_d
end readonly def

/BuildGlyph
 {exch begin
 CharStrings exch
 2 copy known not{pop /.notdef}if
 true 3 1 roll get exec
 end}_d

/BuildChar {
 1 index /Encoding get exch get
 1 index /BuildGlyph get exec
}_d

FontName currentdict end definefont pop
end
%%EndProlog
mpldict begin
-126 72 translate
864 648 0 0 clipbox
100000 setmiterlimit
gsave
0 0 m
864 0 l
864 648 l
0 648 l
cl
1.000 setgray
fill
grestore
gsave
108 347.563636 m
777.6 347.563636 l
777.6 583.2 l
108 583.2 l
cl
0.898 setgray
fill
grestore
0.500 setlinewidth
1 setlinejoin
2 setlinecap
[] 0 setdash
1.000 setgray
gsave
669.6 235.6 108 347.6 clipbox
108 347.563636 m
108 583.2 l
stroke
grestore
0 setlinecap
0.333 setgray
gsave
/o {
gsave
newpath
translate
0.5 setlinewidth
1 setlinejoin
0 setlinecap
0 0 m
0 -4 l

gsave
0.333 setgray
fill
grestore
stroke
grestore
} bind def
108 347.564 o
grestore
gsave
/o {
gsave
newpath
translate
0.5 setlinewidth
1 setlinejoin
0 setlinecap
0 0 m
0 4 l

gsave
0.333 setgray
fill
grestore
stroke
grestore
} bind def
108 583.2 o
grestore
2 setlinecap
1.000 setgray
gsave
669.6 235.6 108 347.6 clipbox
241.92 347.563636 m
241.92 583.2 l
stroke
grestore
0 setlinecap
0.333 setgray
gsave
/o {
gsave
newpath
translate
0.5 setlinewidth
1 setlinejoin
0 setlinecap
0 0 m
0 -4 l

gsave
0.333 setgray
fill
grestore
stroke
grestore
} bind def
241.92 347.564 o
grestore
gsave
/o {
gsave
newpath
translate
0.5 setlinewidth
1 setlinejoin
0 setlinecap
0 0 m
0 4 l

gsave
0.333 setgray
fill
grestore
stroke
grestore
} bind def
241.92 583.2 o
grestore
2 setlinecap
1.000 setgray
gsave
669.6 235.6 108 347.6 clipbox
375.84 347.563636 m
375.84 583.2 l
stroke
grestore
0 setlinecap
0.333 setgray
gsave
/o {
gsave
newpath
translate
0.5 setlinewidth
1 setlinejoin
0 setlinecap
0 0 m
0 -4 l

gsave
0.333 setgray
fill
grestore
stroke
grestore
} bind def
375.84 347.564 o
grestore
gsave
/o {
gsave
newpath
translate
0.5 setlinewidth
1 setlinejoin
0 setlinecap
0 0 m
0 4 l

gsave
0.333 setgray
fill
grestore
stroke
grestore
} bind def
375.84 583.2 o
grestore
2 setlinecap
1.000 setgray
gsave
669.6 235.6 108 347.6 clipbox
509.76 347.563636 m
509.76 583.2 l
stroke
grestore
0 setlinecap
0.333 setgray
gsave
/o {
gsave
newpath
translate
0.5 setlinewidth
1 setlinejoin
0 setlinecap
0 0 m
0 -4 l

gsave
0.333 setgray
fill
grestore
stroke
grestore
} bind def
509.76 347.564 o
grestore
gsave
/o {
gsave
newpath
translate
0.5 setlinewidth
1 setlinejoin
0 setlinecap
0 0 m
0 4 l

gsave
0.333 setgray
fill
grestore
stroke
grestore
} bind def
509.76 583.2 o
grestore
2 setlinecap
1.000 setgray
gsave
669.6 235.6 108 347.6 clipbox
643.68 347.563636 m
643.68 583.2 l
stroke
grestore
0 setlinecap
0.333 setgray
gsave
/o {
gsave
newpath
translate
0.5 setlinewidth
1 setlinejoin
0 setlinecap
0 0 m
0 -4 l

gsave
0.333 setgray
fill
grestore
stroke
grestore
} bind def
643.68 347.564 o
grestore
gsave
/o {
gsave
newpath
translate
0.5 setlinewidth
1 setlinejoin
0 setlinecap
0 0 m
0 4 l

gsave
0.333 setgray
fill
grestore
stroke
grestore
} bind def
643.68 583.2 o
grestore
2 setlinecap
1.000 setgray
gsave
669.6 235.6 108 347.6 clipbox
777.6 347.563636 m
777.6 583.2 l
stroke
grestore
0 setlinecap
0.333 setgray
gsave
/o {
gsave
newpath
translate
0.5 setlinewidth
1 setlinejoin
0 setlinecap
0 0 m
0 -4 l

gsave
0.333 setgray
fill
grestore
stroke
grestore
} bind def
777.6 347.564 o
grestore
gsave
/o {
gsave
newpath
translate
0.5 setlinewidth
1 setlinejoin
0 setlinecap
0 0 m
0 4 l

gsave
0.333 setgray
fill
grestore
stroke
grestore
} bind def
777.6 583.2 o
grestore
/BitstreamVeraSans-Roman findfont
12.000 scalefont
setfont
gsave
424.425000 333.438636 translate
0.000000 rotate
0.000000 0.000000 m /E glyphshow
7.582031 0.000000 m /p glyphshow
15.199219 0.000000 m /o glyphshow
22.541016 0.000000 m /c glyphshow
29.138672 0.000000 m /h glyphshow
grestore
2 setlinecap
1.000 setgray
gsave
669.6 235.6 108 347.6 clipbox
108 347.563636 m
777.6 347.563636 l
stroke
grestore
0 setlinecap
0.333 setgray
gsave
/o {
gsave
newpath
translate
0.5 setlinewidth
1 setlinejoin
0 setlinecap
0 0 m
-4 0 l

gsave
0.333 setgray
fill
grestore
stroke
grestore
} bind def
108 347.564 o
grestore
gsave
/o {
gsave
newpath
translate
0.5 setlinewidth
1 setlinejoin
0 setlinecap
0 0 m
4 0 l

gsave
0.333 setgray
fill
grestore
stroke
grestore
} bind def
777.6 347.564 o
grestore
/BitstreamVeraSans-Roman findfont
10.000 scalefont
setfont
gsave
77.734375 344.805824 translate
0.000000 rotate
0.000000 0.000000 m /zero glyphshow
6.362305 0.000000 m /period glyphshow
9.541016 0.000000 m /three glyphshow
15.903320 0.000000 m /four glyphshow
grestore
2 setlinecap
1.000 setgray
gsave
669.6 235.6 108 347.6 clipbox
108 373.745455 m
777.6 373.745455 l
stroke
grestore
0 setlinecap
0.333 setgray
gsave
/o {
gsave
newpath
translate
0.5 setlinewidth
1 setlinejoin
0 setlinecap
0 0 m
-4 0 l

gsave
0.333 setgray
fill
grestore
stroke
grestore
} bind def
108 373.745 o
grestore
gsave
/o {
gsave
newpath
translate
0.5 setlinewidth
1 setlinejoin
0 setlinecap
0 0 m
4 0 l

gsave
0.333 setgray
fill
grestore
stroke
grestore
} bind def
777.6 373.745 o
grestore
gsave
77.734375 370.987642 translate
0.000000 rotate
0.000000 0.000000 m /zero glyphshow
6.362305 0.000000 m /period glyphshow
9.541016 0.000000 m /three glyphshow
15.903320 0.000000 m /six glyphshow
grestore
2 setlinecap
1.000 setgray
gsave
669.6 235.6 108 347.6 clipbox
108 399.927273 m
777.6 399.927273 l
stroke
grestore
0 setlinecap
0.333 setgray
gsave
/o {
gsave
newpath
translate
0.5 setlinewidth
1 setlinejoin
0 setlinecap
0 0 m
-4 0 l

gsave
0.333 setgray
fill
grestore
stroke
grestore
} bind def
108 399.927 o
grestore
gsave
/o {
gsave
newpath
translate
0.5 setlinewidth
1 setlinejoin
0 setlinecap
0 0 m
4 0 l

gsave
0.333 setgray
fill
grestore
stroke
grestore
} bind def
777.6 399.927 o
grestore
gsave
77.734375 397.169460 translate
0.000000 rotate
0.000000 0.000000 m /zero glyphshow
6.362305 0.000000 m /period glyphshow
9.541016 0.000000 m /three glyphshow
15.903320 0.000000 m /eight glyphshow
grestore
2 setlinecap
1.000 setgray
gsave
669.6 235.6 108 347.6 clipbox
108 426.109091 m
777.6 426.109091 l
stroke
grestore
0 setlinecap
0.333 setgray
gsave
/o {
gsave
newpath
translate
0.5 setlinewidth
1 setlinejoin
0 setlinecap
0 0 m
-4 0 l

gsave
0.333 setgray
fill
grestore
stroke
grestore
} bind def
108 426.109 o
grestore
gsave
/o {
gsave
newpath
translate
0.5 setlinewidth
1 setlinejoin
0 setlinecap
0 0 m
4 0 l

gsave
0.333 setgray
fill
grestore
stroke
grestore
} bind def
777.6 426.109 o
grestore
gsave
77.734375 423.351278 translate
0.000000 rotate
0.000000 0.000000 m /zero glyphshow
6.362305 0.000000 m /period glyphshow
9.541016 0.000000 m /four glyphshow
15.903320 0.000000 m /zero glyphshow
grestore
2 setlinecap
1.000 setgray
gsave
669.6 235.6 108 347.6 clipbox
108 452.290909 m
777.6 452.290909 l
stroke
grestore
0 setlinecap
0.333 setgray
gsave
/o {
gsave
newpath
translate
0.5 setlinewidth
1 setlinejoin
0 setlinecap
0 0 m
-4 0 l

gsave
0.333 setgray
fill
grestore
stroke
grestore
} bind def
108 452.291 o
grestore
gsave
/o {
gsave
newpath
translate
0.5 setlinewidth
1 setlinejoin
0 setlinecap
0 0 m
4 0 l

gsave
0.333 setgray
fill
grestore
stroke
grestore
} bind def
777.6 452.291 o
grestore
gsave
77.734375 449.533097 translate
0.000000 rotate
0.000000 0.000000 m /zero glyphshow
6.362305 0.000000 m /period glyphshow
9.541016 0.000000 m /four glyphshow
15.903320 0.000000 m /two glyphshow
grestore
2 setlinecap
1.000 setgray
gsave
669.6 235.6 108 347.6 clipbox
108 478.472727 m
777.6 478.472727 l
stroke
grestore
0 setlinecap
0.333 setgray
gsave
/o {
gsave
newpath
translate
0.5 setlinewidth
1 setlinejoin
0 setlinecap
0 0 m
-4 0 l

gsave
0.333 setgray
fill
grestore
stroke
grestore
} bind def
108 478.473 o
grestore
gsave
/o {
gsave
newpath
translate
0.5 setlinewidth
1 setlinejoin
0 setlinecap
0 0 m
4 0 l

gsave
0.333 setgray
fill
grestore
stroke
grestore
} bind def
777.6 478.473 o
grestore
gsave
77.734375 475.714915 translate
0.000000 rotate
0.000000 0.000000 m /zero glyphshow
6.362305 0.000000 m /period glyphshow
9.541016 0.000000 m /four glyphshow
15.903320 0.000000 m /four glyphshow
grestore
2 setlinecap
1.000 setgray
gsave
669.6 235.6 108 347.6 clipbox
108 504.654545 m
777.6 504.654545 l
stroke
grestore
0 setlinecap
0.333 setgray
gsave
/o {
gsave
newpath
translate
0.5 setlinewidth
1 setlinejoin
0 setlinecap
0 0 m
-4 0 l

gsave
0.333 setgray
fill
grestore
stroke
grestore
} bind def
108 504.655 o
grestore
gsave
/o {
gsave
newpath
translate
0.5 setlinewidth
1 setlinejoin
0 setlinecap
0 0 m
4 0 l

gsave
0.333 setgray
fill
grestore
stroke
grestore
} bind def
777.6 504.655 o
grestore
gsave
77.734375 501.896733 translate
0.000000 rotate
0.000000 0.000000 m /zero glyphshow
6.362305 0.000000 m /period glyphshow
9.541016 0.000000 m /four glyphshow
15.903320 0.000000 m /six glyphshow
grestore
2 setlinecap
1.000 setgray
gsave
669.6 235.6 108 347.6 clipbox
108 530.836364 m
777.6 530.836364 l
stroke
grestore
0 setlinecap
0.333 setgray
gsave
/o {
gsave
newpath
translate
0.5 setlinewidth
1 setlinejoin
0 setlinecap
0 0 m
-4 0 l

gsave
0.333 setgray
fill
grestore
stroke
grestore
} bind def
108 530.836 o
grestore
gsave
/o {
gsave
newpath
translate
0.5 setlinewidth
1 setlinejoin
0 setlinecap
0 0 m
4 0 l

gsave
0.333 setgray
fill
grestore
stroke
grestore
} bind def
777.6 530.836 o
grestore
gsave
77.734375 528.078551 translate
0.000000 rotate
0.000000 0.000000 m /zero glyphshow
6.362305 0.000000 m /period glyphshow
9.541016 0.000000 m /four glyphshow
15.903320 0.000000 m /eight glyphshow
grestore
2 setlinecap
1.000 setgray
gsave
669.6 235.6 108 347.6 clipbox
108 557.018182 m
777.6 557.018182 l
stroke
grestore
0 setlinecap
0.333 setgray
gsave
/o {
gsave
newpath
translate
0.5 setlinewidth
1 setlinejoin
0 setlinecap
0 0 m
-4 0 l

gsave
0.333 setgray
fill
grestore
stroke
grestore
} bind def
108 557.018 o
grestore
gsave
/o {
gsave
newpath
translate
0.5 setlinewidth
1 setlinejoin
0 setlinecap
0 0 m
4 0 l

gsave
0.333 setgray
fill
grestore
stroke
grestore
} bind def
777.6 557.018 o
grestore
gsave
77.734375 554.260369 translate
0.000000 rotate
0.000000 0.000000 m /zero glyphshow
6.362305 0.000000 m /period glyphshow
9.541016 0.000000 m /five glyphshow
15.903320 0.000000 m /zero glyphshow
grestore
2 setlinecap
1.000 setgray
gsave
669.6 235.6 108 347.6 clipbox
108 583.2 m
777.6 583.2 l
stroke
grestore
0 setlinecap
0.333 setgray
gsave
/o {
gsave
newpath
translate
0.5 setlinewidth
1 setlinejoin
0 setlinecap
0 0 m
-4 0 l

gsave
0.333 setgray
fill
grestore
stroke
grestore
} bind def
108 583.2 o
grestore
gsave
/o {
gsave
newpath
translate
0.5 setlinewidth
1 setlinejoin
0 setlinecap
0 0 m
4 0 l

gsave
0.333 setgray
fill
grestore
stroke
grestore
} bind def
777.6 583.2 o
grestore
gsave
77.734375 580.442188 translate
0.000000 rotate
0.000000 0.000000 m /zero glyphshow
6.362305 0.000000 m /period glyphshow
9.541016 0.000000 m /five glyphshow
15.903320 0.000000 m /two glyphshow
grestore
/BitstreamVeraSans-Roman findfont
12.000 scalefont
setfont
gsave
70.234375 452.116193 translate
90.000000 rotate
0.000000 0.000000 m /L glyphshow
6.685547 0.000000 m /o glyphshow
14.027344 0.000000 m /s glyphshow
20.279297 0.000000 m /s glyphshow
grestore
1.000 setlinewidth
2 setlinecap
0.494 0.224 0.533 setrgbcolor
gsave
669.6 235.6 108 347.6 clipbox
108 570.079683 m
121.392 523.796982 l
134.784 508.888237 l
148.176 502.404996 l
161.568 497.672053 l
174.96 486.989692 l
188.352 485.763967 l
201.744 483.383159 l
215.136 475.358528 l
228.528 473.705849 l
241.92 475.689618 l
255.312 473.272238 l
268.704 469.621005 l
282.096 467.238823 l
295.488 465.145014 l
308.88 471.067586 l
322.272 466.851155 l
335.664 466.60697 l
349.056 464.291315 l
362.448 464.003658 l
375.84 464.776001 l
389.232 465.41194 l
402.624 451.54257 l
416.016 454.447555 l
429.408 453.371504 l
442.8 452.205037 l
456.192 452.705971 l
469.584 452.386341 l
482.976 450.813349 l
496.368 451.876516 l
509.76 451.43154 l
523.152 448.804717 l
536.544 447.698728 l
549.936 445.520625 l
563.328 448.285526 l
576.72 447.8646 l
590.112 445.960847 l
603.504 448.665306 l
616.896 448.539652 l
630.288 448.558249 l
643.68 448.615485 l
657.072 442.834098 l
670.464 448.838911 l
683.856 444.866871 l
697.248 450.11876 l
710.64 444.647831 l
724.032 448.890659 l
737.424 447.448471 l
750.816 445.983172 l
764.208 445.449406 l
stroke
grestore
0 setlinecap
[6 6] 0 setdash
gsave
669.6 235.6 108 347.6 clipbox
108 456.686945 m
121.392 455.098726 l
134.784 412.518238 l
148.176 401.935588 l
161.568 418.890348 l
174.96 400.555781 l
188.352 407.825641 l
201.744 424.668821 l
215.136 395.403521 l
228.528 389.881643 l
241.92 365.738562 l
255.312 393.58906 l
268.704 402.799864 l
282.096 409.971642 l
295.488 406.168016 l
308.88 409.976441 l
322.272 391.991751 l
335.664 399.306164 l
349.056 427.38345 l
362.448 416.201935 l
375.84 405.428389 l
389.232 426.686154 l
402.624 387.488254 l
416.016 378.246435 l
429.408 391.494128 l
442.8 384.725598 l
456.192 386.422939 l
469.584 395.853742 l
482.976 389.509684 l
496.368 391.569035 l
509.76 381.593909 l
523.152 394.546892 l
536.544 388.971993 l
549.936 391.079644 l
563.328 385.816935 l
576.72 390.261326 l
590.112 386.676959 l
603.504 383.636602 l
616.896 383.817861 l
630.288 385.621397 l
643.68 387.783707 l
657.072 388.554739 l
670.464 388.293346 l
683.856 388.073229 l
697.248 386.829738 l
710.64 386.915841 l
724.032 386.549851 l
737.424 386.216477 l
750.816 386.041032 l
764.208 385.985749 l
stroke
grestore
2 setlinecap
[] 0 setdash
0.627 0.812 0.192 setrgbcolor
gsave
669.6 235.6 108 347.6 clipbox
108 543.005888 m
121.392 523.355306 l
134.784 518.670638 l
148.176 514.554396 l
161.568 514.099929 l
174.96 514.866328 l
188.352 516.063021 l
201.744 514.010416 l
215.136 516.914707 l
228.528 514.765099 l
241.92 513.144706 l
255.312 512.630847 l
268.704 515.919211 l
282.096 513.089289 l
295.488 513.937472 l
308.88 514.26496 l
322.272 511.907923 l
335.664 511.414971 l
349.056 513.682932 l
362.448 513.730208 l
375.84 516.395063 l
389.232 514.347656 l
402.624 513.641234 l
416.016 514.781676 l
429.408 514.813067 l
442.8 511.589986 l
456.192 515.512552 l
469.584 513.802798 l
482.976 515.540929 l
496.368 514.303735 l
509.76 515.064977 l
523.152 513.464301 l
536.544 513.984903 l
549.936 507.742329 l
563.328 506.982014 l
576.72 505.81182 l
590.112 505.824053 l
603.504 505.266015 l
616.896 504.117922 l
630.288 503.379018 l
643.68 503.659103 l
657.072 504.130768 l
670.464 502.720786 l
683.856 500.773236 l
697.248 500.168148 l
710.64 499.970675 l
724.032 501.674405 l
737.424 500.47977 l
750.816 501.622696 l
764.208 502.083355 l
stroke
grestore
0 setlinecap
[6 6] 0 setdash
gsave
669.6 235.6 108 347.6 clipbox
108 407.55859 m
121.392 383.566494 l
134.784 399.118195 l
148.176 399.26243 l
161.568 381.733462 l
174.96 439.658136 l
188.352 386.70778 l
201.744 398.62147 l
215.136 396.819649 l
228.528 410.664881 l
241.92 381.96739 l
255.312 379.146798 l
268.704 395.67658 l
282.096 407.057261 l
295.488 388.794636 l
308.88 429.370275 l
322.272 406.565412 l
335.664 394.506083 l
349.056 384.2737 l
362.448 400.611883 l
375.84 388.974959 l
389.232 370.209405 l
402.624 423.176732 l
416.016 406.839251 l
429.408 387.624218 l
442.8 451.807314 l
456.192 412.720409 l
469.584 446.045149 l
482.976 385.675978 l
496.368 383.235538 l
509.76 404.409813 l
523.152 409.624262 l
536.544 423.720431 l
549.936 391.938458 l
563.328 398.979228 l
576.72 392.716981 l
590.112 388.072683 l
603.504 398.481722 l
616.896 396.724611 l
630.288 391.906545 l
643.68 402.832518 l
657.072 390.626848 l
670.464 395.619697 l
683.856 396.542611 l
697.248 395.873951 l
710.64 397.558261 l
724.032 394.594762 l
737.424 392.890359 l
750.816 394.512364 l
764.208 395.783751 l
stroke
grestore
0 setlinejoin
2 setlinecap
[] 0 setdash
1.000 setgray
gsave
108 347.563636 m
777.6 347.563636 l
stroke
grestore
gsave
108 583.2 m
777.6 583.2 l
stroke
grestore
gsave
108 347.563636 m
108 583.2 l
stroke
grestore
gsave
777.6 347.563636 m
777.6 583.2 l
stroke
grestore
0.500 setlinewidth
0 setlinecap
gsave
602.68125 503.1 m
771.6 503.1 l
771.6 577.2 l
602.68125 577.2 l
cl
gsave
0.898 setgray
fill
grestore
stroke
grestore
1.000 setlinewidth
1 setlinejoin
2 setlinecap
0.494 0.224 0.533 setrgbcolor
gsave
611.08125 567.475 m
627.88125 567.475 l
stroke
grestore
0.000 setgray
gsave
641.081250 563.275000 translate
0.000000 rotate
0.000000 0.000000 m /r glyphshow
4.933594 0.000000 m /e glyphshow
12.316406 0.000000 m /w glyphshow
22.130859 0.000000 m /e glyphshow
29.513672 0.000000 m /i glyphshow
32.847656 0.000000 m /g glyphshow
40.464844 0.000000 m /h glyphshow
48.070312 0.000000 m /e glyphshow
55.453125 0.000000 m /d glyphshow
63.070312 0.000000 m /space glyphshow
66.884766 0.000000 m /d glyphshow
74.501953 0.000000 m /a glyphshow
81.855469 0.000000 m /t glyphshow
86.560547 0.000000 m /a glyphshow
93.914062 0.000000 m /space glyphshow
97.728516 0.000000 m /t glyphshow
102.433594 0.000000 m /r glyphshow
107.367188 0.000000 m /a glyphshow
114.720703 0.000000 m /i glyphshow
118.054688 0.000000 m /n glyphshow
grestore
0 setlinecap
[6 6] 0 setdash
0.494 0.224 0.533 setrgbcolor
gsave
611.08125 549.85 m
627.88125 549.85 l
stroke
grestore
0.000 setgray
gsave
641.081250 545.650000 translate
0.000000 rotate
0.000000 0.000000 m /r glyphshow
4.933594 0.000000 m /e glyphshow
12.316406 0.000000 m /w glyphshow
22.130859 0.000000 m /e glyphshow
29.513672 0.000000 m /i glyphshow
32.847656 0.000000 m /g glyphshow
40.464844 0.000000 m /h glyphshow
48.070312 0.000000 m /e glyphshow
55.453125 0.000000 m /d glyphshow
63.070312 0.000000 m /space glyphshow
66.884766 0.000000 m /d glyphshow
74.501953 0.000000 m /a glyphshow
81.855469 0.000000 m /t glyphshow
86.560547 0.000000 m /a glyphshow
93.914062 0.000000 m /space glyphshow
97.728516 0.000000 m /t glyphshow
102.433594 0.000000 m /e glyphshow
109.816406 0.000000 m /s glyphshow
116.068359 0.000000 m /t glyphshow
grestore
2 setlinecap
[] 0 setdash
0.627 0.812 0.192 setrgbcolor
gsave
611.08125 532.225 m
627.88125 532.225 l
stroke
grestore
0.000 setgray
gsave
641.081250 528.025000 translate
0.000000 rotate
0.000000 0.000000 m /r glyphshow
4.933594 0.000000 m /a glyphshow
12.287109 0.000000 m /w glyphshow
22.101562 0.000000 m /space glyphshow
25.916016 0.000000 m /d glyphshow
33.533203 0.000000 m /a glyphshow
40.886719 0.000000 m /t glyphshow
45.591797 0.000000 m /a glyphshow
52.945312 0.000000 m /space glyphshow
56.759766 0.000000 m /t glyphshow
61.464844 0.000000 m /r glyphshow
66.398438 0.000000 m /a glyphshow
73.751953 0.000000 m /i glyphshow
77.085938 0.000000 m /n glyphshow
grestore
0 setlinecap
[6 6] 0 setdash
0.627 0.812 0.192 setrgbcolor
gsave
611.08125 514.6 m
627.88125 514.6 l
stroke
grestore
0.000 setgray
gsave
641.081250 510.400000 translate
0.000000 rotate
0.000000 0.000000 m /r glyphshow
4.933594 0.000000 m /a glyphshow
12.287109 0.000000 m /w glyphshow
22.101562 0.000000 m /space glyphshow
25.916016 0.000000 m /d glyphshow
33.533203 0.000000 m /a glyphshow
40.886719 0.000000 m /t glyphshow
45.591797 0.000000 m /a glyphshow
52.945312 0.000000 m /space glyphshow
56.759766 0.000000 m /t glyphshow
61.464844 0.000000 m /e glyphshow
68.847656 0.000000 m /s glyphshow
75.099609 0.000000 m /t glyphshow
grestore
gsave
108 64.8 m
777.6 64.8 l
777.6 300.436364 l
108 300.436364 l
cl
0.898 setgray
fill
grestore
0.500 setlinewidth
2 setlinecap
[] 0 setdash
1.000 setgray
gsave
669.6 235.6 108 64.8 clipbox
108 64.8 m
108 300.436364 l
stroke
grestore
0 setlinecap
0.333 setgray
gsave
/o {
gsave
newpath
translate
0.5 setlinewidth
1 setlinejoin
0 setlinecap
0 0 m
0 -4 l

gsave
0.333 setgray
fill
grestore
stroke
grestore
} bind def
108 64.8 o
grestore
gsave
/o {
gsave
newpath
translate
0.5 setlinewidth
1 setlinejoin
0 setlinecap
0 0 m
0 4 l

gsave
0.333 setgray
fill
grestore
stroke
grestore
} bind def
108 300.436 o
grestore
/BitstreamVeraSans-Roman findfont
10.000 scalefont
setfont
gsave
104.820312 49.206250 translate
0.000000 rotate
0.000000 0.000000 m /zero glyphshow
grestore
2 setlinecap
1.000 setgray
gsave
669.6 235.6 108 64.8 clipbox
241.92 64.8 m
241.92 300.436364 l
stroke
grestore
0 setlinecap
0.333 setgray
gsave
/o {
gsave
newpath
translate
0.5 setlinewidth
1 setlinejoin
0 setlinecap
0 0 m
0 -4 l

gsave
0.333 setgray
fill
grestore
stroke
grestore
} bind def
241.92 64.8 o
grestore
gsave
/o {
gsave
newpath
translate
0.5 setlinewidth
1 setlinejoin
0 setlinecap
0 0 m
0 4 l

gsave
0.333 setgray
fill
grestore
stroke
grestore
} bind def
241.92 300.436 o
grestore
gsave
235.560625 49.206250 translate
0.000000 rotate
0.000000 0.000000 m /one glyphshow
6.362305 0.000000 m /zero glyphshow
grestore
2 setlinecap
1.000 setgray
gsave
669.6 235.6 108 64.8 clipbox
375.84 64.8 m
375.84 300.436364 l
stroke
grestore
0 setlinecap
0.333 setgray
gsave
/o {
gsave
newpath
translate
0.5 setlinewidth
1 setlinejoin
0 setlinecap
0 0 m
0 -4 l

gsave
0.333 setgray
fill
grestore
stroke
grestore
} bind def
375.84 64.8 o
grestore
gsave
/o {
gsave
newpath
translate
0.5 setlinewidth
1 setlinejoin
0 setlinecap
0 0 m
0 4 l

gsave
0.333 setgray
fill
grestore
stroke
grestore
} bind def
375.84 300.436 o
grestore
gsave
369.480625 49.206250 translate
0.000000 rotate
0.000000 0.000000 m /two glyphshow
6.362305 0.000000 m /zero glyphshow
grestore
2 setlinecap
1.000 setgray
gsave
669.6 235.6 108 64.8 clipbox
509.76 64.8 m
509.76 300.436364 l
stroke
grestore
0 setlinecap
0.333 setgray
gsave
/o {
gsave
newpath
translate
0.5 setlinewidth
1 setlinejoin
0 setlinecap
0 0 m
0 -4 l

gsave
0.333 setgray
fill
grestore
stroke
grestore
} bind def
509.76 64.8 o
grestore
gsave
/o {
gsave
newpath
translate
0.5 setlinewidth
1 setlinejoin
0 setlinecap
0 0 m
0 4 l

gsave
0.333 setgray
fill
grestore
stroke
grestore
} bind def
509.76 300.436 o
grestore
gsave
503.400625 49.206250 translate
0.000000 rotate
0.000000 0.000000 m /three glyphshow
6.362305 0.000000 m /zero glyphshow
grestore
2 setlinecap
1.000 setgray
gsave
669.6 235.6 108 64.8 clipbox
643.68 64.8 m
643.68 300.436364 l
stroke
grestore
0 setlinecap
0.333 setgray
gsave
/o {
gsave
newpath
translate
0.5 setlinewidth
1 setlinejoin
0 setlinecap
0 0 m
0 -4 l

gsave
0.333 setgray
fill
grestore
stroke
grestore
} bind def
643.68 64.8 o
grestore
gsave
/o {
gsave
newpath
translate
0.5 setlinewidth
1 setlinejoin
0 setlinecap
0 0 m
0 4 l

gsave
0.333 setgray
fill
grestore
stroke
grestore
} bind def
643.68 300.436 o
grestore
gsave
637.320625 49.206250 translate
0.000000 rotate
0.000000 0.000000 m /four glyphshow
6.362305 0.000000 m /zero glyphshow
grestore
2 setlinecap
1.000 setgray
gsave
669.6 235.6 108 64.8 clipbox
777.6 64.8 m
777.6 300.436364 l
stroke
grestore
0 setlinecap
0.333 setgray
gsave
/o {
gsave
newpath
translate
0.5 setlinewidth
1 setlinejoin
0 setlinecap
0 0 m
0 -4 l

gsave
0.333 setgray
fill
grestore
stroke
grestore
} bind def
777.6 64.8 o
grestore
gsave
/o {
gsave
newpath
translate
0.5 setlinewidth
1 setlinejoin
0 setlinecap
0 0 m
0 4 l

gsave
0.333 setgray
fill
grestore
stroke
grestore
} bind def
777.6 300.436 o
grestore
gsave
771.240625 49.206250 translate
0.000000 rotate
0.000000 0.000000 m /five glyphshow
6.362305 0.000000 m /zero glyphshow
grestore
0.024 0.024 0.027 setrgbcolor
/BitstreamVeraSans-Roman findfont
12.000 scalefont
setfont
gsave
424.425000 33.003125 translate
0.000000 rotate
0.000000 0.000000 m /E glyphshow
7.582031 0.000000 m /p glyphshow
15.199219 0.000000 m /o glyphshow
22.541016 0.000000 m /c glyphshow
29.138672 0.000000 m /h glyphshow
grestore
2 setlinecap
1.000 setgray
gsave
669.6 235.6 108 64.8 clipbox
108 64.8 m
777.6 64.8 l
stroke
grestore
0 setlinecap
0.333 setgray
gsave
/o {
gsave
newpath
translate
0.5 setlinewidth
1 setlinejoin
0 setlinecap
0 0 m
-4 0 l

gsave
0.333 setgray
fill
grestore
stroke
grestore
} bind def
108 64.8 o
grestore
gsave
/o {
gsave
newpath
translate
0.5 setlinewidth
1 setlinejoin
0 setlinecap
0 0 m
4 0 l

gsave
0.333 setgray
fill
grestore
stroke
grestore
} bind def
777.6 64.8 o
grestore
/BitstreamVeraSans-Roman findfont
10.000 scalefont
setfont
gsave
80.921875 62.042187 translate
0.000000 rotate
0.000000 0.000000 m /one glyphshow
6.362305 0.000000 m /two glyphshow
12.724609 0.000000 m /zero glyphshow
grestore
2 setlinecap
1.000 setgray
gsave
669.6 235.6 108 64.8 clipbox
108 90.981818 m
777.6 90.981818 l
stroke
grestore
0 setlinecap
0.333 setgray
gsave
/o {
gsave
newpath
translate
0.5 setlinewidth
1 setlinejoin
0 setlinecap
0 0 m
-4 0 l

gsave
0.333 setgray
fill
grestore
stroke
grestore
} bind def
108 90.9818 o
grestore
gsave
/o {
gsave
newpath
translate
0.5 setlinewidth
1 setlinejoin
0 setlinecap
0 0 m
4 0 l

gsave
0.333 setgray
fill
grestore
stroke
grestore
} bind def
777.6 90.9818 o
grestore
gsave
80.921875 88.224006 translate
0.000000 rotate
0.000000 0.000000 m /one glyphshow
6.362305 0.000000 m /three glyphshow
12.724609 0.000000 m /zero glyphshow
grestore
2 setlinecap
1.000 setgray
gsave
669.6 235.6 108 64.8 clipbox
108 117.163636 m
777.6 117.163636 l
stroke
grestore
0 setlinecap
0.333 setgray
gsave
/o {
gsave
newpath
translate
0.5 setlinewidth
1 setlinejoin
0 setlinecap
0 0 m
-4 0 l

gsave
0.333 setgray
fill
grestore
stroke
grestore
} bind def
108 117.164 o
grestore
gsave
/o {
gsave
newpath
translate
0.5 setlinewidth
1 setlinejoin
0 setlinecap
0 0 m
4 0 l

gsave
0.333 setgray
fill
grestore
stroke
grestore
} bind def
777.6 117.164 o
grestore
gsave
80.921875 114.405824 translate
0.000000 rotate
0.000000 0.000000 m /one glyphshow
6.362305 0.000000 m /four glyphshow
12.724609 0.000000 m /zero glyphshow
grestore
2 setlinecap
1.000 setgray
gsave
669.6 235.6 108 64.8 clipbox
108 143.345455 m
777.6 143.345455 l
stroke
grestore
0 setlinecap
0.333 setgray
gsave
/o {
gsave
newpath
translate
0.5 setlinewidth
1 setlinejoin
0 setlinecap
0 0 m
-4 0 l

gsave
0.333 setgray
fill
grestore
stroke
grestore
} bind def
108 143.345 o
grestore
gsave
/o {
gsave
newpath
translate
0.5 setlinewidth
1 setlinejoin
0 setlinecap
0 0 m
4 0 l

gsave
0.333 setgray
fill
grestore
stroke
grestore
} bind def
777.6 143.345 o
grestore
gsave
80.921875 140.587642 translate
0.000000 rotate
0.000000 0.000000 m /one glyphshow
6.362305 0.000000 m /five glyphshow
12.724609 0.000000 m /zero glyphshow
grestore
2 setlinecap
1.000 setgray
gsave
669.6 235.6 108 64.8 clipbox
108 169.527273 m
777.6 169.527273 l
stroke
grestore
0 setlinecap
0.333 setgray
gsave
/o {
gsave
newpath
translate
0.5 setlinewidth
1 setlinejoin
0 setlinecap
0 0 m
-4 0 l

gsave
0.333 setgray
fill
grestore
stroke
grestore
} bind def
108 169.527 o
grestore
gsave
/o {
gsave
newpath
translate
0.5 setlinewidth
1 setlinejoin
0 setlinecap
0 0 m
4 0 l

gsave
0.333 setgray
fill
grestore
stroke
grestore
} bind def
777.6 169.527 o
grestore
gsave
80.921875 166.769460 translate
0.000000 rotate
0.000000 0.000000 m /one glyphshow
6.362305 0.000000 m /six glyphshow
12.724609 0.000000 m /zero glyphshow
grestore
2 setlinecap
1.000 setgray
gsave
669.6 235.6 108 64.8 clipbox
108 195.709091 m
777.6 195.709091 l
stroke
grestore
0 setlinecap
0.333 setgray
gsave
/o {
gsave
newpath
translate
0.5 setlinewidth
1 setlinejoin
0 setlinecap
0 0 m
-4 0 l

gsave
0.333 setgray
fill
grestore
stroke
grestore
} bind def
108 195.709 o
grestore
gsave
/o {
gsave
newpath
translate
0.5 setlinewidth
1 setlinejoin
0 setlinecap
0 0 m
4 0 l

gsave
0.333 setgray
fill
grestore
stroke
grestore
} bind def
777.6 195.709 o
grestore
gsave
80.921875 192.951278 translate
0.000000 rotate
0.000000 0.000000 m /one glyphshow
6.362305 0.000000 m /seven glyphshow
12.724609 0.000000 m /zero glyphshow
grestore
2 setlinecap
1.000 setgray
gsave
669.6 235.6 108 64.8 clipbox
108 221.890909 m
777.6 221.890909 l
stroke
grestore
0 setlinecap
0.333 setgray
gsave
/o {
gsave
newpath
translate
0.5 setlinewidth
1 setlinejoin
0 setlinecap
0 0 m
-4 0 l

gsave
0.333 setgray
fill
grestore
stroke
grestore
} bind def
108 221.891 o
grestore
gsave
/o {
gsave
newpath
translate
0.5 setlinewidth
1 setlinejoin
0 setlinecap
0 0 m
4 0 l

gsave
0.333 setgray
fill
grestore
stroke
grestore
} bind def
777.6 221.891 o
grestore
gsave
80.921875 219.133097 translate
0.000000 rotate
0.000000 0.000000 m /one glyphshow
6.362305 0.000000 m /eight glyphshow
12.724609 0.000000 m /zero glyphshow
grestore
2 setlinecap
1.000 setgray
gsave
669.6 235.6 108 64.8 clipbox
108 248.072727 m
777.6 248.072727 l
stroke
grestore
0 setlinecap
0.333 setgray
gsave
/o {
gsave
newpath
translate
0.5 setlinewidth
1 setlinejoin
0 setlinecap
0 0 m
-4 0 l

gsave
0.333 setgray
fill
grestore
stroke
grestore
} bind def
108 248.073 o
grestore
gsave
/o {
gsave
newpath
translate
0.5 setlinewidth
1 setlinejoin
0 setlinecap
0 0 m
4 0 l

gsave
0.333 setgray
fill
grestore
stroke
grestore
} bind def
777.6 248.073 o
grestore
gsave
80.921875 245.314915 translate
0.000000 rotate
0.000000 0.000000 m /one glyphshow
6.362305 0.000000 m /nine glyphshow
12.724609 0.000000 m /zero glyphshow
grestore
2 setlinecap
1.000 setgray
gsave
669.6 235.6 108 64.8 clipbox
108 274.254545 m
777.6 274.254545 l
stroke
grestore
0 setlinecap
0.333 setgray
gsave
/o {
gsave
newpath
translate
0.5 setlinewidth
1 setlinejoin
0 setlinecap
0 0 m
-4 0 l

gsave
0.333 setgray
fill
grestore
stroke
grestore
} bind def
108 274.255 o
grestore
gsave
/o {
gsave
newpath
translate
0.5 setlinewidth
1 setlinejoin
0 setlinecap
0 0 m
4 0 l

gsave
0.333 setgray
fill
grestore
stroke
grestore
} bind def
777.6 274.255 o
grestore
gsave
80.921875 271.496733 translate
0.000000 rotate
0.000000 0.000000 m /two glyphshow
6.362305 0.000000 m /zero glyphshow
12.724609 0.000000 m /zero glyphshow
grestore
2 setlinecap
1.000 setgray
gsave
669.6 235.6 108 64.8 clipbox
108 300.436364 m
777.6 300.436364 l
stroke
grestore
0 setlinecap
0.333 setgray
gsave
/o {
gsave
newpath
translate
0.5 setlinewidth
1 setlinejoin
0 setlinecap
0 0 m
-4 0 l

gsave
0.333 setgray
fill
grestore
stroke
grestore
} bind def
108 300.436 o
grestore
gsave
/o {
gsave
newpath
translate
0.5 setlinewidth
1 setlinejoin
0 setlinecap
0 0 m
4 0 l

gsave
0.333 setgray
fill
grestore
stroke
grestore
} bind def
777.6 300.436 o
grestore
gsave
80.921875 297.678551 translate
0.000000 rotate
0.000000 0.000000 m /two glyphshow
6.362305 0.000000 m /one glyphshow
12.724609 0.000000 m /zero glyphshow
grestore
0.024 0.024 0.027 setrgbcolor
/BitstreamVeraSans-Roman findfont
12.000 scalefont
setfont
gsave
73.421875 147.016619 translate
90.000000 rotate
0.000000 0.000000 m /S glyphshow
7.617188 0.000000 m /u glyphshow
15.222656 0.000000 m /m glyphshow
26.912109 0.000000 m /space glyphshow
30.726562 0.000000 m /w glyphshow
40.541016 0.000000 m /e glyphshow
47.923828 0.000000 m /i glyphshow
51.257812 0.000000 m /g glyphshow
58.875000 0.000000 m /h glyphshow
66.480469 0.000000 m /t glyphshow
grestore
1.000 setlinewidth
2 setlinecap
0.494 0.224 0.533 setrgbcolor
gsave
669.6 235.6 108 64.8 clipbox
108 75.610325 m
121.392 119.672195 l
134.784 151.674665 l
148.176 172.263179 l
161.568 190.774025 l
174.96 207.079693 l
188.352 217.445544 l
201.744 229.236091 l
215.136 235.373842 l
228.528 241.615951 l
241.92 243.64675 l
255.312 247.66245 l
268.704 248.420694 l
282.096 254.608215 l
295.488 257.343495 l
308.88 258.518132 l
322.272 262.357333 l
335.664 261.662061 l
349.056 261.843545 l
362.448 265.125865 l
375.84 262.593495 l
389.232 260.585153 l
402.624 259.692377 l
416.016 261.440136 l
429.408 262.515245 l
442.8 263.964406 l
456.192 265.838592 l
469.584 267.886183 l
482.976 269.914862 l
496.368 272.598089 l
509.76 273.458052 l
523.152 276.315125 l
536.544 276.452382 l
549.936 276.692605 l
563.328 276.893593 l
576.72 277.130356 l
590.112 277.264947 l
603.504 277.517201 l
616.896 277.532797 l
630.288 277.737116 l
643.68 278.073356 l
657.072 278.251044 l
670.464 278.273953 l
683.856 278.291398 l
697.248 278.307615 l
710.64 278.321576 l
724.032 278.326918 l
737.424 278.350569 l
750.816 278.354345 l
764.208 278.368732 l
stroke
grestore
0.627 0.812 0.192 setrgbcolor
gsave
669.6 235.6 108 64.8 clipbox
108 83.307726 m
121.392 88.318629 l
134.784 95.600764 l
148.176 98.792932 l
161.568 91.868751 l
174.96 86.835511 l
188.352 91.003681 l
201.744 90.190615 l
215.136 90.814396 l
228.528 89.903086 l
241.92 85.771526 l
255.312 79.180457 l
268.704 87.77271 l
282.096 87.486438 l
295.488 78.524964 l
308.88 86.71381 l
322.272 81.943841 l
335.664 84.620444 l
349.056 80.028357 l
362.448 85.60726 l
375.84 79.731291 l
389.232 78.495352 l
402.624 78.975955 l
416.016 74.291183 l
429.408 76.852976 l
442.8 74.130556 l
456.192 77.992771 l
469.584 72.60053 l
482.976 66.471797 l
496.368 74.65669 l
509.76 73.088802 l
523.152 69.225863 l
536.544 72.888481 l
549.936 67.742879 l
563.328 70.688949 l
576.72 74.752658 l
590.112 76.289234 l
603.504 81.001334 l
616.896 86.224058 l
630.288 88.01797 l
643.68 93.459878 l
657.072 93.293995 l
670.464 97.29962 l
683.856 97.10693 l
697.248 97.370658 l
710.64 97.361387 l
724.032 97.734368 l
737.424 97.813909 l
750.816 97.977618 l
764.208 98.522647 l
stroke
grestore
0 setlinejoin
1.000 setgray
gsave
108 64.8 m
777.6 64.8 l
stroke
grestore
gsave
108 300.436364 m
777.6 300.436364 l
stroke
grestore
gsave
108 64.8 m
108 300.436364 l
stroke
grestore
gsave
777.6 64.8 m
777.6 300.436364 l
stroke
grestore

end
showpage
