%!PS-Adobe-3.0 EPSF-3.0 
%%BoundingBox: 0 0 283 283
%%Pages: 0
%%Creator: LibreOffice 5.1
%%Title: none
%%CreationDate: none
%%LanguageLevel: 2
%%EndComments
%%BeginProlog
%%BeginResource: procset SDRes-Prolog 1.0 0
/b4_inc_state save def
/dict_count countdictstack def
/op_count count 1 sub def
userdict begin
0 setgray 0 setlinecap 1 setlinewidth 0 setlinejoin 10 setmiterlimit[] 0 setdash newpath
/languagelevel where {pop languagelevel 1 ne {false setstrokeadjust false setoverprint} if} if
/bdef {bind def} bind def
/c {setrgbcolor} bdef
/l {neg lineto} bdef
/rl {neg rlineto} bdef
/lc {setlinecap} bdef
/lj {setlinejoin} bdef
/lw {setlinewidth} bdef
/ml {setmiterlimit} bdef
/ld {setdash} bdef
/m {neg moveto} bdef
/ct {6 2 roll neg 6 2 roll neg 6 2 roll neg curveto} bdef
/r {rotate} bdef
/t {neg translate} bdef
/s {scale} bdef
/sw {show} bdef
/gs {gsave} bdef
/gr {grestore} bdef
/f {findfont dup length dict begin
{1 index /FID ne {def} {pop pop} ifelse} forall /Encoding ISOLatin1Encoding def
currentdict end /NFont exch definefont pop /NFont findfont} bdef
/p {closepath} bdef
/sf {scalefont setfont} bdef
/ef {eofill}bdef
/pc {closepath stroke}bdef
/ps {stroke}bdef
/pum {matrix currentmatrix}bdef
/pom {setmatrix}bdef
/bs {/aString exch def /nXOfs exch def /nWidth exch def currentpoint nXOfs 0 rmoveto pum nWidth aString stringwidth pop div 1 scale aString show pom moveto} bdef
%%EndResource
%%EndProlog
%%BeginSetup
%%EndSetup
%%Page: 1 1
%%BeginPageSetup
%%EndPageSetup
pum
0.0283 0.0283 s 
0 -10000 t
/tm matrix currentmatrix def
gs
0 0 m 9999 0 l 9999 9999 l 0 9999 l 0 0 l eoclip newpath
gs
0 0 m 9999 0 l 9999 9999 l 0 9999 l 0 0 l eoclip newpath
0.449 0.625 0.812 c 5000 3700 m  5737 3700 6300 4263 6300 5000 ct 6300 5737 5737 6300 5000 6300 ct 
4263 6300 3700 5737 3700 5000 ct 3700 4263 4263 3700 5000 3700 ct p
3700 3700 m  3700 3700 l  p
6301 6301 m  6301 6301 l  p ef
106 lw 1 lj 0.207 0.398 0.644 c 5000 3700 m  5737 3700 6300 4263 6300 5000 ct 
6300 5737 5737 6300 5000 6300 ct 4263 6300 3700 5737 3700 5000 ct 3700 4263 4263 3700 5000 3700 ct 
pc
3700 3700 m  3700 3700 l  pc
6301 6301 m  6301 6301 l  pc
0.003 0.003 0.003 c 4195 4782 m  4196 4775 4196 4774 4196 4769 ct 4196 4761 4189 4757 4182 4757 ct 
4177 4757 4170 4760 4164 4767 ct 4164 4769 4160 4785 4157 4793 ct 4154 4807 4150 4820 4147 4834 ct 
4125 4922 l  4123 4929 4102 4964 4069 4964 ct 4044 4964 4039 4943 4039 4925 ct 
4039 4901 4048 4870 4065 4827 ct 4072 4807 4074 4802 4074 4792 ct 4074 4769 4058 4751 4034 4751 ct 
3986 4751 3968 4823 3968 4827 ct 3968 4832 3974 4832 3974 4832 ct 3979 4832 3979 4831 3982 4824 ct 
3995 4776 4016 4762 4032 4762 ct 4035 4762 4044 4762 4044 4778 ct 4044 4790 4039 4803 4035 4813 ct 
4016 4865 4007 4893 4007 4917 ct 4007 4960 4038 4975 4067 4975 ct 4087 4975 4104 4967 4118 4953 ct 
4111 4978 4105 5003 4086 5029 ct 4073 5045 4053 5061 4031 5061 ct 4024 5061 4002 5059 3993 5040 ct 
4002 5040 4007 5040 4014 5034 ct 4020 5029 4024 5023 4024 5013 ct 4024 4998 4011 4996 4006 4996 ct 
3995 4996 3978 5003 3978 5029 ct 3978 5052 4000 5071 4031 5071 ct 4081 5071 4133 5026 4147 4970 ct 
4195 4782 l  p ef
4377 5089 m  4377 5087 4377 5086 4367 5078 ct 4305 5016 4290 4922 4290 4847 ct 
4290 4761 4308 4676 4370 4614 ct 4377 4607 4377 4607 4377 4606 ct 4377 4601 4374 4600 4371 4600 ct 
4366 4600 4321 4634 4291 4697 ct 4266 4751 4261 4806 4261 4847 ct 4261 4886 4266 4945 4293 5001 ct 
4324 5062 4366 5093 4371 5093 ct 4374 5093 4377 5092 4377 5089 ct p ef
4587 4810 m  4591 4804 4591 4803 4591 4802 ct 4591 4800 4588 4797 4587 4795 ct 
4486 4649 l  4599 4649 l  4683 4649 4709 4667 4718 4744 ct 4731 4744 l  4717 4634 l 
4443 4634 l  4431 4634 4430 4634 4430 4645 ct 4553 4824 l  4436 4959 l  4430 4963 4430 4964 4430 4966 ct 
4430 4971 4436 4971 4443 4971 ct 4717 4971 l  4731 4855 l  4718 4855 l  4710 4938 4676 4950 4598 4950 ct 
4462 4950 l  4587 4810 l  p ef
4986 4802 m  4989 4792 4993 4774 4993 4769 ct 4993 4761 4986 4757 4979 4757 ct 
4973 4757 4963 4761 4961 4771 ct 4959 4774 4935 4869 4933 4882 ct 4928 4897 4928 4905 4928 4914 ct 
4928 4919 4928 4921 4928 4924 ct 4917 4949 4902 4964 4882 4964 ct 4843 4964 4843 4928 4843 4919 ct 
4843 4904 4846 4884 4870 4824 ct 4874 4809 4878 4802 4878 4792 ct 4878 4769 4861 4751 4837 4751 ct 
4790 4751 4772 4823 4772 4827 ct 4772 4832 4777 4832 4777 4832 ct 4783 4832 4783 4831 4786 4824 ct 
4798 4778 4818 4762 4836 4762 ct 4840 4762 4847 4762 4847 4778 ct 4847 4790 4842 4804 4839 4813 ct 
4816 4872 4811 4894 4811 4914 ct 4811 4959 4844 4975 4881 4975 ct 4889 4975 4913 4975 4933 4940 ct 
4945 4973 4980 4975 4994 4975 ct 5032 4975 5053 4945 5066 4915 ct 5082 4876 5099 4810 5099 4786 ct 
5099 4758 5085 4751 5077 4751 ct 5064 4751 5052 4764 5052 4775 ct 5052 4782 5056 4785 5060 4789 ct 
5066 4793 5077 4807 5077 4831 ct 5077 4848 5063 4896 5050 4921 ct 5038 4947 5021 4964 4996 4964 ct 
4973 4964 4959 4950 4959 4922 ct 4959 4908 4963 4893 4965 4886 ct 4986 4802 l 
p ef
5151 5023 m  5150 5027 5147 5036 5147 5037 ct 5147 5044 5154 5048 5159 5048 ct 
5165 5048 5171 5044 5172 5040 ct 5173 5037 5176 5026 5179 5019 ct 5180 5012 5185 4996 5186 4988 ct 
5189 4980 5190 4973 5192 4964 ct 5196 4950 5196 4947 5207 4933 ct 5217 4919 5232 4901 5259 4901 ct 
5278 4901 5278 4919 5278 4925 ct 5278 4946 5264 4985 5259 4999 ct 5255 5009 5253 5012 5253 5019 ct 
5253 5037 5269 5048 5287 5048 ct 5320 5048 5336 5001 5336 4995 ct 5336 4991 5332 4991 5330 4991 ct 
5326 4991 5326 4992 5325 4996 ct 5316 5024 5301 5038 5287 5038 ct 5280 5038 5278 5034 5278 5026 ct 
5278 5019 5280 5013 5287 4998 ct 5291 4988 5305 4950 5305 4931 ct 5305 4897 5278 4891 5260 4891 ct 
5231 4891 5211 4910 5201 4924 ct 5199 4898 5179 4891 5164 4891 ct 5150 4891 5141 4903 5137 4910 ct 
5129 4924 5124 4943 5124 4945 ct 5124 4949 5129 4949 5130 4949 ct 5136 4949 5136 4947 5138 4939 ct 
5143 4918 5150 4901 5164 4901 ct 5172 4901 5175 4908 5175 4918 ct 5175 4925 5172 4938 5169 4947 ct 
5166 4956 5164 4971 5161 4978 ct 5151 5023 l  p ef
5542 4821 m  5544 4807 5556 4762 5591 4762 ct 5593 4762 5605 4762 5614 4768 ct 
5602 4771 5592 4783 5592 4795 ct 5592 4803 5596 4813 5610 4813 ct 5621 4813 5637 4803 5637 4783 ct 
5637 4758 5607 4751 5591 4751 ct 5563 4751 5544 4778 5539 4789 ct 5526 4757 5500 4751 5486 4751 ct 
5434 4751 5406 4816 5406 4827 ct 5406 4832 5410 4832 5411 4832 ct 5416 4832 5417 4831 5418 4827 ct 
5435 4775 5467 4762 5484 4762 ct 5494 4762 5511 4767 5511 4795 ct 5511 4810 5502 4844 5484 4914 ct 
5476 4945 5459 4964 5438 4964 ct 5434 4964 5423 4964 5413 4959 ct 5425 4956 5437 4946 5437 4932 ct 
5437 4918 5425 4914 5417 4914 ct 5403 4914 5390 4928 5390 4943 ct 5390 4966 5416 4975 5437 4975 ct 
5470 4975 5487 4940 5488 4938 ct 5495 4956 5512 4975 5543 4975 ct 5593 4975 5621 4912 5621 4900 ct 
5621 4894 5617 4894 5616 4894 ct 5612 4894 5610 4897 5609 4900 ct 5593 4953 5560 4964 5543 4964 ct 
5523 4964 5516 4949 5516 4932 ct 5516 4921 5519 4911 5525 4889 ct 5542 4821 l 
p ef
5698 5023 m  5697 5027 5694 5036 5694 5037 ct 5694 5044 5701 5048 5707 5048 ct 
5712 5048 5718 5044 5719 5040 ct 5721 5037 5724 5026 5726 5019 ct 5728 5012 5732 4996 5733 4988 ct 
5736 4980 5738 4973 5739 4964 ct 5743 4950 5743 4947 5754 4933 ct 5764 4919 5780 4901 5806 4901 ct 
5826 4901 5826 4919 5826 4925 ct 5826 4946 5812 4985 5806 4999 ct 5802 5009 5801 5012 5801 5019 ct 
5801 5037 5816 5048 5834 5048 ct 5868 5048 5883 5001 5883 4995 ct 5883 4991 5879 4991 5878 4991 ct 
5873 4991 5873 4992 5872 4996 ct 5864 5024 5848 5038 5834 5038 ct 5827 5038 5826 5034 5826 5026 ct 
5826 5019 5827 5013 5834 4998 ct 5838 4988 5852 4950 5852 4931 ct 5852 4897 5826 4891 5808 4891 ct 
5778 4891 5759 4910 5749 4924 ct 5746 4898 5726 4891 5711 4891 ct 5697 4891 5689 4903 5684 4910 ct 
5676 4924 5672 4943 5672 4945 ct 5672 4949 5676 4949 5677 4949 ct 5683 4949 5683 4947 5686 4939 ct 
5690 4918 5697 4901 5711 4901 ct 5719 4901 5722 4908 5722 4918 ct 5722 4925 5719 4938 5717 4947 ct 
5714 4956 5711 4971 5708 4978 ct 5698 5023 l  p ef
0.207 0.398 0.644 c 3700 4800 m  1400 4200 l  ps
3900 4399 m  1936 3060 l  ps
3700 5260 m  1400 5860 l  ps
3900 5660 m  1936 6999 l  ps
0.003 0.003 0.003 c 1588 2770 m  1591 2756 1602 2711 1637 2711 ct 1640 2711 1651 2711 1661 2717 ct 
1648 2720 1638 2732 1638 2743 ct 1638 2752 1643 2762 1657 2762 ct 1668 2762 1683 2752 1683 2732 ct 
1683 2707 1654 2700 1637 2700 ct 1609 2700 1591 2727 1585 2738 ct 1573 2706 1546 2700 1532 2700 ct 
1480 2700 1452 2764 1452 2776 ct 1452 2781 1457 2781 1458 2781 ct 1462 2781 1464 2780 1465 2776 ct 
1482 2724 1514 2711 1531 2711 ct 1541 2711 1557 2715 1557 2743 ct 1557 2759 1549 2793 1531 2863 ct 
1524 2893 1506 2913 1485 2913 ct 1480 2913 1469 2913 1459 2907 ct 1472 2905 1483 2895 1483 2881 ct 
1483 2867 1472 2863 1464 2863 ct 1450 2863 1437 2877 1437 2892 ct 1437 2914 1462 2924 1483 2924 ct 
1517 2924 1534 2889 1535 2886 ct 1542 2905 1559 2924 1589 2924 ct 1640 2924 1668 2861 1668 2849 ct 
1668 2843 1664 2843 1662 2843 ct 1658 2843 1657 2846 1655 2849 ct 1640 2902 1606 2913 1589 2913 ct 
1570 2913 1563 2898 1563 2881 ct 1563 2870 1566 2860 1571 2837 ct 1588 2770 l 
p ef
1819 2773 m  1819 2763 1819 2763 1810 2763 ct 1787 2785 1755 2785 1741 2785 ct 
1741 2798 l  1749 2798 1772 2798 1791 2788 ct 1791 2965 l  1791 2976 1791 2980 1756 2980 ct 
1744 2980 l  1744 2993 l  1749 2993 1793 2992 1805 2992 ct 1817 2992 1860 2993 1868 2993 ct 
1868 2980 l  1854 2980 l  1819 2980 1819 2976 1819 2965 ct 1819 2773 l  p ef
990 4079 m  993 4065 1004 4020 1039 4020 ct 1042 4020 1053 4020 1063 4026 ct 
1050 4029 1040 4041 1040 4052 ct 1040 4061 1045 4071 1059 4071 ct 1070 4071 1085 4061 1085 4041 ct 
1085 4016 1056 4009 1039 4009 ct 1011 4009 993 4036 987 4047 ct 975 4015 948 4009 934 4009 ct 
882 4009 854 4073 854 4085 ct 854 4090 859 4090 860 4090 ct 864 4090 866 4089 867 4085 ct 
884 4033 916 4020 933 4020 ct 943 4020 959 4024 959 4052 ct 959 4068 951 4102 933 4172 ct 
926 4202 908 4222 887 4222 ct 882 4222 871 4222 861 4216 ct 874 4214 885 4204 885 4190 ct 
885 4176 874 4172 866 4172 ct 852 4172 839 4186 839 4201 ct 839 4223 864 4233 885 4233 ct 
919 4233 936 4198 937 4195 ct 944 4214 961 4233 991 4233 ct 1042 4233 1070 4170 1070 4158 ct 
1070 4152 1066 4152 1064 4152 ct 1060 4152 1059 4155 1057 4158 ct 1042 4211 1008 4222 991 4222 ct 
972 4222 965 4207 965 4190 ct 965 4179 968 4169 973 4146 ct 990 4079 l  p ef
1281 4239 m  1268 4239 l  1268 4247 1264 4267 1260 4271 ct 1257 4272 1231 4272 1225 4272 ct 
1162 4272 l  1198 4240 1210 4230 1231 4215 ct 1257 4194 1281 4173 1281 4139 ct 
1281 4097 1243 4072 1200 4072 ct 1156 4072 1127 4103 1127 4134 ct 1127 4152 1142 4153 1145 4153 ct 
1154 4153 1163 4148 1163 4135 ct 1163 4129 1162 4117 1144 4117 ct 1154 4092 1177 4085 1194 4085 ct 
1229 4085 1247 4111 1247 4139 ct 1247 4170 1225 4194 1214 4207 ct 1130 4289 l 
1127 4292 1127 4292 1127 4302 ct 1270 4302 l  1281 4239 l  p ef
1065 5870 m  1068 5856 1079 5811 1114 5811 ct 1117 5811 1128 5811 1138 5817 ct 
1125 5820 1115 5832 1115 5843 ct 1115 5852 1120 5862 1134 5862 ct 1145 5862 1160 5852 1160 5832 ct 
1160 5807 1131 5800 1114 5800 ct 1086 5800 1068 5827 1062 5838 ct 1050 5806 1023 5800 1009 5800 ct 
957 5800 929 5864 929 5876 ct 929 5881 934 5881 935 5881 ct 939 5881 941 5880 942 5876 ct 
959 5824 991 5811 1008 5811 ct 1018 5811 1034 5815 1034 5843 ct 1034 5859 1026 5893 1008 5963 ct 
1001 5993 983 6013 962 6013 ct 957 6013 946 6013 936 6007 ct 949 6005 960 5995 960 5981 ct 
960 5967 949 5963 941 5963 ct 927 5963 914 5977 914 5992 ct 914 6014 939 6024 960 6024 ct 
994 6024 1011 5989 1012 5986 ct 1019 6005 1036 6024 1066 6024 ct 1117 6024 1145 5961 1145 5949 ct 
1145 5943 1141 5943 1139 5943 ct 1135 5943 1134 5946 1132 5949 ct 1117 6002 1083 6013 1066 6013 ct 
1047 6013 1040 5998 1040 5981 ct 1040 5970 1043 5960 1048 5937 ct 1065 5870 l 
p ef
1274 5978 m  1302 5978 1321 5996 1321 6034 ct 1321 6076 1296 6089 1275 6089 ct 
1261 6089 1232 6086 1216 6065 ct 1233 6065 1237 6052 1237 6045 ct 1237 6034 1229 6027 1218 6027 ct 
1208 6027 1198 6033 1198 6047 ct 1198 6079 1234 6100 1276 6100 ct 1324 6100 1357 6068 1357 6034 ct 
1357 6006 1335 5979 1297 5971 ct 1334 5958 1346 5932 1346 5911 ct 1346 5884 1316 5863 1276 5863 ct 
1239 5863 1209 5881 1209 5909 ct 1209 5922 1216 5927 1227 5927 ct 1237 5927 1244 5920 1244 5911 ct 
1244 5899 1237 5892 1227 5892 ct 1239 5877 1262 5873 1276 5873 ct 1292 5873 1313 5881 1313 5911 ct 
1313 5926 1309 5942 1299 5953 ct 1288 5965 1278 5967 1261 5967 ct 1253 5968 1251 5968 1250 5968 ct 
1248 5968 1246 5968 1246 5972 ct 1246 5978 1250 5978 1255 5978 ct 1274 5978 l 
p ef
1589 7070 m  1592 7056 1603 7011 1638 7011 ct 1641 7011 1652 7011 1662 7017 ct 
1649 7020 1639 7032 1639 7043 ct 1639 7052 1644 7062 1658 7062 ct 1669 7062 1684 7052 1684 7032 ct 
1684 7007 1655 7000 1638 7000 ct 1610 7000 1592 7027 1586 7038 ct 1574 7006 1547 7000 1533 7000 ct 
1481 7000 1453 7064 1453 7076 ct 1453 7081 1458 7081 1459 7081 ct 1463 7081 1465 7080 1466 7076 ct 
1483 7024 1515 7011 1532 7011 ct 1542 7011 1558 7015 1558 7043 ct 1558 7059 1550 7092 1532 7162 ct 
1525 7193 1507 7213 1486 7213 ct 1481 7213 1470 7213 1460 7207 ct 1473 7204 1484 7195 1484 7181 ct 
1484 7167 1473 7162 1465 7162 ct 1451 7162 1438 7176 1438 7192 ct 1438 7214 1463 7224 1484 7224 ct 
1518 7224 1535 7189 1536 7186 ct 1543 7204 1560 7224 1590 7224 ct 1641 7224 1669 7161 1669 7148 ct 
1669 7143 1665 7143 1663 7143 ct 1659 7143 1658 7146 1656 7148 ct 1641 7202 1607 7213 1590 7213 ct 
1571 7213 1564 7197 1564 7181 ct 1564 7169 1567 7160 1572 7137 ct 1589 7070 l 
p ef
1889 7236 m  1889 7224 l  1849 7224 l  1849 7070 l  1849 7063 1849 7060 1842 7060 ct 
1838 7060 1837 7060 1833 7064 ct 1718 7224 l  1718 7236 l  1820 7236 l  1820 7266 l 
1820 7277 1820 7281 1792 7281 ct 1782 7281 l  1782 7294 l  1801 7292 1822 7292 1834 7292 ct 
1848 7292 1869 7292 1887 7294 ct 1887 7281 l  1877 7281 l  1849 7281 1849 7277 1849 7266 ct 
1849 7236 l  1889 7236 l  p
1823 7098 m  1823 7224 l  1731 7224 l  1823 7098 l  p ef
2228 3957 m  2231 3948 2235 3929 2235 3925 ct 2235 3917 2228 3913 2221 3913 ct 
2215 3913 2206 3917 2203 3927 ct 2201 3929 2178 4025 2175 4037 ct 2171 4053 2171 4061 2171 4070 ct 
2171 4075 2171 4077 2171 4079 ct 2159 4105 2144 4120 2125 4120 ct 2085 4120 2085 4084 2085 4075 ct 
2085 4060 2088 4040 2112 3980 ct 2116 3964 2120 3957 2120 3948 ct 2120 3925 2104 3907 2080 3907 ct 
2032 3907 2014 3978 2014 3983 ct 2014 3988 2020 3988 2020 3988 ct 2025 3988 2025 3987 2028 3980 ct 
2041 3934 2060 3918 2078 3918 ct 2083 3918 2090 3918 2090 3934 ct 2090 3946 2084 3960 2081 3969 ct 
2059 4028 2053 4050 2053 4070 ct 2053 4114 2087 4131 2123 4131 ct 2132 4131 2155 4131 2175 4096 ct 
2187 4129 2222 4131 2236 4131 ct 2274 4131 2295 4100 2308 4071 ct 2325 4032 2341 3966 2341 3942 ct 
2341 3914 2327 3907 2319 3907 ct 2306 3907 2294 3920 2294 3931 ct 2294 3938 2298 3941 2302 3945 ct 
2308 3949 2319 3963 2319 3987 ct 2319 4004 2305 4051 2292 4077 ct 2280 4103 2263 4120 2238 4120 ct 
2215 4120 2201 4106 2201 4078 ct 2201 4064 2206 4049 2207 4042 ct 2228 3957 l 
p ef
2526 4137 m  2513 4137 l  2513 4145 2509 4165 2505 4169 ct 2502 4170 2476 4170 2470 4170 ct 
2407 4170 l  2443 4138 2455 4128 2476 4113 ct 2502 4092 2526 4071 2526 4037 ct 
2526 3995 2488 3970 2445 3970 ct 2401 3970 2372 4001 2372 4032 ct 2372 4050 2387 4051 2390 4051 ct 
2399 4051 2408 4046 2408 4033 ct 2408 4027 2407 4015 2389 4015 ct 2399 3990 2422 3983 2439 3983 ct 
2474 3983 2492 4009 2492 4037 ct 2492 4068 2470 4092 2459 4105 ct 2375 4187 l 
2372 4190 2372 4190 2372 4200 ct 2515 4200 l  2526 4137 l  p ef
2028 5250 m  2031 5241 2035 5222 2035 5218 ct 2035 5210 2028 5206 2021 5206 ct 
2015 5206 2006 5210 2003 5220 ct 2001 5222 1978 5318 1975 5330 ct 1971 5346 1971 5354 1971 5363 ct 
1971 5368 1971 5370 1971 5372 ct 1959 5398 1944 5413 1925 5413 ct 1885 5413 1885 5377 1885 5368 ct 
1885 5353 1888 5333 1912 5273 ct 1916 5257 1920 5250 1920 5241 ct 1920 5218 1904 5200 1880 5200 ct 
1832 5200 1814 5271 1814 5276 ct 1814 5281 1820 5281 1820 5281 ct 1825 5281 1825 5280 1828 5273 ct 
1841 5227 1860 5211 1878 5211 ct 1883 5211 1890 5211 1890 5227 ct 1890 5239 1884 5253 1881 5262 ct 
1859 5321 1853 5343 1853 5363 ct 1853 5407 1887 5424 1923 5424 ct 1932 5424 1955 5424 1975 5389 ct 
1987 5421 2022 5424 2036 5424 ct 2074 5424 2095 5393 2108 5364 ct 2125 5325 2141 5259 2141 5235 ct 
2141 5207 2127 5200 2119 5200 ct 2106 5200 2094 5213 2094 5224 ct 2094 5231 2098 5234 2102 5238 ct 
2108 5242 2119 5256 2119 5280 ct 2119 5297 2105 5344 2092 5370 ct 2080 5396 2063 5413 2038 5413 ct 
2015 5413 2001 5399 2001 5371 ct 2001 5357 2006 5342 2007 5335 ct 2028 5250 l 
p ef
2245 5378 m  2273 5378 2292 5396 2292 5434 ct 2292 5476 2267 5489 2246 5489 ct 
2232 5489 2203 5486 2187 5465 ct 2204 5465 2208 5452 2208 5445 ct 2208 5434 2200 5427 2189 5427 ct 
2179 5427 2169 5433 2169 5447 ct 2169 5479 2205 5500 2247 5500 ct 2295 5500 2328 5468 2328 5434 ct 
2328 5406 2306 5379 2268 5371 ct 2305 5358 2317 5332 2317 5311 ct 2317 5284 2287 5263 2247 5263 ct 
2210 5263 2180 5281 2180 5309 ct 2180 5322 2187 5327 2198 5327 ct 2208 5327 2215 5320 2215 5311 ct 
2215 5299 2208 5292 2198 5292 ct 2210 5277 2233 5273 2247 5273 ct 2263 5273 2284 5281 2284 5311 ct 
2284 5326 2280 5342 2270 5353 ct 2259 5365 2249 5367 2232 5367 ct 2224 5368 2222 5368 2221 5368 ct 
2219 5368 2218 5368 2218 5372 ct 2218 5378 2221 5378 2226 5378 ct 2245 5378 l 
p ef
2429 6057 m  2432 6048 2436 6029 2436 6025 ct 2436 6017 2429 6013 2422 6013 ct 
2416 6013 2407 6017 2404 6027 ct 2402 6029 2379 6125 2376 6137 ct 2372 6153 2372 6161 2372 6169 ct 
2372 6175 2372 6176 2372 6179 ct 2360 6204 2345 6220 2326 6220 ct 2286 6220 2286 6183 2286 6175 ct 
2286 6160 2289 6140 2313 6080 ct 2317 6064 2321 6057 2321 6048 ct 2321 6025 2305 6007 2281 6007 ct 
2233 6007 2215 6078 2215 6083 ct 2215 6088 2221 6088 2221 6088 ct 2226 6088 2226 6087 2229 6080 ct 
2242 6034 2261 6018 2279 6018 ct 2284 6018 2291 6018 2291 6034 ct 2291 6046 2285 6060 2282 6069 ct 
2260 6127 2254 6150 2254 6169 ct 2254 6214 2288 6231 2324 6231 ct 2333 6231 2356 6231 2376 6196 ct 
2388 6228 2423 6231 2437 6231 ct 2475 6231 2496 6200 2509 6171 ct 2526 6132 2542 6066 2542 6042 ct 
2542 6014 2528 6007 2520 6007 ct 2507 6007 2495 6020 2495 6031 ct 2495 6038 2499 6041 2503 6045 ct 
2509 6049 2520 6063 2520 6087 ct 2520 6104 2506 6151 2493 6176 ct 2481 6203 2464 6220 2439 6220 ct 
2416 6220 2402 6206 2402 6178 ct 2402 6164 2407 6148 2408 6141 ct 2429 6057 l 
p ef
2736 6243 m  2736 6231 l  2697 6231 l  2697 6077 l  2697 6070 2697 6067 2690 6067 ct 
2685 6067 2684 6067 2680 6071 ct 2565 6231 l  2565 6243 l  2667 6243 l  2667 6273 l 
2667 6284 2667 6288 2639 6288 ct 2629 6288 l  2629 6301 l  2648 6299 2669 6299 2681 6299 ct 
2695 6299 2716 6299 2734 6301 ct 2734 6288 l  2724 6288 l  2697 6288 2697 6284 2697 6273 ct 
2697 6243 l  2736 6243 l  p
2670 6105 m  2670 6231 l  2578 6231 l  2670 6105 l  p ef
3028 3251 m  3031 3242 3035 3223 3035 3219 ct 3035 3211 3028 3207 3021 3207 ct 
3015 3207 3006 3211 3003 3221 ct 3001 3223 2978 3319 2975 3331 ct 2971 3347 2971 3355 2971 3364 ct 
2971 3369 2971 3371 2971 3373 ct 2959 3399 2944 3414 2925 3414 ct 2885 3414 2885 3378 2885 3369 ct 
2885 3354 2888 3334 2912 3274 ct 2916 3258 2920 3251 2920 3242 ct 2920 3219 2904 3201 2880 3201 ct 
2832 3201 2814 3272 2814 3277 ct 2814 3282 2820 3282 2820 3282 ct 2825 3282 2825 3281 2828 3274 ct 
2841 3228 2860 3212 2878 3212 ct 2883 3212 2890 3212 2890 3228 ct 2890 3240 2884 3254 2881 3263 ct 
2859 3322 2853 3344 2853 3364 ct 2853 3408 2887 3425 2923 3425 ct 2932 3425 2955 3425 2975 3390 ct 
2987 3423 3022 3425 3036 3425 ct 3074 3425 3095 3394 3108 3365 ct 3125 3326 3141 3260 3141 3236 ct 
3141 3208 3127 3201 3119 3201 ct 3106 3201 3094 3214 3094 3225 ct 3094 3232 3098 3235 3102 3239 ct 
3108 3243 3119 3257 3119 3281 ct 3119 3298 3105 3345 3092 3371 ct 3080 3397 3063 3414 3038 3414 ct 
3015 3414 3001 3400 3001 3372 ct 3001 3358 3006 3343 3007 3336 ct 3028 3251 l 
p ef
3266 3274 m  3266 3264 3266 3264 3257 3264 ct 3234 3286 3202 3286 3188 3286 ct 
3188 3299 l  3196 3299 3219 3299 3238 3289 ct 3238 3466 l  3238 3477 3238 3481 3203 3481 ct 
3191 3481 l  3191 3494 l  3196 3494 3240 3493 3252 3493 ct 3264 3493 3307 3494 3315 3494 ct 
3315 3481 l  3301 3481 l  3266 3481 3266 3477 3266 3466 ct 3266 3274 l  p ef
0.207 0.398 0.644 c 7700 5000 m  6300 5040 l  ps
8700 4100 m  7600 5000 l  ps
8973 4632 m  7600 5000 l  ps
8727 5900 m  7627 5000 l  ps
9000 5368 m  7627 5000 l  ps
107 lw 5000 2600 m  5000 2809 l  ps
5000 2943 m  5000 3152 l  ps
5000 3287 m  5000 3496 l  ps
5000 3630 m  5000 3700 l  ps
1.000 1.000 1.000 c 4995 2443 m  4889 2443 l  4889 2101 l  5100 2101 l 
5100 2443 l  4995 2443 l  p ef
0.003 0.003 0.003 c 5008 2106 m  5008 2106 5008 2100 5001 2100 ct 4990 2100 4953 2104 4941 2106 ct 
4937 2106 4931 2106 4931 2115 ct 4931 2121 4937 2121 4943 2121 ct 4967 2121 4969 2124 4969 2129 ct 
4969 2132 4963 2149 4962 2160 ct 4921 2321 l  4914 2345 4913 2354 4913 2371 ct 
4913 2418 4939 2449 4976 2449 ct 5034 2449 5094 2375 5094 2303 ct 5094 2258 5069 2225 5029 2225 ct 
5006 2225 4985 2239 4971 2254 ct 5008 2106 l  p
4962 2292 m  4964 2282 4964 2281 4969 2275 ct 4992 2243 5015 2236 5029 2236 ct 
5046 2236 5059 2250 5059 2282 ct 5059 2312 5043 2368 5034 2387 ct 5018 2420 4995 2438 4976 2438 ct 
4959 2438 4942 2424 4942 2387 ct 4942 2379 4942 2369 4950 2338 ct 4962 2292 l 
p ef
4819 5465 m  4956 5465 l  4963 5465 4973 5465 4973 5455 ct 4973 5444 4963 5444 4956 5444 ct 
4819 5444 l  4819 5306 l  4819 5299 4819 5290 4809 5290 ct 4798 5290 4798 5299 4798 5306 ct 
4798 5444 l  4661 5444 l  4654 5444 4644 5444 4644 5455 ct 4644 5465 4654 5465 4661 5465 ct 
4798 5465 l  4798 5602 l  4798 5609 4798 5619 4809 5619 ct 4819 5619 4819 5609 4819 5602 ct 
4819 5465 l  p ef
5116 5241 m  5116 5241 5116 5235 5109 5235 ct 5098 5235 5061 5239 5049 5241 ct 
5044 5241 5039 5241 5039 5250 ct 5039 5256 5044 5256 5051 5256 ct 5075 5256 5077 5259 5077 5264 ct 
5077 5267 5071 5284 5070 5295 ct 5029 5456 l  5022 5480 5021 5489 5021 5505 ct 
5021 5553 5047 5584 5084 5584 ct 5142 5584 5203 5510 5203 5438 ct 5203 5393 5177 5360 5137 5360 ct 
5114 5360 5093 5374 5079 5389 ct 5116 5241 l  p
5070 5427 m  5072 5417 5072 5416 5077 5410 ct 5100 5378 5123 5371 5137 5371 ct 
5154 5371 5168 5385 5168 5417 ct 5168 5446 5151 5503 5142 5522 ct 5126 5554 5103 5573 5084 5573 ct 
5067 5573 5050 5559 5050 5522 ct 5050 5514 5050 5504 5058 5473 ct 5070 5427 l 
p ef
5352 5454 m  5352 5416 5347 5355 5319 5299 ct 5289 5239 5246 5207 5242 5207 ct 
5238 5207 5236 5208 5236 5213 ct 5236 5214 5236 5214 5246 5224 ct 5295 5273 5323 5351 5323 5454 ct 
5323 5539 5305 5626 5243 5687 ct 5236 5693 5236 5694 5236 5696 ct 5236 5699 5238 5700 5242 5700 ct 
5246 5700 5291 5666 5320 5605 ct 5345 5550 5352 5496 5352 5454 ct p ef
gr
gs
0 0 m 9999 0 l 9999 9999 l 0 9999 l 0 0 l eoclip newpath
gr
gr
0 10000 t 
pom
count op_count sub {pop} repeat countdictstack dict_count sub {end} repeat b4_inc_state restore
%%PageTrailer
%%Trailer
%%EOF
