%!PS-Adobe-3.0 EPSF-3.0 
%%BoundingBox: 0 0 567 567
%%Pages: 0
%%Creator: LibreOffice 5.1
%%Title: none
%%CreationDate: none
%%LanguageLevel: 2
%%EndComments
%%BeginProlog
%%BeginResource: procset SDRes-Prolog 1.0 0
/b4_inc_state save def
/dict_count countdictstack def
/op_count count 1 sub def
userdict begin
0 setgray 0 setlinecap 1 setlinewidth 0 setlinejoin 10 setmiterlimit[] 0 setdash newpath
/languagelevel where {pop languagelevel 1 ne {false setstrokeadjust false setoverprint} if} if
/bdef {bind def} bind def
/c {setrgbcolor} bdef
/l {neg lineto} bdef
/rl {neg rlineto} bdef
/lc {setlinecap} bdef
/lj {setlinejoin} bdef
/lw {setlinewidth} bdef
/ml {setmiterlimit} bdef
/ld {setdash} bdef
/m {neg moveto} bdef
/ct {6 2 roll neg 6 2 roll neg 6 2 roll neg curveto} bdef
/r {rotate} bdef
/t {neg translate} bdef
/s {scale} bdef
/sw {show} bdef
/gs {gsave} bdef
/gr {grestore} bdef
/f {findfont dup length dict begin
{1 index /FID ne {def} {pop pop} ifelse} forall /Encoding ISOLatin1Encoding def
currentdict end /NFont exch definefont pop /NFont findfont} bdef
/p {closepath} bdef
/sf {scalefont setfont} bdef
/ef {eofill}bdef
/pc {closepath stroke}bdef
/ps {stroke}bdef
/pum {matrix currentmatrix}bdef
/pom {setmatrix}bdef
/bs {/aString exch def /nXOfs exch def /nWidth exch def currentpoint nXOfs 0 rmoveto pum nWidth aString stringwidth pop div 1 scale aString show pom moveto} bdef
%%EndResource
%%EndProlog
%%BeginSetup
%%EndSetup
%%Page: 1 1
%%BeginPageSetup
%%EndPageSetup
pum
0.02835 0.02835 s 
0 -20000 t
/tm matrix currentmatrix def
gs
tm setmatrix
-1111 -1111 t 
1 1 s 
1111 1111 m 21110 1111 l 21110 21110 l 1111 21110 l 1111 1111 l eoclip newpath
gs
1111 1111 m 21110 1111 l 21110 21110 l 1111 21110 l 1111 1111 l eoclip newpath
0.449 0.625 0.812 c 10653 8054 m  12089 8082 13152 9220 13107 10680 ct 13060 12140 11926 13234 10489 13207 ct 
9053 13178 7991 12040 8037 10580 ct 8083 9120 9217 8026 10653 8054 ct p
8119 8004 m  8119 8004 l  p
13026 13258 m  13026 13258 l  p ef
176.66666 lw 1 lj 0.207 0.398 0.644 c 10653 8054 m  12088 8082 13152 9220 13106 10680 ct 
13060 12140 11925 13234 10488 13206 ct 9053 13177 7991 12040 8036 10580 ct 8083 9120 9216 8025 10653 8054 ct 
pc
8118 8004 m  8118 8004 l  pc
13025 13257 m  13025 13257 l  pc
235.55555 lw 0.003 0.402 0.601 c 4391 14888 m  8515 12207 l  ps
2947 12517 m  8103 11176 l  ps
4391 6301 m  8515 8982 l  ps
2947 8702 m  8103 10043 l  ps
13138 10631 m  15716 10631 l  ps
15510 10631 m  18500 12591 l  ps
15613 10631 m  19222 11250 l  ps
15510 10631 m  18500 8672 l  ps
15613 10631 m  19222 10013 l  ps
pum
2389 5683 t
0.003 0.003 0.003 c 110 -119 m  110 -133 112 -149 116 -168 ct 120 -186 124 -203 128 -217 ct 
133 -232 141 -254 152 -284 ct 163 -313 169 -330 170 -332 ct 179 -357 184 -377 184 -393 ct 
184 -414 176 -424 161 -424 ct 134 -424 112 -410 95 -382 ct 77 -355 65 -324 56 -290 ct 
55 -285 52 -283 48 -283 ct 36 -283 l  30 -283 27 -286 27 -293 ct 27 -296 l  38 -336 55 -372 78 -403 ct 
100 -434 129 -450 163 -450 ct 187 -450 208 -442 225 -426 ct 241 -410 250 -390 250 -366 ct 
250 -353 247 -340 241 -326 ct 233 -305 224 -281 213 -252 ct 202 -223 194 -197 188 -173 ct 
182 -150 179 -127 179 -105 ct 179 -79 186 -57 200 -41 ct 214 -24 234 -16 261 -16 ct 
297 -16 327 -43 351 -98 ct 350 -102 349 -108 349 -115 ct 349 -133 352 -154 358 -177 ct 
415 -406 l  417 -415 423 -423 431 -429 ct 439 -436 448 -439 458 -439 ct 466 -439 473 -436 479 -431 ct 
485 -426 488 -419 488 -410 ct 488 -406 488 -404 487 -402 ct 430 -175 l  423 -148 420 -124 420 -102 ct 
420 -77 426 -56 438 -40 ct 449 -24 468 -16 493 -16 ct 537 -16 573 -45 601 -102 ct 
612 -123 624 -153 637 -193 ct 650 -234 656 -264 656 -285 ct 656 -305 653 -320 647 -332 ct 
641 -343 632 -356 621 -369 ct 610 -382 604 -392 604 -399 ct 604 -412 610 -424 621 -435 ct 
632 -446 644 -452 657 -452 ct 674 -452 685 -444 692 -429 ct 699 -414 703 -397 703 -378 ct 
703 -356 699 -326 692 -291 ct 684 -256 674 -220 663 -185 ct 651 -149 640 -121 630 -99 ct 
593 -26 546 11 491 11 ct 463 11 437 6 413 -5 ct 389 -16 372 -34 361 -58 ct 350 -38 335 -22 318 -9 ct 
300 4 280 11 259 11 ct 214 11 178 0 151 -21 ct 124 -42 110 -75 110 -119 ct p ef
pom
pum
3118 6020 t
57 -5 m  57 -15 l  57 -17 58 -18 59 -19 ct 60 -20 61 -21 63 -21 ct 92 -21 112 -22 123 -25 ct 
128 -27 131 -32 131 -41 ct 131 -229 l  113 -224 90 -221 60 -221 ct 59 -221 58 -222 56 -223 ct 
54 -224 53 -225 53 -226 ct 53 -237 l  53 -239 55 -241 59 -242 ct 81 -242 101 -244 118 -247 ct 
135 -251 150 -258 164 -268 ct 164 -268 166 -268 167 -268 ct 172 -268 174 -266 174 -262 ct 
174 -41 l  174 -32 177 -27 182 -25 ct 193 -22 213 -21 242 -21 ct 244 -21 245 -20 246 -19 ct 
248 -18 248 -17 248 -15 ct 248 -5 l  248 -4 247 -3 246 -2 ct 245 -1 243 0 242 0 ct 
63 0 l  62 0 61 -1 59 -2 ct 58 -3 57 -4 57 -5 ct p ef
pom
pum
3414 5683 t
80 -30 m  92 -21 108 -16 130 -16 ct 152 -16 170 -26 187 -46 ct 203 -67 214 -89 220 -113 ct 
266 -294 l  273 -326 277 -349 277 -361 ct 277 -377 272 -392 263 -405 ct 254 -417 240 -424 223 -424 ct 
202 -424 182 -417 163 -404 ct 144 -390 128 -373 115 -352 ct 102 -332 93 -311 88 -290 ct 
86 -285 84 -283 80 -283 ct 67 -283 l  62 -283 59 -286 59 -293 ct 59 -296 l  66 -321 77 -345 93 -369 ct 
109 -393 128 -413 152 -428 ct 175 -443 199 -450 225 -450 ct 250 -450 273 -443 293 -430 ct 
313 -417 327 -399 335 -376 ct 347 -397 362 -414 380 -429 ct 398 -443 418 -450 439 -450 ct 
454 -450 469 -447 484 -442 ct 499 -437 512 -429 521 -419 ct 531 -408 536 -395 536 -379 ct 
536 -362 530 -347 519 -334 ct 508 -322 494 -316 477 -316 ct 466 -316 457 -319 449 -326 ct 
442 -333 438 -342 438 -353 ct 438 -367 443 -379 453 -390 ct 463 -401 475 -407 488 -409 ct 
476 -419 459 -424 437 -424 ct 415 -424 396 -414 380 -393 ct 364 -373 353 -351 346 -326 ct 
302 -146 l  294 -119 291 -96 291 -79 ct 291 -62 295 -47 305 -34 ct 315 -22 328 -16 344 -16 ct 
376 -16 405 -30 430 -58 ct 455 -86 471 -117 479 -150 ct 480 -154 483 -156 487 -156 ct 
500 -156 l  502 -156 504 -155 506 -153 ct 508 -151 509 -149 509 -147 ct 509 -146 508 -145 508 -144 ct 
498 -104 478 -68 447 -36 ct 416 -5 381 11 342 11 ct 317 11 295 4 275 -9 ct 255 -23 241 -41 232 -64 ct 
222 -44 207 -26 188 -11 ct 170 4 150 11 128 11 ct 114 11 99 8 83 3 ct 68 -2 55 -10 46 -20 ct 
36 -31 31 -44 31 -61 ct 31 -76 37 -91 48 -104 ct 59 -117 73 -124 90 -124 ct 101 -124 110 -120 118 -113 ct 
126 -107 129 -98 129 -87 ct 129 -73 125 -60 115 -50 ct 106 -39 94 -32 80 -30 ct 
p ef
pom
pum
3998 6020 t
57 -5 m  57 -15 l  57 -17 58 -18 59 -19 ct 60 -20 61 -21 63 -21 ct 92 -21 112 -22 123 -25 ct 
128 -27 131 -32 131 -41 ct 131 -229 l  113 -224 90 -221 60 -221 ct 59 -221 58 -222 56 -223 ct 
54 -224 53 -225 53 -226 ct 53 -237 l  53 -239 55 -241 59 -242 ct 81 -242 101 -244 118 -247 ct 
135 -251 150 -258 164 -268 ct 164 -268 166 -268 167 -268 ct 172 -268 174 -266 174 -262 ct 
174 -41 l  174 -32 177 -27 182 -25 ct 193 -22 213 -21 242 -21 ct 244 -21 245 -20 246 -19 ct 
248 -18 248 -17 248 -15 ct 248 -5 l  248 -4 247 -3 246 -2 ct 245 -1 243 0 242 0 ct 
63 0 l  62 0 61 -1 59 -2 ct 58 -3 57 -4 57 -5 ct p ef
pom
pum
1278 8128 t
110 -119 m  110 -133 112 -149 116 -168 ct 120 -186 124 -203 128 -217 ct 133 -232 141 -254 152 -284 ct 
163 -313 169 -330 170 -332 ct 179 -357 184 -377 184 -393 ct 184 -414 176 -424 161 -424 ct 
134 -424 112 -410 95 -382 ct 77 -355 65 -324 56 -290 ct 55 -285 52 -283 48 -283 ct 
36 -283 l  30 -283 27 -286 27 -293 ct 27 -296 l  38 -336 55 -372 78 -403 ct 
100 -434 129 -450 163 -450 ct 187 -450 208 -442 225 -426 ct 241 -410 250 -390 250 -366 ct 
250 -353 247 -340 241 -326 ct 233 -305 224 -281 213 -252 ct 202 -223 194 -197 188 -173 ct 
182 -150 179 -127 179 -105 ct 179 -79 186 -57 200 -41 ct 214 -24 234 -16 261 -16 ct 
297 -16 327 -43 351 -98 ct 350 -102 349 -108 349 -115 ct 349 -133 352 -154 358 -177 ct 
415 -406 l  417 -415 423 -423 431 -429 ct 439 -436 448 -439 458 -439 ct 466 -439 473 -436 479 -431 ct 
485 -426 488 -419 488 -410 ct 488 -406 488 -404 487 -402 ct 430 -175 l  423 -148 420 -124 420 -102 ct 
420 -77 426 -56 438 -40 ct 449 -24 468 -16 493 -16 ct 537 -16 573 -45 601 -102 ct 
612 -123 624 -153 637 -193 ct 650 -234 656 -264 656 -285 ct 656 -305 653 -320 647 -332 ct 
641 -343 632 -356 621 -369 ct 610 -382 604 -392 604 -399 ct 604 -412 610 -424 621 -435 ct 
632 -446 644 -452 657 -452 ct 674 -452 685 -444 692 -429 ct 699 -414 703 -397 703 -378 ct 
703 -356 699 -326 692 -291 ct 684 -256 674 -220 663 -185 ct 651 -149 640 -121 630 -99 ct 
593 -26 546 11 491 11 ct 463 11 437 6 413 -5 ct 389 -16 372 -34 361 -58 ct 350 -38 335 -22 318 -9 ct 
300 4 280 11 259 11 ct 214 11 178 0 151 -21 ct 124 -42 110 -75 110 -119 ct p ef
pom
pum
2007 8464 t
26 -5 m  26 -16 l  26 -18 27 -19 28 -20 ct 130 -89 l  141 -96 150 -103 159 -109 ct 
168 -116 177 -122 185 -129 ct 192 -136 199 -145 204 -154 ct 209 -163 212 -173 212 -183 ct 
212 -194 209 -204 204 -212 ct 199 -220 193 -227 185 -232 ct 177 -237 168 -241 157 -243 ct 
147 -246 136 -247 126 -247 ct 113 -247 101 -245 89 -240 ct 77 -235 67 -227 60 -217 ct 
66 -216 71 -214 75 -209 ct 79 -205 81 -199 81 -193 ct 81 -187 78 -181 74 -177 ct 
69 -172 64 -170 57 -170 ct 50 -170 44 -172 40 -177 ct 35 -181 33 -187 33 -193 ct 
33 -210 39 -225 50 -236 ct 61 -247 74 -255 91 -260 ct 107 -265 123 -268 139 -268 ct 
160 -268 179 -265 198 -260 ct 217 -255 233 -246 246 -233 ct 259 -220 265 -204 265 -183 ct 
265 -170 262 -158 256 -149 ct 249 -139 241 -131 231 -124 ct 221 -117 209 -110 195 -103 ct 
173 -93 l  159 -86 152 -81 150 -80 ct 87 -42 l  138 -42 l  195 -42 228 -43 236 -44 ct 
238 -46 241 -53 245 -64 ct 248 -75 252 -81 254 -81 ct 259 -81 l  263 -81 265 -78 265 -73 ct 
249 -5 l  248 -2 246 0 243 0 ct 32 0 l  31 0 30 -1 28 -2 ct 27 -3 26 -4 26 -5 ct 
p ef
pom
pum
2303 8128 t
80 -30 m  92 -21 108 -16 130 -16 ct 152 -16 170 -26 187 -46 ct 203 -67 214 -89 220 -113 ct 
266 -294 l  273 -326 277 -349 277 -361 ct 277 -377 272 -392 263 -405 ct 254 -417 240 -424 223 -424 ct 
202 -424 182 -417 163 -404 ct 144 -390 128 -373 115 -352 ct 102 -332 93 -311 88 -290 ct 
86 -285 84 -283 80 -283 ct 67 -283 l  62 -283 59 -286 59 -293 ct 59 -296 l  66 -321 77 -345 93 -369 ct 
109 -393 128 -413 152 -428 ct 175 -443 199 -450 225 -450 ct 250 -450 273 -443 293 -430 ct 
313 -417 327 -399 335 -376 ct 347 -397 362 -414 380 -429 ct 398 -443 418 -450 439 -450 ct 
454 -450 469 -447 484 -442 ct 499 -437 512 -429 521 -419 ct 531 -408 536 -395 536 -379 ct 
536 -362 530 -347 519 -334 ct 508 -322 494 -316 477 -316 ct 466 -316 457 -319 449 -326 ct 
442 -333 438 -342 438 -353 ct 438 -367 443 -379 453 -390 ct 463 -401 475 -407 488 -409 ct 
476 -419 459 -424 437 -424 ct 415 -424 396 -414 380 -393 ct 364 -373 353 -351 346 -326 ct 
302 -146 l  294 -119 291 -96 291 -79 ct 291 -62 295 -47 305 -34 ct 315 -22 328 -16 344 -16 ct 
376 -16 405 -30 430 -58 ct 455 -86 471 -117 479 -150 ct 480 -154 483 -156 487 -156 ct 
500 -156 l  502 -156 504 -155 506 -153 ct 508 -151 509 -149 509 -147 ct 509 -146 508 -145 508 -144 ct 
498 -104 478 -68 447 -36 ct 416 -5 381 11 342 11 ct 317 11 295 4 275 -9 ct 255 -23 241 -41 232 -64 ct 
222 -44 207 -26 188 -11 ct 170 4 150 11 128 11 ct 114 11 99 8 83 3 ct 68 -2 55 -10 46 -20 ct 
36 -31 31 -44 31 -61 ct 31 -76 37 -91 48 -104 ct 59 -117 73 -124 90 -124 ct 101 -124 110 -120 118 -113 ct 
126 -107 129 -98 129 -87 ct 129 -73 125 -60 115 -50 ct 106 -39 94 -32 80 -30 ct 
p ef
pom
pum
2887 8464 t
26 -5 m  26 -16 l  26 -18 27 -19 28 -20 ct 130 -89 l  141 -96 150 -103 159 -109 ct 
168 -116 177 -122 185 -129 ct 192 -136 199 -145 204 -154 ct 209 -163 212 -173 212 -183 ct 
212 -194 209 -204 204 -212 ct 199 -220 193 -227 185 -232 ct 177 -237 168 -241 157 -243 ct 
147 -246 136 -247 126 -247 ct 113 -247 101 -245 89 -240 ct 77 -235 67 -227 60 -217 ct 
66 -216 71 -214 75 -209 ct 79 -205 81 -199 81 -193 ct 81 -187 78 -181 74 -177 ct 
69 -172 64 -170 57 -170 ct 50 -170 44 -172 40 -177 ct 35 -181 33 -187 33 -193 ct 
33 -210 39 -225 50 -236 ct 61 -247 74 -255 91 -260 ct 107 -265 123 -268 139 -268 ct 
160 -268 179 -265 198 -260 ct 217 -255 233 -246 246 -233 ct 259 -220 265 -204 265 -183 ct 
265 -170 262 -158 256 -149 ct 249 -139 241 -131 231 -124 ct 221 -117 209 -110 195 -103 ct 
173 -93 l  159 -86 152 -81 150 -80 ct 87 -42 l  138 -42 l  195 -42 228 -43 236 -44 ct 
238 -46 241 -53 245 -64 ct 248 -75 252 -81 254 -81 ct 259 -81 l  263 -81 265 -78 265 -73 ct 
249 -5 l  248 -2 246 0 243 0 ct 32 0 l  31 0 30 -1 28 -2 ct 27 -3 26 -4 26 -5 ct 
p ef
pom
pum
833 13128 t
110 -119 m  110 -133 112 -149 116 -168 ct 120 -186 124 -203 128 -217 ct 133 -232 141 -254 152 -284 ct 
163 -313 169 -330 170 -332 ct 179 -357 184 -377 184 -393 ct 184 -414 176 -424 161 -424 ct 
134 -424 112 -410 95 -382 ct 77 -355 65 -324 56 -290 ct 55 -285 52 -283 48 -283 ct 
36 -283 l  30 -283 27 -286 27 -293 ct 27 -296 l  38 -336 55 -372 78 -403 ct 
100 -434 129 -450 163 -450 ct 187 -450 208 -442 225 -426 ct 241 -410 250 -390 250 -366 ct 
250 -353 247 -340 241 -326 ct 233 -305 224 -281 213 -252 ct 202 -223 194 -197 188 -173 ct 
182 -150 179 -127 179 -105 ct 179 -79 186 -57 200 -41 ct 214 -24 234 -16 261 -16 ct 
297 -16 327 -43 351 -98 ct 350 -102 349 -108 349 -115 ct 349 -133 352 -154 358 -177 ct 
415 -406 l  417 -415 423 -423 431 -429 ct 439 -436 448 -439 458 -439 ct 466 -439 473 -436 479 -431 ct 
485 -426 488 -419 488 -410 ct 488 -406 488 -404 487 -402 ct 430 -175 l  423 -148 420 -124 420 -102 ct 
420 -77 426 -56 438 -40 ct 449 -24 468 -16 493 -16 ct 537 -16 573 -45 601 -102 ct 
612 -123 624 -153 637 -193 ct 650 -234 656 -264 656 -285 ct 656 -305 653 -320 647 -332 ct 
641 -343 632 -356 621 -369 ct 610 -382 604 -392 604 -399 ct 604 -412 610 -424 621 -435 ct 
632 -446 644 -452 657 -452 ct 674 -452 685 -444 692 -429 ct 699 -414 703 -397 703 -378 ct 
703 -356 699 -326 692 -291 ct 684 -256 674 -220 663 -185 ct 651 -149 640 -121 630 -99 ct 
593 -26 546 11 491 11 ct 463 11 437 6 413 -5 ct 389 -16 372 -34 361 -58 ct 350 -38 335 -22 318 -9 ct 
300 4 280 11 259 11 ct 214 11 178 0 151 -21 ct 124 -42 110 -75 110 -119 ct p ef
pom
pum
1562 13464 t
55 67 m  64 81 76 91 93 98 ct 109 105 127 108 145 108 ct 168 108 184 99 195 80 ct 
205 62 210 40 210 15 ct 210 0 208 -15 204 -29 ct 200 -43 192 -54 182 -63 ct 172 -72 160 -77 144 -77 ct 
104 -77 l  100 -77 99 -79 99 -82 ct 99 -88 l  99 -92 100 -93 104 -93 ct 138 -93 l 
158 -93 173 -104 184 -124 ct 194 -144 200 -166 200 -188 ct 200 -206 195 -222 186 -233 ct 
176 -245 163 -251 145 -251 ct 129 -251 115 -248 101 -243 ct 87 -237 76 -229 67 -218 ct 
68 -218 69 -218 69 -218 ct 70 -218 70 -218 71 -218 ct 77 -218 82 -217 86 -214 ct 
90 -212 94 -208 97 -203 ct 99 -199 100 -194 100 -188 ct 100 -183 99 -178 97 -173 ct 
94 -169 90 -165 86 -163 ct 81 -160 76 -159 71 -159 ct 63 -159 55 -162 49 -167 ct 
44 -173 41 -180 41 -188 ct 41 -205 46 -219 56 -232 ct 67 -244 80 -253 96 -259 ct 
112 -265 128 -268 145 -268 ct 157 -268 170 -266 183 -263 ct 195 -259 207 -254 218 -248 ct 
229 -241 238 -233 244 -223 ct 251 -213 254 -202 254 -189 ct 254 -165 246 -143 231 -125 ct 
215 -106 195 -93 171 -86 ct 184 -84 196 -80 208 -74 ct 220 -68 231 -61 240 -52 ct 
249 -43 257 -33 262 -22 ct 267 -10 270 2 270 15 ct 270 37 264 56 252 73 ct 240 90 225 103 205 113 ct 
186 122 166 127 145 127 ct 126 127 107 124 88 117 ct 70 110 55 100 43 86 ct 31 72 25 55 25 35 ct 
25 26 28 18 34 12 ct 41 6 48 3 57 3 ct 66 3 74 6 80 12 ct 86 18 89 26 89 35 ct 89 45 86 52 80 59 ct 
74 65 66 68 57 68 ct 57 68 56 68 56 68 ct 55 67 55 67 55 67 ct p ef
pom
pum
1859 13128 t
80 -30 m  92 -21 108 -16 130 -16 ct 152 -16 170 -26 187 -46 ct 203 -67 214 -89 220 -113 ct 
266 -294 l  273 -326 277 -349 277 -361 ct 277 -377 272 -392 263 -405 ct 254 -417 240 -424 223 -424 ct 
202 -424 182 -417 163 -404 ct 144 -390 128 -373 115 -352 ct 102 -332 93 -311 88 -290 ct 
86 -285 84 -283 80 -283 ct 67 -283 l  62 -283 59 -286 59 -293 ct 59 -296 l  66 -321 77 -345 93 -369 ct 
109 -393 128 -413 152 -428 ct 175 -443 199 -450 225 -450 ct 250 -450 273 -443 293 -430 ct 
313 -417 327 -399 335 -376 ct 347 -397 362 -414 380 -429 ct 398 -443 418 -450 439 -450 ct 
454 -450 469 -447 484 -442 ct 499 -437 512 -429 521 -419 ct 531 -408 536 -395 536 -379 ct 
536 -362 530 -347 519 -334 ct 508 -322 494 -316 477 -316 ct 466 -316 457 -319 449 -326 ct 
442 -333 438 -342 438 -353 ct 438 -367 443 -379 453 -390 ct 463 -401 475 -407 488 -409 ct 
476 -419 459 -424 437 -424 ct 415 -424 396 -414 380 -393 ct 364 -373 353 -351 346 -326 ct 
302 -146 l  294 -119 291 -96 291 -79 ct 291 -62 295 -47 305 -34 ct 315 -22 328 -16 344 -16 ct 
376 -16 405 -30 430 -58 ct 455 -86 471 -117 479 -150 ct 480 -154 483 -156 487 -156 ct 
500 -156 l  502 -156 504 -155 506 -153 ct 508 -151 509 -149 509 -147 ct 509 -146 508 -145 508 -144 ct 
498 -104 478 -68 447 -36 ct 416 -5 381 11 342 11 ct 317 11 295 4 275 -9 ct 255 -23 241 -41 232 -64 ct 
222 -44 207 -26 188 -11 ct 170 4 150 11 128 11 ct 114 11 99 8 83 3 ct 68 -2 55 -10 46 -20 ct 
36 -31 31 -44 31 -61 ct 31 -76 37 -91 48 -104 ct 59 -117 73 -124 90 -124 ct 101 -124 110 -120 118 -113 ct 
126 -107 129 -98 129 -87 ct 129 -73 125 -60 115 -50 ct 106 -39 94 -32 80 -30 ct 
p ef
pom
pum
2442 13464 t
55 67 m  64 81 76 91 93 98 ct 109 105 127 108 145 108 ct 168 108 184 99 195 80 ct 
205 62 210 40 210 15 ct 210 0 208 -15 204 -29 ct 200 -43 192 -54 182 -63 ct 172 -72 160 -77 144 -77 ct 
104 -77 l  100 -77 99 -79 99 -82 ct 99 -88 l  99 -92 100 -93 104 -93 ct 138 -93 l 
158 -93 173 -104 184 -124 ct 194 -144 200 -166 200 -188 ct 200 -206 195 -222 186 -233 ct 
176 -245 163 -251 145 -251 ct 129 -251 115 -248 101 -243 ct 87 -237 76 -229 67 -218 ct 
68 -218 69 -218 69 -218 ct 70 -218 70 -218 71 -218 ct 77 -218 82 -217 86 -214 ct 
90 -212 94 -208 97 -203 ct 99 -199 100 -194 100 -188 ct 100 -183 99 -178 97 -173 ct 
94 -169 90 -165 86 -163 ct 81 -160 76 -159 71 -159 ct 63 -159 55 -162 49 -167 ct 
44 -173 41 -180 41 -188 ct 41 -205 46 -219 56 -232 ct 67 -244 80 -253 96 -259 ct 
112 -265 128 -268 145 -268 ct 157 -268 170 -266 183 -263 ct 195 -259 207 -254 218 -248 ct 
229 -241 238 -233 244 -223 ct 251 -213 254 -202 254 -189 ct 254 -165 246 -143 231 -125 ct 
215 -106 195 -93 171 -86 ct 184 -84 196 -80 208 -74 ct 220 -68 231 -61 240 -52 ct 
249 -43 257 -33 262 -22 ct 267 -10 270 2 270 15 ct 270 37 264 56 252 73 ct 240 90 225 103 205 113 ct 
186 122 166 127 145 127 ct 126 127 107 124 88 117 ct 70 110 55 100 43 86 ct 31 72 25 55 25 35 ct 
25 26 28 18 34 12 ct 41 6 48 3 57 3 ct 66 3 74 6 80 12 ct 86 18 89 26 89 35 ct 89 45 86 52 80 59 ct 
74 65 66 68 57 68 ct 57 68 56 68 56 68 ct 55 67 55 67 55 67 ct p ef
pom
pum
2611 15794 t
110 -119 m  110 -133 112 -149 116 -168 ct 120 -186 124 -203 128 -217 ct 133 -232 141 -254 152 -284 ct 
163 -313 169 -330 170 -332 ct 179 -357 184 -377 184 -393 ct 184 -414 176 -424 161 -424 ct 
134 -424 112 -410 95 -382 ct 77 -355 65 -324 56 -290 ct 55 -285 52 -283 48 -283 ct 
36 -283 l  30 -283 27 -286 27 -293 ct 27 -296 l  38 -336 55 -372 78 -403 ct 
100 -434 129 -450 163 -450 ct 187 -450 208 -442 225 -426 ct 241 -410 250 -390 250 -366 ct 
250 -353 247 -340 241 -326 ct 233 -305 224 -281 213 -252 ct 202 -223 194 -197 188 -173 ct 
182 -150 179 -127 179 -105 ct 179 -79 186 -57 200 -41 ct 214 -24 234 -16 261 -16 ct 
297 -16 327 -43 351 -98 ct 350 -102 349 -108 349 -115 ct 349 -133 352 -154 358 -177 ct 
415 -406 l  417 -415 423 -423 431 -429 ct 439 -436 448 -439 458 -439 ct 466 -439 473 -436 479 -431 ct 
485 -426 488 -419 488 -410 ct 488 -406 488 -404 487 -402 ct 430 -175 l  423 -148 420 -124 420 -102 ct 
420 -77 426 -56 438 -40 ct 449 -24 468 -16 493 -16 ct 537 -16 573 -45 601 -102 ct 
612 -123 624 -153 637 -193 ct 650 -234 656 -264 656 -285 ct 656 -305 653 -320 647 -332 ct 
641 -343 632 -356 621 -369 ct 610 -382 604 -392 604 -399 ct 604 -412 610 -424 621 -435 ct 
632 -446 644 -452 657 -452 ct 674 -452 685 -444 692 -429 ct 699 -414 703 -397 703 -378 ct 
703 -356 699 -326 692 -291 ct 684 -256 674 -220 663 -185 ct 651 -149 640 -121 630 -99 ct 
593 -26 546 11 491 11 ct 463 11 437 6 413 -5 ct 389 -16 372 -34 361 -58 ct 350 -38 335 -22 318 -9 ct 
300 4 280 11 259 11 ct 214 11 178 0 151 -21 ct 124 -42 110 -75 110 -119 ct p ef
pom
pum
3340 16131 t
116 109 m  116 99 l  116 97 117 96 118 95 ct 120 94 121 94 122 94 ct 151 94 167 91 171 87 ct 
173 85 174 80 174 73 ct 174 0 l  23 0 l  22 0 21 -1 19 -2 ct 17 -3 16 -4 16 -5 ct 
16 -18 l  16 -20 17 -22 18 -23 ct 197 -272 l  199 -274 201 -275 203 -275 ct 
213 -275 l  215 -275 216 -274 217 -273 ct 219 -272 219 -270 219 -268 ct 219 -21 l 
272 -21 l  274 -21 275 -20 276 -19 ct 278 -18 278 -17 278 -16 ct 278 -5 l  278 -4 278 -3 276 -2 ct 
275 -1 273 0 272 0 ct 219 0 l  219 73 l  219 79 220 84 222 87 ct 226 91 242 94 271 94 ct 
272 94 273 94 275 95 ct 276 96 276 97 276 99 ct 276 109 l  276 110 276 111 274 112 ct 
273 113 272 114 270 114 ct 123 114 l  122 114 120 113 119 112 ct 117 111 116 110 116 109 ct 
p
37 -21 m  177 -21 l  177 -217 l  37 -21 l  p ef
pom
pum
3637 15794 t
80 -30 m  92 -21 108 -16 130 -16 ct 152 -16 170 -26 187 -46 ct 203 -67 214 -89 220 -113 ct 
266 -294 l  273 -326 277 -349 277 -361 ct 277 -377 272 -392 263 -405 ct 254 -417 240 -424 223 -424 ct 
202 -424 182 -417 163 -404 ct 144 -390 128 -373 115 -352 ct 102 -332 93 -311 88 -290 ct 
86 -285 84 -283 80 -283 ct 67 -283 l  62 -283 59 -286 59 -293 ct 59 -296 l  66 -321 77 -345 93 -369 ct 
109 -393 128 -413 152 -428 ct 175 -443 199 -450 225 -450 ct 250 -450 273 -443 293 -430 ct 
313 -417 327 -399 335 -376 ct 347 -397 362 -414 380 -429 ct 398 -443 418 -450 439 -450 ct 
454 -450 469 -447 484 -442 ct 499 -437 512 -429 521 -419 ct 531 -408 536 -395 536 -379 ct 
536 -362 530 -347 519 -334 ct 508 -322 494 -316 477 -316 ct 466 -316 457 -319 449 -326 ct 
442 -333 438 -342 438 -353 ct 438 -367 443 -379 453 -390 ct 463 -401 475 -407 488 -409 ct 
476 -419 459 -424 437 -424 ct 415 -424 396 -414 380 -393 ct 364 -373 353 -351 346 -326 ct 
302 -146 l  294 -119 291 -96 291 -79 ct 291 -62 295 -47 305 -34 ct 315 -22 328 -16 344 -16 ct 
376 -16 405 -30 430 -58 ct 455 -86 471 -117 479 -150 ct 480 -154 483 -156 487 -156 ct 
500 -156 l  502 -156 504 -155 506 -153 ct 508 -151 509 -149 509 -147 ct 509 -146 508 -145 508 -144 ct 
498 -104 478 -68 447 -36 ct 416 -5 381 11 342 11 ct 317 11 295 4 275 -9 ct 255 -23 241 -41 232 -64 ct 
222 -44 207 -26 188 -11 ct 170 4 150 11 128 11 ct 114 11 99 8 83 3 ct 68 -2 55 -10 46 -20 ct 
36 -31 31 -44 31 -61 ct 31 -76 37 -91 48 -104 ct 59 -117 73 -124 90 -124 ct 101 -124 110 -120 118 -113 ct 
126 -107 129 -98 129 -87 ct 129 -73 125 -60 115 -50 ct 106 -39 94 -32 80 -30 ct 
p ef
pom
pum
4220 16131 t
116 109 m  116 99 l  116 97 117 96 118 95 ct 120 94 121 94 122 94 ct 151 94 167 91 171 87 ct 
173 85 174 80 174 73 ct 174 0 l  23 0 l  22 0 21 -1 19 -2 ct 17 -3 16 -4 16 -5 ct 
16 -18 l  16 -20 17 -22 18 -23 ct 197 -272 l  199 -274 201 -275 203 -275 ct 
213 -275 l  215 -275 216 -274 217 -273 ct 219 -272 219 -270 219 -268 ct 219 -21 l 
272 -21 l  274 -21 275 -20 276 -19 ct 278 -18 278 -17 278 -16 ct 278 -5 l  278 -4 278 -3 276 -2 ct 
275 -1 273 0 272 0 ct 219 0 l  219 73 l  219 79 220 84 222 87 ct 226 91 242 94 271 94 ct 
272 94 273 94 275 95 ct 276 96 276 97 276 99 ct 276 109 l  276 110 276 111 274 112 ct 
273 113 272 114 270 114 ct 123 114 l  122 114 120 113 119 112 ct 117 111 116 110 116 109 ct 
p
37 -21 m  177 -21 l  177 -217 l  37 -21 l  p ef
pom
pum
8722 10900 t
86 145 m  100 170 125 182 160 182 ct 192 182 220 171 244 148 ct 267 126 286 98 301 66 ct 
315 34 326 2 334 -32 ct 304 -3 272 11 236 11 ct 209 11 187 6 168 -3 ct 149 -12 134 -26 124 -44 ct 
113 -63 108 -85 108 -111 ct 108 -133 111 -156 117 -180 ct 123 -203 131 -229 142 -257 ct 
153 -286 162 -311 170 -332 ct 179 -357 184 -377 184 -393 ct 184 -414 176 -424 161 -424 ct 
134 -424 112 -410 95 -382 ct 77 -355 65 -324 56 -290 ct 55 -285 52 -283 48 -283 ct 
36 -283 l  30 -283 27 -286 27 -293 ct 27 -296 l  38 -336 55 -372 78 -403 ct 
100 -434 129 -450 163 -450 ct 187 -450 208 -442 225 -426 ct 241 -410 250 -390 250 -366 ct 
250 -353 247 -340 241 -326 ct 238 -318 232 -299 221 -272 ct 210 -244 202 -221 197 -203 ct 
191 -184 186 -167 183 -149 ct 179 -131 177 -114 177 -96 ct 177 -74 182 -55 192 -39 ct 
201 -24 216 -16 237 -16 ct 279 -16 317 -42 351 -93 ct 428 -406 l  430 -415 436 -423 444 -429 ct 
452 -436 461 -439 471 -439 ct 479 -439 486 -436 492 -431 ct 498 -426 502 -419 502 -410 ct 
502 -406 501 -404 501 -402 ct 400 3 l  391 37 374 71 350 103 ct 326 134 298 160 264 179 ct 
230 199 195 208 159 208 ct 141 208 124 205 106 198 ct 89 191 75 181 65 168 ct 54 154 49 138 49 120 ct 
49 101 54 85 65 71 ct 76 58 91 51 109 51 ct 120 51 129 54 137 61 ct 144 68 148 77 148 88 ct 
148 103 142 117 130 129 ct 119 140 105 146 90 146 ct 89 146 88 145 88 145 ct 87 145 86 145 86 145 ct 
p ef
pom
pum
9221 10900 t
325 159 m  244 122 183 65 142 -13 ct 101 -92 81 -190 81 -307 ct 81 -425 101 -524 142 -602 ct 
183 -680 244 -738 325 -774 ct 325 -725 l  274 -690 237 -640 215 -577 ct 193 -513 182 -423 182 -307 ct 
182 -192 193 -102 215 -39 ct 237 25 274 75 325 110 ct 325 159 l  p ef
pom
pum
9621 10900 t
478 -405 m  203 -93 l  591 -93 l  591 -165 l  652 -165 l  652 0 l  41 0 l 
372 -372 l  41 -742 l  652 -742 l  652 -577 l  591 -577 l  591 -681 l 
245 -681 l  478 -405 l  p ef
pom
pum
10341 10900 t
110 -119 m  110 -133 112 -149 116 -168 ct 120 -186 124 -203 128 -217 ct 133 -232 141 -254 152 -284 ct 
163 -313 169 -330 170 -332 ct 179 -357 184 -377 184 -393 ct 184 -414 176 -424 161 -424 ct 
134 -424 112 -410 95 -382 ct 77 -355 65 -324 56 -290 ct 55 -285 52 -283 48 -283 ct 
36 -283 l  30 -283 27 -286 27 -293 ct 27 -296 l  38 -336 55 -372 78 -403 ct 
100 -434 129 -450 163 -450 ct 187 -450 208 -442 225 -426 ct 241 -410 250 -390 250 -366 ct 
250 -353 247 -340 241 -326 ct 233 -305 224 -281 213 -252 ct 202 -223 194 -197 188 -173 ct 
182 -150 179 -127 179 -105 ct 179 -79 186 -57 200 -41 ct 214 -24 234 -16 261 -16 ct 
297 -16 327 -43 351 -98 ct 350 -102 349 -108 349 -115 ct 349 -133 352 -154 358 -177 ct 
415 -406 l  417 -415 423 -423 431 -429 ct 439 -436 448 -439 458 -439 ct 466 -439 473 -436 479 -431 ct 
485 -426 488 -419 488 -410 ct 488 -406 488 -404 487 -402 ct 430 -175 l  423 -148 420 -124 420 -102 ct 
420 -77 426 -56 438 -40 ct 449 -24 468 -16 493 -16 ct 537 -16 573 -45 601 -102 ct 
612 -123 624 -153 637 -193 ct 650 -234 656 -264 656 -285 ct 656 -305 653 -320 647 -332 ct 
641 -343 632 -356 621 -369 ct 610 -382 604 -392 604 -399 ct 604 -412 610 -424 621 -435 ct 
632 -446 644 -452 657 -452 ct 674 -452 685 -444 692 -429 ct 699 -414 703 -397 703 -378 ct 
703 -356 699 -326 692 -291 ct 684 -256 674 -220 663 -185 ct 651 -149 640 -121 630 -99 ct 
593 -26 546 11 491 11 ct 463 11 437 6 413 -5 ct 389 -16 372 -34 361 -58 ct 350 -38 335 -22 318 -9 ct 
300 4 280 11 259 11 ct 214 11 178 0 151 -21 ct 124 -42 110 -75 110 -119 ct p ef
pom
pum
11070 11237 t
46 -10 m  46 -12 46 -14 46 -15 ct 90 -191 l  93 -202 95 -212 95 -220 ct 95 -237 89 -246 77 -246 ct 
65 -246 56 -238 50 -224 ct 44 -209 38 -190 33 -168 ct 33 -167 32 -166 31 -165 ct 
30 -164 29 -164 28 -164 ct 21 -164 l  19 -164 18 -165 17 -166 ct 16 -168 16 -169 16 -170 ct 
20 -187 24 -202 28 -214 ct 32 -226 38 -236 47 -246 ct 55 -256 65 -261 78 -261 ct 
93 -261 106 -256 117 -247 ct 129 -238 134 -226 134 -211 ct 146 -227 160 -239 175 -248 ct 
191 -257 208 -261 226 -261 ct 240 -261 252 -259 262 -254 ct 272 -249 280 -242 286 -232 ct 
292 -222 294 -211 294 -197 ct 294 -181 291 -161 284 -139 ct 276 -116 267 -90 257 -62 ct 
251 -49 248 -37 248 -26 ct 248 -14 253 -9 262 -9 ct 277 -9 290 -17 300 -33 ct 311 -50 318 -68 322 -87 ct 
323 -89 324 -90 327 -90 ct 334 -90 l  335 -90 337 -90 338 -89 ct 339 -88 339 -86 339 -85 ct 
339 -84 339 -84 339 -83 ct 333 -61 324 -40 311 -21 ct 297 -2 281 7 261 7 ct 247 7 235 2 225 -7 ct 
215 -17 210 -28 210 -42 ct 210 -49 212 -57 215 -65 ct 220 -78 226 -94 232 -111 ct 
239 -129 244 -146 248 -163 ct 252 -179 254 -194 254 -206 ct 254 -217 252 -226 247 -234 ct 
243 -242 235 -246 225 -246 ct 210 -246 197 -243 185 -236 ct 173 -230 162 -221 153 -211 ct 
144 -200 136 -188 128 -174 ct 88 -13 l  87 -7 84 -3 79 1 ct 74 5 69 7 63 7 ct 58 7 54 5 51 2 ct 
47 -1 46 -5 46 -10 ct p ef
pom
pum
11423 10900 t
80 -30 m  92 -21 108 -16 130 -16 ct 152 -16 170 -26 187 -46 ct 203 -67 214 -89 220 -113 ct 
266 -294 l  273 -326 277 -349 277 -361 ct 277 -377 272 -392 263 -405 ct 254 -417 240 -424 223 -424 ct 
202 -424 182 -417 163 -404 ct 144 -390 128 -373 115 -352 ct 102 -332 93 -311 88 -290 ct 
86 -285 84 -283 80 -283 ct 67 -283 l  62 -283 59 -286 59 -293 ct 59 -296 l  66 -321 77 -345 93 -369 ct 
109 -393 128 -413 152 -428 ct 175 -443 199 -450 225 -450 ct 250 -450 273 -443 293 -430 ct 
313 -417 327 -399 335 -376 ct 347 -397 362 -414 380 -429 ct 398 -443 418 -450 439 -450 ct 
454 -450 469 -447 484 -442 ct 499 -437 512 -429 521 -419 ct 531 -408 536 -395 536 -379 ct 
536 -362 530 -347 519 -334 ct 508 -322 494 -316 477 -316 ct 466 -316 457 -319 449 -326 ct 
442 -333 438 -342 438 -353 ct 438 -367 443 -379 453 -390 ct 463 -401 475 -407 488 -409 ct 
476 -419 459 -424 437 -424 ct 415 -424 396 -414 380 -393 ct 364 -373 353 -351 346 -326 ct 
302 -146 l  294 -119 291 -96 291 -79 ct 291 -62 295 -47 305 -34 ct 315 -22 328 -16 344 -16 ct 
376 -16 405 -30 430 -58 ct 455 -86 471 -117 479 -150 ct 480 -154 483 -156 487 -156 ct 
500 -156 l  502 -156 504 -155 506 -153 ct 508 -151 509 -149 509 -147 ct 509 -146 508 -145 508 -144 ct 
498 -104 478 -68 447 -36 ct 416 -5 381 11 342 11 ct 317 11 295 4 275 -9 ct 255 -23 241 -41 232 -64 ct 
222 -44 207 -26 188 -11 ct 170 4 150 11 128 11 ct 114 11 99 8 83 3 ct 68 -2 55 -10 46 -20 ct 
36 -31 31 -44 31 -61 ct 31 -76 37 -91 48 -104 ct 59 -117 73 -124 90 -124 ct 101 -124 110 -120 118 -113 ct 
126 -107 129 -98 129 -87 ct 129 -73 125 -60 115 -50 ct 106 -39 94 -32 80 -30 ct 
p ef
pom
pum
12007 11237 t
46 -10 m  46 -12 46 -14 46 -15 ct 90 -191 l  93 -202 95 -212 95 -220 ct 95 -237 89 -246 77 -246 ct 
65 -246 56 -238 50 -224 ct 44 -209 38 -190 33 -168 ct 33 -167 32 -166 31 -165 ct 
30 -164 29 -164 28 -164 ct 21 -164 l  19 -164 18 -165 17 -166 ct 16 -168 16 -169 16 -170 ct 
20 -187 24 -202 28 -214 ct 32 -226 38 -236 47 -246 ct 55 -256 65 -261 78 -261 ct 
93 -261 106 -256 117 -247 ct 129 -238 134 -226 134 -211 ct 146 -227 160 -239 175 -248 ct 
191 -257 208 -261 226 -261 ct 240 -261 252 -259 262 -254 ct 272 -249 280 -242 286 -232 ct 
292 -222 294 -211 294 -197 ct 294 -181 291 -161 284 -139 ct 276 -116 267 -90 257 -62 ct 
251 -49 248 -37 248 -26 ct 248 -14 253 -9 262 -9 ct 277 -9 290 -17 300 -33 ct 311 -50 318 -68 322 -87 ct 
323 -89 324 -90 327 -90 ct 334 -90 l  335 -90 337 -90 338 -89 ct 339 -88 339 -86 339 -85 ct 
339 -84 339 -84 339 -83 ct 333 -61 324 -40 311 -21 ct 297 -2 281 7 261 7 ct 247 7 235 2 225 -7 ct 
215 -17 210 -28 210 -42 ct 210 -49 212 -57 215 -65 ct 220 -78 226 -94 232 -111 ct 
239 -129 244 -146 248 -163 ct 252 -179 254 -194 254 -206 ct 254 -217 252 -226 247 -234 ct 
243 -242 235 -246 225 -246 ct 210 -246 197 -243 185 -236 ct 173 -230 162 -221 153 -211 ct 
144 -200 136 -188 128 -174 ct 88 -13 l  87 -7 84 -3 79 1 ct 74 5 69 7 63 7 ct 58 7 54 5 51 2 ct 
47 -1 46 -5 46 -10 ct p ef
pom
pum
12360 10900 t
32 -731 m  32 -688 l  171 -664 230 -534 230 -289 ct 230 -50 168 78 32 102 ct 
32 145 l  209 124 317 -30 317 -290 ct 317 -555 213 -709 32 -731 ct p ef
pom
gr
gs
1111 1111 m 21110 1111 l 21110 21110 l 1111 21110 l 1111 1111 l eoclip newpath
gr
gr
0 20000 t 
pom
count op_count sub {pop} repeat countdictstack dict_count sub {end} repeat b4_inc_state restore
%%PageTrailer
%%Trailer
%%EOF
