%!PS-Adobe-3.0 EPSF-3.0
%%DocumentNeededResources: font Helvetica
%%+ font Helvetica-Bold
%%+ font Helvetica-Oblique
%%+ font Helvetica-BoldOblique
%%+ font Symbol
%%Title: R Graphics Output
%%Creator: R Software
%%Pages: (atend)
%%BoundingBox: 0 0 588 431
%%EndComments
%%BeginProlog
/bp  { gs sRGB gs } def
% begin .ps.prolog
/gs  { gsave } bind def
/gr  { grestore } bind def
/ep  { showpage gr gr } bind def
/m   { moveto } bind def
/l  { rlineto } bind def
/np  { newpath } bind def
/cp  { closepath } bind def
/f   { fill } bind def
/o   { stroke } bind def
/c   { newpath 0 360 arc } bind def
/r   { 4 2 roll moveto 1 copy 3 -1 roll exch 0 exch rlineto 0 rlineto -1 mul 0 exch rlineto closepath } bind def
/p1  { stroke } bind def
/p2  { gsave bg fill grestore newpath } bind def
/p3  { gsave bg fill grestore stroke } bind def
/p6  { gsave bg eofill grestore newpath } bind def
/p7  { gsave bg eofill grestore stroke } bind def
/t   { 5 -2 roll moveto gsave rotate
       1 index stringwidth pop
       mul neg 0 rmoveto show grestore } bind def
/ta  { 4 -2 roll moveto gsave rotate show } bind def
/tb  { 2 -1 roll 0 rmoveto show } bind def
/cl  { grestore gsave newpath 3 index 3 index moveto 1 index
       4 -1 roll lineto  exch 1 index lineto lineto
       closepath clip newpath } bind def
/rgb { setrgbcolor } bind def
/s   { scalefont setfont } bind def
% end   .ps.prolog
/sRGB { [ /CIEBasedABC
          << /DecodeLMN
               [ { dup 0.03928 le
                        {12.92321 div}
                        {0.055 add 1.055 div 2.4 exp }
                     ifelse
                 } bind dup dup
               ]
             /MatrixLMN [0.412457 0.212673 0.019334
                         0.357576 0.715152 0.119192
                         0.180437 0.072175 0.950301]
             /WhitePoint [0.9505 1.0 1.0890]
           >>
         ] setcolorspace } bind def
/srgb { setcolor } bind def
%%IncludeResource: font Helvetica
/Helvetica findfont
dup length dict begin
  {1 index /FID ne {def} {pop pop} ifelse} forall
  /Encoding ISOLatin1Encoding def
  currentdict
  end
/Font1 exch definefont pop
%%IncludeResource: font Helvetica-Bold
/Helvetica-Bold findfont
dup length dict begin
  {1 index /FID ne {def} {pop pop} ifelse} forall
  /Encoding ISOLatin1Encoding def
  currentdict
  end
/Font2 exch definefont pop
%%IncludeResource: font Helvetica-Oblique
/Helvetica-Oblique findfont
dup length dict begin
  {1 index /FID ne {def} {pop pop} ifelse} forall
  /Encoding ISOLatin1Encoding def
  currentdict
  end
/Font3 exch definefont pop
%%IncludeResource: font Helvetica-BoldOblique
/Helvetica-BoldOblique findfont
dup length dict begin
  {1 index /FID ne {def} {pop pop} ifelse} forall
  /Encoding ISOLatin1Encoding def
  currentdict
  end
/Font4 exch definefont pop
%%IncludeResource: font Symbol
/Symbol findfont
dup length dict begin
  {1 index /FID ne {def} {pop pop} ifelse} forall
  currentdict
  end
/Font5 exch definefont pop
%%EndProlog
%%Page: 1 1
bp
/bg { 1 1 1 srgb } def
0.00 0.00 588.00 431.25 r p2
0.00 0.00 588.00 431.25 cl
/bg { 1 1 1 srgb } def
1 1 1 srgb
0.75 setlinewidth
[] 0 setdash
1 setlinecap
1 setlinejoin
10.00 setmiterlimit
181.01 274.82 43.96 43.96 r p3
224.96 274.82 43.96 43.96 r p3
224.96 230.87 43.96 43.96 r p3
268.92 274.82 43.96 43.96 r p3
268.92 230.87 43.96 43.96 r p3
268.92 186.91 43.96 43.96 r p3
312.87 274.82 43.96 43.96 r p3
312.87 230.87 43.96 43.96 r p3
312.87 186.91 43.96 43.96 r p3
312.87 142.96 43.96 43.96 r p3
356.83 274.82 43.96 43.96 r p3
356.83 230.87 43.96 43.96 r p3
356.83 186.91 43.96 43.96 r p3
356.83 142.96 43.96 43.96 r p3
356.83 99.00 43.96 43.96 r p3
400.78 274.82 43.96 43.96 r p3
400.78 230.87 43.96 43.96 r p3
400.78 186.91 43.96 43.96 r p3
400.78 142.96 43.96 43.96 r p3
400.78 99.00 43.96 43.96 r p3
400.78 55.05 43.96 43.96 r p3
444.74 274.82 43.96 43.96 r p3
444.74 230.87 43.96 43.96 r p3
444.74 186.91 43.96 43.96 r p3
444.74 142.96 43.96 43.96 r p3
444.74 99.00 43.96 43.96 r p3
444.74 55.05 43.96 43.96 r p3
444.74 11.09 43.96 43.96 r p3
/bg { 0.7765 1 0.2196 srgb } def
0.7765 1 0.2196 srgb
202.98 296.80 4.70 c p3
/bg { 0.3294 1 0.6627 srgb } def
0.3294 1 0.6627 srgb
246.94 296.80 3.65 c p3
/bg { 0 0.8863 1 srgb } def
0 0.8863 1 srgb
246.94 252.85 6.29 c p3
/bg { 0.5529 1 0.4392 srgb } def
0.5529 1 0.4392 srgb
290.90 296.80 1.55 c p3
/bg { 0 0.5529 1 srgb } def
0 0.5529 1 srgb
290.90 252.85 8.02 c p3
/bg { 0.2196 1 0.7765 srgb } def
0.2196 1 0.7765 srgb
290.90 208.89 4.02 c p3
/bg { 0.4392 1 0.5529 srgb } def
0.4392 1 0.5529 srgb
334.85 296.80 0.73 c p3
/bg { 0.6627 1 0.3294 srgb } def
0.6627 1 0.3294 srgb
334.85 252.85 3.38 c p3
/bg { 1 1 0 srgb } def
1 1 0 srgb
334.85 208.89 5.93 c p3
/bg { 0.2196 1 0.7765 srgb } def
0.2196 1 0.7765 srgb
334.85 164.94 4.43 c p3
/bg { 0 0.9961 1 srgb } def
0 0.9961 1 srgb
378.81 296.80 5.64 c p3
/bg { 0 0.7765 1 srgb } def
0 0.7765 1 srgb
378.81 252.85 6.91 c p3
/bg { 0 0.9961 1 srgb } def
0 0.9961 1 srgb
378.81 208.89 5.78 c p3
/bg { 0 0.7765 1 srgb } def
0 0.7765 1 srgb
378.81 164.94 6.89 c p3
/bg { 0.3294 1 0.6627 srgb } def
0.3294 1 0.6627 srgb
378.81 120.98 3.08 c p3
/bg { 0.4392 1 0.5529 srgb } def
0.4392 1 0.5529 srgb
422.76 296.80 2.01 c p3
/bg { 0 0.7765 1 srgb } def
0 0.7765 1 srgb
422.76 252.85 7.15 c p3
/bg { 0.2196 1 0.7765 srgb } def
0.2196 1 0.7765 srgb
422.76 208.89 4.30 c p3
/bg { 0.3294 1 0.6627 srgb } def
0.3294 1 0.6627 srgb
422.76 164.94 3.83 c p3
/bg { 0.6627 1 0.3294 srgb } def
0.6627 1 0.3294 srgb
422.76 120.98 3.46 c p3
/bg { 0 0.7765 1 srgb } def
0 0.7765 1 srgb
422.76 77.03 7.16 c p3
/bg { 0.4392 1 0.5529 srgb } def
0.4392 1 0.5529 srgb
466.72 296.80 2.42 c p3
/bg { 0.6627 1 0.3294 srgb } def
0.6627 1 0.3294 srgb
466.72 252.85 3.33 c p3
/bg { 0.5529 1 0.4392 srgb } def
0.5529 1 0.4392 srgb
466.72 208.89 1.65 c p3
/bg { 0.4392 1 0.5529 srgb } def
0.4392 1 0.5529 srgb
466.72 164.94 1.50 c p3
/bg { 0.5529 1 0.4392 srgb } def
0.5529 1 0.4392 srgb
466.72 120.98 1.54 c p3
466.72 77.03 2.37 c p3
/bg { 0.6627 1 0.3294 srgb } def
0.6627 1 0.3294 srgb
466.72 33.07 3.04 c p3
0.7451 0.7451 0.7451 srgb
181.01 274.82 43.96 43.96 r p1
224.96 274.82 43.96 43.96 r p1
224.96 230.87 43.96 43.96 r p1
268.92 274.82 43.96 43.96 r p1
268.92 230.87 43.96 43.96 r p1
268.92 186.91 43.96 43.96 r p1
312.87 274.82 43.96 43.96 r p1
312.87 230.87 43.96 43.96 r p1
312.87 186.91 43.96 43.96 r p1
312.87 142.96 43.96 43.96 r p1
356.83 274.82 43.96 43.96 r p1
356.83 230.87 43.96 43.96 r p1
356.83 186.91 43.96 43.96 r p1
356.83 142.96 43.96 43.96 r p1
356.83 99.00 43.96 43.96 r p1
400.78 274.82 43.96 43.96 r p1
400.78 230.87 43.96 43.96 r p1
400.78 186.91 43.96 43.96 r p1
400.78 142.96 43.96 43.96 r p1
400.78 99.00 43.96 43.96 r p1
400.78 55.05 43.96 43.96 r p1
444.74 274.82 43.96 43.96 r p1
444.74 230.87 43.96 43.96 r p1
444.74 186.91 43.96 43.96 r p1
444.74 142.96 43.96 43.96 r p1
444.74 99.00 43.96 43.96 r p1
444.74 55.05 43.96 43.96 r p1
444.74 11.09 43.96 43.96 r p1
/bg { 1 0.4392 0 srgb } def
1 0.4392 0 srgb
493.97 11.09 10.29 14.65 r p3
/bg { 1 0.5529 0 srgb } def
1 0.5529 0 srgb
493.97 25.74 10.29 14.65 r p3
/bg { 1 0.6627 0 srgb } def
1 0.6627 0 srgb
493.97 40.40 10.29 14.65 r p3
/bg { 1 0.7765 0 srgb } def
1 0.7765 0 srgb
493.97 55.05 10.29 14.65 r p3
/bg { 1 0.8863 0 srgb } def
1 0.8863 0 srgb
493.97 69.70 10.29 14.65 r p3
/bg { 1 1 0 srgb } def
1 1 0 srgb
493.97 84.35 10.29 14.65 r p3
/bg { 0.8863 1 0.1098 srgb } def
0.8863 1 0.1098 srgb
493.97 99.00 10.29 14.65 r p3
/bg { 0.7765 1 0.2196 srgb } def
0.7765 1 0.2196 srgb
493.97 113.65 10.29 14.65 r p3
/bg { 0.6627 1 0.3294 srgb } def
0.6627 1 0.3294 srgb
493.97 128.31 10.29 14.65 r p3
/bg { 0.5529 1 0.4392 srgb } def
0.5529 1 0.4392 srgb
493.97 142.96 10.29 14.65 r p3
/bg { 0.4392 1 0.5529 srgb } def
0.4392 1 0.5529 srgb
493.97 157.61 10.29 14.65 r p3
/bg { 0.3294 1 0.6627 srgb } def
0.3294 1 0.6627 srgb
493.97 172.26 10.29 14.65 r p3
/bg { 0.2196 1 0.7765 srgb } def
0.2196 1 0.7765 srgb
493.97 186.91 10.29 14.65 r p3
/bg { 0.1098 1 0.8863 srgb } def
0.1098 1 0.8863 srgb
493.97 201.57 10.29 14.65 r p3
/bg { 0 0.9961 1 srgb } def
0 0.9961 1 srgb
493.97 216.22 10.29 14.65 r p3
/bg { 0 0.8863 1 srgb } def
0 0.8863 1 srgb
493.97 230.87 10.29 14.65 r p3
/bg { 0 0.7765 1 srgb } def
0 0.7765 1 srgb
493.97 245.52 10.29 14.65 r p3
/bg { 0 0.6627 1 srgb } def
0 0.6627 1 srgb
493.97 260.17 10.29 14.65 r p3
/bg { 0 0.5529 1 srgb } def
0 0.5529 1 srgb
493.97 274.82 10.29 14.65 r p3
/bg { 0 0.4392 1 srgb } def
0 0.4392 1 srgb
493.97 289.48 10.29 14.65 r p3
/bg { 0 0.3294 1 srgb } def
0 0.3294 1 srgb
493.97 304.13 10.29 14.65 r p3
0 0 0 srgb
493.97 11.09 10.29 307.69 r p1
np
504.25 11.09 m
2.06 0 l
o
np
504.25 41.86 m
2.06 0 l
o
np
504.25 72.63 m
2.06 0 l
o
np
504.25 103.40 m
2.06 0 l
o
np
504.25 134.17 m
2.06 0 l
o
np
504.25 164.94 m
2.06 0 l
o
np
504.25 195.70 m
2.06 0 l
o
np
504.25 226.47 m
2.06 0 l
o
np
504.25 257.24 m
2.06 0 l
o
np
504.25 288.01 m
2.06 0 l
o
np
504.25 318.78 m
2.06 0 l
o
/Font1 findfont 10 s
517.28 7.67 (-0.2) .5 0 t
517.28 38.44 (-0.16) .5 0 t
517.28 69.21 (-0.12) .5 0 t
517.28 99.98 (-0.08) .5 0 t
517.28 130.75 (-0.04) .5 0 t
517.28 161.52 (0) .5 0 t
517.28 192.28 (0.04) .5 0 t
517.28 223.05 (0.08) .5 0 t
517.28 253.82 (0.12) .5 0 t
517.28 284.59 (0.16) .5 0 t
517.28 315.36 (0.2) .5 0 t
/Font1 findfont 12 s
207.29 323.28 (SV mass) 0 90 t
249.93 323.28 (3D IP sig 3) 0 90 t
293.96 323.28 (tr) 90 ta
0.180 (k relativ) tb
-0.300 (e pt 1) tb gr
339.07 323.28 (tr) 90 ta
0.180 (k distance 1) tb gr
383.02 323.28 (summed tr) 90 ta
0.180 (ks Et r) tb
-0.120 (atio) tb gr
425.81 323.28 (n) 90 ta
-0.120 (um tr) tb
0.180 (ks per jet) tb gr
469.76 323.28 (jet eta) 0 90 t
115.22 293.93 (tr) 0 ta
0.180 (k eta rel 1) tb gr
219.20 249.98 (SV mass) 1 0 t
263.16 206.02 (3D IP sig 3) 1 0 t
228.42 162.06 (tr) 0 ta
0.180 (k relativ) tb
-0.300 (e pt 1) tb gr
279.70 118.11 (tr) 0 ta
0.180 (k distance 1) tb gr
285.00 74.15 (summed tr) 0 ta
0.180 (ks Et r) tb
-0.120 (atio) tb gr
356.29 30.20 (n) 0 ta
-0.120 (um tr) tb
0.180 (ks per jet) tb gr
0.00 0.00 588.00 431.25 cl
ep
%%Trailer
%%Pages: 1
%%EOF
