%!PS-Adobe-3.0 EPSF-3.0
%%Title: target_balence_loss.eps
%%Creator: matplotlib version 1.5.1, http://matplotlib.org/
%%CreationDate: Sun May 20 21:56:26 2018
%%Orientation: portrait
%%BoundingBox: -126 72 738 720
%%EndComments
%%BeginProlog
/mpldict 8 dict def
mpldict begin
/m { moveto } bind def
/l { lineto } bind def
/r { rlineto } bind def
/c { curveto } bind def
/cl { closepath } bind def
/box {
m
1 index 0 r
0 exch r
neg 0 r
cl
} bind def
/clipbox {
box
clip
newpath
} bind def
%!PS-Adobe-3.0 Resource-Font
%%Title: Bitstream Vera Sans
%%Copyright: Copyright (c) 2003 by Bitstream, Inc. All Rights Reserved.
%%Creator: Converted from TrueType to type 3 by PPR
25 dict begin
/_d{bind def}bind def
/_m{moveto}_d
/_l{lineto}_d
/_cl{closepath eofill}_d
/_c{curveto}_d
/_sc{7 -1 roll{setcachedevice}{pop pop pop pop pop pop}ifelse}_d
/_e{exec}_d
/FontName /BitstreamVeraSans-Roman def
/PaintType 0 def
/FontMatrix[.001 0 0 .001 0 0]def
/FontBBox[-183 -236 1287 928]def
/FontType 3 def
/Encoding [ /space /period /zero /one /two /three /four /five /six /eight /E /L /S /a /b /c /d /e /g /h /i /l /m /n /o /p /r /s /t /u /w ] def
/FontInfo 10 dict dup begin
/FamilyName (Bitstream Vera Sans) def
/FullName (Bitstream Vera Sans) def
/Notice (Copyright (c) 2003 by Bitstream, Inc. All Rights Reserved. Bitstream Vera is a trademark of Bitstream, Inc.) def
/Weight (Roman) def
/Version (Release 1.10) def
/ItalicAngle 0.0 def
/isFixedPitch false def
/UnderlinePosition -213 def
/UnderlineThickness 143 def
end readonly def
/CharStrings 31 dict dup begin
/space{318 0 0 0 0 0 _sc
}_d
/period{318 0 107 0 210 124 _sc
107 124 _m
210 124 _l
210 0 _l
107 0 _l
107 124 _l
_cl}_d
/zero{636 0 66 -13 570 742 _sc
318 664 _m
267 664 229 639 203 589 _c
177 539 165 464 165 364 _c
165 264 177 189 203 139 _c
229 89 267 64 318 64 _c
369 64 407 89 433 139 _c
458 189 471 264 471 364 _c
471 464 458 539 433 589 _c
407 639 369 664 318 664 _c
318 742 _m
399 742 461 709 505 645 _c
548 580 570 486 570 364 _c
570 241 548 147 505 83 _c
461 19 399 -13 318 -13 _c
236 -13 173 19 130 83 _c
87 147 66 241 66 364 _c
66 486 87 580 130 645 _c
173 709 236 742 318 742 _c
_cl}_d
/one{636 0 110 0 544 729 _sc
124 83 _m
285 83 _l
285 639 _l
110 604 _l
110 694 _l
284 729 _l
383 729 _l
383 83 _l
544 83 _l
544 0 _l
124 0 _l
124 83 _l
_cl}_d
/two{{636 0 73 0 536 742 _sc
192 83 _m
536 83 _l
536 0 _l
73 0 _l
73 83 _l
110 121 161 173 226 239 _c
290 304 331 346 348 365 _c
380 400 402 430 414 455 _c
426 479 433 504 433 528 _c
433 566 419 598 392 622 _c
365 646 330 659 286 659 _c
255 659 222 653 188 643 _c
154 632 117 616 78 594 _c
78 694 _l
118 710 155 722 189 730 _c
223 738 255 742 284 742 _c
}_e{359 742 419 723 464 685 _c
509 647 532 597 532 534 _c
532 504 526 475 515 449 _c
504 422 484 390 454 354 _c
446 344 420 317 376 272 _c
332 227 271 164 192 83 _c
_cl}_e}_d
/three{{636 0 76 -13 556 742 _sc
406 393 _m
453 383 490 362 516 330 _c
542 298 556 258 556 212 _c
556 140 531 84 482 45 _c
432 6 362 -13 271 -13 _c
240 -13 208 -10 176 -4 _c
144 1 110 10 76 22 _c
76 117 _l
103 101 133 89 166 81 _c
198 73 232 69 268 69 _c
330 69 377 81 409 105 _c
441 129 458 165 458 212 _c
458 254 443 288 413 312 _c
383 336 341 349 287 349 _c
}_e{202 349 _l
202 430 _l
291 430 _l
339 430 376 439 402 459 _c
428 478 441 506 441 543 _c
441 580 427 609 401 629 _c
374 649 336 659 287 659 _c
260 659 231 656 200 650 _c
169 644 135 635 98 623 _c
98 711 _l
135 721 170 729 203 734 _c
235 739 266 742 296 742 _c
370 742 429 725 473 691 _c
517 657 539 611 539 553 _c
539 513 527 479 504 451 _c
481 423 448 403 406 393 _c
_cl}_e}_d
/four{636 0 49 0 580 729 _sc
378 643 _m
129 254 _l
378 254 _l
378 643 _l
352 729 _m
476 729 _l
476 254 _l
580 254 _l
580 172 _l
476 172 _l
476 0 _l
378 0 _l
378 172 _l
49 172 _l
49 267 _l
352 729 _l
_cl}_d
/five{{636 0 77 -13 549 729 _sc
108 729 _m
495 729 _l
495 646 _l
198 646 _l
198 467 _l
212 472 227 476 241 478 _c
255 480 270 482 284 482 _c
365 482 429 459 477 415 _c
525 370 549 310 549 234 _c
549 155 524 94 475 51 _c
426 8 357 -13 269 -13 _c
238 -13 207 -10 175 -6 _c
143 -1 111 6 77 17 _c
77 116 _l
106 100 136 88 168 80 _c
199 72 232 69 267 69 _c
}_e{323 69 368 83 401 113 _c
433 143 450 183 450 234 _c
450 284 433 324 401 354 _c
368 384 323 399 267 399 _c
241 399 214 396 188 390 _c
162 384 135 375 108 363 _c
108 729 _l
_cl}_e}_d
/six{{636 0 70 -13 573 742 _sc
330 404 _m
286 404 251 388 225 358 _c
199 328 186 286 186 234 _c
186 181 199 139 225 109 _c
251 79 286 64 330 64 _c
374 64 409 79 435 109 _c
461 139 474 181 474 234 _c
474 286 461 328 435 358 _c
409 388 374 404 330 404 _c
526 713 _m
526 623 _l
501 635 476 644 451 650 _c
425 656 400 659 376 659 _c
310 659 260 637 226 593 _c
}_e{192 549 172 482 168 394 _c
187 422 211 444 240 459 _c
269 474 301 482 336 482 _c
409 482 467 459 509 415 _c
551 371 573 310 573 234 _c
573 159 550 99 506 54 _c
462 9 403 -13 330 -13 _c
246 -13 181 19 137 83 _c
92 147 70 241 70 364 _c
70 479 97 571 152 639 _c
206 707 280 742 372 742 _c
396 742 421 739 447 735 _c
472 730 498 723 526 713 _c
_cl}_e}_d
/eight{{636 0 68 -13 568 742 _sc
318 346 _m
271 346 234 333 207 308 _c
180 283 167 249 167 205 _c
167 161 180 126 207 101 _c
234 76 271 64 318 64 _c
364 64 401 76 428 102 _c
455 127 469 161 469 205 _c
469 249 455 283 429 308 _c
402 333 365 346 318 346 _c
219 388 _m
177 398 144 418 120 447 _c
96 476 85 511 85 553 _c
85 611 105 657 147 691 _c
188 725 245 742 318 742 _c
}_e{390 742 447 725 489 691 _c
530 657 551 611 551 553 _c
551 511 539 476 515 447 _c
491 418 459 398 417 388 _c
464 377 501 355 528 323 _c
554 291 568 251 568 205 _c
568 134 546 80 503 43 _c
459 5 398 -13 318 -13 _c
237 -13 175 5 132 43 _c
89 80 68 134 68 205 _c
68 251 81 291 108 323 _c
134 355 171 377 219 388 _c
183 544 _m
183 506 194 476 218 455 _c
}_e{242 434 275 424 318 424 _c
360 424 393 434 417 455 _c
441 476 453 506 453 544 _c
453 582 441 611 417 632 _c
393 653 360 664 318 664 _c
275 664 242 653 218 632 _c
194 611 183 582 183 544 _c
_cl}_e}_d
/E{632 0 98 0 568 729 _sc
98 729 _m
559 729 _l
559 646 _l
197 646 _l
197 430 _l
544 430 _l
544 347 _l
197 347 _l
197 83 _l
568 83 _l
568 0 _l
98 0 _l
98 729 _l
_cl}_d
/L{557 0 98 0 552 729 _sc
98 729 _m
197 729 _l
197 83 _l
552 83 _l
552 0 _l
98 0 _l
98 729 _l
_cl}_d
/S{{635 0 66 -13 579 742 _sc
535 705 _m
535 609 _l
497 627 462 640 429 649 _c
395 657 363 662 333 662 _c
279 662 237 651 208 631 _c
179 610 165 580 165 542 _c
165 510 174 485 194 469 _c
213 452 250 439 304 429 _c
364 417 _l
437 403 491 378 526 343 _c
561 307 579 260 579 201 _c
579 130 555 77 508 41 _c
460 5 391 -13 300 -13 _c
265 -13 228 -9 189 -2 _c
}_e{150 5 110 16 69 32 _c
69 134 _l
109 111 148 94 186 83 _c
224 71 262 66 300 66 _c
356 66 399 77 430 99 _c
460 121 476 152 476 194 _c
476 230 465 258 443 278 _c
421 298 385 313 335 323 _c
275 335 _l
201 349 148 372 115 404 _c
82 435 66 478 66 534 _c
66 598 88 649 134 686 _c
179 723 242 742 322 742 _c
356 742 390 739 426 733 _c
461 727 497 717 535 705 _c
}_e{_cl}_e}_d
/a{{613 0 60 -13 522 560 _sc
343 275 _m
270 275 220 266 192 250 _c
164 233 150 205 150 165 _c
150 133 160 107 181 89 _c
202 70 231 61 267 61 _c
317 61 357 78 387 114 _c
417 149 432 196 432 255 _c
432 275 _l
343 275 _l
522 312 _m
522 0 _l
432 0 _l
432 83 _l
411 49 385 25 355 10 _c
325 -5 287 -13 243 -13 _c
187 -13 142 2 109 33 _c
76 64 60 106 60 159 _c
}_e{60 220 80 266 122 298 _c
163 329 224 345 306 345 _c
432 345 _l
432 354 _l
432 395 418 427 391 450 _c
364 472 326 484 277 484 _c
245 484 215 480 185 472 _c
155 464 127 453 100 439 _c
100 522 _l
132 534 164 544 195 550 _c
226 556 256 560 286 560 _c
365 560 424 539 463 498 _c
502 457 522 395 522 312 _c
_cl}_e}_d
/b{{635 0 91 -13 580 760 _sc
487 273 _m
487 339 473 390 446 428 _c
418 466 381 485 334 485 _c
286 485 249 466 222 428 _c
194 390 181 339 181 273 _c
181 207 194 155 222 117 _c
249 79 286 61 334 61 _c
381 61 418 79 446 117 _c
473 155 487 207 487 273 _c
181 464 _m
199 496 223 520 252 536 _c
281 552 316 560 356 560 _c
422 560 476 533 518 481 _c
559 428 580 359 580 273 _c
}_e{580 187 559 117 518 65 _c
476 13 422 -13 356 -13 _c
316 -13 281 -5 252 10 _c
223 25 199 49 181 82 _c
181 0 _l
91 0 _l
91 760 _l
181 760 _l
181 464 _l
_cl}_e}_d
/c{{550 0 55 -13 488 560 _sc
488 526 _m
488 442 _l
462 456 437 466 411 473 _c
385 480 360 484 334 484 _c
276 484 230 465 198 428 _c
166 391 150 339 150 273 _c
150 206 166 154 198 117 _c
230 80 276 62 334 62 _c
360 62 385 65 411 72 _c
437 79 462 90 488 104 _c
488 21 _l
462 9 436 0 410 -5 _c
383 -10 354 -13 324 -13 _c
242 -13 176 12 128 64 _c
}_e{79 115 55 185 55 273 _c
55 362 79 432 128 483 _c
177 534 244 560 330 560 _c
358 560 385 557 411 551 _c
437 545 463 537 488 526 _c
_cl}_e}_d
/d{{635 0 55 -13 544 760 _sc
454 464 _m
454 760 _l
544 760 _l
544 0 _l
454 0 _l
454 82 _l
435 49 411 25 382 10 _c
353 -5 319 -13 279 -13 _c
213 -13 159 13 117 65 _c
75 117 55 187 55 273 _c
55 359 75 428 117 481 _c
159 533 213 560 279 560 _c
319 560 353 552 382 536 _c
411 520 435 496 454 464 _c
148 273 _m
148 207 161 155 188 117 _c
215 79 253 61 301 61 _c
}_e{348 61 385 79 413 117 _c
440 155 454 207 454 273 _c
454 339 440 390 413 428 _c
385 466 348 485 301 485 _c
253 485 215 466 188 428 _c
161 390 148 339 148 273 _c
_cl}_e}_d
/e{{615 0 55 -13 562 560 _sc
562 296 _m
562 252 _l
149 252 _l
153 190 171 142 205 110 _c
238 78 284 62 344 62 _c
378 62 412 66 444 74 _c
476 82 509 95 541 113 _c
541 28 _l
509 14 476 3 442 -3 _c
408 -9 373 -13 339 -13 _c
251 -13 182 12 131 62 _c
80 112 55 181 55 268 _c
55 357 79 428 127 481 _c
175 533 241 560 323 560 _c
397 560 455 536 498 489 _c
}_e{540 441 562 377 562 296 _c
472 322 _m
471 371 457 410 431 440 _c
404 469 368 484 324 484 _c
274 484 234 469 204 441 _c
174 413 156 373 152 322 _c
472 322 _l
_cl}_e}_d
/g{{635 0 55 -207 544 560 _sc
454 280 _m
454 344 440 395 414 431 _c
387 467 349 485 301 485 _c
253 485 215 467 188 431 _c
161 395 148 344 148 280 _c
148 215 161 165 188 129 _c
215 93 253 75 301 75 _c
349 75 387 93 414 129 _c
440 165 454 215 454 280 _c
544 68 _m
544 -24 523 -93 482 -139 _c
440 -184 377 -207 292 -207 _c
260 -207 231 -204 203 -200 _c
175 -195 147 -188 121 -178 _c
}_e{121 -91 _l
147 -105 173 -115 199 -122 _c
225 -129 251 -133 278 -133 _c
336 -133 380 -117 410 -87 _c
439 -56 454 -10 454 52 _c
454 96 _l
435 64 411 40 382 24 _c
353 8 319 0 279 0 _c
211 0 157 25 116 76 _c
75 127 55 195 55 280 _c
55 364 75 432 116 483 _c
157 534 211 560 279 560 _c
319 560 353 552 382 536 _c
411 520 435 496 454 464 _c
454 547 _l
544 547 _l
}_e{544 68 _l
_cl}_e}_d
/h{634 0 91 0 549 760 _sc
549 330 _m
549 0 _l
459 0 _l
459 327 _l
459 379 448 417 428 443 _c
408 469 378 482 338 482 _c
289 482 251 466 223 435 _c
195 404 181 362 181 309 _c
181 0 _l
91 0 _l
91 760 _l
181 760 _l
181 462 _l
202 494 227 519 257 535 _c
286 551 320 560 358 560 _c
420 560 468 540 500 501 _c
532 462 549 405 549 330 _c
_cl}_d
/i{278 0 94 0 184 760 _sc
94 547 _m
184 547 _l
184 0 _l
94 0 _l
94 547 _l
94 760 _m
184 760 _l
184 646 _l
94 646 _l
94 760 _l
_cl}_d
/l{278 0 94 0 184 760 _sc
94 760 _m
184 760 _l
184 0 _l
94 0 _l
94 760 _l
_cl}_d
/m{{974 0 91 0 889 560 _sc
520 442 _m
542 482 569 511 600 531 _c
631 550 668 560 711 560 _c
767 560 811 540 842 500 _c
873 460 889 403 889 330 _c
889 0 _l
799 0 _l
799 327 _l
799 379 789 418 771 444 _c
752 469 724 482 686 482 _c
639 482 602 466 575 435 _c
548 404 535 362 535 309 _c
535 0 _l
445 0 _l
445 327 _l
445 379 435 418 417 444 _c
398 469 369 482 331 482 _c
}_e{285 482 248 466 221 435 _c
194 404 181 362 181 309 _c
181 0 _l
91 0 _l
91 547 _l
181 547 _l
181 462 _l
201 495 226 520 255 536 _c
283 552 317 560 357 560 _c
397 560 430 550 458 530 _c
486 510 506 480 520 442 _c
_cl}_e}_d
/n{634 0 91 0 549 560 _sc
549 330 _m
549 0 _l
459 0 _l
459 327 _l
459 379 448 417 428 443 _c
408 469 378 482 338 482 _c
289 482 251 466 223 435 _c
195 404 181 362 181 309 _c
181 0 _l
91 0 _l
91 547 _l
181 547 _l
181 462 _l
202 494 227 519 257 535 _c
286 551 320 560 358 560 _c
420 560 468 540 500 501 _c
532 462 549 405 549 330 _c
_cl}_d
/o{612 0 55 -13 557 560 _sc
306 484 _m
258 484 220 465 192 427 _c
164 389 150 338 150 273 _c
150 207 163 156 191 118 _c
219 80 257 62 306 62 _c
354 62 392 80 420 118 _c
448 156 462 207 462 273 _c
462 337 448 389 420 427 _c
392 465 354 484 306 484 _c
306 560 _m
384 560 445 534 490 484 _c
534 433 557 363 557 273 _c
557 183 534 113 490 63 _c
445 12 384 -13 306 -13 _c
227 -13 165 12 121 63 _c
77 113 55 183 55 273 _c
55 363 77 433 121 484 _c
165 534 227 560 306 560 _c
_cl}_d
/p{{635 0 91 -207 580 560 _sc
181 82 _m
181 -207 _l
91 -207 _l
91 547 _l
181 547 _l
181 464 _l
199 496 223 520 252 536 _c
281 552 316 560 356 560 _c
422 560 476 533 518 481 _c
559 428 580 359 580 273 _c
580 187 559 117 518 65 _c
476 13 422 -13 356 -13 _c
316 -13 281 -5 252 10 _c
223 25 199 49 181 82 _c
487 273 _m
487 339 473 390 446 428 _c
418 466 381 485 334 485 _c
}_e{286 485 249 466 222 428 _c
194 390 181 339 181 273 _c
181 207 194 155 222 117 _c
249 79 286 61 334 61 _c
381 61 418 79 446 117 _c
473 155 487 207 487 273 _c
_cl}_e}_d
/r{411 0 91 0 411 560 _sc
411 463 _m
401 469 390 473 378 476 _c
366 478 353 480 339 480 _c
288 480 249 463 222 430 _c
194 397 181 350 181 288 _c
181 0 _l
91 0 _l
91 547 _l
181 547 _l
181 462 _l
199 495 224 520 254 536 _c
284 552 321 560 365 560 _c
371 560 378 559 386 559 _c
393 558 401 557 411 555 _c
411 463 _l
_cl}_d
/s{{521 0 54 -13 472 560 _sc
443 531 _m
443 446 _l
417 458 391 468 364 475 _c
336 481 308 485 279 485 _c
234 485 200 478 178 464 _c
156 450 145 430 145 403 _c
145 382 153 366 169 354 _c
185 342 217 330 265 320 _c
296 313 _l
360 299 405 279 432 255 _c
458 230 472 195 472 151 _c
472 100 452 60 412 31 _c
372 1 316 -13 246 -13 _c
216 -13 186 -10 154 -5 _c
}_e{122 0 89 8 54 20 _c
54 113 _l
87 95 120 82 152 74 _c
184 65 216 61 248 61 _c
290 61 323 68 346 82 _c
368 96 380 117 380 144 _c
380 168 371 187 355 200 _c
339 213 303 226 247 238 _c
216 245 _l
160 257 119 275 95 299 _c
70 323 58 356 58 399 _c
58 450 76 490 112 518 _c
148 546 200 560 268 560 _c
301 560 332 557 362 552 _c
391 547 418 540 443 531 _c
}_e{_cl}_e}_d
/t{392 0 27 0 368 702 _sc
183 702 _m
183 547 _l
368 547 _l
368 477 _l
183 477 _l
183 180 _l
183 135 189 106 201 94 _c
213 81 238 75 276 75 _c
368 75 _l
368 0 _l
276 0 _l
206 0 158 13 132 39 _c
106 65 93 112 93 180 _c
93 477 _l
27 477 _l
27 547 _l
93 547 _l
93 702 _l
183 702 _l
_cl}_d
/u{634 0 85 -13 543 547 _sc
85 216 _m
85 547 _l
175 547 _l
175 219 _l
175 167 185 129 205 103 _c
225 77 255 64 296 64 _c
344 64 383 79 411 110 _c
439 141 453 183 453 237 _c
453 547 _l
543 547 _l
543 0 _l
453 0 _l
453 84 _l
431 50 405 26 377 10 _c
348 -5 315 -13 277 -13 _c
214 -13 166 6 134 45 _c
101 83 85 140 85 216 _c
_cl}_d
/w{818 0 42 0 776 547 _sc
42 547 _m
132 547 _l
244 120 _l
356 547 _l
462 547 _l
574 120 _l
686 547 _l
776 547 _l
633 0 _l
527 0 _l
409 448 _l
291 0 _l
185 0 _l
42 547 _l
_cl}_d
end readonly def

/BuildGlyph
 {exch begin
 CharStrings exch
 2 copy known not{pop /.notdef}if
 true 3 1 roll get exec
 end}_d

/BuildChar {
 1 index /Encoding get exch get
 1 index /BuildGlyph get exec
}_d

FontName currentdict end definefont pop
end
%%EndProlog
mpldict begin
-126 72 translate
864 648 0 0 clipbox
100000 setmiterlimit
gsave
0 0 m
864 0 l
864 648 l
0 648 l
cl
1.000 setgray
fill
grestore
gsave
108 347.563636 m
777.6 347.563636 l
777.6 583.2 l
108 583.2 l
cl
0.898 setgray
fill
grestore
0.500 setlinewidth
1 setlinejoin
2 setlinecap
[] 0 setdash
1.000 setgray
gsave
669.6 235.6 108 347.6 clipbox
108 347.563636 m
108 583.2 l
stroke
grestore
0 setlinecap
0.333 setgray
gsave
/o {
gsave
newpath
translate
0.5 setlinewidth
1 setlinejoin
0 setlinecap
0 0 m
0 -4 l

gsave
0.333 setgray
fill
grestore
stroke
grestore
} bind def
108 347.564 o
grestore
gsave
/o {
gsave
newpath
translate
0.5 setlinewidth
1 setlinejoin
0 setlinecap
0 0 m
0 4 l

gsave
0.333 setgray
fill
grestore
stroke
grestore
} bind def
108 583.2 o
grestore
2 setlinecap
1.000 setgray
gsave
669.6 235.6 108 347.6 clipbox
241.92 347.563636 m
241.92 583.2 l
stroke
grestore
0 setlinecap
0.333 setgray
gsave
/o {
gsave
newpath
translate
0.5 setlinewidth
1 setlinejoin
0 setlinecap
0 0 m
0 -4 l

gsave
0.333 setgray
fill
grestore
stroke
grestore
} bind def
241.92 347.564 o
grestore
gsave
/o {
gsave
newpath
translate
0.5 setlinewidth
1 setlinejoin
0 setlinecap
0 0 m
0 4 l

gsave
0.333 setgray
fill
grestore
stroke
grestore
} bind def
241.92 583.2 o
grestore
2 setlinecap
1.000 setgray
gsave
669.6 235.6 108 347.6 clipbox
375.84 347.563636 m
375.84 583.2 l
stroke
grestore
0 setlinecap
0.333 setgray
gsave
/o {
gsave
newpath
translate
0.5 setlinewidth
1 setlinejoin
0 setlinecap
0 0 m
0 -4 l

gsave
0.333 setgray
fill
grestore
stroke
grestore
} bind def
375.84 347.564 o
grestore
gsave
/o {
gsave
newpath
translate
0.5 setlinewidth
1 setlinejoin
0 setlinecap
0 0 m
0 4 l

gsave
0.333 setgray
fill
grestore
stroke
grestore
} bind def
375.84 583.2 o
grestore
2 setlinecap
1.000 setgray
gsave
669.6 235.6 108 347.6 clipbox
509.76 347.563636 m
509.76 583.2 l
stroke
grestore
0 setlinecap
0.333 setgray
gsave
/o {
gsave
newpath
translate
0.5 setlinewidth
1 setlinejoin
0 setlinecap
0 0 m
0 -4 l

gsave
0.333 setgray
fill
grestore
stroke
grestore
} bind def
509.76 347.564 o
grestore
gsave
/o {
gsave
newpath
translate
0.5 setlinewidth
1 setlinejoin
0 setlinecap
0 0 m
0 4 l

gsave
0.333 setgray
fill
grestore
stroke
grestore
} bind def
509.76 583.2 o
grestore
2 setlinecap
1.000 setgray
gsave
669.6 235.6 108 347.6 clipbox
643.68 347.563636 m
643.68 583.2 l
stroke
grestore
0 setlinecap
0.333 setgray
gsave
/o {
gsave
newpath
translate
0.5 setlinewidth
1 setlinejoin
0 setlinecap
0 0 m
0 -4 l

gsave
0.333 setgray
fill
grestore
stroke
grestore
} bind def
643.68 347.564 o
grestore
gsave
/o {
gsave
newpath
translate
0.5 setlinewidth
1 setlinejoin
0 setlinecap
0 0 m
0 4 l

gsave
0.333 setgray
fill
grestore
stroke
grestore
} bind def
643.68 583.2 o
grestore
2 setlinecap
1.000 setgray
gsave
669.6 235.6 108 347.6 clipbox
777.6 347.563636 m
777.6 583.2 l
stroke
grestore
0 setlinecap
0.333 setgray
gsave
/o {
gsave
newpath
translate
0.5 setlinewidth
1 setlinejoin
0 setlinecap
0 0 m
0 -4 l

gsave
0.333 setgray
fill
grestore
stroke
grestore
} bind def
777.6 347.564 o
grestore
gsave
/o {
gsave
newpath
translate
0.5 setlinewidth
1 setlinejoin
0 setlinecap
0 0 m
0 4 l

gsave
0.333 setgray
fill
grestore
stroke
grestore
} bind def
777.6 583.2 o
grestore
/BitstreamVeraSans-Roman findfont
12.000 scalefont
setfont
gsave
424.425000 333.438636 translate
0.000000 rotate
0.000000 0.000000 m /E glyphshow
7.582031 0.000000 m /p glyphshow
15.199219 0.000000 m /o glyphshow
22.541016 0.000000 m /c glyphshow
29.138672 0.000000 m /h glyphshow
grestore
2 setlinecap
1.000 setgray
gsave
669.6 235.6 108 347.6 clipbox
108 347.563636 m
777.6 347.563636 l
stroke
grestore
0 setlinecap
0.333 setgray
gsave
/o {
gsave
newpath
translate
0.5 setlinewidth
1 setlinejoin
0 setlinecap
0 0 m
-4 0 l

gsave
0.333 setgray
fill
grestore
stroke
grestore
} bind def
108 347.564 o
grestore
gsave
/o {
gsave
newpath
translate
0.5 setlinewidth
1 setlinejoin
0 setlinecap
0 0 m
4 0 l

gsave
0.333 setgray
fill
grestore
stroke
grestore
} bind def
777.6 347.564 o
grestore
/BitstreamVeraSans-Roman findfont
10.000 scalefont
setfont
gsave
77.734375 344.805824 translate
0.000000 rotate
0.000000 0.000000 m /zero glyphshow
6.362305 0.000000 m /period glyphshow
9.541016 0.000000 m /one glyphshow
15.903320 0.000000 m /five glyphshow
grestore
2 setlinecap
1.000 setgray
gsave
669.6 235.6 108 347.6 clipbox
108 381.225974 m
777.6 381.225974 l
stroke
grestore
0 setlinecap
0.333 setgray
gsave
/o {
gsave
newpath
translate
0.5 setlinewidth
1 setlinejoin
0 setlinecap
0 0 m
-4 0 l

gsave
0.333 setgray
fill
grestore
stroke
grestore
} bind def
108 381.226 o
grestore
gsave
/o {
gsave
newpath
translate
0.5 setlinewidth
1 setlinejoin
0 setlinecap
0 0 m
4 0 l

gsave
0.333 setgray
fill
grestore
stroke
grestore
} bind def
777.6 381.226 o
grestore
gsave
77.734375 378.468162 translate
0.000000 rotate
0.000000 0.000000 m /zero glyphshow
6.362305 0.000000 m /period glyphshow
9.541016 0.000000 m /two glyphshow
15.903320 0.000000 m /zero glyphshow
grestore
2 setlinecap
1.000 setgray
gsave
669.6 235.6 108 347.6 clipbox
108 414.888312 m
777.6 414.888312 l
stroke
grestore
0 setlinecap
0.333 setgray
gsave
/o {
gsave
newpath
translate
0.5 setlinewidth
1 setlinejoin
0 setlinecap
0 0 m
-4 0 l

gsave
0.333 setgray
fill
grestore
stroke
grestore
} bind def
108 414.888 o
grestore
gsave
/o {
gsave
newpath
translate
0.5 setlinewidth
1 setlinejoin
0 setlinecap
0 0 m
4 0 l

gsave
0.333 setgray
fill
grestore
stroke
grestore
} bind def
777.6 414.888 o
grestore
gsave
77.734375 412.130499 translate
0.000000 rotate
0.000000 0.000000 m /zero glyphshow
6.362305 0.000000 m /period glyphshow
9.541016 0.000000 m /two glyphshow
15.903320 0.000000 m /five glyphshow
grestore
2 setlinecap
1.000 setgray
gsave
669.6 235.6 108 347.6 clipbox
108 448.550649 m
777.6 448.550649 l
stroke
grestore
0 setlinecap
0.333 setgray
gsave
/o {
gsave
newpath
translate
0.5 setlinewidth
1 setlinejoin
0 setlinecap
0 0 m
-4 0 l

gsave
0.333 setgray
fill
grestore
stroke
grestore
} bind def
108 448.551 o
grestore
gsave
/o {
gsave
newpath
translate
0.5 setlinewidth
1 setlinejoin
0 setlinecap
0 0 m
4 0 l

gsave
0.333 setgray
fill
grestore
stroke
grestore
} bind def
777.6 448.551 o
grestore
gsave
77.734375 445.792837 translate
0.000000 rotate
0.000000 0.000000 m /zero glyphshow
6.362305 0.000000 m /period glyphshow
9.541016 0.000000 m /three glyphshow
15.903320 0.000000 m /zero glyphshow
grestore
2 setlinecap
1.000 setgray
gsave
669.6 235.6 108 347.6 clipbox
108 482.212987 m
777.6 482.212987 l
stroke
grestore
0 setlinecap
0.333 setgray
gsave
/o {
gsave
newpath
translate
0.5 setlinewidth
1 setlinejoin
0 setlinecap
0 0 m
-4 0 l

gsave
0.333 setgray
fill
grestore
stroke
grestore
} bind def
108 482.213 o
grestore
gsave
/o {
gsave
newpath
translate
0.5 setlinewidth
1 setlinejoin
0 setlinecap
0 0 m
4 0 l

gsave
0.333 setgray
fill
grestore
stroke
grestore
} bind def
777.6 482.213 o
grestore
gsave
77.734375 479.455175 translate
0.000000 rotate
0.000000 0.000000 m /zero glyphshow
6.362305 0.000000 m /period glyphshow
9.541016 0.000000 m /three glyphshow
15.903320 0.000000 m /five glyphshow
grestore
2 setlinecap
1.000 setgray
gsave
669.6 235.6 108 347.6 clipbox
108 515.875325 m
777.6 515.875325 l
stroke
grestore
0 setlinecap
0.333 setgray
gsave
/o {
gsave
newpath
translate
0.5 setlinewidth
1 setlinejoin
0 setlinecap
0 0 m
-4 0 l

gsave
0.333 setgray
fill
grestore
stroke
grestore
} bind def
108 515.875 o
grestore
gsave
/o {
gsave
newpath
translate
0.5 setlinewidth
1 setlinejoin
0 setlinecap
0 0 m
4 0 l

gsave
0.333 setgray
fill
grestore
stroke
grestore
} bind def
777.6 515.875 o
grestore
gsave
77.734375 513.117512 translate
0.000000 rotate
0.000000 0.000000 m /zero glyphshow
6.362305 0.000000 m /period glyphshow
9.541016 0.000000 m /four glyphshow
15.903320 0.000000 m /zero glyphshow
grestore
2 setlinecap
1.000 setgray
gsave
669.6 235.6 108 347.6 clipbox
108 549.537662 m
777.6 549.537662 l
stroke
grestore
0 setlinecap
0.333 setgray
gsave
/o {
gsave
newpath
translate
0.5 setlinewidth
1 setlinejoin
0 setlinecap
0 0 m
-4 0 l

gsave
0.333 setgray
fill
grestore
stroke
grestore
} bind def
108 549.538 o
grestore
gsave
/o {
gsave
newpath
translate
0.5 setlinewidth
1 setlinejoin
0 setlinecap
0 0 m
4 0 l

gsave
0.333 setgray
fill
grestore
stroke
grestore
} bind def
777.6 549.538 o
grestore
gsave
77.734375 546.779850 translate
0.000000 rotate
0.000000 0.000000 m /zero glyphshow
6.362305 0.000000 m /period glyphshow
9.541016 0.000000 m /four glyphshow
15.903320 0.000000 m /five glyphshow
grestore
2 setlinecap
1.000 setgray
gsave
669.6 235.6 108 347.6 clipbox
108 583.2 m
777.6 583.2 l
stroke
grestore
0 setlinecap
0.333 setgray
gsave
/o {
gsave
newpath
translate
0.5 setlinewidth
1 setlinejoin
0 setlinecap
0 0 m
-4 0 l

gsave
0.333 setgray
fill
grestore
stroke
grestore
} bind def
108 583.2 o
grestore
gsave
/o {
gsave
newpath
translate
0.5 setlinewidth
1 setlinejoin
0 setlinecap
0 0 m
4 0 l

gsave
0.333 setgray
fill
grestore
stroke
grestore
} bind def
777.6 583.2 o
grestore
gsave
77.734375 580.442188 translate
0.000000 rotate
0.000000 0.000000 m /zero glyphshow
6.362305 0.000000 m /period glyphshow
9.541016 0.000000 m /five glyphshow
15.903320 0.000000 m /zero glyphshow
grestore
/BitstreamVeraSans-Roman findfont
12.000 scalefont
setfont
gsave
70.234375 452.116193 translate
90.000000 rotate
0.000000 0.000000 m /L glyphshow
6.685547 0.000000 m /o glyphshow
14.027344 0.000000 m /s glyphshow
20.279297 0.000000 m /s glyphshow
grestore
1.000 setlinewidth
2 setlinecap
0.494 0.224 0.533 setrgbcolor
gsave
669.6 235.6 108 347.6 clipbox
108 580.020311 m
114.696 566.965483 l
121.392 562.912623 l
128.088 561.973322 l
134.784 559.938924 l
141.48 560.026154 l
148.176 559.905214 l
154.872 559.293855 l
161.568 560.153565 l
168.264 558.58202 l
174.96 559.116143 l
181.656 558.64618 l
188.352 558.778763 l
195.048 559.757663 l
201.744 559.902822 l
208.44 558.943881 l
215.136 558.881169 l
221.832 557.507987 l
228.528 559.086128 l
235.224 557.392559 l
241.92 558.126031 l
248.616 554.264182 l
255.312 555.504911 l
262.008 563.589889 l
268.704 558.839944 l
275.4 558.069487 l
282.096 559.076984 l
288.792 556.714029 l
295.488 557.396502 l
302.184 554.333726 l
308.88 555.469622 l
315.576 553.15535 l
322.272 553.001725 l
328.968 553.854295 l
335.664 551.712452 l
342.36 552.607343 l
349.056 551.296108 l
355.752 552.055413 l
362.448 550.907723 l
369.144 550.931079 l
375.84 547.231106 l
382.536 548.456177 l
389.232 549.321489 l
395.928 549.220252 l
402.624 549.203949 l
409.32 549.25044 l
416.016 549.372438 l
422.712 549.349722 l
429.408 549.846471 l
436.104 549.213326 l
442.8 550.485959 l
449.496 548.082417 l
456.192 550.7392 l
462.888 550.103276 l
469.584 548.872787 l
476.28 549.168911 l
482.976 550.442703 l
489.672 547.918509 l
496.368 549.075955 l
503.064 550.45111 l
509.76 548.590974 l
516.456 549.549847 l
523.152 550.057437 l
529.848 550.731268 l
536.544 549.31266 l
543.24 547.91414 l
549.936 547.750957 l
556.632 549.473808 l
563.328 549.984413 l
570.024 548.303223 l
576.72 551.057263 l
583.416 546.896483 l
590.112 548.63963 l
596.808 551.035145 l
603.504 549.583553 l
610.2 548.933262 l
616.896 549.11138 l
623.592 547.499067 l
630.288 548.405901 l
636.984 550.481032 l
643.68 551.318567 l
650.376 549.815648 l
657.072 549.588345 l
663.768 549.3712 l
670.464 549.34946 l
677.16 548.627837 l
683.856 549.905644 l
690.552 550.235932 l
697.248 550.918652 l
703.944 548.508412 l
710.64 548.930468 l
717.336 549.314725 l
724.032 549.218951 l
730.728 548.929466 l
737.424 548.176227 l
744.12 548.624789 l
750.816 548.09868 l
757.512 549.36112 l
764.208 550.995718 l
770.904 547.641622 l
stroke
grestore
0 setlinecap
[6 6] 0 setdash
gsave
669.6 235.6 108 347.6 clipbox
108 511.964914 m
114.696 501.515237 l
121.392 498.934585 l
128.088 511.224681 l
134.784 509.791386 l
141.48 496.163462 l
148.176 492.737018 l
154.872 509.241765 l
161.568 493.483471 l
168.264 486.044605 l
174.96 502.215863 l
181.656 515.712848 l
188.352 491.98884 l
195.048 488.035267 l
201.744 496.833389 l
208.44 486.02109 l
215.136 513.214499 l
221.832 496.458788 l
228.528 501.799909 l
235.224 494.667246 l
241.92 502.444837 l
248.616 502.10256 l
255.312 500.320006 l
262.008 504.266376 l
268.704 502.934085 l
275.4 503.209929 l
282.096 498.573146 l
288.792 503.744884 l
295.488 497.015974 l
302.184 503.777388 l
308.88 500.469726 l
315.576 501.451372 l
322.272 502.52395 l
328.968 501.203578 l
335.664 500.7988 l
342.36 500.676187 l
349.056 499.080874 l
355.752 497.997882 l
362.448 499.739244 l
369.144 498.508178 l
375.84 500.385114 l
382.536 500.008928 l
389.232 499.215425 l
395.928 499.046764 l
402.624 499.532642 l
409.32 498.264236 l
416.016 498.712653 l
422.712 499.814866 l
429.408 499.883426 l
436.104 499.675279 l
442.8 499.659207 l
449.496 499.657121 l
456.192 499.595704 l
462.888 499.427344 l
469.584 499.297909 l
476.28 499.380454 l
482.976 499.53826 l
489.672 499.415326 l
496.368 499.41976 l
503.064 499.253627 l
509.76 499.243595 l
516.456 499.232881 l
523.152 499.226982 l
529.848 499.223069 l
536.544 499.230152 l
543.24 499.224855 l
549.936 499.219438 l
556.632 499.220702 l
563.328 499.209927 l
570.024 499.209385 l
576.72 499.208864 l
583.416 499.208503 l
590.112 499.208563 l
596.808 499.208262 l
603.504 499.20772 l
610.2 499.207399 l
616.896 499.206918 l
623.592 499.206717 l
630.288 499.206536 l
636.984 499.205934 l
643.68 499.205934 l
650.376 499.205934 l
657.072 499.205934 l
663.768 499.205914 l
670.464 499.205914 l
677.16 499.205894 l
683.856 499.205894 l
690.552 499.205894 l
697.248 499.205894 l
703.944 499.205874 l
710.64 499.205874 l
717.336 499.205874 l
724.032 499.205874 l
730.728 499.205874 l
737.424 499.205874 l
744.12 499.205874 l
750.816 499.205874 l
757.512 499.205874 l
764.208 499.205874 l
770.904 499.205874 l
stroke
grestore
2 setlinecap
[] 0 setdash
0.627 0.812 0.192 setrgbcolor
gsave
669.6 235.6 108 347.6 clipbox
108 393.841948 m
114.696 379.32184 l
121.392 378.056902 l
128.088 377.078621 l
134.784 377.255042 l
141.48 376.391261 l
148.176 377.191573 l
154.872 377.147077 l
161.568 376.124788 l
168.264 375.925458 l
174.96 375.977704 l
181.656 374.834501 l
188.352 376.029904 l
195.048 376.581041 l
201.744 376.282633 l
208.44 375.189518 l
215.136 376.053363 l
221.832 375.518449 l
228.528 375.359775 l
235.224 375.721316 l
241.92 375.777952 l
248.616 375.093359 l
255.312 374.936015 l
262.008 377.414599 l
268.704 375.760407 l
275.4 373.041113 l
282.096 377.156463 l
288.792 377.326888 l
295.488 376.053216 l
302.184 375.244598 l
308.88 376.712863 l
315.576 376.630216 l
322.272 374.60779 l
328.968 377.567314 l
335.664 374.553854 l
342.36 373.839863 l
349.056 375.243166 l
355.752 376.963838 l
362.448 374.553711 l
369.144 374.254265 l
375.84 374.34273 l
382.536 372.775798 l
389.232 373.658641 l
395.928 374.646726 l
402.624 373.825818 l
409.32 376.213024 l
416.016 374.635424 l
422.712 372.892927 l
429.408 374.797478 l
436.104 374.085064 l
442.8 375.109215 l
449.496 374.039964 l
456.192 374.794036 l
462.888 374.495908 l
469.584 375.028439 l
476.28 373.494052 l
482.976 373.08621 l
489.672 373.959486 l
496.368 373.024358 l
503.064 372.488036 l
509.76 373.606788 l
516.456 370.767879 l
523.152 373.004269 l
529.848 373.327603 l
536.544 375.435887 l
543.24 374.705702 l
549.936 373.332338 l
556.632 374.1314 l
563.328 372.382601 l
570.024 371.728721 l
576.72 373.668914 l
583.416 374.45283 l
590.112 372.096113 l
596.808 372.561433 l
603.504 374.561227 l
610.2 374.015707 l
616.896 375.141178 l
623.592 375.46045 l
630.288 372.353882 l
636.984 372.419613 l
643.68 373.613994 l
650.376 373.994614 l
657.072 373.536921 l
663.768 373.3032 l
670.464 373.577554 l
677.16 373.789766 l
683.856 374.40891 l
690.552 373.623084 l
697.248 372.098776 l
703.944 373.853944 l
710.64 372.269531 l
717.336 372.532481 l
724.032 373.785043 l
730.728 373.364225 l
737.424 373.853699 l
744.12 370.981477 l
750.816 373.14298 l
757.512 375.29881 l
764.208 374.565953 l
770.904 371.888921 l
stroke
grestore
0 setlinecap
[6 6] 0 setdash
gsave
669.6 235.6 108 347.6 clipbox
108 384.859393 m
114.696 382.561387 l
121.392 378.641281 l
128.088 378.957244 l
134.784 378.006355 l
141.48 378.600931 l
148.176 378.658456 l
154.872 377.819787 l
161.568 377.564569 l
168.264 379.23067 l
174.96 377.704026 l
181.656 378.451252 l
188.352 377.536961 l
195.048 377.94224 l
201.744 377.206863 l
208.44 377.476106 l
215.136 377.230689 l
221.832 377.667509 l
228.528 377.433078 l
235.224 378.215646 l
241.92 376.612227 l
248.616 377.631935 l
255.312 378.430555 l
262.008 376.28253 l
268.704 376.371475 l
275.4 376.236873 l
282.096 377.497725 l
288.792 376.107448 l
295.488 375.862283 l
302.184 375.676276 l
308.88 376.239321 l
315.576 375.690693 l
322.272 376.303718 l
328.968 376.941261 l
335.664 376.471375 l
342.36 377.010102 l
349.056 376.6103 l
355.752 376.359767 l
362.448 375.740582 l
369.144 376.097637 l
375.84 375.029062 l
382.536 374.880796 l
389.232 374.943959 l
395.928 374.814985 l
402.624 374.945624 l
409.32 374.719299 l
416.016 374.688771 l
422.712 374.811163 l
429.408 374.642563 l
436.104 374.784558 l
442.8 374.848864 l
449.496 374.603307 l
456.192 374.535088 l
462.888 374.648803 l
469.584 374.601953 l
476.28 374.645422 l
482.976 374.696165 l
489.672 374.588138 l
496.368 374.539974 l
503.064 374.535921 l
509.76 374.530273 l
516.456 374.521986 l
523.152 374.506848 l
529.848 374.520521 l
536.544 374.493605 l
543.24 374.49826 l
549.936 374.49199 l
556.632 374.503166 l
563.328 374.504911 l
570.024 374.505333 l
576.72 374.50749 l
583.416 374.506025 l
590.112 374.501059 l
596.808 374.499053 l
603.504 374.500979 l
610.2 374.49817 l
616.896 374.497257 l
623.592 374.498019 l
630.288 374.49813 l
636.984 374.498521 l
643.68 374.498641 l
650.376 374.498601 l
657.072 374.498681 l
663.768 374.498571 l
670.464 374.498641 l
677.16 374.498571 l
683.856 374.498792 l
690.552 374.498882 l
697.248 374.498892 l
703.944 374.498892 l
710.64 374.498902 l
717.336 374.498892 l
724.032 374.498892 l
730.728 374.498892 l
737.424 374.498902 l
744.12 374.498892 l
750.816 374.498902 l
757.512 374.498912 l
764.208 374.498912 l
770.904 374.498912 l
stroke
grestore
0 setlinejoin
2 setlinecap
[] 0 setdash
1.000 setgray
gsave
108 347.563636 m
108 583.2 l
stroke
grestore
gsave
108 583.2 m
777.6 583.2 l
stroke
grestore
gsave
108 347.563636 m
777.6 347.563636 l
stroke
grestore
gsave
777.6 347.563636 m
777.6 583.2 l
stroke
grestore
0.500 setlinewidth
0 setlinecap
gsave
579.759375 503.1 m
771.6 503.1 l
771.6 577.2 l
579.759375 577.2 l
cl
gsave
0.898 setgray
fill
grestore
stroke
grestore
1.000 setlinewidth
1 setlinejoin
2 setlinecap
0.494 0.224 0.533 setrgbcolor
gsave
588.159375 567.475 m
604.959375 567.475 l
stroke
grestore
0.000 setgray
gsave
618.159375 563.275000 translate
0.000000 rotate
0.000000 0.000000 m /b glyphshow
7.617188 0.000000 m /a glyphshow
14.970703 0.000000 m /l glyphshow
18.304688 0.000000 m /a glyphshow
25.658203 0.000000 m /n glyphshow
33.263672 0.000000 m /c glyphshow
39.861328 0.000000 m /e glyphshow
47.244141 0.000000 m /d glyphshow
54.861328 0.000000 m /space glyphshow
58.675781 0.000000 m /t glyphshow
63.380859 0.000000 m /a glyphshow
70.734375 0.000000 m /r glyphshow
75.667969 0.000000 m /g glyphshow
83.285156 0.000000 m /e glyphshow
90.667969 0.000000 m /t glyphshow
95.373047 0.000000 m /s glyphshow
101.625000 0.000000 m /space glyphshow
105.439453 0.000000 m /t glyphshow
110.144531 0.000000 m /r glyphshow
115.078125 0.000000 m /a glyphshow
122.431641 0.000000 m /i glyphshow
125.765625 0.000000 m /n glyphshow
grestore
0 setlinecap
[6 6] 0 setdash
0.494 0.224 0.533 setrgbcolor
gsave
588.159375 549.85 m
604.959375 549.85 l
stroke
grestore
0.000 setgray
gsave
618.159375 545.650000 translate
0.000000 rotate
0.000000 0.000000 m /b glyphshow
7.617188 0.000000 m /a glyphshow
14.970703 0.000000 m /l glyphshow
18.304688 0.000000 m /a glyphshow
25.658203 0.000000 m /n glyphshow
33.263672 0.000000 m /c glyphshow
39.861328 0.000000 m /e glyphshow
47.244141 0.000000 m /d glyphshow
54.861328 0.000000 m /space glyphshow
58.675781 0.000000 m /t glyphshow
63.380859 0.000000 m /a glyphshow
70.734375 0.000000 m /r glyphshow
75.667969 0.000000 m /g glyphshow
83.285156 0.000000 m /e glyphshow
90.667969 0.000000 m /t glyphshow
95.373047 0.000000 m /s glyphshow
101.625000 0.000000 m /space glyphshow
105.439453 0.000000 m /t glyphshow
110.144531 0.000000 m /e glyphshow
117.527344 0.000000 m /s glyphshow
123.779297 0.000000 m /t glyphshow
grestore
2 setlinecap
[] 0 setdash
0.627 0.812 0.192 setrgbcolor
gsave
588.159375 532.225 m
604.959375 532.225 l
stroke
grestore
0.000 setgray
gsave
618.159375 528.025000 translate
0.000000 rotate
0.000000 0.000000 m /u glyphshow
7.605469 0.000000 m /n glyphshow
15.210938 0.000000 m /b glyphshow
22.828125 0.000000 m /a glyphshow
30.181641 0.000000 m /l glyphshow
33.515625 0.000000 m /a glyphshow
40.869141 0.000000 m /n glyphshow
48.474609 0.000000 m /c glyphshow
55.072266 0.000000 m /e glyphshow
62.455078 0.000000 m /d glyphshow
70.072266 0.000000 m /space glyphshow
73.886719 0.000000 m /t glyphshow
78.591797 0.000000 m /a glyphshow
85.945312 0.000000 m /r glyphshow
90.878906 0.000000 m /g glyphshow
98.496094 0.000000 m /e glyphshow
105.878906 0.000000 m /t glyphshow
110.583984 0.000000 m /s glyphshow
116.835938 0.000000 m /space glyphshow
120.650391 0.000000 m /t glyphshow
125.355469 0.000000 m /r glyphshow
130.289062 0.000000 m /a glyphshow
137.642578 0.000000 m /i glyphshow
140.976562 0.000000 m /n glyphshow
grestore
0 setlinecap
[6 6] 0 setdash
0.627 0.812 0.192 setrgbcolor
gsave
588.159375 514.6 m
604.959375 514.6 l
stroke
grestore
0.000 setgray
gsave
618.159375 510.400000 translate
0.000000 rotate
0.000000 0.000000 m /u glyphshow
7.605469 0.000000 m /n glyphshow
15.210938 0.000000 m /b glyphshow
22.828125 0.000000 m /a glyphshow
30.181641 0.000000 m /l glyphshow
33.515625 0.000000 m /a glyphshow
40.869141 0.000000 m /n glyphshow
48.474609 0.000000 m /c glyphshow
55.072266 0.000000 m /e glyphshow
62.455078 0.000000 m /d glyphshow
70.072266 0.000000 m /space glyphshow
73.886719 0.000000 m /t glyphshow
78.591797 0.000000 m /a glyphshow
85.945312 0.000000 m /r glyphshow
90.878906 0.000000 m /g glyphshow
98.496094 0.000000 m /e glyphshow
105.878906 0.000000 m /t glyphshow
110.583984 0.000000 m /s glyphshow
116.835938 0.000000 m /space glyphshow
120.650391 0.000000 m /t glyphshow
125.355469 0.000000 m /e glyphshow
132.738281 0.000000 m /s glyphshow
138.990234 0.000000 m /t glyphshow
grestore
gsave
108 64.8 m
777.6 64.8 l
777.6 300.436364 l
108 300.436364 l
cl
0.898 setgray
fill
grestore
0.500 setlinewidth
2 setlinecap
[] 0 setdash
1.000 setgray
gsave
669.6 235.6 108 64.8 clipbox
108 64.8 m
108 300.436364 l
stroke
grestore
0 setlinecap
0.333 setgray
gsave
/o {
gsave
newpath
translate
0.5 setlinewidth
1 setlinejoin
0 setlinecap
0 0 m
0 -4 l

gsave
0.333 setgray
fill
grestore
stroke
grestore
} bind def
108 64.8 o
grestore
gsave
/o {
gsave
newpath
translate
0.5 setlinewidth
1 setlinejoin
0 setlinecap
0 0 m
0 4 l

gsave
0.333 setgray
fill
grestore
stroke
grestore
} bind def
108 300.436 o
grestore
/BitstreamVeraSans-Roman findfont
10.000 scalefont
setfont
gsave
104.820312 49.206250 translate
0.000000 rotate
0.000000 0.000000 m /zero glyphshow
grestore
2 setlinecap
1.000 setgray
gsave
669.6 235.6 108 64.8 clipbox
241.92 64.8 m
241.92 300.436364 l
stroke
grestore
0 setlinecap
0.333 setgray
gsave
/o {
gsave
newpath
translate
0.5 setlinewidth
1 setlinejoin
0 setlinecap
0 0 m
0 -4 l

gsave
0.333 setgray
fill
grestore
stroke
grestore
} bind def
241.92 64.8 o
grestore
gsave
/o {
gsave
newpath
translate
0.5 setlinewidth
1 setlinejoin
0 setlinecap
0 0 m
0 4 l

gsave
0.333 setgray
fill
grestore
stroke
grestore
} bind def
241.92 300.436 o
grestore
gsave
235.560625 49.206250 translate
0.000000 rotate
0.000000 0.000000 m /two glyphshow
6.362305 0.000000 m /zero glyphshow
grestore
2 setlinecap
1.000 setgray
gsave
669.6 235.6 108 64.8 clipbox
375.84 64.8 m
375.84 300.436364 l
stroke
grestore
0 setlinecap
0.333 setgray
gsave
/o {
gsave
newpath
translate
0.5 setlinewidth
1 setlinejoin
0 setlinecap
0 0 m
0 -4 l

gsave
0.333 setgray
fill
grestore
stroke
grestore
} bind def
375.84 64.8 o
grestore
gsave
/o {
gsave
newpath
translate
0.5 setlinewidth
1 setlinejoin
0 setlinecap
0 0 m
0 4 l

gsave
0.333 setgray
fill
grestore
stroke
grestore
} bind def
375.84 300.436 o
grestore
gsave
369.480625 49.206250 translate
0.000000 rotate
0.000000 0.000000 m /four glyphshow
6.362305 0.000000 m /zero glyphshow
grestore
2 setlinecap
1.000 setgray
gsave
669.6 235.6 108 64.8 clipbox
509.76 64.8 m
509.76 300.436364 l
stroke
grestore
0 setlinecap
0.333 setgray
gsave
/o {
gsave
newpath
translate
0.5 setlinewidth
1 setlinejoin
0 setlinecap
0 0 m
0 -4 l

gsave
0.333 setgray
fill
grestore
stroke
grestore
} bind def
509.76 64.8 o
grestore
gsave
/o {
gsave
newpath
translate
0.5 setlinewidth
1 setlinejoin
0 setlinecap
0 0 m
0 4 l

gsave
0.333 setgray
fill
grestore
stroke
grestore
} bind def
509.76 300.436 o
grestore
gsave
503.400625 49.206250 translate
0.000000 rotate
0.000000 0.000000 m /six glyphshow
6.362305 0.000000 m /zero glyphshow
grestore
2 setlinecap
1.000 setgray
gsave
669.6 235.6 108 64.8 clipbox
643.68 64.8 m
643.68 300.436364 l
stroke
grestore
0 setlinecap
0.333 setgray
gsave
/o {
gsave
newpath
translate
0.5 setlinewidth
1 setlinejoin
0 setlinecap
0 0 m
0 -4 l

gsave
0.333 setgray
fill
grestore
stroke
grestore
} bind def
643.68 64.8 o
grestore
gsave
/o {
gsave
newpath
translate
0.5 setlinewidth
1 setlinejoin
0 setlinecap
0 0 m
0 4 l

gsave
0.333 setgray
fill
grestore
stroke
grestore
} bind def
643.68 300.436 o
grestore
gsave
637.320625 49.206250 translate
0.000000 rotate
0.000000 0.000000 m /eight glyphshow
6.362305 0.000000 m /zero glyphshow
grestore
2 setlinecap
1.000 setgray
gsave
669.6 235.6 108 64.8 clipbox
777.6 64.8 m
777.6 300.436364 l
stroke
grestore
0 setlinecap
0.333 setgray
gsave
/o {
gsave
newpath
translate
0.5 setlinewidth
1 setlinejoin
0 setlinecap
0 0 m
0 -4 l

gsave
0.333 setgray
fill
grestore
stroke
grestore
} bind def
777.6 64.8 o
grestore
gsave
/o {
gsave
newpath
translate
0.5 setlinewidth
1 setlinejoin
0 setlinecap
0 0 m
0 4 l

gsave
0.333 setgray
fill
grestore
stroke
grestore
} bind def
777.6 300.436 o
grestore
gsave
768.060938 49.206250 translate
0.000000 rotate
0.000000 0.000000 m /one glyphshow
6.362305 0.000000 m /zero glyphshow
12.724609 0.000000 m /zero glyphshow
grestore
0.024 0.024 0.027 setrgbcolor
/BitstreamVeraSans-Roman findfont
12.000 scalefont
setfont
gsave
424.425000 33.003125 translate
0.000000 rotate
0.000000 0.000000 m /E glyphshow
7.582031 0.000000 m /p glyphshow
15.199219 0.000000 m /o glyphshow
22.541016 0.000000 m /c glyphshow
29.138672 0.000000 m /h glyphshow
grestore
2 setlinecap
1.000 setgray
gsave
669.6 235.6 108 64.8 clipbox
108 64.8 m
777.6 64.8 l
stroke
grestore
0 setlinecap
0.333 setgray
gsave
/o {
gsave
newpath
translate
0.5 setlinewidth
1 setlinejoin
0 setlinecap
0 0 m
-4 0 l

gsave
0.333 setgray
fill
grestore
stroke
grestore
} bind def
108 64.8 o
grestore
gsave
/o {
gsave
newpath
translate
0.5 setlinewidth
1 setlinejoin
0 setlinecap
0 0 m
4 0 l

gsave
0.333 setgray
fill
grestore
stroke
grestore
} bind def
777.6 64.8 o
grestore
/BitstreamVeraSans-Roman findfont
10.000 scalefont
setfont
gsave
80.921875 62.042187 translate
0.000000 rotate
0.000000 0.000000 m /one glyphshow
6.362305 0.000000 m /zero glyphshow
12.724609 0.000000 m /zero glyphshow
grestore
2 setlinecap
1.000 setgray
gsave
669.6 235.6 108 64.8 clipbox
108 104.072727 m
777.6 104.072727 l
stroke
grestore
0 setlinecap
0.333 setgray
gsave
/o {
gsave
newpath
translate
0.5 setlinewidth
1 setlinejoin
0 setlinecap
0 0 m
-4 0 l

gsave
0.333 setgray
fill
grestore
stroke
grestore
} bind def
108 104.073 o
grestore
gsave
/o {
gsave
newpath
translate
0.5 setlinewidth
1 setlinejoin
0 setlinecap
0 0 m
4 0 l

gsave
0.333 setgray
fill
grestore
stroke
grestore
} bind def
777.6 104.073 o
grestore
gsave
80.921875 101.314915 translate
0.000000 rotate
0.000000 0.000000 m /one glyphshow
6.362305 0.000000 m /two glyphshow
12.724609 0.000000 m /zero glyphshow
grestore
2 setlinecap
1.000 setgray
gsave
669.6 235.6 108 64.8 clipbox
108 143.345455 m
777.6 143.345455 l
stroke
grestore
0 setlinecap
0.333 setgray
gsave
/o {
gsave
newpath
translate
0.5 setlinewidth
1 setlinejoin
0 setlinecap
0 0 m
-4 0 l

gsave
0.333 setgray
fill
grestore
stroke
grestore
} bind def
108 143.345 o
grestore
gsave
/o {
gsave
newpath
translate
0.5 setlinewidth
1 setlinejoin
0 setlinecap
0 0 m
4 0 l

gsave
0.333 setgray
fill
grestore
stroke
grestore
} bind def
777.6 143.345 o
grestore
gsave
80.921875 140.587642 translate
0.000000 rotate
0.000000 0.000000 m /one glyphshow
6.362305 0.000000 m /four glyphshow
12.724609 0.000000 m /zero glyphshow
grestore
2 setlinecap
1.000 setgray
gsave
669.6 235.6 108 64.8 clipbox
108 182.618182 m
777.6 182.618182 l
stroke
grestore
0 setlinecap
0.333 setgray
gsave
/o {
gsave
newpath
translate
0.5 setlinewidth
1 setlinejoin
0 setlinecap
0 0 m
-4 0 l

gsave
0.333 setgray
fill
grestore
stroke
grestore
} bind def
108 182.618 o
grestore
gsave
/o {
gsave
newpath
translate
0.5 setlinewidth
1 setlinejoin
0 setlinecap
0 0 m
4 0 l

gsave
0.333 setgray
fill
grestore
stroke
grestore
} bind def
777.6 182.618 o
grestore
gsave
80.921875 179.860369 translate
0.000000 rotate
0.000000 0.000000 m /one glyphshow
6.362305 0.000000 m /six glyphshow
12.724609 0.000000 m /zero glyphshow
grestore
2 setlinecap
1.000 setgray
gsave
669.6 235.6 108 64.8 clipbox
108 221.890909 m
777.6 221.890909 l
stroke
grestore
0 setlinecap
0.333 setgray
gsave
/o {
gsave
newpath
translate
0.5 setlinewidth
1 setlinejoin
0 setlinecap
0 0 m
-4 0 l

gsave
0.333 setgray
fill
grestore
stroke
grestore
} bind def
108 221.891 o
grestore
gsave
/o {
gsave
newpath
translate
0.5 setlinewidth
1 setlinejoin
0 setlinecap
0 0 m
4 0 l

gsave
0.333 setgray
fill
grestore
stroke
grestore
} bind def
777.6 221.891 o
grestore
gsave
80.921875 219.133097 translate
0.000000 rotate
0.000000 0.000000 m /one glyphshow
6.362305 0.000000 m /eight glyphshow
12.724609 0.000000 m /zero glyphshow
grestore
2 setlinecap
1.000 setgray
gsave
669.6 235.6 108 64.8 clipbox
108 261.163636 m
777.6 261.163636 l
stroke
grestore
0 setlinecap
0.333 setgray
gsave
/o {
gsave
newpath
translate
0.5 setlinewidth
1 setlinejoin
0 setlinecap
0 0 m
-4 0 l

gsave
0.333 setgray
fill
grestore
stroke
grestore
} bind def
108 261.164 o
grestore
gsave
/o {
gsave
newpath
translate
0.5 setlinewidth
1 setlinejoin
0 setlinecap
0 0 m
4 0 l

gsave
0.333 setgray
fill
grestore
stroke
grestore
} bind def
777.6 261.164 o
grestore
gsave
80.921875 258.405824 translate
0.000000 rotate
0.000000 0.000000 m /two glyphshow
6.362305 0.000000 m /zero glyphshow
12.724609 0.000000 m /zero glyphshow
grestore
2 setlinecap
1.000 setgray
gsave
669.6 235.6 108 64.8 clipbox
108 300.436364 m
777.6 300.436364 l
stroke
grestore
0 setlinecap
0.333 setgray
gsave
/o {
gsave
newpath
translate
0.5 setlinewidth
1 setlinejoin
0 setlinecap
0 0 m
-4 0 l

gsave
0.333 setgray
fill
grestore
stroke
grestore
} bind def
108 300.436 o
grestore
gsave
/o {
gsave
newpath
translate
0.5 setlinewidth
1 setlinejoin
0 setlinecap
0 0 m
4 0 l

gsave
0.333 setgray
fill
grestore
stroke
grestore
} bind def
777.6 300.436 o
grestore
gsave
80.921875 297.678551 translate
0.000000 rotate
0.000000 0.000000 m /two glyphshow
6.362305 0.000000 m /two glyphshow
12.724609 0.000000 m /zero glyphshow
grestore
0.024 0.024 0.027 setrgbcolor
/BitstreamVeraSans-Roman findfont
12.000 scalefont
setfont
gsave
73.421875 147.016619 translate
90.000000 rotate
0.000000 0.000000 m /S glyphshow
7.617188 0.000000 m /u glyphshow
15.222656 0.000000 m /m glyphshow
26.912109 0.000000 m /space glyphshow
30.726562 0.000000 m /w glyphshow
40.541016 0.000000 m /e glyphshow
47.923828 0.000000 m /i glyphshow
51.257812 0.000000 m /g glyphshow
58.875000 0.000000 m /h glyphshow
66.480469 0.000000 m /t glyphshow
grestore
1.000 setlinewidth
2 setlinecap
0.494 0.224 0.533 setrgbcolor
gsave
669.6 235.6 108 64.8 clipbox
108 207.404352 m
114.696 223.359851 l
121.392 246.368056 l
128.088 249.641569 l
134.784 251.052882 l
141.48 252.130487 l
148.176 253.819119 l
154.872 250.757459 l
161.568 251.913555 l
168.264 247.148453 l
174.96 244.437561 l
181.656 247.550972 l
188.352 250.204897 l
195.048 242.795745 l
201.744 247.174935 l
208.44 247.273169 l
215.136 249.232128 l
221.832 252.714084 l
228.528 251.63011 l
235.224 257.065639 l
241.92 260.0544 l
248.616 257.407548 l
255.312 256.169272 l
262.008 253.334642 l
268.704 252.002041 l
275.4 251.28511 l
282.096 250.846911 l
288.792 251.047995 l
295.488 251.146244 l
302.184 251.301221 l
308.88 252.415406 l
315.576 253.326184 l
322.272 253.889928 l
328.968 255.000034 l
335.664 256.701771 l
342.36 257.634965 l
349.056 259.261153 l
355.752 259.926421 l
362.448 261.261721 l
369.144 263.31456 l
375.84 263.736176 l
382.536 263.858482 l
389.232 263.904682 l
395.928 264.010132 l
402.624 264.232531 l
409.32 264.270102 l
416.016 264.423607 l
422.712 264.648098 l
429.408 264.863135 l
436.104 264.912172 l
442.8 264.921155 l
449.496 264.941726 l
456.192 264.9452 l
462.888 264.9436 l
469.584 264.96565 l
476.28 264.982358 l
482.976 265.001723 l
489.672 265.013026 l
496.368 265.042088 l
503.064 265.041768 l
509.76 265.043193 l
516.456 265.042988 l
523.152 265.043384 l
529.848 265.043719 l
536.544 265.04621 l
543.24 265.047284 l
549.936 265.048678 l
556.632 265.050448 l
563.328 265.051243 l
570.024 265.052558 l
576.72 265.052494 l
583.416 265.052419 l
590.112 265.052383 l
596.808 265.052358 l
603.504 265.052268 l
610.2 265.052261 l
616.896 265.052248 l
623.592 265.052169 l
630.288 265.052169 l
636.984 265.052146 l
643.68 265.052144 l
650.376 265.052144 l
657.072 265.052143 l
663.768 265.052142 l
670.464 265.05214 l
677.16 265.05214 l
683.856 265.052139 l
690.552 265.052137 l
697.248 265.052138 l
703.944 265.052138 l
710.64 265.052138 l
717.336 265.052138 l
724.032 265.052138 l
730.728 265.052138 l
737.424 265.052138 l
744.12 265.052138 l
750.816 265.052138 l
757.512 265.052138 l
764.208 265.052138 l
770.904 265.052138 l
stroke
grestore
0.627 0.812 0.192 setrgbcolor
gsave
669.6 235.6 108 64.8 clipbox
108 125.71582 m
114.696 114.944518 l
121.392 101.336012 l
128.088 96.974358 l
134.784 90.661851 l
141.48 90.107699 l
148.176 89.23366 l
154.872 87.873281 l
161.568 89.052492 l
168.264 90.363425 l
174.96 89.433351 l
181.656 85.085445 l
188.352 83.109398 l
195.048 88.733593 l
201.744 80.748621 l
208.44 82.566961 l
215.136 85.292937 l
221.832 75.855225 l
228.528 75.814993 l
235.224 75.802515 l
241.92 72.524211 l
248.616 74.837371 l
255.312 72.790118 l
262.008 75.437396 l
268.704 79.178817 l
275.4 80.394371 l
282.096 80.711362 l
288.792 75.866561 l
295.488 78.734302 l
302.184 77.106485 l
308.88 84.690333 l
315.576 75.013721 l
322.272 79.438596 l
328.968 76.481757 l
335.664 84.110545 l
342.36 76.919985 l
349.056 78.299266 l
355.752 84.237236 l
362.448 77.586639 l
369.144 77.322365 l
375.84 75.458276 l
382.536 74.523568 l
389.232 73.506658 l
395.928 73.366434 l
402.624 73.800284 l
409.32 72.877232 l
416.016 73.431255 l
422.712 73.093334 l
429.408 75.473201 l
436.104 73.99725 l
442.8 73.58524 l
449.496 73.323327 l
456.192 73.725412 l
462.888 73.601294 l
469.584 73.132473 l
476.28 71.783904 l
482.976 73.382228 l
489.672 72.680316 l
496.368 72.272592 l
503.064 72.032493 l
509.76 71.943199 l
516.456 71.697688 l
523.152 71.945033 l
529.848 71.710185 l
536.544 71.793245 l
543.24 71.807807 l
549.936 71.735372 l
556.632 71.647267 l
563.328 71.623466 l
570.024 71.618977 l
576.72 71.616554 l
583.416 71.617246 l
590.112 71.634257 l
596.808 71.626659 l
603.504 71.639747 l
610.2 71.652751 l
616.896 71.649266 l
623.592 71.650039 l
630.288 71.651281 l
636.984 71.651139 l
643.68 71.651255 l
650.376 71.65262 l
657.072 71.650208 l
663.768 71.648656 l
670.464 71.648273 l
677.16 71.648538 l
683.856 71.648721 l
690.552 71.651279 l
697.248 71.651316 l
703.944 71.651266 l
710.64 71.651263 l
717.336 71.651026 l
724.032 71.651151 l
730.728 71.651003 l
737.424 71.650947 l
744.12 71.650766 l
750.816 71.650719 l
757.512 71.650823 l
764.208 71.650819 l
770.904 71.650811 l
stroke
grestore
0 setlinejoin
1.000 setgray
gsave
108 64.8 m
108 300.436364 l
stroke
grestore
gsave
108 300.436364 m
777.6 300.436364 l
stroke
grestore
gsave
108 64.8 m
777.6 64.8 l
stroke
grestore
gsave
777.6 64.8 m
777.6 300.436364 l
stroke
grestore

end
showpage
