PWD /media/henry/Unicorn/files/work/PhD/CoreResearch/IndProg
INPUT /etc/texmf/web2c/texmf.cnf
INPUT /usr/share/texmf/web2c/texmf.cnf
INPUT /usr/share/texlive/texmf-dist/web2c/texmf.cnf
INPUT /var/lib/texmf/web2c/pdftex/pdflatex.fmt
INPUT writeup.tex
OUTPUT writeup.log
INPUT /usr/share/texlive/texmf-dist/tex/latex/base/article.cls
INPUT /usr/share/texlive/texmf-dist/tex/latex/base/article.cls
INPUT /usr/share/texlive/texmf-dist/tex/latex/base/size10.clo
INPUT /usr/share/texlive/texmf-dist/tex/latex/base/size10.clo
INPUT /usr/share/texlive/texmf-dist/tex/latex/adjustbox/adjustbox.sty
INPUT /usr/share/texlive/texmf-dist/tex/latex/adjustbox/adjustbox.sty
INPUT /usr/share/texlive/texmf-dist/tex/latex/xkeyval/xkeyval.sty
INPUT /usr/share/texlive/texmf-dist/tex/latex/xkeyval/xkeyval.sty
INPUT /usr/share/texlive/texmf-dist/tex/generic/xkeyval/xkeyval.tex
INPUT /usr/share/texlive/texmf-dist/tex/generic/xkeyval/xkvutils.tex
INPUT /usr/share/texlive/texmf-dist/tex/generic/xkeyval/keyval.tex
INPUT /usr/share/texlive/texmf-dist/tex/latex/adjustbox/adjcalc.sty
INPUT /usr/share/texlive/texmf-dist/tex/latex/adjustbox/adjcalc.sty
INPUT /usr/share/texlive/texmf-dist/tex/latex/adjustbox/trimclip.sty
INPUT /usr/share/texlive/texmf-dist/tex/latex/adjustbox/trimclip.sty
INPUT /usr/share/texlive/texmf-dist/tex/latex/graphics/graphicx.sty
INPUT /usr/share/texlive/texmf-dist/tex/latex/graphics/graphicx.sty
INPUT /usr/share/texlive/texmf-dist/tex/latex/graphics/graphics.sty
INPUT /usr/share/texlive/texmf-dist/tex/latex/graphics/graphics.sty
INPUT /usr/share/texlive/texmf-dist/tex/latex/graphics/trig.sty
INPUT /usr/share/texlive/texmf-dist/tex/latex/graphics/trig.sty
INPUT /usr/share/texlive/texmf-dist/tex/latex/latexconfig/graphics.cfg
INPUT /usr/share/texlive/texmf-dist/tex/latex/latexconfig/graphics.cfg
INPUT /usr/share/texlive/texmf-dist/tex/latex/pdftex-def/pdftex.def
INPUT /usr/share/texlive/texmf-dist/tex/latex/pdftex-def/pdftex.def
INPUT /usr/share/texlive/texmf-dist/tex/generic/oberdiek/infwarerr.sty
INPUT /usr/share/texlive/texmf-dist/tex/generic/oberdiek/infwarerr.sty
INPUT /usr/share/texlive/texmf-dist/tex/generic/oberdiek/ltxcmds.sty
INPUT /usr/share/texlive/texmf-dist/tex/generic/oberdiek/ltxcmds.sty
INPUT /usr/share/texlive/texmf-dist/tex/latex/collectbox/collectbox.sty
INPUT /usr/share/texlive/texmf-dist/tex/latex/collectbox/collectbox.sty
INPUT /usr/share/texlive/texmf-dist/tex/latex/adjustbox/tc-pdftex.def
INPUT /usr/share/texlive/texmf-dist/tex/latex/adjustbox/tc-pdftex.def
INPUT /usr/share/texlive/texmf-dist/tex/latex/ifoddpage/ifoddpage.sty
INPUT /usr/share/texlive/texmf-dist/tex/latex/ifoddpage/ifoddpage.sty
INPUT /usr/share/texlive/texmf-dist/tex/latex/ifoddpage/ifoddpage.sty
INPUT /usr/share/texlive/texmf-dist/tex/latex/varwidth/varwidth.sty
INPUT /usr/share/texlive/texmf-dist/tex/latex/varwidth/varwidth.sty
INPUT /usr/share/texlive/texmf-dist/tex/latex/varwidth/varwidth.sty
INPUT /usr/share/texlive/texmf-dist/tex/latex/caption/subcaption.sty
INPUT /usr/share/texlive/texmf-dist/tex/latex/caption/subcaption.sty
INPUT /usr/share/texlive/texmf-dist/tex/latex/caption/caption.sty
INPUT /usr/share/texlive/texmf-dist/tex/latex/caption/caption.sty
INPUT /usr/share/texlive/texmf-dist/tex/latex/caption/caption3.sty
INPUT /usr/share/texlive/texmf-dist/tex/latex/caption/caption3.sty
INPUT /usr/share/texlive/texmf-dist/tex/latex/placeins/placeins.sty
INPUT /usr/share/texlive/texmf-dist/tex/latex/placeins/placeins.sty
INPUT /usr/share/texlive/texmf-dist/tex/latex/biblatex/biblatex.sty
INPUT /usr/share/texlive/texmf-dist/tex/latex/biblatex/biblatex.sty
INPUT /usr/share/texlive/texmf-dist/tex/latex/biblatex/biblatex_.sty
INPUT /usr/share/texlive/texmf-dist/tex/latex/biblatex/biblatex_.sty
INPUT /usr/share/texlive/texmf-dist/tex/latex/etoolbox/etoolbox.sty
INPUT /usr/share/texlive/texmf-dist/tex/latex/etoolbox/etoolbox.sty
INPUT /usr/share/texlive/texmf-dist/tex/latex/oberdiek/kvoptions.sty
INPUT /usr/share/texlive/texmf-dist/tex/latex/oberdiek/kvoptions.sty
INPUT /usr/share/texlive/texmf-dist/tex/generic/oberdiek/kvsetkeys.sty
INPUT /usr/share/texlive/texmf-dist/tex/generic/oberdiek/kvsetkeys.sty
INPUT /usr/share/texlive/texmf-dist/tex/generic/oberdiek/etexcmds.sty
INPUT /usr/share/texlive/texmf-dist/tex/generic/oberdiek/etexcmds.sty
INPUT /usr/share/texlive/texmf-dist/tex/generic/oberdiek/ifluatex.sty
INPUT /usr/share/texlive/texmf-dist/tex/generic/oberdiek/ifluatex.sty
INPUT /usr/share/texlive/texmf-dist/tex/latex/logreq/logreq.sty
INPUT /usr/share/texlive/texmf-dist/tex/latex/logreq/logreq.sty
INPUT /usr/share/texlive/texmf-dist/tex/latex/logreq/logreq.def
INPUT /usr/share/texlive/texmf-dist/tex/latex/logreq/logreq.def
INPUT /usr/share/texlive/texmf-dist/tex/latex/base/ifthen.sty
INPUT /usr/share/texlive/texmf-dist/tex/latex/base/ifthen.sty
INPUT /usr/share/texlive/texmf-dist/tex/latex/url/url.sty
INPUT /usr/share/texlive/texmf-dist/tex/latex/url/url.sty
INPUT /usr/share/texlive/texmf-dist/tex/latex/biblatex/blx-dm.def
INPUT /usr/share/texlive/texmf-dist/tex/latex/biblatex/blx-dm.def
INPUT /usr/share/texlive/texmf-dist/tex/latex/biblatex/blx-compat.def
INPUT /usr/share/texlive/texmf-dist/tex/latex/biblatex/blx-compat.def
INPUT /usr/share/texlive/texmf-dist/tex/latex/biblatex/biblatex_.def
INPUT /usr/share/texlive/texmf-dist/tex/latex/biblatex/biblatex_.def
INPUT /usr/share/texlive/texmf-dist/tex/latex/biblatex/bbx/numeric.bbx
INPUT /usr/share/texlive/texmf-dist/tex/latex/biblatex/bbx/numeric.bbx
INPUT /usr/share/texlive/texmf-dist/tex/latex/biblatex/bbx/standard.bbx
INPUT /usr/share/texlive/texmf-dist/tex/latex/biblatex/bbx/standard.bbx
INPUT /usr/share/texlive/texmf-dist/tex/latex/biblatex/cbx/numeric.cbx
INPUT /usr/share/texlive/texmf-dist/tex/latex/biblatex/cbx/numeric.cbx
INPUT /usr/share/texlive/texmf-dist/tex/latex/biblatex/biblatex.cfg
INPUT /usr/share/texlive/texmf-dist/tex/latex/biblatex/biblatex.cfg
INPUT /usr/share/texlive/texmf-dist/tex/latex/listings/listings.sty
INPUT /usr/share/texlive/texmf-dist/tex/latex/listings/listings.sty
INPUT /usr/share/texlive/texmf-dist/tex/latex/listings/lstmisc.sty
INPUT /usr/share/texlive/texmf-dist/tex/latex/listings/lstmisc.sty
INPUT /usr/share/texlive/texmf-dist/tex/latex/listings/listings.cfg
INPUT /usr/share/texlive/texmf-dist/tex/latex/listings/listings.cfg
INPUT siunitx.sty
INPUT siunitx.sty
INPUT /usr/share/texlive/texmf-dist/tex/latex/l3kernel/expl3.sty
INPUT /usr/share/texlive/texmf-dist/tex/latex/l3kernel/expl3.sty
INPUT /usr/share/texlive/texmf-dist/tex/latex/l3kernel/expl3-code.tex
INPUT /usr/share/texlive/texmf-dist/tex/latex/l3kernel/expl3-code.tex
INPUT /usr/share/texlive/texmf-dist/tex/generic/unicode-data/UnicodeData.txt
INPUT /usr/share/texlive/texmf-dist/tex/generic/unicode-data/CaseFolding.txt
INPUT /usr/share/texlive/texmf-dist/tex/generic/unicode-data/SpecialCasing.txt
INPUT /usr/share/texlive/texmf-dist/tex/latex/l3kernel/l3pdfmode.def
INPUT /usr/share/texlive/texmf-dist/tex/latex/l3kernel/l3pdfmode.def
INPUT /usr/share/texlive/texmf-dist/tex/latex/l3packages/xparse/xparse.sty
INPUT /usr/share/texlive/texmf-dist/tex/latex/l3packages/xparse/xparse.sty
INPUT /usr/share/texlive/texmf-dist/tex/latex/tools/array.sty
INPUT /usr/share/texlive/texmf-dist/tex/latex/tools/array.sty
INPUT /usr/share/texlive/texmf-dist/tex/latex/amsmath/amstext.sty
INPUT /usr/share/texlive/texmf-dist/tex/latex/amsmath/amstext.sty
INPUT /usr/share/texlive/texmf-dist/tex/latex/amsmath/amsgen.sty
INPUT /usr/share/texlive/texmf-dist/tex/latex/amsmath/amsgen.sty
INPUT /usr/share/texlive/texmf-dist/tex/latex/graphics/color.sty
INPUT /usr/share/texlive/texmf-dist/tex/latex/graphics/color.sty
INPUT /usr/share/texlive/texmf-dist/tex/latex/latexconfig/color.cfg
INPUT /usr/share/texlive/texmf-dist/tex/latex/latexconfig/color.cfg
INPUT /usr/share/texlive/texmf-dist/tex/latex/biblatex/lbx/english.lbx
INPUT /usr/share/texlive/texmf-dist/tex/latex/biblatex/lbx/english.lbx
INPUT writeup.aux
INPUT writeup.aux
OUTPUT writeup.aux
INPUT /usr/share/texlive/texmf-dist/tex/context/base/supp-pdf.mkii
INPUT /usr/share/texlive/texmf-dist/tex/context/base/supp-pdf.mkii
INPUT /usr/share/texlive/texmf-dist/tex/generic/oberdiek/pdftexcmds.sty
INPUT /usr/share/texlive/texmf-dist/tex/generic/oberdiek/pdftexcmds.sty
INPUT /usr/share/texlive/texmf-dist/tex/generic/oberdiek/ifpdf.sty
INPUT /usr/share/texlive/texmf-dist/tex/generic/oberdiek/ifpdf.sty
INPUT /usr/share/texlive/texmf-dist/tex/latex/oberdiek/epstopdf-base.sty
INPUT /usr/share/texlive/texmf-dist/tex/latex/oberdiek/epstopdf-base.sty
INPUT /usr/share/texlive/texmf-dist/tex/latex/oberdiek/grfext.sty
INPUT /usr/share/texlive/texmf-dist/tex/latex/oberdiek/grfext.sty
INPUT /usr/share/texlive/texmf-dist/tex/generic/oberdiek/kvdefinekeys.sty
INPUT /usr/share/texlive/texmf-dist/tex/generic/oberdiek/kvdefinekeys.sty
INPUT /usr/share/texlive/texmf-dist/tex/latex/latexconfig/epstopdf-sys.cfg
INPUT /usr/share/texlive/texmf-dist/tex/latex/latexconfig/epstopdf-sys.cfg
OUTPUT writeup.bcf
INPUT writeup.bbl
INPUT writeup.bbl
INPUT writeup.bbl
INPUT /usr/share/texlive/texmf-dist/tex/latex/base/textcomp.sty
INPUT /usr/share/texlive/texmf-dist/tex/latex/base/textcomp.sty
INPUT /usr/share/texlive/texmf-dist/tex/latex/base/ts1enc.def
INPUT /usr/share/texlive/texmf-dist/tex/latex/base/ts1enc.def
INPUT /usr/share/texlive/texmf-dist/fonts/map/fontname/texfonts.map
INPUT /usr/share/texlive/texmf-dist/fonts/tfm/public/cm/cmss10.tfm
INPUT /usr/share/texlive/texmf-dist/fonts/tfm/public/cm/cmss8.tfm
INPUT /usr/share/texlive/texmf-dist/fonts/tfm/public/cm/cmss8.tfm
INPUT /usr/share/texlive/texmf-dist/fonts/tfm/public/cm/cmtt10.tfm
INPUT /usr/share/texlive/texmf-dist/fonts/tfm/public/cm/cmtt8.tfm
INPUT /usr/share/texlive/texmf-dist/fonts/tfm/public/cm/cmtt8.tfm
INPUT /usr/share/texlive/texmf-dist/fonts/tfm/public/cm/cmr17.tfm
INPUT /usr/share/texlive/texmf-dist/fonts/tfm/public/cm/cmr12.tfm
INPUT /usr/share/texlive/texmf-dist/fonts/tfm/public/cm/cmr8.tfm
INPUT /usr/share/texlive/texmf-dist/fonts/tfm/public/cm/cmr6.tfm
INPUT /usr/share/texlive/texmf-dist/fonts/tfm/public/cm/cmmi12.tfm
INPUT /usr/share/texlive/texmf-dist/fonts/tfm/public/cm/cmmi8.tfm
INPUT /usr/share/texlive/texmf-dist/fonts/tfm/public/cm/cmmi6.tfm
INPUT /usr/share/texlive/texmf-dist/fonts/tfm/public/cm/cmsy10.tfm
INPUT /usr/share/texlive/texmf-dist/fonts/tfm/public/cm/cmsy8.tfm
INPUT /usr/share/texlive/texmf-dist/fonts/tfm/public/cm/cmsy6.tfm
INPUT /usr/share/texlive/texmf-dist/fonts/tfm/public/cm/cmss12.tfm
INPUT /usr/share/texlive/texmf-dist/fonts/tfm/public/cm/cmss8.tfm
INPUT /usr/share/texlive/texmf-dist/fonts/tfm/public/cm/cmss8.tfm
INPUT /usr/share/texlive/texmf-dist/fonts/tfm/public/cm/cmtt12.tfm
INPUT /usr/share/texlive/texmf-dist/fonts/tfm/public/cm/cmtt8.tfm
INPUT /usr/share/texlive/texmf-dist/fonts/tfm/public/cm/cmtt8.tfm
INPUT /usr/share/texlive/texmf-dist/fonts/tfm/public/cm/cmr9.tfm
INPUT /usr/share/texlive/texmf-dist/fonts/tfm/public/cm/cmbx9.tfm
INPUT /usr/share/texlive/texmf-dist/fonts/tfm/public/cm/cmr12.tfm
INPUT /usr/share/texlive/texmf-dist/fonts/tfm/public/cm/cmbx12.tfm
INPUT writeup.toc
INPUT writeup.toc
INPUT /usr/share/texlive/texmf-dist/fonts/tfm/public/cm/cmbx10.tfm
OUTPUT writeup.pdf
INPUT /var/lib/texmf/fonts/map/pdftex/updmap/pdftex.map
OUTPUT writeup.toc
INPUT introduction.tex
INPUT introduction.tex
INPUT literatureReview.tex
INPUT literatureReview.tex
INPUT /usr/share/texlive/texmf-dist/fonts/tfm/public/cm/cmbx12.tfm
INPUT single_neuron.eps
INPUT ./single_neuron.eps
INPUT ./single_neuron.eps
INPUT ./single_neuron-eps-converted-to.pdf
INPUT ./single_neuron-eps-converted-to.pdf
INPUT ./single_neuron.eps
INPUT ./single_neuron-eps-converted-to.pdf
INPUT ./single_neuron-eps-converted-to.pdf
INPUT ./single_neuron-eps-converted-to.pdf
INPUT /usr/share/texlive/texmf-dist/fonts/tfm/public/cm/cmbx7.tfm
INPUT /usr/share/texlive/texmf-dist/fonts/tfm/public/cm/cmbx5.tfm
INPUT /usr/share/texlive/texmf-dist/fonts/tfm/public/cm/cmbx8.tfm
INPUT /usr/share/texlive/texmf-dist/fonts/tfm/public/cm/cmbx6.tfm
INPUT underFit.pdf
INPUT ./underFit.pdf
INPUT ./underFit.pdf
INPUT goodFit.pdf
INPUT ./goodFit.pdf
INPUT ./goodFit.pdf
INPUT overFit.pdf
INPUT ./overFit.pdf
INPUT ./overFit.pdf
INPUT neural_net_weight_labels.eps
INPUT ./neural_net_weight_labels.eps
INPUT ./neural_net_weight_labels.eps
INPUT ./neural_net_weight_labels-eps-converted-to.pdf
INPUT ./neural_net_weight_labels-eps-converted-to.pdf
INPUT ./neural_net_weight_labels.eps
INPUT ./neural_net_weight_labels-eps-converted-to.pdf
INPUT ./neural_net_weight_labels-eps-converted-to.pdf
INPUT ./neural_net_weight_labels-eps-converted-to.pdf
INPUT /usr/share/texlive/texmf-dist/tex/latex/base/ts1cmr.fd
INPUT /usr/share/texlive/texmf-dist/tex/latex/base/ts1cmr.fd
INPUT /usr/share/texlive/texmf-dist/fonts/tfm/jknappen/ec/tcrm1000.tfm
INPUT activation.eps
INPUT ./activation.eps
INPUT ./activation.eps
INPUT ./activation-eps-converted-to.pdf
INPUT ./activation-eps-converted-to.pdf
INPUT ./activation.eps
INPUT ./activation-eps-converted-to.pdf
INPUT ./activation-eps-converted-to.pdf
INPUT ./activation-eps-converted-to.pdf
INPUT back_propagation.pdf
INPUT ./back_propagation.pdf
INPUT ./back_propagation.pdf
INPUT methodology.tex
INPUT methodology.tex
INPUT all_kendall.eps
INPUT ./all_kendall.eps
INPUT ./all_kendall.eps
INPUT ./all_kendall-eps-converted-to.pdf
INPUT ./all_kendall-eps-converted-to.pdf
INPUT ./all_kendall.eps
INPUT ./all_kendall-eps-converted-to.pdf
INPUT ./all_kendall-eps-converted-to.pdf
INPUT ./all_kendall-eps-converted-to.pdf
INPUT small_kendall.eps
INPUT ./small_kendall.eps
INPUT ./small_kendall.eps
INPUT ./small_kendall-eps-converted-to.pdf
INPUT ./small_kendall-eps-converted-to.pdf
INPUT ./small_kendall.eps
INPUT ./small_kendall-eps-converted-to.pdf
INPUT ./small_kendall-eps-converted-to.pdf
INPUT ./small_kendall-eps-converted-to.pdf
INPUT results.tex
INPUT results.tex
INPUT target_balence_loss.eps
INPUT ./target_balence_loss.eps
INPUT ./target_balence_loss.eps
INPUT ./target_balence_loss-eps-converted-to.pdf
INPUT ./target_balence_loss-eps-converted-to.pdf
INPUT ./target_balence_loss.eps
INPUT ./target_balence_loss-eps-converted-to.pdf
INPUT ./target_balence_loss-eps-converted-to.pdf
INPUT ./target_balence_loss-eps-converted-to.pdf
INPUT target_balence_roc.eps
INPUT ./target_balence_roc.eps
INPUT ./target_balence_roc.eps
INPUT ./target_balence_roc-eps-converted-to.pdf
INPUT ./target_balence_roc-eps-converted-to.pdf
INPUT ./target_balence_roc.eps
INPUT ./target_balence_roc-eps-converted-to.pdf
INPUT ./target_balence_roc-eps-converted-to.pdf
INPUT ./target_balence_roc-eps-converted-to.pdf
INPUT RecoVertex_jet_pt_.pdf
INPUT ./RecoVertex_jet_pt_.pdf
INPUT ./RecoVertex_jet_pt_.pdf
INPUT RecoVertex_jet_eta_.pdf
INPUT ./RecoVertex_jet_eta_.pdf
INPUT ./RecoVertex_jet_eta_.pdf
INPUT RecoVertex_SV_delta_R_.pdf
INPUT ./RecoVertex_SV_delta_R_.pdf
INPUT ./RecoVertex_SV_delta_R_.pdf
INPUT RecoVertex_SV_energy_ratio_.pdf
INPUT ./RecoVertex_SV_energy_ratio_.pdf
INPUT ./RecoVertex_SV_energy_ratio_.pdf
INPUT loss_reweigh_vs_raw.eps
INPUT ./loss_reweigh_vs_raw.eps
INPUT ./loss_reweigh_vs_raw.eps
INPUT ./loss_reweigh_vs_raw-eps-converted-to.pdf
INPUT ./loss_reweigh_vs_raw-eps-converted-to.pdf
INPUT ./loss_reweigh_vs_raw.eps
INPUT ./loss_reweigh_vs_raw-eps-converted-to.pdf
INPUT ./loss_reweigh_vs_raw-eps-converted-to.pdf
INPUT ./loss_reweigh_vs_raw-eps-converted-to.pdf
INPUT figure12.png
INPUT ./figure12.png
INPUT ./figure12.png
INPUT reweigh_vs_raw_all_vars_hist_preds.eps
INPUT ./reweigh_vs_raw_all_vars_hist_preds.eps
INPUT ./reweigh_vs_raw_all_vars_hist_preds.eps
INPUT ./reweigh_vs_raw_all_vars_hist_preds-eps-converted-to.pdf
INPUT ./reweigh_vs_raw_all_vars_hist_preds-eps-converted-to.pdf
INPUT ./reweigh_vs_raw_all_vars_hist_preds.eps
INPUT ./reweigh_vs_raw_all_vars_hist_preds-eps-converted-to.pdf
INPUT ./reweigh_vs_raw_all_vars_hist_preds-eps-converted-to.pdf
INPUT ./reweigh_vs_raw_all_vars_hist_preds-eps-converted-to.pdf
INPUT reweigh_vs_raw_all_vars_roc.eps
INPUT ./reweigh_vs_raw_all_vars_roc.eps
INPUT ./reweigh_vs_raw_all_vars_roc.eps
INPUT ./reweigh_vs_raw_all_vars_roc-eps-converted-to.pdf
INPUT ./reweigh_vs_raw_all_vars_roc-eps-converted-to.pdf
INPUT ./reweigh_vs_raw_all_vars_roc.eps
INPUT ./reweigh_vs_raw_all_vars_roc-eps-converted-to.pdf
INPUT ./reweigh_vs_raw_all_vars_roc-eps-converted-to.pdf
INPUT ./reweigh_vs_raw_all_vars_roc-eps-converted-to.pdf
INPUT loss_CSVv2_replica.eps
INPUT ./loss_CSVv2_replica.eps
INPUT ./loss_CSVv2_replica.eps
INPUT ./loss_CSVv2_replica-eps-converted-to.pdf
INPUT ./loss_CSVv2_replica-eps-converted-to.pdf
INPUT ./loss_CSVv2_replica.eps
INPUT ./loss_CSVv2_replica-eps-converted-to.pdf
INPUT ./loss_CSVv2_replica-eps-converted-to.pdf
INPUT ./loss_CSVv2_replica-eps-converted-to.pdf
INPUT CSVv2_replica_hist_preds.eps
INPUT ./CSVv2_replica_hist_preds.eps
INPUT ./CSVv2_replica_hist_preds.eps
INPUT ./CSVv2_replica_hist_preds-eps-converted-to.pdf
INPUT ./CSVv2_replica_hist_preds-eps-converted-to.pdf
INPUT ./CSVv2_replica_hist_preds.eps
INPUT ./CSVv2_replica_hist_preds-eps-converted-to.pdf
INPUT ./CSVv2_replica_hist_preds-eps-converted-to.pdf
INPUT ./CSVv2_replica_hist_preds-eps-converted-to.pdf
INPUT CSVv2_comp_roc.eps
INPUT ./CSVv2_comp_roc.eps
INPUT ./CSVv2_comp_roc.eps
INPUT ./CSVv2_comp_roc-eps-converted-to.pdf
INPUT ./CSVv2_comp_roc-eps-converted-to.pdf
INPUT ./CSVv2_comp_roc.eps
INPUT ./CSVv2_comp_roc-eps-converted-to.pdf
INPUT ./CSVv2_comp_roc-eps-converted-to.pdf
INPUT ./CSVv2_comp_roc-eps-converted-to.pdf
INPUT loss_cor.eps
INPUT ./loss_cor.eps
INPUT ./loss_cor.eps
INPUT ./loss_cor-eps-converted-to.pdf
INPUT ./loss_cor-eps-converted-to.pdf
INPUT ./loss_cor.eps
INPUT ./loss_cor-eps-converted-to.pdf
INPUT ./loss_cor-eps-converted-to.pdf
INPUT ./loss_cor-eps-converted-to.pdf
INPUT cor_comp_roc.eps
INPUT ./cor_comp_roc.eps
INPUT ./cor_comp_roc.eps
INPUT ./cor_comp_roc-eps-converted-to.pdf
INPUT ./cor_comp_roc-eps-converted-to.pdf
INPUT ./cor_comp_roc.eps
INPUT ./cor_comp_roc-eps-converted-to.pdf
INPUT ./cor_comp_roc-eps-converted-to.pdf
INPUT ./cor_comp_roc-eps-converted-to.pdf
INPUT conclusions.tex
INPUT conclusions.tex
INPUT /usr/share/texlive/texmf-dist/fonts/tfm/public/cm/cmti10.tfm
INPUT /usr/share/texlive/texmf-dist/fonts/tfm/public/cm/cmcsc10.tfm
INPUT writeup.aux
INPUT writeup.run.xml
OUTPUT writeup.run.xml
INPUT /home/henry/.texmf-var/fonts/pk/ljfour/jknappen/ec/tcrm1000.600pk
INPUT /usr/share/texlive/texmf-dist/fonts/type1/public/amsfonts/cm/cmbx10.pfb
INPUT /usr/share/texlive/texmf-dist/fonts/type1/public/amsfonts/cm/cmbx12.pfb
INPUT /usr/share/texlive/texmf-dist/fonts/type1/public/amsfonts/cm/cmbx7.pfb
INPUT /usr/share/texlive/texmf-dist/fonts/type1/public/amsfonts/cm/cmbx8.pfb
INPUT /usr/share/texlive/texmf-dist/fonts/type1/public/amsfonts/cm/cmbx9.pfb
INPUT /usr/share/texlive/texmf-dist/fonts/type1/public/amsfonts/cm/cmcsc10.pfb
INPUT /usr/share/texlive/texmf-dist/fonts/type1/public/amsfonts/cm/cmex10.pfb
INPUT /usr/share/texlive/texmf-dist/fonts/type1/public/amsfonts/cm/cmmi10.pfb
INPUT /usr/share/texlive/texmf-dist/fonts/type1/public/amsfonts/cm/cmmi12.pfb
INPUT /usr/share/texlive/texmf-dist/fonts/type1/public/amsfonts/cm/cmmi5.pfb
INPUT /usr/share/texlive/texmf-dist/fonts/type1/public/amsfonts/cm/cmmi7.pfb
INPUT /usr/share/texlive/texmf-dist/fonts/type1/public/amsfonts/cm/cmr10.pfb
INPUT /usr/share/texlive/texmf-dist/fonts/type1/public/amsfonts/cm/cmr12.pfb
INPUT /usr/share/texlive/texmf-dist/fonts/type1/public/amsfonts/cm/cmr17.pfb
INPUT /usr/share/texlive/texmf-dist/fonts/type1/public/amsfonts/cm/cmr6.pfb
INPUT /usr/share/texlive/texmf-dist/fonts/type1/public/amsfonts/cm/cmr7.pfb
INPUT /usr/share/texlive/texmf-dist/fonts/type1/public/amsfonts/cm/cmr8.pfb
INPUT /usr/share/texlive/texmf-dist/fonts/type1/public/amsfonts/cm/cmr9.pfb
INPUT /usr/share/texlive/texmf-dist/fonts/type1/public/amsfonts/cm/cmsy10.pfb
INPUT /usr/share/texlive/texmf-dist/fonts/type1/public/amsfonts/cm/cmsy7.pfb
INPUT /usr/share/texlive/texmf-dist/fonts/type1/public/amsfonts/cm/cmti10.pfb
INPUT /usr/share/texlive/texmf-dist/fonts/type1/public/amsfonts/cm/cmtt10.pfb
