\relax 
\abx@aux@sortscheme{nty}
\abx@aux@sortnamekeyscheme{global}
\providecommand \oddpage@label [2]{}
\@writefile{toc}{\boolfalse {citerequest}\boolfalse {citetracker}\boolfalse {pagetracker}\boolfalse {backtracker}\relax }
\@writefile{lof}{\boolfalse {citerequest}\boolfalse {citetracker}\boolfalse {pagetracker}\boolfalse {backtracker}\relax }
\@writefile{lot}{\boolfalse {citerequest}\boolfalse {citetracker}\boolfalse {pagetracker}\boolfalse {backtracker}\relax }
\abx@aux@cite{cms_collaboration_identification_2017}
\abx@aux@cite{aad_observation_2012}
\abx@aux@cite{chatrchyan_observation_2012}
\abx@aux@cite{aggleton_review_2017}
\@writefile{toc}{\defcounter {refsection}{0}\relax }\@writefile{toc}{\contentsline {section}{\numberline {1}Introduction}{2}}
\abx@aux@cite{mackay_information_2015}
\abx@aux@cite{goodfellow_deep_2016}
\abx@aux@cite{bishop_pattern_2006}
\abx@aux@cite{murphy_machine_2012}
\@writefile{toc}{\defcounter {refsection}{0}\relax }\@writefile{toc}{\contentsline {section}{\numberline {2}Literature review}{3}}
\@writefile{toc}{\defcounter {refsection}{0}\relax }\@writefile{toc}{\contentsline {subsection}{\numberline {2.1}Deep neural nets}{3}}
\@writefile{toc}{\defcounter {refsection}{0}\relax }\@writefile{toc}{\contentsline {subsection}{\numberline {2.2}Structure of a deep neural net}{3}}
\abx@aux@cite{barber_bayesian_2017}
\@writefile{toc}{\defcounter {refsection}{0}\relax }\@writefile{toc}{\contentsline {subsubsection}{\numberline {2.2.1}Single neuron}{4}}
\@writefile{toc}{\defcounter {refsection}{0}\relax }\@writefile{toc}{\contentsline {subsubsection}{\numberline {2.2.2}Training the single neuron}{4}}
\newlabel{sec:TrainingSingle}{{2.2.2}{4}}
\@writefile{lof}{\defcounter {refsection}{0}\relax }\@writefile{lof}{\contentsline {figure}{\numberline {1}{\ignorespaces A neuron with 4 inputs coming in from the left, \(x_1\), \(x_2\), \(x_3\), \(x_4\). With weights \(w_1\), \(w_2\), \(w_3\), \(w_4\). It takes the weighted sum of the inputs then applies its activation function, \(y\). The diagram then shows this output being fed to 4 more unknown objects off to the right. \relax }}{5}}
\providecommand*\caption@xref[2]{\@setref\relax\@undefined{#1}}
\newlabel{fig:single_neuron}{{1}{5}}
\@writefile{lof}{\defcounter {refsection}{0}\relax }\@writefile{lof}{\contentsline {figure}{\numberline {2}{\ignorespaces A neuron with 2 inputs fitting some data points. The axis are the possible values of the input and the colour is the output of the neuron at that point.\relax }}{7}}
\newlabel{fig:overfitting}{{2}{7}}
\abx@aux@cite{kingma_adam_2014}
\abx@aux@cite{loshchilov_fixing_2018}
\@writefile{toc}{\defcounter {refsection}{0}\relax }\@writefile{toc}{\contentsline {subsubsection}{\numberline {2.2.3}A statistical or matrix view}{8}}
\newlabel{sec:statmat}{{2.2.3}{8}}
\@writefile{toc}{\defcounter {refsection}{0}\relax }\@writefile{toc}{\contentsline {subsubsection}{\numberline {2.2.4}Neurons combined as a network}{8}}
\@writefile{lof}{\defcounter {refsection}{0}\relax }\@writefile{lof}{\contentsline {figure}{\numberline {3}{\ignorespaces A neural net with two hidden layers. The input layer, on the left in purple, takes three inputs. These inputs are passed to the first hidden layer, in blue, that has four nodes. Each of these four nodes will multiply the input is received by the appropriate weight, possibly add a bias values, and then apply it's activation function to the sum. The process is repeated in the second hidden layer with three nodes. Finally values will be passed to the nodes in the output layer, which will also multiply them by weights and add bias. Often the output layer has a different activation function to the hidden layers. Some, but not all, of the labels for the weights are shown. \relax }}{9}}
\newlabel{fig:neural_net_weight_labels}{{3}{9}}
\@writefile{toc}{\defcounter {refsection}{0}\relax }\@writefile{toc}{\contentsline {subsubsection}{\numberline {2.2.5}Activation functions}{9}}
\@writefile{lof}{\defcounter {refsection}{0}\relax }\@writefile{lof}{\contentsline {figure}{\numberline {4}{\ignorespaces The sigmoid activation function and the ReLU activation function.\relax }}{10}}
\newlabel{fig:activation}{{4}{10}}
\@writefile{toc}{\defcounter {refsection}{0}\relax }\@writefile{toc}{\contentsline {subsection}{\numberline {2.3}Training a deep neural net}{11}}
\@writefile{toc}{\defcounter {refsection}{0}\relax }\@writefile{toc}{\contentsline {subsubsection}{\numberline {2.3.1}Regularization}{11}}
\abx@aux@cite{collaboration_identification_2013}
\@writefile{lof}{\defcounter {refsection}{0}\relax }\@writefile{lof}{\contentsline {figure}{\numberline {5}{\ignorespaces One line of back-propagation on the network depicted in figure 3\hbox {}. In this example the gradient of the output \(z_1\) with respect to the weight \(w_{34}^{(2)}\) is determined. \relax }}{12}}
\newlabel{fig:backpropagation}{{5}{12}}
\@writefile{toc}{\defcounter {refsection}{0}\relax }\@writefile{toc}{\contentsline {section}{\numberline {3}Methodology}{12}}
\abx@aux@cite{cacciari_anti_2008}
\@writefile{toc}{\defcounter {refsection}{0}\relax }\@writefile{toc}{\contentsline {subsection}{\numberline {3.1}Data set}{13}}
\newlabel{sec:dataSet}{{3.1}{13}}
\@writefile{toc}{\defcounter {refsection}{0}\relax }\@writefile{toc}{\contentsline {subsection}{\numberline {3.2}Preprocessing}{13}}
\@writefile{toc}{\defcounter {refsection}{0}\relax }\@writefile{toc}{\contentsline {subsubsection}{\numberline {3.2.1}Splitting by vertex type}{14}}
\@writefile{toc}{\defcounter {refsection}{0}\relax }\@writefile{toc}{\contentsline {subsubsection}{\numberline {3.2.2}Set of variables}{14}}
\newlabel{sec:variables}{{3.2.2}{14}}
\newlabel{SV 2D flight dist sig}{{1}{14}}
\newlabel{num SVs}{{2}{14}}
\newlabel{trk eta rel}{{3}{14}}
\newlabel{SV mass}{{4}{14}}
\newlabel{num trks from SV}{{5}{15}}
\newlabel{SV energy ratio}{{6}{15}}
\newlabel{SV delta R}{{7}{15}}
\newlabel{3D IP sig}{{8}{15}}
\newlabel{trk relative pt}{{9}{15}}
\newlabel{trk delta R}{{10}{15}}
\newlabel{trk pt ratio}{{11}{15}}
\newlabel{trk distance}{{12}{16}}
\newlabel{trk decay length}{{13}{16}}
\newlabel{summed trks Et ratio}{{14}{16}}
\newlabel{summed delta R}{{15}{16}}
\newlabel{first trk 2D IP sig above charm}{{16}{16}}
\newlabel{num trks per jet}{{17}{16}}
\newlabel{jet pt}{{18}{16}}
\newlabel{jet eta}{{19}{16}}
\newlabel{parton flavour}{{20}{16}}
\newlabel{2D IP sig}{{21}{16}}
\@writefile{toc}{\defcounter {refsection}{0}\relax }\@writefile{toc}{\contentsline {subsubsection}{\numberline {3.2.3}Reweighing jet \(\eta \) and jet \(p_\text  {T}\)}{16}}
\newlabel{sec:methreweigh}{{3.2.3}{16}}
\@writefile{lof}{\defcounter {refsection}{0}\relax }\@writefile{lof}{\contentsline {figure}{\numberline {6}{\ignorespaces Table of which variable is present in each class of jet. If the variable is present its variable number is printed in the column for that class of jet, otherwise there is a `-'.\relax }}{17}}
\newlabel{fig:jetClassTable}{{6}{17}}
\abx@aux@cite{paszke_automatic_2017}
\abx@aux@cite{_yaozong_}
\abx@aux@cite{liu_pytorchlrscheduler_2018}
\@writefile{toc}{\defcounter {refsection}{0}\relax }\@writefile{toc}{\contentsline {subsection}{\numberline {3.3}CSVv2 imitation}{18}}
\abx@aux@cite{kendall_new_1938}
\@writefile{toc}{\defcounter {refsection}{0}\relax }\@writefile{toc}{\contentsline {subsection}{\numberline {3.4}Minimal approach}{19}}
\newlabel{sec:methmin}{{3.4}{19}}
\@writefile{lof}{\defcounter {refsection}{0}\relax }\@writefile{lof}{\contentsline {figure}{\numberline {7}{\ignorespaces The Kendall correlation coefficients for all of the variables used as inputs. Track wise variables have a number at the end of them name indicating which track of the jet is being used.\relax }}{20}}
\newlabel{fig:allKendall}{{7}{20}}
\@writefile{lof}{\defcounter {refsection}{0}\relax }\@writefile{lof}{\contentsline {figure}{\numberline {8}{\ignorespaces The Kendall correlation coefficients for the variables with the least correlation that will be used as inputs. Track wise variables have a number at the end of them name indicating which track of the jet is being used.\relax }}{21}}
\newlabel{fig:smallKendall}{{8}{21}}
\@writefile{toc}{\defcounter {refsection}{0}\relax }\@writefile{toc}{\contentsline {section}{\numberline {4}Results}{22}}
\@writefile{toc}{\defcounter {refsection}{0}\relax }\@writefile{toc}{\contentsline {subsection}{\numberline {4.1}Target flavour balance}{22}}
\@writefile{toc}{\defcounter {refsection}{0}\relax }\@writefile{toc}{\contentsline {subsection}{\numberline {4.2}Reweighing jet \(\eta \) and jet \(p_\text  {T}\)}{22}}
\newlabel{sec:reweigh}{{4.2}{22}}
\@writefile{lof}{\defcounter {refsection}{0}\relax }\@writefile{lof}{\contentsline {figure}{\numberline {9}{\ignorespaces The training progress of the same net on data that has been balanced by target flavour, so that the net encounters all flavours of jet with the same frequency, compared to data that is unbalanced. The weight decay term is in the optimiser, so the loss is a pure measure of predictive ability on the data set. The graph of loss function in both the test and train sets show that the loss function is optimised much faster in the first epoch for the unbalanced data. The weights of the balanced data quickly become far larger. The weight decay in the optimiser dominates the training for the unbalanced set but not for the balanced set.\relax }}{23}}
\newlabel{fig:training_balence_tars}{{9}{23}}
\@writefile{lof}{\defcounter {refsection}{0}\relax }\@writefile{lof}{\contentsline {figure}{\numberline {10}{\ignorespaces The roc curve of the same net on data that has been balanced by target flavour, so that the net encounters all flavours of jet with the same frequency, compared to data that is unbalanced. The greatest impact is on the ability of distinguish c jets, in this balancing the targets gives a great advantage because there are few c jets in the data set.\relax }}{24}}
\newlabel{fig:roc_balence_tars}{{10}{24}}
\newlabel{fig:jet_pt_reweigh}{{\caption@xref {fig:jet_pt_reweigh}{ on input line 57}}{25}}
\newlabel{sub@fig:jet_pt_reweigh}{{}{25}}
\newlabel{fig:jet_eta_reweigh}{{\caption@xref {fig:jet_eta_reweigh}{ on input line 61}}{25}}
\newlabel{sub@fig:jet_eta_reweigh}{{}{25}}
\@writefile{lof}{\defcounter {refsection}{0}\relax }\@writefile{lof}{\contentsline {figure}{\numberline {11}{\ignorespaces A plots of the variables which required matched distributions across the flavours. The density is estimated using a kernal density function. The dotted line is the distribution of the variable before the attempted reweighing and the solid line and fill is the variable post reweighing. The algorithm I designed to calculate the new weights is iterative. Factors that limited how well the final distributions matched were; a decision not to allow any jet weight to be greater than 15 times the starting base weight, and a desire not to warp the distributions of the other variables too strongly. There was some effect on the other variables, see figure 12\hbox {}. \relax }}{25}}
\newlabel{fig:jet_reweigh_matches}{{11}{25}}
\newlabel{fig:SV_delta_R_reweigh}{{\caption@xref {fig:SV_delta_R_reweigh}{ on input line 76}}{25}}
\newlabel{sub@fig:SV_delta_R_reweigh}{{}{25}}
\newlabel{fig:SV_energy_ratio_reweigh}{{\caption@xref {fig:SV_energy_ratio_reweigh}{ on input line 80}}{25}}
\newlabel{sub@fig:SV_energy_ratio_reweigh}{{}{25}}
\@writefile{lof}{\defcounter {refsection}{0}\relax }\@writefile{lof}{\contentsline {figure}{\numberline {12}{\ignorespaces Plots of some of the variables that were adversely effected by the reweighing to match jet \(p_\text  {T}\) and jet \(\eta \). There was some effect of all variables, but these represent the most significant changes. \relax }}{25}}
\newlabel{fig:problem_distributons}{{12}{25}}
\@writefile{lof}{\defcounter {refsection}{0}\relax }\@writefile{lof}{\contentsline {figure}{\numberline {13}{\ignorespaces The training progress of nets of the CSVv2 design trained on data that has been reweighed and raw data. Note both raw data and reweighed data are target flavour balanced. \relax }}{26}}
\newlabel{fig:training_reweigh_vs_raw}{{13}{26}}
\@writefile{lof}{\defcounter {refsection}{0}\relax }\@writefile{lof}{\contentsline {figure}{\numberline {14}{\ignorespaces Figure 12 of \cite {cms_collaboration_identification_2017}, the distribution of the discriminator of the real CSVv2 predicting ``is b-jet". \relax }}{27}}
\newlabel{fig:fig12}{{14}{27}}
\@writefile{toc}{\defcounter {refsection}{0}\relax }\@writefile{toc}{\contentsline {subsection}{\numberline {4.3}CSVv2 imitation}{27}}
\@writefile{toc}{\defcounter {refsection}{0}\relax }\@writefile{toc}{\contentsline {subsection}{\numberline {4.4}Minimal approach}{27}}
\@writefile{lof}{\defcounter {refsection}{0}\relax }\@writefile{lof}{\contentsline {figure}{\numberline {15}{\ignorespaces The predictions of nets of CSVv2 design trained on data that has been reweighed and raw data. Both nets are tested on the same data set. Note both raw data and reweighed data are target flavour balanced. \relax }}{28}}
\newlabel{fig:hist_preds_reweigh_vs_raw}{{15}{28}}
\@writefile{lof}{\defcounter {refsection}{0}\relax }\@writefile{lof}{\contentsline {figure}{\numberline {16}{\ignorespaces The efficiency of nets of CSVv2 design trained on data that has been reweighed and raw data. Both nets are tested on the same data set. Note both raw data and reweighed data are target flavour balanced. \relax }}{29}}
\newlabel{fig:roc_reweigh_vs_raw}{{16}{29}}
\@writefile{lof}{\defcounter {refsection}{0}\relax }\@writefile{lof}{\contentsline {figure}{\numberline {17}{\ignorespaces The training progress of replica CSVv2. The data was both reweighed and target flavour balanced. \relax }}{30}}
\newlabel{fig:training_CSVv2_replica}{{17}{30}}
\@writefile{lof}{\defcounter {refsection}{0}\relax }\@writefile{lof}{\contentsline {figure}{\numberline {18}{\ignorespaces The predictions of the replica CSVv2. \relax }}{31}}
\newlabel{fig:hist_preds_CSVv2_replica}{{18}{31}}
\@writefile{lof}{\defcounter {refsection}{0}\relax }\@writefile{lof}{\contentsline {figure}{\numberline {19}{\ignorespaces The roc curve of the replica CSVv2 with others for comparison. \relax }}{32}}
\newlabel{fig:roc_CSVv2_comp}{{19}{32}}
\@writefile{lof}{\defcounter {refsection}{0}\relax }\@writefile{lof}{\contentsline {figure}{\numberline {20}{\ignorespaces The training progress of net trained with minimally correlated variables. Also a net of the 6 SV variables for comparison. The data was both reweighed and target flavour balanced. \relax }}{33}}
\newlabel{fig:training_cor_comp}{{20}{33}}
\@writefile{lof}{\defcounter {refsection}{0}\relax }\@writefile{lof}{\contentsline {figure}{\numberline {21}{\ignorespaces The training progress of net trained with minimally correlated variables. Also a net of the 6 SV variables for comparison. \relax }}{34}}
\newlabel{fig:roc_cor_comp}{{21}{34}}
\@writefile{toc}{\defcounter {refsection}{0}\relax }\@writefile{toc}{\contentsline {section}{\numberline {5}Conclusions}{35}}
