# Fdb version 3
["biber writeup"] 1527002355 "writeup.bcf" "writeup.bbl" "writeup" 1527002577
  "2018JetTaggingProject.bib" 1526993210 18766 2e9460ca6e967014f0908b7fdb2176ae ""
  "writeup.bcf" 1527002577 99386 bbcb8269acb646360bdf42fd462d0331 ""
  (generated)
  "writeup.bbl"
  "writeup.blg"
["pdflatex"] 1527002574 "writeup.tex" "writeup.pdf" "writeup" 1527002577
  "/etc/texmf/web2c/texmf.cnf" 1517929718 475 c0e671620eb5563b2130f56340a5fde8 ""
  "/home/henry/.texmf-var/fonts/pk/ljfour/jknappen/ec/tcrm1000.600pk" 1525282680 11524 18261fd965494dcc6fd251e457d88876 ""
  "/usr/share/texlive/texmf-dist/fonts/map/fontname/texfonts.map" 1272929888 3287 e6b82fe08f5336d4d5ebc73fb1152e87 ""
  "/usr/share/texlive/texmf-dist/fonts/tfm/jknappen/ec/tcrm1000.tfm" 1136768653 1536 e07581a4bb3136ece9eeb4c3ffab8233 ""
  "/usr/share/texlive/texmf-dist/fonts/tfm/public/cm/cmbx10.tfm" 1136768653 1328 c834bbb027764024c09d3d2bf908b5f0 ""
  "/usr/share/texlive/texmf-dist/fonts/tfm/public/cm/cmbx12.tfm" 1136768653 1324 c910af8c371558dc20f2d7822f66fe64 ""
  "/usr/share/texlive/texmf-dist/fonts/tfm/public/cm/cmbx5.tfm" 1136768653 1332 f817c21a1ba54560425663374f1b651a ""
  "/usr/share/texlive/texmf-dist/fonts/tfm/public/cm/cmbx6.tfm" 1136768653 1344 8a0be4fe4d376203000810ad4dc81558 ""
  "/usr/share/texlive/texmf-dist/fonts/tfm/public/cm/cmbx7.tfm" 1136768653 1336 3125ccb448c1a09074e3aa4a9832f130 ""
  "/usr/share/texlive/texmf-dist/fonts/tfm/public/cm/cmbx8.tfm" 1136768653 1332 1fde11373e221473104d6cc5993f046e ""
  "/usr/share/texlive/texmf-dist/fonts/tfm/public/cm/cmbx9.tfm" 1136768653 1328 5442e22a7072966dbaf88ca900acf3f0 ""
  "/usr/share/texlive/texmf-dist/fonts/tfm/public/cm/cmcsc10.tfm" 1136768653 1300 63a6111ee6274895728663cf4b4e7e81 ""
  "/usr/share/texlive/texmf-dist/fonts/tfm/public/cm/cmmi12.tfm" 1136768653 1524 4414a8315f39513458b80dfc63bff03a ""
  "/usr/share/texlive/texmf-dist/fonts/tfm/public/cm/cmmi6.tfm" 1136768653 1512 f21f83efb36853c0b70002322c1ab3ad ""
  "/usr/share/texlive/texmf-dist/fonts/tfm/public/cm/cmmi8.tfm" 1136768653 1520 eccf95517727cb11801f4f1aee3a21b4 ""
  "/usr/share/texlive/texmf-dist/fonts/tfm/public/cm/cmr12.tfm" 1136768653 1288 655e228510b4c2a1abe905c368440826 ""
  "/usr/share/texlive/texmf-dist/fonts/tfm/public/cm/cmr17.tfm" 1136768653 1292 296a67155bdbfc32aa9c636f21e91433 ""
  "/usr/share/texlive/texmf-dist/fonts/tfm/public/cm/cmr6.tfm" 1136768653 1300 b62933e007d01cfd073f79b963c01526 ""
  "/usr/share/texlive/texmf-dist/fonts/tfm/public/cm/cmr8.tfm" 1136768653 1292 21c1c5bfeaebccffdb478fd231a0997d ""
  "/usr/share/texlive/texmf-dist/fonts/tfm/public/cm/cmr9.tfm" 1136768653 1292 6b21b9c2c7bebb38aa2273f7ca0fb3af ""
  "/usr/share/texlive/texmf-dist/fonts/tfm/public/cm/cmss10.tfm" 1136768653 1316 b636689f1933f24d1294acdf6041daaa ""
  "/usr/share/texlive/texmf-dist/fonts/tfm/public/cm/cmss12.tfm" 1136768653 1324 37b971caf729d7edd9cbb9f9b0ea76eb ""
  "/usr/share/texlive/texmf-dist/fonts/tfm/public/cm/cmss8.tfm" 1136768653 1296 d77f431d10d47c8ea2cc18cf45346274 ""
  "/usr/share/texlive/texmf-dist/fonts/tfm/public/cm/cmsy10.tfm" 1136768653 1124 6c73e740cf17375f03eec0ee63599741 ""
  "/usr/share/texlive/texmf-dist/fonts/tfm/public/cm/cmsy6.tfm" 1136768653 1116 933a60c408fc0a863a92debe84b2d294 ""
  "/usr/share/texlive/texmf-dist/fonts/tfm/public/cm/cmsy8.tfm" 1136768653 1120 8b7d695260f3cff42e636090a8002094 ""
  "/usr/share/texlive/texmf-dist/fonts/tfm/public/cm/cmti10.tfm" 1136768653 1480 aa8e34af0eb6a2941b776984cf1dfdc4 ""
  "/usr/share/texlive/texmf-dist/fonts/tfm/public/cm/cmtt10.tfm" 1136768653 768 1321e9409b4137d6fb428ac9dc956269 ""
  "/usr/share/texlive/texmf-dist/fonts/tfm/public/cm/cmtt12.tfm" 1136768653 772 9a936b7f5e2ff0557fce0f62822f0bbf ""
  "/usr/share/texlive/texmf-dist/fonts/tfm/public/cm/cmtt8.tfm" 1136768653 768 d7b9a2629a0c353102ad947dc9221d49 ""
  "/usr/share/texlive/texmf-dist/fonts/type1/public/amsfonts/cm/cmbx10.pfb" 1248133631 34811 78b52f49e893bcba91bd7581cdc144c0 ""
  "/usr/share/texlive/texmf-dist/fonts/type1/public/amsfonts/cm/cmbx12.pfb" 1248133631 32080 340ef9bf63678554ee606688e7b5339d ""
  "/usr/share/texlive/texmf-dist/fonts/type1/public/amsfonts/cm/cmbx7.pfb" 1248133631 32007 e8fa0078355f39467039935974716569 ""
  "/usr/share/texlive/texmf-dist/fonts/type1/public/amsfonts/cm/cmbx8.pfb" 1248133631 32166 b0c356b15f19587482a9217ce1d8fa67 ""
  "/usr/share/texlive/texmf-dist/fonts/type1/public/amsfonts/cm/cmbx9.pfb" 1248133631 32298 c6d25bb16d1eac01ebdc6d7084126a1e ""
  "/usr/share/texlive/texmf-dist/fonts/type1/public/amsfonts/cm/cmcsc10.pfb" 1248133631 32001 6aeea3afe875097b1eb0da29acd61e28 ""
  "/usr/share/texlive/texmf-dist/fonts/type1/public/amsfonts/cm/cmex10.pfb" 1248133631 30251 6afa5cb1d0204815a708a080681d4674 ""
  "/usr/share/texlive/texmf-dist/fonts/type1/public/amsfonts/cm/cmmi10.pfb" 1248133631 36299 5f9df58c2139e7edcf37c8fca4bd384d ""
  "/usr/share/texlive/texmf-dist/fonts/type1/public/amsfonts/cm/cmmi12.pfb" 1248133631 36741 fa121aac0049305630cf160b86157ee4 ""
  "/usr/share/texlive/texmf-dist/fonts/type1/public/amsfonts/cm/cmmi5.pfb" 1248133631 37912 77d683123f92148345f3fc36a38d9ab1 ""
  "/usr/share/texlive/texmf-dist/fonts/type1/public/amsfonts/cm/cmmi7.pfb" 1248133631 36281 c355509802a035cadc5f15869451dcee ""
  "/usr/share/texlive/texmf-dist/fonts/type1/public/amsfonts/cm/cmr10.pfb" 1248133631 35752 024fb6c41858982481f6968b5fc26508 ""
  "/usr/share/texlive/texmf-dist/fonts/type1/public/amsfonts/cm/cmr12.pfb" 1248133631 32722 d7379af29a190c3f453aba36302ff5a9 ""
  "/usr/share/texlive/texmf-dist/fonts/type1/public/amsfonts/cm/cmr17.pfb" 1248133631 32362 179c33bbf43f19adbb3825bb4e36e57a ""
  "/usr/share/texlive/texmf-dist/fonts/type1/public/amsfonts/cm/cmr6.pfb" 1248133631 32734 69e00a6b65cedb993666e42eedb3d48f ""
  "/usr/share/texlive/texmf-dist/fonts/type1/public/amsfonts/cm/cmr7.pfb" 1248133631 32762 224316ccc9ad3ca0423a14971cfa7fc1 ""
  "/usr/share/texlive/texmf-dist/fonts/type1/public/amsfonts/cm/cmr8.pfb" 1248133631 32726 0a1aea6fcd6468ee2cf64d891f5c43c8 ""
  "/usr/share/texlive/texmf-dist/fonts/type1/public/amsfonts/cm/cmr9.pfb" 1248133631 33993 9b89b85fd2d9df0482bd47194d1d3bf3 ""
  "/usr/share/texlive/texmf-dist/fonts/type1/public/amsfonts/cm/cmsy10.pfb" 1248133631 32569 5e5ddc8df908dea60932f3c484a54c0d ""
  "/usr/share/texlive/texmf-dist/fonts/type1/public/amsfonts/cm/cmsy7.pfb" 1248133631 32716 08e384dc442464e7285e891af9f45947 ""
  "/usr/share/texlive/texmf-dist/fonts/type1/public/amsfonts/cm/cmti10.pfb" 1248133631 37944 359e864bd06cde3b1cf57bb20757fb06 ""
  "/usr/share/texlive/texmf-dist/fonts/type1/public/amsfonts/cm/cmtt10.pfb" 1248133631 31099 c85edf1dd5b9e826d67c9c7293b6786c ""
  "/usr/share/texlive/texmf-dist/tex/context/base/supp-pdf.mkii" 1337017135 71627 94eb9990bed73c364d7f53f960cc8c5b ""
  "/usr/share/texlive/texmf-dist/tex/generic/oberdiek/etexcmds.sty" 1335995445 7612 c47308d923ec19888707b0f1792b326a ""
  "/usr/share/texlive/texmf-dist/tex/generic/oberdiek/ifluatex.sty" 1303254447 7324 11d14f318d865f420e692d4e6c9c18c3 ""
  "/usr/share/texlive/texmf-dist/tex/generic/oberdiek/ifpdf.sty" 1303254447 7140 ece2cc23d9f20e1f53975ac167f42d3e ""
  "/usr/share/texlive/texmf-dist/tex/generic/oberdiek/infwarerr.sty" 1335995445 8253 3bdedc8409aa5d290a2339be6f09af03 ""
  "/usr/share/texlive/texmf-dist/tex/generic/oberdiek/kvdefinekeys.sty" 1335995445 5152 387d9200f396b498d5fd679ae44ed898 ""
  "/usr/share/texlive/texmf-dist/tex/generic/oberdiek/kvsetkeys.sty" 1335995445 14040 8de9f47fabc4ca3bd69b6d795e32751c ""
  "/usr/share/texlive/texmf-dist/tex/generic/oberdiek/ltxcmds.sty" 1335995445 18425 775b341047ce304520cc7c11ca41392e ""
  "/usr/share/texlive/texmf-dist/tex/generic/oberdiek/pdftexcmds.sty" 1335995445 19987 01cb2f3c1d21e5f05711b7fd50b17f2a ""
  "/usr/share/texlive/texmf-dist/tex/generic/unicode-data/CaseFolding.txt" 1449876215 74499 11c335947e5ffa8ac69a3e530b8d2b40 ""
  "/usr/share/texlive/texmf-dist/tex/generic/unicode-data/SpecialCasing.txt" 1449876215 16740 4c17368651bc455636f58c3366bdbbeb ""
  "/usr/share/texlive/texmf-dist/tex/generic/unicode-data/UnicodeData.txt" 1449876215 1621978 3a83069e69e2a9101dc4749593cd3268 ""
  "/usr/share/texlive/texmf-dist/tex/generic/xkeyval/keyval.tex" 1403829539 2725 fc34ef3ccb37ba15a640e8fca6190bca ""
  "/usr/share/texlive/texmf-dist/tex/generic/xkeyval/xkeyval.tex" 1417732693 19231 26434a5656c684f5ffb1f26f98006baa ""
  "/usr/share/texlive/texmf-dist/tex/generic/xkeyval/xkvutils.tex" 1403829539 7677 6f5ce7c1124cad7ec57d05b2562bd8fe ""
  "/usr/share/texlive/texmf-dist/tex/latex/adjustbox/adjcalc.sty" 1337209790 5413 28ccf87dc7aa0cb642dca714a24a0e0e ""
  "/usr/share/texlive/texmf-dist/tex/latex/adjustbox/adjustbox.sty" 1337644619 34406 e1a62300781a9f8a5ca0a38d16b34d67 ""
  "/usr/share/texlive/texmf-dist/tex/latex/adjustbox/tc-pdftex.def" 1337209790 1442 51243195f4fdf731a12f15ee33772346 ""
  "/usr/share/texlive/texmf-dist/tex/latex/adjustbox/trimclip.sty" 1337209790 7112 f0440fa8b74253e1bc8b4f4227a9df9d ""
  "/usr/share/texlive/texmf-dist/tex/latex/amsmath/amsgen.sty" 1456875012 4160 c115536cf8d4ff25aa8c1c9bc4ecb79a ""
  "/usr/share/texlive/texmf-dist/tex/latex/amsmath/amstext.sty" 1456875012 2431 fe3078ec12fc30287f568596f8e0b948 ""
  "/usr/share/texlive/texmf-dist/tex/latex/base/article.cls" 1454284088 20708 39fdf9e2fb65617012fa7382a351f485 ""
  "/usr/share/texlive/texmf-dist/tex/latex/base/ifthen.sty" 1454284088 5159 a08c9bbd48fc492f15b22e458bef961f ""
  "/usr/share/texlive/texmf-dist/tex/latex/base/size10.clo" 1454284088 9179 4cd3c5f593e63512893b8ac0123f1bd7 ""
  "/usr/share/texlive/texmf-dist/tex/latex/base/textcomp.sty" 1454284088 16155 3b0b2cc7c05e0ccf8c3ce5da21d4bccb ""
  "/usr/share/texlive/texmf-dist/tex/latex/base/ts1cmr.fd" 1454284088 2217 d274654bda1292013bdf48d5f720a495 ""
  "/usr/share/texlive/texmf-dist/tex/latex/base/ts1enc.def" 1454284088 7767 aa88823823f5e767d79ea1166ab1ae74 ""
  "/usr/share/texlive/texmf-dist/tex/latex/biblatex/bbx/numeric.bbx" 1457393237 1652 ba8d79811397c7cb8b37c85d1372356d ""
  "/usr/share/texlive/texmf-dist/tex/latex/biblatex/bbx/standard.bbx" 1457393237 23848 cddd66e016d3b41a0a3bb2b91b1ac362 ""
  "/usr/share/texlive/texmf-dist/tex/latex/biblatex/biblatex.cfg" 1342308459 69 249fa6df04d948e51b6d5c67bea30c42 ""
  "/usr/share/texlive/texmf-dist/tex/latex/biblatex/biblatex.sty" 1457393237 3064 1e3eff0c99090dfc276855f540d16aed ""
  "/usr/share/texlive/texmf-dist/tex/latex/biblatex/biblatex_.def" 1457393237 82605 6f9f23855e5873826f92de983f0575ad ""
  "/usr/share/texlive/texmf-dist/tex/latex/biblatex/biblatex_.sty" 1457393237 344355 516fe48a9a39b3fe684f91be4c337ce2 ""
  "/usr/share/texlive/texmf-dist/tex/latex/biblatex/blx-compat.def" 1457393237 4342 76204c1274f8331158223305b08f58c1 ""
  "/usr/share/texlive/texmf-dist/tex/latex/biblatex/blx-dm.def" 1457393237 29202 fa2c911b1d35ff500d5990d94e54cd91 ""
  "/usr/share/texlive/texmf-dist/tex/latex/biblatex/cbx/numeric.cbx" 1373585787 4386 6a7ab103e336f0719186c2df3484a1ad ""
  "/usr/share/texlive/texmf-dist/tex/latex/biblatex/lbx/english.lbx" 1403649385 31406 b134ca0a9c994125c620158738376041 ""
  "/usr/share/texlive/texmf-dist/tex/latex/caption/caption.sty" 1456094605 66233 8b81cfab95a1f8fc2f0f6c89415b087a ""
  "/usr/share/texlive/texmf-dist/tex/latex/caption/caption3.sty" 1456094605 64437 7aae26f62358cb5be7cae9d865fab5b8 ""
  "/usr/share/texlive/texmf-dist/tex/latex/caption/subcaption.sty" 1456094605 4562 7c66baa8431efe6fc61c7371f5691815 ""
  "/usr/share/texlive/texmf-dist/tex/latex/collectbox/collectbox.sty" 1337644648 9116 495d44b5a3e7be0c46c5d1f053f457f0 ""
  "/usr/share/texlive/texmf-dist/tex/latex/etoolbox/etoolbox.sty" 1438639395 41547 7860e623236f5f726a4099bbb7dd89fb ""
  "/usr/share/texlive/texmf-dist/tex/latex/graphics/color.sty" 1454284088 6829 2b7f546d7727252fdb2d538f7dee5a59 ""
  "/usr/share/texlive/texmf-dist/tex/latex/graphics/graphics.sty" 1454284088 14337 b66dff1d80f6c21e70858a2b3c2d327d ""
  "/usr/share/texlive/texmf-dist/tex/latex/graphics/graphicx.sty" 1428932888 8125 557ab9f1bfa80d369fb45a914aa8a3b4 ""
  "/usr/share/texlive/texmf-dist/tex/latex/graphics/trig.sty" 1454284088 3980 0a268fbfda01e381fa95821ab13b6aee ""
  "/usr/share/texlive/texmf-dist/tex/latex/ifoddpage/ifoddpage.sty" 1316197439 1363 ad3d0d4483ff3ebcb79acd04d371b213 ""
  "/usr/share/texlive/texmf-dist/tex/latex/l3kernel/expl3-code.tex" 1453849251 686603 9f8b85b0af9db93ed19d75de651aad2c ""
  "/usr/share/texlive/texmf-dist/tex/latex/l3kernel/expl3.sty" 1453849251 9673 2ca4934644a9a7e0597063b0f97d539f ""
  "/usr/share/texlive/texmf-dist/tex/latex/l3kernel/l3pdfmode.def" 1450652454 4864 cb51c1350bf4f1fd74d120a19ca0afff ""
  "/usr/share/texlive/texmf-dist/tex/latex/l3packages/xparse/xparse.sty" 1453849251 61965 14683d841d7ec123041a99a91475bd92 ""
  "/usr/share/texlive/texmf-dist/tex/latex/latexconfig/color.cfg" 1254097189 802 7b8c8d72c24d795ed7720e4dfd29bff3 ""
  "/usr/share/texlive/texmf-dist/tex/latex/latexconfig/epstopdf-sys.cfg" 1279039959 678 4792914a8f45be57bb98413425e4c7af ""
  "/usr/share/texlive/texmf-dist/tex/latex/latexconfig/graphics.cfg" 1278958963 3563 d35e897cae3b8c6848f6677b73370b54 ""
  "/usr/share/texlive/texmf-dist/tex/latex/listings/listings.cfg" 1434304428 1827 d72ad54409ca5c1068a1939c63441bd2 ""
  "/usr/share/texlive/texmf-dist/tex/latex/listings/listings.sty" 1434304428 80336 ff90c926c3d7bfdaa3d80ca57123b0bb ""
  "/usr/share/texlive/texmf-dist/tex/latex/listings/lstmisc.sty" 1434304428 77028 c3eb00afb55a32bc13ca8da7f5234377 ""
  "/usr/share/texlive/texmf-dist/tex/latex/logreq/logreq.def" 1284153563 1620 fb1c32b818f2058eca187e5c41dfae77 ""
  "/usr/share/texlive/texmf-dist/tex/latex/logreq/logreq.sty" 1284153563 6187 b27afc771af565d3a9ff1ca7d16d0d46 ""
  "/usr/share/texlive/texmf-dist/tex/latex/oberdiek/epstopdf-base.sty" 1303254447 12029 04d7fdf76e0464c23b5aa3a727952d7c ""
  "/usr/share/texlive/texmf-dist/tex/latex/oberdiek/grfext.sty" 1335995445 7075 bd0c34fbf1ae8fd1debd2a554e41b2d5 ""
  "/usr/share/texlive/texmf-dist/tex/latex/oberdiek/kvoptions.sty" 1335995445 22417 c74ff4af6a1aa2b65d1924020edbbe11 ""
  "/usr/share/texlive/texmf-dist/tex/latex/pdftex-def/pdftex.def" 1306616590 55368 3c8a0d99822330f2dfabc0dfb09ce897 ""
  "/usr/share/texlive/texmf-dist/tex/latex/placeins/placeins.sty" 1137110565 4087 636308456f60d2b31cbf97867db5708d ""
  "/usr/share/texlive/texmf-dist/tex/latex/tools/array.sty" 1454284088 13285 f3f53a6ffbd47ead3faa66a5e2be19b7 ""
  "/usr/share/texlive/texmf-dist/tex/latex/url/url.sty" 1388531844 12796 8edb7d69a20b857904dd0ea757c14ec9 ""
  "/usr/share/texlive/texmf-dist/tex/latex/varwidth/varwidth.sty" 1238697683 10894 d359a13923460b2a73d4312d613554c8 ""
  "/usr/share/texlive/texmf-dist/tex/latex/xkeyval/xkeyval.sty" 1417732693 4962 9c1069474ff71dbc47d5006555e352d3 ""
  "/usr/share/texlive/texmf-dist/web2c/texmf.cnf" 1503343927 31343 93828589fb0cea665e553ee5a17ad2d4 ""
  "/usr/share/texmf/web2c/texmf.cnf" 1503343927 31343 93828589fb0cea665e553ee5a17ad2d4 ""
  "/var/lib/texmf/fonts/map/pdftex/updmap/pdftex.map" 1517929740 127805 5c3c5fac7370b5e0b4000550316abe76 ""
  "/var/lib/texmf/web2c/pdftex/pdflatex.fmt" 1517929735 852978 f374acd4326c50b4f74ecf14ddf6f575 ""
  "CSVv2_comp_roc.eps" 1526986282 468688 15a6171c3561abb6ef3386befa56ad4a ""
  "CSVv2_replica_hist_preds.eps" 1526986282 115103 f79f4fc12af17d94f60c25683b502213 ""
  "RecoVertex_SV_delta_R_.pdf" 1526986282 25579 ad5e70b76847ec0a81e75a1caa8e5468 ""
  "RecoVertex_SV_energy_ratio_.pdf" 1526986282 21103 cf82623c55d73709253cc0cb58c80d4c ""
  "RecoVertex_jet_eta_.pdf" 1526986282 25432 1326f58c424879bc7c0ad24c2ba260e5 ""
  "RecoVertex_jet_pt_.pdf" 1526986282 23754 450e16299fa9e51d992521f2c95dd5d6 ""
  "activation.eps" 1526986282 22963 6f81e64276aab68e48358e97336f46c8 ""
  "all_kendall.eps" 1526986282 62184 ac56738e7e232f756a14a390d623ac05 ""
  "back_propagation.pdf" 1526986282 59284 dc442420c8b539f3b732edc9a77cd39d ""
  "conclusions.tex" 1527002571 1083 cd077c918ed71a60be6c66ba75f464e6 ""
  "cor_comp_roc.eps" 1526986282 899939 26241fb0813beaa6e66b0073e57dae0f ""
  "figure12.png" 1526999495 86160 0593522aabe967f2d6b13d50d3e39473 ""
  "goodFit.pdf" 1526986282 141858 9a864462d2abfa770d45692dccd6c962 ""
  "introduction.tex" 1526988134 2989 f31c14b56ef353fb6940e5f3a85c41b3 ""
  "literatureReview.tex" 1526993277 27030 84cb13102e165a02deff65d0433ed693 ""
  "loss_CSVv2_replica.eps" 1526986282 57656 266cea0745be5310464d5d70d08728a6 ""
  "loss_cor.eps" 1526986282 58164 4d835fb73994a6ea16cb7e316aadaea5 ""
  "loss_reweigh_vs_raw.eps" 1526986282 48064 a9c3e0fda3e9e46d1d08268c8e8a73e3 ""
  "methodology.tex" 1527002456 22446 fa8bbab7c673f21d8b1572c09710dfe7 ""
  "neural_net_weight_labels.eps" 1526986282 56319 2273ad9de5c7da5e5481aaa01aab44f0 ""
  "overFit.pdf" 1526986283 123883 ee9ddeb83135292974e2eb1f0c459586 ""
  "results.tex" 1527002487 11267 aef8f185a62562f97f7b9a3c4948dcfa ""
  "reweigh_vs_raw_all_vars_hist_preds.eps" 1526986283 234619 e64e471ac3b42f716cd25cb83f2bfcfe ""
  "reweigh_vs_raw_all_vars_roc.eps" 1526986283 225439 be2ad728069eee3d0ee36f80f2e3afba ""
  "single_neuron.eps" 1526986283 21021 74d50bd1f4baa0422579d8d839857f00 ""
  "siunitx.sty" 1526986283 97612 1694e9eeb68e3e1408054862bf949e1f ""
  "small_kendall.eps" 1526986283 10091 163de689ec6f15df7b5f4f19c99fcb49 ""
  "target_balence_loss.eps" 1526986283 51451 e0854a938d5ed34a078f7164ca3bd54e ""
  "target_balence_roc.eps" 1526986283 223199 8eb8a37b7da4f55ab35f31a9de9cc173 ""
  "underFit.pdf" 1526986283 5539 bf0d97f03c49b2b3fd3b1a8b31b84f42 ""
  "writeup.aux" 1527002577 15061 195c970329203de92fbe45fb77f918cc ""
  "writeup.bbl" 1527002357 34189 4ce5bb6843083d2c16ce476aa452e2e1 "biber writeup"
  "writeup.run.xml" 1527002577 2338 a86a73232429e8a402459f3002e9efa5 ""
  "writeup.tex" 1526996779 1121 914caf8634a6577d8e05135e1fd0552d ""
  "writeup.toc" 1527002577 2741 1e06bb7d2ee184167cfa69ea3cfe2af7 ""
  (generated)
  "writeup.log"
  "writeup.aux"
  "writeup.run.xml"
  "writeup.toc"
  "writeup.bcf"
  "writeup.pdf"
