[0] Config.pm:340> INFO - This is Biber 2.4
[0] Config.pm:343> INFO - Logfile is 'document..blg'
[44] biber:287> INFO - === Wed Feb  7, 2018, 08:50:06
[74] Utils.pm:163> ERROR - Cannot find control file 'document..bcf'! - did you pass the "backend=biber" option to BibLaTeX?
[75] Biber.pm:113> INFO - ERRORS: 1
