\relax 
\abx@aux@sortscheme{nty}
\abx@aux@sortnamekeyscheme{global}
\abx@aux@cite{cms_collaboration_identification_2017}
\@writefile{toc}{\boolfalse {citerequest}\boolfalse {citetracker}\boolfalse {pagetracker}\boolfalse {backtracker}\relax }
\@writefile{lof}{\boolfalse {citerequest}\boolfalse {citetracker}\boolfalse {pagetracker}\boolfalse {backtracker}\relax }
\@writefile{lot}{\boolfalse {citerequest}\boolfalse {citetracker}\boolfalse {pagetracker}\boolfalse {backtracker}\relax }
\@writefile{toc}{\defcounter {refsection}{0}\relax }\@writefile{toc}{\contentsline {section}{\numberline {1}Introduction}{1}}
\@writefile{toc}{\defcounter {refsection}{0}\relax }\@writefile{toc}{\contentsline {section}{\numberline {2}Literature review}{1}}
\abx@aux@cite{mackay_information_2003}
\abx@aux@cite{goodfellow_deep_2017}
\abx@aux@cite{bishop_pattern_2006}
\abx@aux@cite{murphy_machine_2012}
\@writefile{toc}{\defcounter {refsection}{0}\relax }\@writefile{toc}{\contentsline {subsection}{\numberline {2.1}What we seek to measure}{2}}
\@writefile{toc}{\defcounter {refsection}{0}\relax }\@writefile{toc}{\contentsline {subsection}{\numberline {2.2}Definitions of Jets}{2}}
\@writefile{toc}{\defcounter {refsection}{0}\relax }\@writefile{toc}{\contentsline {subsection}{\numberline {2.3}Current tagging algorithms}{2}}
\@writefile{toc}{\defcounter {refsection}{0}\relax }\@writefile{toc}{\contentsline {subsection}{\numberline {2.4}Deep neural nets}{2}}
\abx@aux@cite{barber_bayesian_2012}
\@writefile{toc}{\defcounter {refsection}{0}\relax }\@writefile{toc}{\contentsline {subsubsection}{\numberline {2.4.1}Structure of a deep neural net}{3}}
\@writefile{lof}{\defcounter {refsection}{0}\relax }\@writefile{lof}{\contentsline {figure}{\numberline {1}{\ignorespaces A neuron with 4 inputs coming in from the left, \(x_1\), \(x_2\), \(x_3\), \(x_4\). With weights \(w_1\), \(w_2\), \(w_3\), \(w_4\). It takes the weighted sum of the inputs then applies its activation function, \(y\). The diagram then shows this output being fed to 4 more unknown objects off to the right. \relax }}{4}}
\providecommand*\caption@xref[2]{\@setref\relax\@undefined{#1}}
\newlabel{fig:single_neuron}{{1}{4}}
\@writefile{lof}{\defcounter {refsection}{0}\relax }\@writefile{lof}{\contentsline {figure}{\numberline {2}{\ignorespaces A neuron with 2 inputs fitting some data points. The axis are the possible values of the input and the colour is the output of the neuron at that point.\relax }}{6}}
\newlabel{fig:overfitting}{{2}{6}}
