%!PS-Adobe-3.0 EPSF-3.0 
%%BoundingBox: 0 0 567 567
%%Pages: 0
%%Creator: LibreOffice 5.1
%%Title: none
%%CreationDate: none
%%LanguageLevel: 2
%%EndComments
%%BeginProlog
%%BeginResource: procset SDRes-Prolog 1.0 0
/b4_inc_state save def
/dict_count countdictstack def
/op_count count 1 sub def
userdict begin
0 setgray 0 setlinecap 1 setlinewidth 0 setlinejoin 10 setmiterlimit[] 0 setdash newpath
/languagelevel where {pop languagelevel 1 ne {false setstrokeadjust false setoverprint} if} if
/bdef {bind def} bind def
/c {setrgbcolor} bdef
/l {neg lineto} bdef
/rl {neg rlineto} bdef
/lc {setlinecap} bdef
/lj {setlinejoin} bdef
/lw {setlinewidth} bdef
/ml {setmiterlimit} bdef
/ld {setdash} bdef
/m {neg moveto} bdef
/ct {6 2 roll neg 6 2 roll neg 6 2 roll neg curveto} bdef
/r {rotate} bdef
/t {neg translate} bdef
/s {scale} bdef
/sw {show} bdef
/gs {gsave} bdef
/gr {grestore} bdef
/f {findfont dup length dict begin
{1 index /FID ne {def} {pop pop} ifelse} forall /Encoding ISOLatin1Encoding def
currentdict end /NFont exch definefont pop /NFont findfont} bdef
/p {closepath} bdef
/sf {scalefont setfont} bdef
/ef {eofill}bdef
/pc {closepath stroke}bdef
/ps {stroke}bdef
/pum {matrix currentmatrix}bdef
/pom {setmatrix}bdef
/bs {/aString exch def /nXOfs exch def /nWidth exch def currentpoint nXOfs 0 rmoveto pum nWidth aString stringwidth pop div 1 scale aString show pom moveto} bdef
%%EndResource
%%EndProlog
%%BeginSetup
%%EndSetup
%%Page: 1 1
%%BeginPageSetup
%%EndPageSetup
pum
0.02835 0.02835 s 
0 -20000 t
/tm matrix currentmatrix def
gs
tm setmatrix
-1111 -1111 t 
1 1 s 
1111 1111 m 21110 1111 l 21110 21110 l 1111 21110 l 1111 1111 l eoclip newpath
gs
1111 1111 m 21110 1111 l 21110 21110 l 1111 21110 l 1111 1111 l eoclip newpath
gs
4444 17753 m  17698 4332 l  17698 17753 l  4444 17753 l  4444 17753 l 
eoclip newpath
gs
4444 4332 m 17699 4332 l 17699 17753 l 4444 17753 l 4444 4332 l eoclip newpath
1.000 0.402 0.003 c -2269 11042 m  11072 -2299 l  11123 -2247 l  -2218 11094 l 
p ef
0.996 0.398 0.007 c -2218 11094 m  11123 -2247 l  11176 -2195 l  -2165 11146 l 
p ef
0.992 0.398 0.011 c -2165 11146 m  11176 -2195 l  11228 -2143 l  -2113 11198 l 
p ef
0.988 0.398 0.015 c -2113 11198 m  11228 -2143 l  11280 -2090 l  -2061 11251 l 
p ef
0.984 0.398 0.019 c -2061 11251 m  11280 -2090 l  11333 -2038 l  -2008 11303 l 
p ef
0.980 0.394 0.023 c -2008 11303 m  11333 -2038 l  11385 -1986 l  -1956 11355 l 
p ef
0.980 0.394 0.027 c -1956 11355 m  11385 -1986 l  11437 -1933 l  -1904 11408 l 
p ef
0.976 0.394 0.031 c -1904 11408 m  11437 -1933 l  11490 -1881 l  -1851 11460 l 
p ef
0.972 0.394 0.035 c -1851 11460 m  11490 -1881 l  11542 -1829 l  -1799 11512 l 
p ef
0.968 0.394 0.039 c -1799 11512 m  11542 -1829 l  11594 -1776 l  -1747 11565 l 
p ef
0.964 0.390 0.042 c -1747 11565 m  11594 -1776 l  11647 -1724 l  -1694 11617 l 
p ef
0.964 0.390 0.046 c -1694 11617 m  11647 -1724 l  11699 -1672 l  -1642 11669 l 
p ef
0.960 0.390 0.050 c -1642 11669 m  11699 -1672 l  11751 -1619 l  -1590 11722 l 
p ef
0.957 0.390 0.054 c -1590 11722 m  11751 -1619 l  11804 -1567 l  -1537 11774 l 
p ef
0.953 0.390 0.058 c -1537 11774 m  11804 -1567 l  11856 -1515 l  -1485 11826 l 
p ef
0.949 0.386 0.062 c -1485 11826 m  11856 -1515 l  11908 -1462 l  -1433 11879 l 
p ef
0.949 0.386 0.066 c -1433 11879 m  11908 -1462 l  11961 -1410 l  -1380 11931 l 
p ef
0.945 0.386 0.070 c -1380 11931 m  11961 -1410 l  12013 -1358 l  -1328 11983 l 
p ef
0.941 0.386 0.074 c -1328 11983 m  12013 -1358 l  12065 -1305 l  -1276 12035 l 
p ef
0.937 0.386 0.078 c -1276 12035 m  12065 -1305 l  12118 -1253 l  -1223 12088 l 
p ef
0.933 0.382 0.082 c -1223 12088 m  12118 -1253 l  12170 -1201 l  -1171 12140 l 
p ef
0.933 0.382 0.085 c -1171 12140 m  12170 -1201 l  12222 -1149 l  -1119 12192 l 
p ef
0.929 0.382 0.089 c -1119 12192 m  12222 -1149 l  12274 -1096 l  -1066 12245 l 
p ef
0.925 0.382 0.093 c -1066 12245 m  12274 -1096 l  12327 -1044 l  -1014 12297 l 
p ef
0.921 0.382 0.097 c -1014 12297 m  12327 -1044 l  12379 -992 l  -962 12349 l 
p ef
0.917 0.378 0.101 c -962 12349 m  12379 -992 l  12431 -939 l  -910 12402 l 
p ef
0.917 0.378 0.105 c -910 12402 m  12431 -939 l  12484 -887 l  -857 12454 l 
p ef
0.914 0.378 0.109 c -857 12454 m  12484 -887 l  12536 -835 l  -805 12506 l 
p ef
0.910 0.378 0.113 c -805 12506 m  12536 -835 l  12588 -782 l  -753 12559 l 
p ef
0.906 0.378 0.117 c -753 12559 m  12588 -782 l  12641 -730 l  -700 12611 l 
p ef
0.902 0.375 0.121 c -700 12611 m  12641 -730 l  12693 -678 l  -648 12663 l 
p ef
0.902 0.375 0.125 c -648 12663 m  12693 -678 l  12745 -625 l  -596 12716 l 
p ef
0.898 0.375 0.128 c -596 12716 m  12745 -625 l  12798 -573 l  -543 12768 l 
p ef
0.894 0.375 0.132 c -543 12768 m  12798 -573 l  12850 -521 l  -491 12820 l 
p ef
0.890 0.375 0.136 c -491 12820 m  12850 -521 l  12902 -468 l  -439 12873 l 
p ef
0.886 0.371 0.140 c -439 12873 m  12902 -468 l  12955 -416 l  -386 12925 l 
p ef
0.886 0.371 0.144 c -386 12925 m  12955 -416 l  13007 -364 l  -334 12977 l 
p ef
0.882 0.371 0.148 c -334 12977 m  13007 -364 l  13059 -311 l  -282 13030 l 
p ef
0.878 0.371 0.152 c -282 13030 m  13059 -311 l  13112 -259 l  -229 13082 l 
p ef
0.875 0.371 0.156 c -229 13082 m  13112 -259 l  13164 -207 l  -177 13134 l 
p ef
0.871 0.367 0.160 c -177 13134 m  13164 -207 l  13216 -154 l  -125 13187 l 
p ef
0.871 0.367 0.164 c -125 13187 m  13216 -154 l  13269 -102 l  -72 13239 l 
p ef
0.867 0.367 0.167 c -72 13239 m  13269 -102 l  13321 -50 l  -20 13291 l 
p ef
0.863 0.367 0.171 c -20 13291 m  13321 -50 l  13373 3 l  32 13344 l  p ef
0.859 0.367 0.175 c 32 13344 m  13373 3 l  13426 55 l  85 13396 l  p ef
0.855 0.363 0.179 c 85 13396 m  13426 55 l  13478 107 l  137 13448 l  p ef
0.855 0.363 0.183 c 137 13448 m  13478 107 l  13530 160 l  189 13501 l 
p ef
0.851 0.363 0.187 c 189 13501 m  13530 160 l  13583 212 l  242 13553 l 
p ef
0.847 0.363 0.191 c 242 13553 m  13583 212 l  13635 264 l  294 13605 l 
p ef
0.843 0.363 0.195 c 294 13605 m  13635 264 l  13687 317 l  346 13658 l 
p ef
0.839 0.359 0.199 c 346 13658 m  13687 317 l  13740 369 l  399 13710 l 
p ef
0.839 0.359 0.203 c 399 13710 m  13740 369 l  13792 421 l  451 13762 l 
p ef
0.835 0.359 0.207 c 451 13762 m  13792 421 l  13844 474 l  503 13815 l 
p ef
0.832 0.359 0.210 c 503 13815 m  13844 474 l  13897 526 l  556 13867 l 
p ef
0.828 0.359 0.214 c 556 13867 m  13897 526 l  13949 578 l  608 13919 l 
p ef
0.824 0.355 0.218 c 608 13919 m  13949 578 l  14001 631 l  660 13972 l 
p ef
0.824 0.355 0.222 c 660 13972 m  14001 631 l  14054 683 l  713 14024 l 
p ef
0.820 0.355 0.226 c 713 14024 m  14054 683 l  14106 735 l  765 14076 l 
p ef
0.816 0.355 0.230 c 765 14076 m  14106 735 l  14158 788 l  817 14129 l 
p ef
0.812 0.355 0.234 c 817 14129 m  14158 788 l  14211 840 l  870 14181 l 
p ef
0.808 0.351 0.238 c 870 14181 m  14211 840 l  14263 892 l  922 14233 l 
p ef
0.808 0.351 0.242 c 922 14233 m  14263 892 l  14315 945 l  974 14285 l 
p ef
0.804 0.351 0.246 c 974 14285 m  14315 945 l  14368 997 l  1027 14338 l 
p ef
0.800 0.351 0.250 c 1027 14338 m  14368 997 l  14420 1049 l  1079 14390 l 
p ef
0.796 0.351 0.253 c 1079 14390 m  14420 1049 l  14472 1101 l  1131 14442 l 
p ef
0.792 0.347 0.257 c 1131 14442 m  14472 1101 l  14525 1154 l  1184 14495 l 
p ef
0.789 0.347 0.261 c 1184 14495 m  14525 1154 l  14577 1206 l  1236 14547 l 
p ef
0.789 0.347 0.265 c 1236 14547 m  14577 1206 l  14629 1258 l  1288 14599 l 
p ef
0.785 0.347 0.269 c 1288 14599 m  14629 1258 l  14681 1311 l  1341 14652 l 
p ef
0.781 0.347 0.273 c 1341 14652 m  14681 1311 l  14734 1363 l  1393 14704 l 
p ef
0.777 0.343 0.277 c 1393 14704 m  14734 1363 l  14786 1415 l  1445 14756 l 
p ef
0.773 0.343 0.281 c 1445 14756 m  14786 1415 l  14838 1468 l  1497 14809 l 
p ef
0.773 0.343 0.285 c 1497 14809 m  14838 1468 l  14891 1520 l  1550 14861 l 
p ef
0.769 0.343 0.289 c 1550 14861 m  14891 1520 l  14943 1572 l  1602 14913 l 
p ef
0.765 0.343 0.292 c 1602 14913 m  14943 1572 l  14995 1625 l  1654 14966 l 
p ef
0.761 0.339 0.296 c 1654 14966 m  14995 1625 l  15048 1677 l  1707 15018 l 
p ef
0.757 0.339 0.300 c 1707 15018 m  15048 1677 l  15100 1729 l  1759 15070 l 
p ef
0.757 0.339 0.304 c 1759 15070 m  15100 1729 l  15152 1782 l  1811 15123 l 
p ef
0.753 0.339 0.308 c 1811 15123 m  15152 1782 l  15205 1834 l  1864 15175 l 
p ef
0.750 0.339 0.312 c 1864 15175 m  15205 1834 l  15257 1886 l  1916 15227 l 
p ef
0.746 0.335 0.316 c 1916 15227 m  15257 1886 l  15309 1939 l  1968 15280 l 
p ef
0.742 0.335 0.320 c 1968 15280 m  15309 1939 l  15362 1991 l  2021 15332 l 
p ef
0.742 0.335 0.324 c 2021 15332 m  15362 1991 l  15414 2043 l  2073 15384 l 
p ef
0.738 0.335 0.328 c 2073 15384 m  15414 2043 l  15466 2096 l  2125 15437 l 
p ef
0.734 0.335 0.332 c 2125 15437 m  15466 2096 l  15519 2148 l  2178 15489 l 
p ef
0.730 0.332 0.335 c 2178 15489 m  15519 2148 l  15571 2200 l  2230 15541 l 
p ef
0.726 0.332 0.339 c 2230 15541 m  15571 2200 l  15623 2253 l  2282 15594 l 
p ef
0.726 0.332 0.343 c 2282 15594 m  15623 2253 l  15676 2305 l  2335 15646 l 
p ef
0.722 0.332 0.347 c 2335 15646 m  15676 2305 l  15728 2357 l  2387 15698 l 
p ef
0.718 0.332 0.351 c 2387 15698 m  15728 2357 l  15780 2410 l  2439 15751 l 
p ef
0.714 0.328 0.355 c 2439 15751 m  15780 2410 l  15833 2462 l  2492 15803 l 
p ef
0.710 0.328 0.359 c 2492 15803 m  15833 2462 l  15885 2514 l  2544 15855 l 
p ef
0.710 0.328 0.363 c 2544 15855 m  15885 2514 l  15937 2567 l  2596 15908 l 
p ef
0.707 0.328 0.367 c 2596 15908 m  15937 2567 l  15990 2619 l  2649 15960 l 
p ef
0.703 0.328 0.371 c 2649 15960 m  15990 2619 l  16042 2671 l  2701 16012 l 
p ef
0.699 0.324 0.375 c 2701 16012 m  16042 2671 l  16094 2724 l  2753 16065 l 
p ef
0.695 0.324 0.378 c 2753 16065 m  16094 2724 l  16147 2776 l  2806 16117 l 
p ef
0.695 0.324 0.382 c 2806 16117 m  16147 2776 l  16199 2828 l  2858 16169 l 
p ef
0.691 0.324 0.386 c 2858 16169 m  16199 2828 l  16251 2881 l  2910 16222 l 
p ef
0.687 0.324 0.390 c 2910 16222 m  16251 2881 l  16304 2933 l  2963 16274 l 
p ef
0.683 0.320 0.394 c 2963 16274 m  16304 2933 l  16356 2985 l  3015 16326 l 
p ef
0.679 0.320 0.398 c 3015 16326 m  16356 2985 l  16408 3038 l  3067 16379 l 
p ef
0.679 0.320 0.402 c 3067 16379 m  16408 3038 l  16461 3090 l  3120 16431 l 
p ef
0.675 0.320 0.406 c 3120 16431 m  16461 3090 l  16513 3142 l  3172 16483 l 
p ef
0.671 0.320 0.410 c 3172 16483 m  16513 3142 l  16565 3195 l  3224 16536 l 
p ef
0.667 0.316 0.414 c 3224 16536 m  16565 3195 l  16618 3247 l  3277 16588 l 
p ef
0.664 0.316 0.417 c 3277 16588 m  16618 3247 l  16670 3299 l  3329 16640 l 
p ef
0.664 0.316 0.421 c 3329 16640 m  16670 3299 l  16722 3352 l  3381 16692 l 
p ef
0.660 0.316 0.425 c 3381 16692 m  16722 3352 l  16775 3404 l  3434 16745 l 
p ef
0.656 0.316 0.429 c 3434 16745 m  16775 3404 l  16827 3456 l  3486 16797 l 
p ef
0.652 0.312 0.433 c 3486 16797 m  16827 3456 l  16879 3508 l  3538 16849 l 
p ef
0.648 0.312 0.437 c 3538 16849 m  16879 3508 l  16932 3561 l  3591 16902 l 
p ef
0.648 0.312 0.441 c 3591 16902 m  16932 3561 l  16984 3613 l  3643 16954 l 
p ef
0.644 0.312 0.445 c 3643 16954 m  16984 3613 l  17036 3665 l  3695 17006 l 
p ef
0.640 0.312 0.449 c 3695 17006 m  17036 3665 l  17088 3718 l  3747 17059 l 
p ef
0.636 0.308 0.453 c 3747 17059 m  17088 3718 l  17141 3770 l  3800 17111 l 
p ef
0.632 0.308 0.457 c 3800 17111 m  17141 3770 l  17193 3822 l  3852 17163 l 
p ef
0.632 0.308 0.460 c 3852 17163 m  17193 3822 l  17245 3875 l  3904 17216 l 
p ef
0.628 0.308 0.464 c 3904 17216 m  17245 3875 l  17298 3927 l  3957 17268 l 
p ef
0.625 0.308 0.468 c 3957 17268 m  17298 3927 l  17350 3979 l  4009 17320 l 
p ef
0.621 0.304 0.472 c 4009 17320 m  17350 3979 l  17402 4032 l  4061 17373 l 
p ef
0.617 0.304 0.476 c 4061 17373 m  17402 4032 l  17455 4084 l  4114 17425 l 
p ef
0.617 0.304 0.480 c 4114 17425 m  17455 4084 l  17507 4136 l  4166 17477 l 
p ef
0.613 0.304 0.484 c 4166 17477 m  17507 4136 l  17559 4189 l  4218 17530 l 
p ef
0.609 0.304 0.488 c 4218 17530 m  17559 4189 l  17612 4241 l  4271 17582 l 
p ef
0.605 0.300 0.492 c 4271 17582 m  17612 4241 l  17664 4293 l  4323 17634 l 
p ef
0.601 0.300 0.496 c 4323 17634 m  17664 4293 l  17716 4346 l  4375 17687 l 
p ef
0.601 0.300 0.500 c 4375 17687 m  17716 4346 l  17768 4397 l  4427 17738 l 
p ef
0.597 0.300 0.503 c 4427 17738 m  17768 4397 l  17820 4450 l  4479 17791 l 
p ef
0.593 0.300 0.507 c 4479 17791 m  17820 4450 l  17873 4502 l  4532 17843 l 
p ef
0.589 0.296 0.511 c 4532 17843 m  17873 4502 l  17925 4554 l  4584 17895 l 
p ef
0.585 0.296 0.515 c 4584 17895 m  17925 4554 l  17977 4607 l  4636 17948 l 
p ef
0.582 0.296 0.519 c 4636 17948 m  17977 4607 l  18030 4659 l  4689 18000 l 
p ef
0.582 0.296 0.523 c 4689 18000 m  18030 4659 l  18082 4711 l  4741 18052 l 
p ef
0.578 0.296 0.527 c 4741 18052 m  18082 4711 l  18134 4764 l  4793 18105 l 
p ef
0.574 0.292 0.531 c 4793 18105 m  18134 4764 l  18187 4816 l  4846 18157 l 
p ef
0.570 0.292 0.535 c 4846 18157 m  18187 4816 l  18239 4868 l  4898 18209 l 
p ef
0.566 0.292 0.539 c 4898 18209 m  18239 4868 l  18291 4921 l  4950 18262 l 
p ef
0.566 0.292 0.542 c 4950 18262 m  18291 4921 l  18344 4973 l  5003 18314 l 
p ef
0.562 0.292 0.546 c 5003 18314 m  18344 4973 l  18396 5025 l  5055 18366 l 
p ef
0.558 0.289 0.550 c 5055 18366 m  18396 5025 l  18448 5078 l  5107 18419 l 
p ef
0.554 0.289 0.554 c 5107 18419 m  18448 5078 l  18501 5130 l  5160 18471 l 
p ef
0.550 0.289 0.558 c 5160 18471 m  18501 5130 l  18553 5182 l  5212 18523 l 
p ef
0.550 0.289 0.562 c 5212 18523 m  18553 5182 l  18605 5235 l  5264 18576 l 
p ef
0.546 0.289 0.566 c 5264 18576 m  18605 5235 l  18658 5287 l  5317 18628 l 
p ef
0.542 0.285 0.570 c 5317 18628 m  18658 5287 l  18710 5339 l  5369 18680 l 
p ef
0.539 0.285 0.574 c 5369 18680 m  18710 5339 l  18762 5392 l  5421 18732 l 
p ef
0.535 0.285 0.578 c 5421 18732 m  18762 5392 l  18815 5444 l  5474 18785 l 
p ef
0.535 0.285 0.582 c 5474 18785 m  18815 5444 l  18867 5496 l  5526 18837 l 
p ef
0.531 0.285 0.585 c 5526 18837 m  18867 5496 l  18919 5548 l  5578 18889 l 
p ef
0.527 0.281 0.589 c 5578 18889 m  18919 5548 l  18972 5601 l  5631 18942 l 
p ef
0.523 0.281 0.593 c 5631 18942 m  18972 5601 l  19024 5653 l  5683 18994 l 
p ef
0.519 0.281 0.597 c 5683 18994 m  19024 5653 l  19076 5705 l  5735 19046 l 
p ef
0.519 0.281 0.601 c 5735 19046 m  19076 5705 l  19128 5758 l  5787 19099 l 
p ef
0.515 0.281 0.605 c 5787 19099 m  19128 5758 l  19181 5810 l  5840 19151 l 
p ef
0.511 0.277 0.609 c 5840 19151 m  19181 5810 l  19233 5862 l  5892 19203 l 
p ef
0.507 0.277 0.613 c 5892 19203 m  19233 5862 l  19285 5915 l  5944 19256 l 
p ef
0.503 0.277 0.617 c 5944 19256 m  19285 5915 l  19338 5967 l  5997 19308 l 
p ef
0.503 0.277 0.621 c 5997 19308 m  19338 5967 l  19390 6019 l  6049 19360 l 
p ef
0.500 0.277 0.625 c 6049 19360 m  19390 6019 l  19442 6072 l  6101 19413 l 
p ef
0.496 0.273 0.628 c 6101 19413 m  19442 6072 l  19495 6124 l  6154 19465 l 
p ef
0.492 0.273 0.632 c 6154 19465 m  19495 6124 l  19547 6176 l  6206 19517 l 
p ef
0.488 0.273 0.636 c 6206 19517 m  19547 6176 l  19599 6229 l  6258 19570 l 
p ef
0.488 0.273 0.640 c 6258 19570 m  19599 6229 l  19652 6281 l  6311 19622 l 
p ef
0.484 0.273 0.644 c 6311 19622 m  19652 6281 l  19704 6333 l  6363 19674 l 
p ef
0.480 0.269 0.648 c 6363 19674 m  19704 6333 l  19756 6386 l  6415 19727 l 
p ef
0.476 0.269 0.652 c 6415 19727 m  19756 6386 l  19809 6438 l  6468 19779 l 
p ef
0.472 0.269 0.656 c 6468 19779 m  19809 6438 l  19861 6490 l  6520 19831 l 
p ef
0.472 0.269 0.660 c 6520 19831 m  19861 6490 l  19913 6543 l  6572 19884 l 
p ef
0.468 0.269 0.664 c 6572 19884 m  19913 6543 l  19966 6595 l  6625 19936 l 
p ef
0.464 0.265 0.667 c 6625 19936 m  19966 6595 l  20018 6647 l  6677 19988 l 
p ef
0.460 0.265 0.671 c 6677 19988 m  20018 6647 l  20070 6700 l  6729 20041 l 
p ef
0.457 0.265 0.675 c 6729 20041 m  20070 6700 l  20123 6752 l  6782 20093 l 
p ef
0.457 0.265 0.679 c 6782 20093 m  20123 6752 l  20175 6804 l  6834 20145 l 
p ef
0.453 0.265 0.683 c 6834 20145 m  20175 6804 l  20227 6857 l  6886 20198 l 
p ef
0.449 0.261 0.687 c 6886 20198 m  20227 6857 l  20280 6909 l  6939 20250 l 
p ef
0.445 0.261 0.691 c 6939 20250 m  20280 6909 l  20332 6961 l  6991 20302 l 
p ef
0.441 0.261 0.695 c 6991 20302 m  20332 6961 l  20384 7014 l  7043 20355 l 
p ef
0.441 0.261 0.699 c 7043 20355 m  20384 7014 l  20437 7066 l  7096 20407 l 
p ef
0.437 0.261 0.703 c 7096 20407 m  20437 7066 l  20489 7118 l  7148 20459 l 
p ef
0.433 0.257 0.707 c 7148 20459 m  20489 7118 l  20541 7171 l  7200 20512 l 
p ef
0.429 0.257 0.710 c 7200 20512 m  20541 7171 l  20594 7223 l  7253 20564 l 
p ef
0.425 0.257 0.714 c 7253 20564 m  20594 7223 l  20646 7275 l  7305 20616 l 
p ef
0.425 0.257 0.718 c 7305 20616 m  20646 7275 l  20698 7328 l  7357 20669 l 
p ef
0.421 0.257 0.722 c 7357 20669 m  20698 7328 l  20751 7380 l  7410 20721 l 
p ef
0.417 0.253 0.726 c 7410 20721 m  20751 7380 l  20803 7432 l  7462 20773 l 
p ef
0.414 0.253 0.730 c 7462 20773 m  20803 7432 l  20855 7485 l  7514 20826 l 
p ef
0.410 0.253 0.734 c 7514 20826 m  20855 7485 l  20908 7537 l  7567 20878 l 
p ef
0.410 0.253 0.738 c 7567 20878 m  20908 7537 l  20960 7589 l  7619 20930 l 
p ef
0.406 0.253 0.742 c 7619 20930 m  20960 7589 l  21012 7642 l  7671 20983 l 
p ef
0.402 0.250 0.746 c 7671 20983 m  21012 7642 l  21065 7694 l  7724 21035 l 
p ef
0.398 0.250 0.750 c 7724 21035 m  21065 7694 l  21117 7746 l  7776 21087 l 
p ef
0.394 0.250 0.753 c 7776 21087 m  21117 7746 l  21169 7799 l  7828 21139 l 
p ef
0.390 0.250 0.757 c 7828 21139 m  21169 7799 l  21222 7851 l  7881 21192 l 
p ef
0.390 0.250 0.761 c 7881 21192 m  21222 7851 l  21274 7903 l  7933 21244 l 
p ef
0.386 0.246 0.765 c 7933 21244 m  21274 7903 l  21326 7955 l  7985 21296 l 
p ef
0.382 0.246 0.769 c 7985 21296 m  21326 7955 l  21378 8008 l  8038 21349 l 
p ef
0.378 0.246 0.773 c 8038 21349 m  21378 8008 l  21431 8060 l  8090 21401 l 
p ef
0.375 0.246 0.777 c 8090 21401 m  21431 8060 l  21483 8112 l  8142 21453 l 
p ef
0.375 0.246 0.781 c 8142 21453 m  21483 8112 l  21535 8165 l  8194 21506 l 
p ef
0.371 0.242 0.785 c 8194 21506 m  21535 8165 l  21588 8217 l  8247 21558 l 
p ef
0.367 0.242 0.789 c 8247 21558 m  21588 8217 l  21640 8269 l  8299 21610 l 
p ef
0.363 0.242 0.792 c 8299 21610 m  21640 8269 l  21692 8322 l  8351 21663 l 
p ef
0.359 0.242 0.796 c 8351 21663 m  21692 8322 l  21745 8374 l  8404 21715 l 
p ef
0.359 0.242 0.800 c 8404 21715 m  21745 8374 l  21797 8426 l  8456 21767 l 
p ef
0.355 0.238 0.804 c 8456 21767 m  21797 8426 l  21849 8479 l  8508 21820 l 
p ef
0.351 0.238 0.808 c 8508 21820 m  21849 8479 l  21902 8531 l  8561 21872 l 
p ef
0.347 0.238 0.812 c 8561 21872 m  21902 8531 l  21954 8583 l  8613 21924 l 
p ef
0.343 0.238 0.816 c 8613 21924 m  21954 8583 l  22006 8636 l  8665 21977 l 
p ef
0.343 0.238 0.820 c 8665 21977 m  22006 8636 l  22059 8688 l  8718 22029 l 
p ef
0.339 0.234 0.824 c 8718 22029 m  22059 8688 l  22111 8740 l  8770 22081 l 
p ef
0.335 0.234 0.828 c 8770 22081 m  22111 8740 l  22163 8793 l  8822 22134 l 
p ef
0.332 0.234 0.832 c 8822 22134 m  22163 8793 l  22216 8845 l  8875 22186 l 
p ef
0.328 0.234 0.835 c 8875 22186 m  22216 8845 l  22268 8897 l  8927 22238 l 
p ef
0.328 0.234 0.839 c 8927 22238 m  22268 8897 l  22320 8950 l  8979 22291 l 
p ef
0.324 0.230 0.843 c 8979 22291 m  22320 8950 l  22373 9002 l  9032 22343 l 
p ef
0.320 0.230 0.847 c 9032 22343 m  22373 9002 l  22425 9054 l  9084 22395 l 
p ef
0.316 0.230 0.851 c 9084 22395 m  22425 9054 l  22477 9107 l  9136 22448 l 
p ef
0.312 0.230 0.855 c 9136 22448 m  22477 9107 l  22530 9159 l  9189 22500 l 
p ef
0.312 0.230 0.859 c 9189 22500 m  22530 9159 l  22582 9211 l  9241 22552 l 
p ef
0.308 0.226 0.863 c 9241 22552 m  22582 9211 l  22634 9264 l  9293 22605 l 
p ef
0.304 0.226 0.867 c 9293 22605 m  22634 9264 l  22687 9316 l  9346 22657 l 
p ef
0.300 0.226 0.871 c 9346 22657 m  22687 9316 l  22739 9368 l  9398 22709 l 
p ef
0.296 0.226 0.875 c 9398 22709 m  22739 9368 l  22791 9421 l  9450 22762 l 
p ef
0.296 0.226 0.878 c 9450 22762 m  22791 9421 l  22844 9473 l  9503 22814 l 
p ef
0.292 0.222 0.882 c 9503 22814 m  22844 9473 l  22896 9525 l  9555 22866 l 
p ef
0.289 0.222 0.886 c 9555 22866 m  22896 9525 l  22948 9578 l  9607 22919 l 
p ef
0.285 0.222 0.890 c 9607 22919 m  22948 9578 l  23001 9630 l  9660 22971 l 
p ef
0.281 0.222 0.894 c 9660 22971 m  23001 9630 l  23053 9682 l  9712 23023 l 
p ef
0.281 0.222 0.898 c 9712 23023 m  23053 9682 l  23105 9735 l  9764 23076 l 
p ef
0.277 0.218 0.902 c 9764 23076 m  23105 9735 l  23158 9787 l  9817 23128 l 
p ef
0.273 0.218 0.906 c 9817 23128 m  23158 9787 l  23210 9839 l  9869 23180 l 
p ef
0.269 0.218 0.910 c 9869 23180 m  23210 9839 l  23262 9892 l  9921 23233 l 
p ef
0.265 0.218 0.914 c 9921 23233 m  23262 9892 l  23315 9944 l  9974 23285 l 
p ef
0.265 0.218 0.917 c 9974 23285 m  23315 9944 l  23367 9996 l  10026 23337 l 
p ef
0.261 0.214 0.921 c 10026 23337 m  23367 9996 l  23419 10049 l  10078 23389 l 
p ef
0.257 0.214 0.925 c 10078 23389 m  23419 10049 l  23472 10101 l  10131 23442 l 
p ef
0.253 0.214 0.929 c 10131 23442 m  23472 10101 l  23524 10153 l  10183 23494 l 
p ef
0.250 0.214 0.933 c 10183 23494 m  23524 10153 l  23576 10205 l  10235 23546 l 
p ef
0.250 0.214 0.937 c 10235 23546 m  23576 10205 l  23629 10258 l  10288 23599 l 
p ef
0.246 0.210 0.941 c 10288 23599 m  23629 10258 l  23681 10310 l  10340 23651 l 
p ef
0.242 0.210 0.945 c 10340 23651 m  23681 10310 l  23733 10362 l  10392 23703 l 
p ef
0.238 0.210 0.949 c 10392 23703 m  23733 10362 l  23785 10415 l  10445 23756 l 
p ef
0.234 0.210 0.953 c 10445 23756 m  23785 10415 l  23838 10467 l  10497 23808 l 
p ef
0.234 0.210 0.957 c 10497 23808 m  23838 10467 l  23890 10519 l  10549 23860 l 
p ef
0.230 0.207 0.960 c 10549 23860 m  23890 10519 l  23942 10572 l  10601 23913 l 
p ef
0.226 0.207 0.964 c 10601 23913 m  23942 10572 l  23995 10624 l  10654 23965 l 
p ef
0.222 0.207 0.968 c 10654 23965 m  23995 10624 l  24047 10676 l  10706 24017 l 
p ef
0.218 0.207 0.972 c 10706 24017 m  24047 10676 l  24099 10729 l  10758 24070 l 
p ef
0.218 0.207 0.976 c 10758 24070 m  24099 10729 l  24152 10781 l  10811 24122 l 
p ef
0.214 0.203 0.980 c 10811 24122 m  24152 10781 l  24204 10833 l  10863 24174 l 
p ef
0.210 0.203 0.984 c 10863 24174 m  24204 10833 l  24256 10886 l  10915 24227 l 
p ef
0.207 0.203 0.988 c 10915 24227 m  24256 10886 l  24309 10938 l  10968 24279 l 
p ef
0.203 0.203 0.992 c 10968 24279 m  24309 10938 l  24361 10990 l  11020 24331 l 
p ef
0.203 0.203 1.000 c 11020 24331 m  24361 10990 l  24413 11043 l  11072 24384 l 
p ef
gr
gr
0.203 0.203 1.000 c 6667 17777 m  17556 6443 l  17556 17777 l  6667 17777 l 
6667 17777 l  p
6667 17777 m  6667 17777 l  p
17556 6443 m  17556 6443 l  p ef
gs
17777 4414 m  4523 17835 l  4523 4414 l  17777 4414 l  17777 4414 l  eoclip newpath
gs
4523 4414 m 17778 4414 l 17778 17836 l 4523 17836 l 4523 4414 l eoclip newpath
1.000 0.402 0.003 c -2190 11125 m  11151 -2216 l  11202 -2164 l  -2139 11177 l 
p ef
0.996 0.398 0.007 c -2139 11177 m  11202 -2164 l  11255 -2112 l  -2086 11229 l 
p ef
0.992 0.398 0.011 c -2086 11229 m  11255 -2112 l  11307 -2060 l  -2034 11281 l 
p ef
0.988 0.398 0.015 c -2034 11281 m  11307 -2060 l  11359 -2007 l  -1982 11334 l 
p ef
0.984 0.398 0.019 c -1982 11334 m  11359 -2007 l  11412 -1955 l  -1929 11386 l 
p ef
0.980 0.394 0.023 c -1929 11386 m  11412 -1955 l  11464 -1903 l  -1877 11438 l 
p ef
0.980 0.394 0.027 c -1877 11438 m  11464 -1903 l  11516 -1850 l  -1825 11491 l 
p ef
0.976 0.394 0.031 c -1825 11491 m  11516 -1850 l  11569 -1798 l  -1772 11543 l 
p ef
0.972 0.394 0.035 c -1772 11543 m  11569 -1798 l  11621 -1746 l  -1720 11595 l 
p ef
0.968 0.394 0.039 c -1720 11595 m  11621 -1746 l  11673 -1693 l  -1668 11648 l 
p ef
0.964 0.390 0.042 c -1668 11648 m  11673 -1693 l  11726 -1641 l  -1615 11700 l 
p ef
0.964 0.390 0.046 c -1615 11700 m  11726 -1641 l  11778 -1589 l  -1563 11752 l 
p ef
0.960 0.390 0.050 c -1563 11752 m  11778 -1589 l  11830 -1536 l  -1511 11805 l 
p ef
0.957 0.390 0.054 c -1511 11805 m  11830 -1536 l  11883 -1484 l  -1458 11857 l 
p ef
0.953 0.390 0.058 c -1458 11857 m  11883 -1484 l  11935 -1432 l  -1406 11909 l 
p ef
0.949 0.386 0.062 c -1406 11909 m  11935 -1432 l  11987 -1379 l  -1354 11962 l 
p ef
0.949 0.386 0.066 c -1354 11962 m  11987 -1379 l  12040 -1327 l  -1301 12014 l 
p ef
0.945 0.386 0.070 c -1301 12014 m  12040 -1327 l  12092 -1275 l  -1249 12066 l 
p ef
0.941 0.386 0.074 c -1249 12066 m  12092 -1275 l  12144 -1222 l  -1197 12118 l 
p ef
0.937 0.386 0.078 c -1197 12118 m  12144 -1222 l  12197 -1170 l  -1144 12171 l 
p ef
0.933 0.382 0.082 c -1144 12171 m  12197 -1170 l  12249 -1118 l  -1092 12223 l 
p ef
0.933 0.382 0.085 c -1092 12223 m  12249 -1118 l  12301 -1066 l  -1040 12275 l 
p ef
0.929 0.382 0.089 c -1040 12275 m  12301 -1066 l  12353 -1013 l  -987 12328 l 
p ef
0.925 0.382 0.093 c -987 12328 m  12353 -1013 l  12406 -961 l  -935 12380 l 
p ef
0.921 0.382 0.097 c -935 12380 m  12406 -961 l  12458 -909 l  -883 12432 l 
p ef
0.917 0.378 0.101 c -883 12432 m  12458 -909 l  12510 -856 l  -831 12485 l 
p ef
0.917 0.378 0.105 c -831 12485 m  12510 -856 l  12563 -804 l  -778 12537 l 
p ef
0.914 0.378 0.109 c -778 12537 m  12563 -804 l  12615 -752 l  -726 12589 l 
p ef
0.910 0.378 0.113 c -726 12589 m  12615 -752 l  12667 -699 l  -674 12642 l 
p ef
0.906 0.378 0.117 c -674 12642 m  12667 -699 l  12720 -647 l  -621 12694 l 
p ef
0.902 0.375 0.121 c -621 12694 m  12720 -647 l  12772 -595 l  -569 12746 l 
p ef
0.902 0.375 0.125 c -569 12746 m  12772 -595 l  12824 -542 l  -517 12799 l 
p ef
0.898 0.375 0.128 c -517 12799 m  12824 -542 l  12877 -490 l  -464 12851 l 
p ef
0.894 0.375 0.132 c -464 12851 m  12877 -490 l  12929 -438 l  -412 12903 l 
p ef
0.890 0.375 0.136 c -412 12903 m  12929 -438 l  12981 -385 l  -360 12956 l 
p ef
0.886 0.371 0.140 c -360 12956 m  12981 -385 l  13034 -333 l  -307 13008 l 
p ef
0.886 0.371 0.144 c -307 13008 m  13034 -333 l  13086 -281 l  -255 13060 l 
p ef
0.882 0.371 0.148 c -255 13060 m  13086 -281 l  13138 -228 l  -203 13113 l 
p ef
0.878 0.371 0.152 c -203 13113 m  13138 -228 l  13191 -176 l  -150 13165 l 
p ef
0.875 0.371 0.156 c -150 13165 m  13191 -176 l  13243 -124 l  -98 13217 l 
p ef
0.871 0.367 0.160 c -98 13217 m  13243 -124 l  13295 -71 l  -46 13270 l 
p ef
0.871 0.367 0.164 c -46 13270 m  13295 -71 l  13348 -19 l  7 13322 l  p ef
0.867 0.367 0.167 c 7 13322 m  13348 -19 l  13400 33 l  59 13374 l  p ef
0.863 0.367 0.171 c 59 13374 m  13400 33 l  13452 86 l  111 13427 l  p ef
0.859 0.367 0.175 c 111 13427 m  13452 86 l  13505 138 l  164 13479 l  p ef
0.855 0.363 0.179 c 164 13479 m  13505 138 l  13557 190 l  216 13531 l 
p ef
0.855 0.363 0.183 c 216 13531 m  13557 190 l  13609 243 l  268 13584 l 
p ef
0.851 0.363 0.187 c 268 13584 m  13609 243 l  13662 295 l  321 13636 l 
p ef
0.847 0.363 0.191 c 321 13636 m  13662 295 l  13714 347 l  373 13688 l 
p ef
0.843 0.363 0.195 c 373 13688 m  13714 347 l  13766 400 l  425 13741 l 
p ef
0.839 0.359 0.199 c 425 13741 m  13766 400 l  13819 452 l  478 13793 l 
p ef
0.839 0.359 0.203 c 478 13793 m  13819 452 l  13871 504 l  530 13845 l 
p ef
0.835 0.359 0.207 c 530 13845 m  13871 504 l  13923 557 l  582 13898 l 
p ef
0.832 0.359 0.210 c 582 13898 m  13923 557 l  13976 609 l  635 13950 l 
p ef
0.828 0.359 0.214 c 635 13950 m  13976 609 l  14028 661 l  687 14002 l 
p ef
0.824 0.355 0.218 c 687 14002 m  14028 661 l  14080 714 l  739 14055 l 
p ef
0.824 0.355 0.222 c 739 14055 m  14080 714 l  14133 766 l  792 14107 l 
p ef
0.820 0.355 0.226 c 792 14107 m  14133 766 l  14185 818 l  844 14159 l 
p ef
0.816 0.355 0.230 c 844 14159 m  14185 818 l  14237 871 l  896 14212 l 
p ef
0.812 0.355 0.234 c 896 14212 m  14237 871 l  14290 923 l  949 14264 l 
p ef
0.808 0.351 0.238 c 949 14264 m  14290 923 l  14342 975 l  1001 14316 l 
p ef
0.808 0.351 0.242 c 1001 14316 m  14342 975 l  14394 1028 l  1053 14368 l 
p ef
0.804 0.351 0.246 c 1053 14368 m  14394 1028 l  14447 1080 l  1106 14421 l 
p ef
0.800 0.351 0.250 c 1106 14421 m  14447 1080 l  14499 1132 l  1158 14473 l 
p ef
0.796 0.351 0.253 c 1158 14473 m  14499 1132 l  14551 1184 l  1210 14525 l 
p ef
0.792 0.347 0.257 c 1210 14525 m  14551 1184 l  14604 1237 l  1263 14578 l 
p ef
0.789 0.347 0.261 c 1263 14578 m  14604 1237 l  14656 1289 l  1315 14630 l 
p ef
0.789 0.347 0.265 c 1315 14630 m  14656 1289 l  14708 1341 l  1367 14682 l 
p ef
0.785 0.347 0.269 c 1367 14682 m  14708 1341 l  14760 1394 l  1420 14735 l 
p ef
0.781 0.347 0.273 c 1420 14735 m  14760 1394 l  14813 1446 l  1472 14787 l 
p ef
0.777 0.343 0.277 c 1472 14787 m  14813 1446 l  14865 1498 l  1524 14839 l 
p ef
0.773 0.343 0.281 c 1524 14839 m  14865 1498 l  14917 1551 l  1576 14892 l 
p ef
0.773 0.343 0.285 c 1576 14892 m  14917 1551 l  14970 1603 l  1629 14944 l 
p ef
0.769 0.343 0.289 c 1629 14944 m  14970 1603 l  15022 1655 l  1681 14996 l 
p ef
0.765 0.343 0.292 c 1681 14996 m  15022 1655 l  15074 1708 l  1733 15049 l 
p ef
0.761 0.339 0.296 c 1733 15049 m  15074 1708 l  15127 1760 l  1786 15101 l 
p ef
0.757 0.339 0.300 c 1786 15101 m  15127 1760 l  15179 1812 l  1838 15153 l 
p ef
0.757 0.339 0.304 c 1838 15153 m  15179 1812 l  15231 1865 l  1890 15206 l 
p ef
0.753 0.339 0.308 c 1890 15206 m  15231 1865 l  15284 1917 l  1943 15258 l 
p ef
0.750 0.339 0.312 c 1943 15258 m  15284 1917 l  15336 1969 l  1995 15310 l 
p ef
0.746 0.335 0.316 c 1995 15310 m  15336 1969 l  15388 2022 l  2047 15363 l 
p ef
0.742 0.335 0.320 c 2047 15363 m  15388 2022 l  15441 2074 l  2100 15415 l 
p ef
0.742 0.335 0.324 c 2100 15415 m  15441 2074 l  15493 2126 l  2152 15467 l 
p ef
0.738 0.335 0.328 c 2152 15467 m  15493 2126 l  15545 2179 l  2204 15520 l 
p ef
0.734 0.335 0.332 c 2204 15520 m  15545 2179 l  15598 2231 l  2257 15572 l 
p ef
0.730 0.332 0.335 c 2257 15572 m  15598 2231 l  15649 2283 l  2308 15624 l 
p ef
0.726 0.332 0.339 c 2308 15624 m  15649 2283 l  15702 2335 l  2361 15676 l 
p ef
0.726 0.332 0.343 c 2361 15676 m  15702 2335 l  15754 2387 l  2413 15728 l 
p ef
0.722 0.332 0.347 c 2413 15728 m  15754 2387 l  15806 2440 l  2465 15781 l 
p ef
0.718 0.332 0.351 c 2465 15781 m  15806 2440 l  15859 2492 l  2518 15833 l 
p ef
0.714 0.328 0.355 c 2518 15833 m  15859 2492 l  15911 2544 l  2570 15885 l 
p ef
0.710 0.328 0.359 c 2570 15885 m  15911 2544 l  15963 2597 l  2622 15938 l 
p ef
0.710 0.328 0.363 c 2622 15938 m  15963 2597 l  16016 2649 l  2675 15990 l 
p ef
0.707 0.328 0.367 c 2675 15990 m  16016 2649 l  16068 2701 l  2727 16042 l 
p ef
0.703 0.328 0.371 c 2727 16042 m  16068 2701 l  16120 2754 l  2779 16095 l 
p ef
0.699 0.324 0.375 c 2779 16095 m  16120 2754 l  16173 2806 l  2832 16147 l 
p ef
0.695 0.324 0.378 c 2832 16147 m  16173 2806 l  16225 2858 l  2884 16199 l 
p ef
0.695 0.324 0.382 c 2884 16199 m  16225 2858 l  16277 2911 l  2936 16252 l 
p ef
0.691 0.324 0.386 c 2936 16252 m  16277 2911 l  16330 2963 l  2989 16304 l 
p ef
0.687 0.324 0.390 c 2989 16304 m  16330 2963 l  16382 3015 l  3041 16356 l 
p ef
0.683 0.320 0.394 c 3041 16356 m  16382 3015 l  16434 3068 l  3093 16409 l 
p ef
0.679 0.320 0.398 c 3093 16409 m  16434 3068 l  16487 3120 l  3146 16461 l 
p ef
0.679 0.320 0.402 c 3146 16461 m  16487 3120 l  16539 3172 l  3198 16513 l 
p ef
0.675 0.320 0.406 c 3198 16513 m  16539 3172 l  16591 3224 l  3250 16565 l 
p ef
0.671 0.320 0.410 c 3250 16565 m  16591 3224 l  16644 3277 l  3303 16618 l 
p ef
0.667 0.316 0.414 c 3303 16618 m  16644 3277 l  16696 3329 l  3355 16670 l 
p ef
0.664 0.316 0.417 c 3355 16670 m  16696 3329 l  16748 3381 l  3407 16722 l 
p ef
0.664 0.316 0.421 c 3407 16722 m  16748 3381 l  16800 3434 l  3460 16775 l 
p ef
0.660 0.316 0.425 c 3460 16775 m  16800 3434 l  16853 3486 l  3512 16827 l 
p ef
0.656 0.316 0.429 c 3512 16827 m  16853 3486 l  16905 3538 l  3564 16879 l 
p ef
0.652 0.312 0.433 c 3564 16879 m  16905 3538 l  16957 3591 l  3616 16932 l 
p ef
0.648 0.312 0.437 c 3616 16932 m  16957 3591 l  17010 3643 l  3669 16984 l 
p ef
0.648 0.312 0.441 c 3669 16984 m  17010 3643 l  17062 3695 l  3721 17036 l 
p ef
0.644 0.312 0.445 c 3721 17036 m  17062 3695 l  17114 3748 l  3773 17089 l 
p ef
0.640 0.312 0.449 c 3773 17089 m  17114 3748 l  17167 3800 l  3826 17141 l 
p ef
0.636 0.308 0.453 c 3826 17141 m  17167 3800 l  17219 3852 l  3878 17193 l 
p ef
0.632 0.308 0.457 c 3878 17193 m  17219 3852 l  17271 3905 l  3930 17246 l 
p ef
0.632 0.308 0.460 c 3930 17246 m  17271 3905 l  17324 3957 l  3983 17298 l 
p ef
0.628 0.308 0.464 c 3983 17298 m  17324 3957 l  17376 4009 l  4035 17350 l 
p ef
0.625 0.308 0.468 c 4035 17350 m  17376 4009 l  17428 4062 l  4087 17403 l 
p ef
0.621 0.304 0.472 c 4087 17403 m  17428 4062 l  17481 4114 l  4140 17455 l 
p ef
0.617 0.304 0.476 c 4140 17455 m  17481 4114 l  17533 4166 l  4192 17507 l 
p ef
0.617 0.304 0.480 c 4192 17507 m  17533 4166 l  17585 4219 l  4244 17560 l 
p ef
0.613 0.304 0.484 c 4244 17560 m  17585 4219 l  17638 4271 l  4297 17612 l 
p ef
0.609 0.304 0.488 c 4297 17612 m  17638 4271 l  17690 4323 l  4349 17664 l 
p ef
0.605 0.300 0.492 c 4349 17664 m  17690 4323 l  17742 4376 l  4401 17717 l 
p ef
0.601 0.300 0.496 c 4401 17717 m  17742 4376 l  17795 4428 l  4454 17769 l 
p ef
0.601 0.300 0.500 c 4454 17769 m  17795 4428 l  17847 4480 l  4506 17821 l 
p ef
0.597 0.300 0.503 c 4506 17821 m  17847 4480 l  17899 4533 l  4558 17874 l 
p ef
0.593 0.300 0.507 c 4558 17874 m  17899 4533 l  17952 4585 l  4611 17926 l 
p ef
0.589 0.296 0.511 c 4611 17926 m  17952 4585 l  18004 4637 l  4663 17978 l 
p ef
0.585 0.296 0.515 c 4663 17978 m  18004 4637 l  18056 4690 l  4715 18031 l 
p ef
0.582 0.296 0.519 c 4715 18031 m  18056 4690 l  18109 4742 l  4768 18083 l 
p ef
0.582 0.296 0.523 c 4768 18083 m  18109 4742 l  18161 4794 l  4820 18135 l 
p ef
0.578 0.296 0.527 c 4820 18135 m  18161 4794 l  18213 4847 l  4872 18188 l 
p ef
0.574 0.292 0.531 c 4872 18188 m  18213 4847 l  18266 4899 l  4925 18240 l 
p ef
0.570 0.292 0.535 c 4925 18240 m  18266 4899 l  18318 4951 l  4977 18292 l 
p ef
0.566 0.292 0.539 c 4977 18292 m  18318 4951 l  18370 5004 l  5029 18345 l 
p ef
0.566 0.292 0.542 c 5029 18345 m  18370 5004 l  18423 5056 l  5082 18397 l 
p ef
0.562 0.292 0.546 c 5082 18397 m  18423 5056 l  18475 5108 l  5134 18449 l 
p ef
0.558 0.289 0.550 c 5134 18449 m  18475 5108 l  18527 5161 l  5186 18502 l 
p ef
0.554 0.289 0.554 c 5186 18502 m  18527 5161 l  18580 5213 l  5239 18554 l 
p ef
0.550 0.289 0.558 c 5239 18554 m  18580 5213 l  18632 5265 l  5291 18606 l 
p ef
0.550 0.289 0.562 c 5291 18606 m  18632 5265 l  18684 5318 l  5343 18659 l 
p ef
0.546 0.289 0.566 c 5343 18659 m  18684 5318 l  18737 5370 l  5396 18711 l 
p ef
0.542 0.285 0.570 c 5396 18711 m  18737 5370 l  18789 5422 l  5448 18763 l 
p ef
0.539 0.285 0.574 c 5448 18763 m  18789 5422 l  18841 5475 l  5500 18815 l 
p ef
0.535 0.285 0.578 c 5500 18815 m  18841 5475 l  18894 5527 l  5553 18868 l 
p ef
0.535 0.285 0.582 c 5553 18868 m  18894 5527 l  18946 5579 l  5605 18920 l 
p ef
0.531 0.285 0.585 c 5605 18920 m  18946 5579 l  18998 5631 l  5657 18972 l 
p ef
0.527 0.281 0.589 c 5657 18972 m  18998 5631 l  19051 5684 l  5710 19025 l 
p ef
0.523 0.281 0.593 c 5710 19025 m  19051 5684 l  19103 5736 l  5762 19077 l 
p ef
0.519 0.281 0.597 c 5762 19077 m  19103 5736 l  19155 5788 l  5814 19129 l 
p ef
0.519 0.281 0.601 c 5814 19129 m  19155 5788 l  19207 5841 l  5866 19182 l 
p ef
0.515 0.281 0.605 c 5866 19182 m  19207 5841 l  19260 5893 l  5919 19234 l 
p ef
0.511 0.277 0.609 c 5919 19234 m  19260 5893 l  19312 5945 l  5971 19286 l 
p ef
0.507 0.277 0.613 c 5971 19286 m  19312 5945 l  19364 5998 l  6023 19339 l 
p ef
0.503 0.277 0.617 c 6023 19339 m  19364 5998 l  19417 6050 l  6076 19391 l 
p ef
0.503 0.277 0.621 c 6076 19391 m  19417 6050 l  19469 6102 l  6128 19443 l 
p ef
0.500 0.277 0.625 c 6128 19443 m  19469 6102 l  19521 6155 l  6180 19496 l 
p ef
0.496 0.273 0.628 c 6180 19496 m  19521 6155 l  19574 6207 l  6233 19548 l 
p ef
0.492 0.273 0.632 c 6233 19548 m  19574 6207 l  19626 6259 l  6285 19600 l 
p ef
0.488 0.273 0.636 c 6285 19600 m  19626 6259 l  19678 6312 l  6337 19653 l 
p ef
0.488 0.273 0.640 c 6337 19653 m  19678 6312 l  19731 6364 l  6390 19705 l 
p ef
0.484 0.273 0.644 c 6390 19705 m  19731 6364 l  19783 6416 l  6442 19757 l 
p ef
0.480 0.269 0.648 c 6442 19757 m  19783 6416 l  19835 6469 l  6494 19810 l 
p ef
0.476 0.269 0.652 c 6494 19810 m  19835 6469 l  19888 6521 l  6547 19862 l 
p ef
0.472 0.269 0.656 c 6547 19862 m  19888 6521 l  19940 6573 l  6599 19914 l 
p ef
0.472 0.269 0.660 c 6599 19914 m  19940 6573 l  19992 6626 l  6651 19967 l 
p ef
0.468 0.269 0.664 c 6651 19967 m  19992 6626 l  20045 6678 l  6704 20019 l 
p ef
0.464 0.265 0.667 c 6704 20019 m  20045 6678 l  20096 6730 l  6755 20071 l 
p ef
0.460 0.265 0.671 c 6755 20071 m  20096 6730 l  20149 6782 l  6808 20123 l 
p ef
0.457 0.265 0.675 c 6808 20123 m  20149 6782 l  20201 6834 l  6860 20175 l 
p ef
0.457 0.265 0.679 c 6860 20175 m  20201 6834 l  20253 6887 l  6912 20228 l 
p ef
0.453 0.265 0.683 c 6912 20228 m  20253 6887 l  20306 6939 l  6965 20280 l 
p ef
0.449 0.261 0.687 c 6965 20280 m  20306 6939 l  20358 6991 l  7017 20332 l 
p ef
0.445 0.261 0.691 c 7017 20332 m  20358 6991 l  20410 7044 l  7069 20385 l 
p ef
0.441 0.261 0.695 c 7069 20385 m  20410 7044 l  20463 7096 l  7122 20437 l 
p ef
0.441 0.261 0.699 c 7122 20437 m  20463 7096 l  20515 7148 l  7174 20489 l 
p ef
0.437 0.261 0.703 c 7174 20489 m  20515 7148 l  20567 7201 l  7226 20542 l 
p ef
0.433 0.257 0.707 c 7226 20542 m  20567 7201 l  20620 7253 l  7279 20594 l 
p ef
0.429 0.257 0.710 c 7279 20594 m  20620 7253 l  20672 7305 l  7331 20646 l 
p ef
0.425 0.257 0.714 c 7331 20646 m  20672 7305 l  20724 7358 l  7383 20699 l 
p ef
0.425 0.257 0.718 c 7383 20699 m  20724 7358 l  20777 7410 l  7436 20751 l 
p ef
0.421 0.257 0.722 c 7436 20751 m  20777 7410 l  20829 7462 l  7488 20803 l 
p ef
0.417 0.253 0.726 c 7488 20803 m  20829 7462 l  20881 7515 l  7540 20855 l 
p ef
0.414 0.253 0.730 c 7540 20855 m  20881 7515 l  20934 7567 l  7593 20908 l 
p ef
0.410 0.253 0.734 c 7593 20908 m  20934 7567 l  20986 7619 l  7645 20960 l 
p ef
0.410 0.253 0.738 c 7645 20960 m  20986 7619 l  21038 7671 l  7697 21012 l 
p ef
0.406 0.253 0.742 c 7697 21012 m  21038 7671 l  21091 7724 l  7750 21065 l 
p ef
0.402 0.250 0.746 c 7750 21065 m  21091 7724 l  21143 7776 l  7802 21117 l 
p ef
0.398 0.250 0.750 c 7802 21117 m  21143 7776 l  21195 7828 l  7854 21169 l 
p ef
0.394 0.250 0.753 c 7854 21169 m  21195 7828 l  21247 7881 l  7907 21222 l 
p ef
0.390 0.250 0.757 c 7907 21222 m  21247 7881 l  21300 7933 l  7959 21274 l 
p ef
0.390 0.250 0.761 c 7959 21274 m  21300 7933 l  21352 7985 l  8011 21326 l 
p ef
0.386 0.246 0.765 c 8011 21326 m  21352 7985 l  21404 8038 l  8063 21379 l 
p ef
0.382 0.246 0.769 c 8063 21379 m  21404 8038 l  21457 8090 l  8116 21431 l 
p ef
0.378 0.246 0.773 c 8116 21431 m  21457 8090 l  21509 8142 l  8168 21483 l 
p ef
0.375 0.246 0.777 c 8168 21483 m  21509 8142 l  21561 8195 l  8220 21536 l 
p ef
0.375 0.246 0.781 c 8220 21536 m  21561 8195 l  21614 8247 l  8273 21588 l 
p ef
0.371 0.242 0.785 c 8273 21588 m  21614 8247 l  21666 8299 l  8325 21640 l 
p ef
0.367 0.242 0.789 c 8325 21640 m  21666 8299 l  21718 8352 l  8377 21693 l 
p ef
0.363 0.242 0.792 c 8377 21693 m  21718 8352 l  21771 8404 l  8430 21745 l 
p ef
0.359 0.242 0.796 c 8430 21745 m  21771 8404 l  21823 8456 l  8482 21797 l 
p ef
0.359 0.242 0.800 c 8482 21797 m  21823 8456 l  21875 8509 l  8534 21850 l 
p ef
0.355 0.238 0.804 c 8534 21850 m  21875 8509 l  21928 8561 l  8587 21902 l 
p ef
0.351 0.238 0.808 c 8587 21902 m  21928 8561 l  21980 8613 l  8639 21954 l 
p ef
0.347 0.238 0.812 c 8639 21954 m  21980 8613 l  22032 8666 l  8691 22007 l 
p ef
0.343 0.238 0.816 c 8691 22007 m  22032 8666 l  22085 8718 l  8744 22059 l 
p ef
0.343 0.238 0.820 c 8744 22059 m  22085 8718 l  22137 8770 l  8796 22111 l 
p ef
0.339 0.234 0.824 c 8796 22111 m  22137 8770 l  22189 8823 l  8848 22164 l 
p ef
0.335 0.234 0.828 c 8848 22164 m  22189 8823 l  22242 8875 l  8901 22216 l 
p ef
0.332 0.234 0.832 c 8901 22216 m  22242 8875 l  22294 8927 l  8953 22268 l 
p ef
0.328 0.234 0.835 c 8953 22268 m  22294 8927 l  22346 8980 l  9005 22321 l 
p ef
0.328 0.234 0.839 c 9005 22321 m  22346 8980 l  22399 9032 l  9058 22373 l 
p ef
0.324 0.230 0.843 c 9058 22373 m  22399 9032 l  22451 9084 l  9110 22425 l 
p ef
0.320 0.230 0.847 c 9110 22425 m  22451 9084 l  22503 9137 l  9162 22478 l 
p ef
0.316 0.230 0.851 c 9162 22478 m  22503 9137 l  22556 9189 l  9215 22530 l 
p ef
0.312 0.230 0.855 c 9215 22530 m  22556 9189 l  22608 9241 l  9267 22582 l 
p ef
0.312 0.230 0.859 c 9267 22582 m  22608 9241 l  22660 9294 l  9319 22635 l 
p ef
0.308 0.226 0.863 c 9319 22635 m  22660 9294 l  22713 9346 l  9372 22687 l 
p ef
0.304 0.226 0.867 c 9372 22687 m  22713 9346 l  22765 9398 l  9424 22739 l 
p ef
0.300 0.226 0.871 c 9424 22739 m  22765 9398 l  22817 9451 l  9476 22792 l 
p ef
0.296 0.226 0.875 c 9476 22792 m  22817 9451 l  22870 9503 l  9529 22844 l 
p ef
0.296 0.226 0.878 c 9529 22844 m  22870 9503 l  22922 9555 l  9581 22896 l 
p ef
0.292 0.222 0.882 c 9581 22896 m  22922 9555 l  22974 9608 l  9633 22949 l 
p ef
0.289 0.222 0.886 c 9633 22949 m  22974 9608 l  23027 9660 l  9686 23001 l 
p ef
0.285 0.222 0.890 c 9686 23001 m  23027 9660 l  23079 9712 l  9738 23053 l 
p ef
0.281 0.222 0.894 c 9738 23053 m  23079 9712 l  23131 9765 l  9790 23106 l 
p ef
0.281 0.222 0.898 c 9790 23106 m  23131 9765 l  23184 9817 l  9843 23158 l 
p ef
0.277 0.218 0.902 c 9843 23158 m  23184 9817 l  23236 9869 l  9895 23210 l 
p ef
0.273 0.218 0.906 c 9895 23210 m  23236 9869 l  23288 9922 l  9947 23262 l 
p ef
0.269 0.218 0.910 c 9947 23262 m  23288 9922 l  23341 9974 l  10000 23315 l 
p ef
0.265 0.218 0.914 c 10000 23315 m  23341 9974 l  23393 10026 l  10052 23367 l 
p ef
0.265 0.218 0.917 c 10052 23367 m  23393 10026 l  23445 10078 l  10104 23419 l 
p ef
0.261 0.214 0.921 c 10104 23419 m  23445 10078 l  23497 10131 l  10157 23472 l 
p ef
0.257 0.214 0.925 c 10157 23472 m  23497 10131 l  23550 10183 l  10209 23524 l 
p ef
0.253 0.214 0.929 c 10209 23524 m  23550 10183 l  23602 10235 l  10261 23576 l 
p ef
0.250 0.214 0.933 c 10261 23576 m  23602 10235 l  23654 10288 l  10313 23629 l 
p ef
0.250 0.214 0.937 c 10313 23629 m  23654 10288 l  23707 10340 l  10366 23681 l 
p ef
0.246 0.210 0.941 c 10366 23681 m  23707 10340 l  23759 10392 l  10418 23733 l 
p ef
0.242 0.210 0.945 c 10418 23733 m  23759 10392 l  23811 10445 l  10470 23786 l 
p ef
0.238 0.210 0.949 c 10470 23786 m  23811 10445 l  23864 10497 l  10523 23838 l 
p ef
0.234 0.210 0.953 c 10523 23838 m  23864 10497 l  23916 10549 l  10575 23890 l 
p ef
0.234 0.210 0.957 c 10575 23890 m  23916 10549 l  23968 10602 l  10627 23943 l 
p ef
0.230 0.207 0.960 c 10627 23943 m  23968 10602 l  24021 10654 l  10680 23995 l 
p ef
0.226 0.207 0.964 c 10680 23995 m  24021 10654 l  24073 10706 l  10732 24047 l 
p ef
0.222 0.207 0.968 c 10732 24047 m  24073 10706 l  24125 10759 l  10784 24100 l 
p ef
0.218 0.207 0.972 c 10784 24100 m  24125 10759 l  24178 10811 l  10837 24152 l 
p ef
0.218 0.207 0.976 c 10837 24152 m  24178 10811 l  24230 10863 l  10889 24204 l 
p ef
0.214 0.203 0.980 c 10889 24204 m  24230 10863 l  24282 10916 l  10941 24257 l 
p ef
0.210 0.203 0.984 c 10941 24257 m  24282 10916 l  24335 10968 l  10994 24309 l 
p ef
0.207 0.203 0.988 c 10994 24309 m  24335 10968 l  24387 11020 l  11046 24361 l 
p ef
0.203 0.203 0.992 c 11046 24361 m  24387 11020 l  24439 11073 l  11098 24414 l 
p ef
0.203 0.203 1.000 c 11098 24414 m  24439 11073 l  24492 11125 l  11151 24466 l 
p ef
gr
gr
1.000 0.402 0.003 c 15556 4444 m  4554 15557 l  4554 4444 l  15556 4444 l 
15556 4444 l  p
15556 4444 m  15556 4444 l  p
4554 15557 m  4554 15557 l  p ef
178 lw 1 lj 0.003 0.003 0.003 c 4556 18889 m  4556 4412 l  ps
4556 3556 m  4257 4452 l  4854 4452 l  4556 3556 l  p ef
3222 17667 m  17699 17667 l  ps
18556 17667 m  17659 17368 l  17659 17966 l  18556 17667 l  p ef
pum
16833 18683 t
80 -30 m  92 -21 108 -16 130 -16 ct 152 -16 170 -26 187 -46 ct 203 -67 214 -89 220 -113 ct 
266 -294 l  273 -326 277 -349 277 -361 ct 277 -377 272 -392 263 -405 ct 254 -417 240 -424 223 -424 ct 
202 -424 182 -417 163 -404 ct 144 -390 128 -373 115 -352 ct 102 -332 93 -311 88 -290 ct 
86 -285 84 -283 80 -283 ct 67 -283 l  62 -283 59 -286 59 -293 ct 59 -296 l  66 -321 77 -345 93 -369 ct 
109 -393 128 -413 152 -428 ct 175 -443 199 -450 225 -450 ct 250 -450 273 -443 293 -430 ct 
313 -417 327 -399 335 -376 ct 347 -397 362 -414 380 -429 ct 398 -443 418 -450 439 -450 ct 
454 -450 469 -447 484 -442 ct 499 -437 512 -429 521 -419 ct 531 -408 536 -395 536 -379 ct 
536 -362 530 -347 519 -334 ct 508 -322 494 -316 477 -316 ct 466 -316 457 -319 449 -326 ct 
442 -333 438 -342 438 -353 ct 438 -367 443 -379 453 -390 ct 463 -401 475 -407 488 -409 ct 
476 -419 459 -424 437 -424 ct 415 -424 396 -414 380 -393 ct 364 -373 353 -351 346 -326 ct 
302 -146 l  294 -119 291 -96 291 -79 ct 291 -62 295 -47 305 -34 ct 315 -22 328 -16 344 -16 ct 
376 -16 405 -30 430 -58 ct 455 -86 471 -117 479 -150 ct 480 -154 483 -156 487 -156 ct 
500 -156 l  502 -156 504 -155 506 -153 ct 508 -151 509 -149 509 -147 ct 509 -146 508 -145 508 -144 ct 
498 -104 478 -68 447 -36 ct 416 -5 381 11 342 11 ct 317 11 295 4 275 -9 ct 255 -23 241 -41 232 -64 ct 
222 -44 207 -26 188 -11 ct 170 4 150 11 128 11 ct 114 11 99 8 83 3 ct 68 -2 55 -10 46 -20 ct 
36 -31 31 -44 31 -61 ct 31 -76 37 -91 48 -104 ct 59 -117 73 -124 90 -124 ct 101 -124 110 -120 118 -113 ct 
126 -107 129 -98 129 -87 ct 129 -73 125 -60 115 -50 ct 106 -39 94 -32 80 -30 ct 
p ef
pom
pum
17417 19020 t
26 -5 m  26 -16 l  26 -18 27 -19 28 -20 ct 130 -89 l  141 -96 150 -103 159 -109 ct 
168 -116 177 -122 185 -129 ct 192 -136 199 -145 204 -154 ct 209 -163 212 -173 212 -183 ct 
212 -194 209 -204 204 -212 ct 199 -220 193 -227 185 -232 ct 177 -237 168 -241 157 -243 ct 
147 -246 136 -247 126 -247 ct 113 -247 101 -245 89 -240 ct 77 -235 67 -227 60 -217 ct 
66 -216 71 -214 75 -209 ct 79 -205 81 -199 81 -193 ct 81 -187 78 -181 74 -177 ct 
69 -172 64 -170 57 -170 ct 50 -170 44 -172 40 -177 ct 35 -181 33 -187 33 -193 ct 
33 -210 39 -225 50 -236 ct 61 -247 74 -255 91 -260 ct 107 -265 123 -268 139 -268 ct 
160 -268 179 -265 198 -260 ct 217 -255 233 -246 246 -233 ct 259 -220 265 -204 265 -183 ct 
265 -170 262 -158 256 -149 ct 249 -139 241 -131 231 -124 ct 221 -117 209 -110 195 -103 ct 
173 -93 l  159 -86 152 -81 150 -80 ct 87 -42 l  138 -42 l  195 -42 228 -43 236 -44 ct 
238 -46 241 -53 245 -64 ct 248 -75 252 -81 254 -81 ct 259 -81 l  263 -81 265 -78 265 -73 ct 
249 -5 l  248 -2 246 0 243 0 ct 32 0 l  31 0 30 -1 28 -2 ct 27 -3 26 -4 26 -5 ct 
p ef
pom
pum
2833 4906 t
80 -30 m  92 -21 108 -16 130 -16 ct 152 -16 170 -26 187 -46 ct 203 -67 214 -89 220 -113 ct 
266 -294 l  273 -326 277 -349 277 -361 ct 277 -377 272 -392 263 -405 ct 254 -417 240 -424 223 -424 ct 
202 -424 182 -417 163 -404 ct 144 -390 128 -373 115 -352 ct 102 -332 93 -311 88 -290 ct 
86 -285 84 -283 80 -283 ct 67 -283 l  62 -283 59 -286 59 -293 ct 59 -296 l  66 -321 77 -345 93 -369 ct 
109 -393 128 -413 152 -428 ct 175 -443 199 -450 225 -450 ct 250 -450 273 -443 293 -430 ct 
313 -417 327 -399 335 -376 ct 347 -397 362 -414 380 -429 ct 398 -443 418 -450 439 -450 ct 
454 -450 469 -447 484 -442 ct 499 -437 512 -429 521 -419 ct 531 -408 536 -395 536 -379 ct 
536 -362 530 -347 519 -334 ct 508 -322 494 -316 477 -316 ct 466 -316 457 -319 449 -326 ct 
442 -333 438 -342 438 -353 ct 438 -367 443 -379 453 -390 ct 463 -401 475 -407 488 -409 ct 
476 -419 459 -424 437 -424 ct 415 -424 396 -414 380 -393 ct 364 -373 353 -351 346 -326 ct 
302 -146 l  294 -119 291 -96 291 -79 ct 291 -62 295 -47 305 -34 ct 315 -22 328 -16 344 -16 ct 
376 -16 405 -30 430 -58 ct 455 -86 471 -117 479 -150 ct 480 -154 483 -156 487 -156 ct 
500 -156 l  502 -156 504 -155 506 -153 ct 508 -151 509 -149 509 -147 ct 509 -146 508 -145 508 -144 ct 
498 -104 478 -68 447 -36 ct 416 -5 381 11 342 11 ct 317 11 295 4 275 -9 ct 255 -23 241 -41 232 -64 ct 
222 -44 207 -26 188 -11 ct 170 4 150 11 128 11 ct 114 11 99 8 83 3 ct 68 -2 55 -10 46 -20 ct 
36 -31 31 -44 31 -61 ct 31 -76 37 -91 48 -104 ct 59 -117 73 -124 90 -124 ct 101 -124 110 -120 118 -113 ct 
126 -107 129 -98 129 -87 ct 129 -73 125 -60 115 -50 ct 106 -39 94 -32 80 -30 ct 
p ef
pom
pum
3417 5242 t
57 -5 m  57 -15 l  57 -17 58 -18 59 -19 ct 60 -20 61 -21 63 -21 ct 92 -21 112 -22 123 -25 ct 
128 -27 131 -32 131 -41 ct 131 -229 l  113 -224 90 -221 60 -221 ct 59 -221 58 -222 56 -223 ct 
54 -224 53 -225 53 -226 ct 53 -237 l  53 -239 55 -241 59 -242 ct 81 -242 101 -244 118 -247 ct 
135 -251 150 -258 164 -268 ct 164 -268 166 -268 167 -268 ct 172 -268 174 -266 174 -262 ct 
174 -41 l  174 -32 177 -27 182 -25 ct 193 -22 213 -21 242 -21 ct 244 -21 245 -20 246 -19 ct 
248 -18 248 -17 248 -15 ct 248 -5 l  248 -4 247 -3 246 -2 ct 245 -1 243 0 242 0 ct 
63 0 l  62 0 61 -1 59 -2 ct 58 -3 57 -4 57 -5 ct p ef
pom
5583 9444 m  5861 9444 l  5861 9583 l  6001 9583 l  6001 9861 l  5861 9861 l 
5861 10001 l  5583 10001 l  5583 9861 l  5444 9861 l  5444 9583 l  5583 9583 l 
5583 9444 l  5583 9444 l  p
5444 9444 m  5444 9444 l  p
6001 10001 m  6001 10001 l  p ef
0 lw 5583 9444 m  5861 9444 l  5861 9583 l  6001 9583 l  6001 9861 l  5861 9861 l 
5861 10001 l  5583 10001 l  5583 9861 l  5444 9861 l  5444 9583 l  5583 9583 l 
5583 9444 l  5583 9444 l  pc
5444 9444 m  5444 9444 l  pc
6001 10001 m  6001 10001 l  pc
8361 5778 m  8639 5778 l  8639 5917 l  8779 5917 l  8779 6194 l  8639 6194 l 
8639 6334 l  8361 6334 l  8361 6194 l  8222 6194 l  8222 5917 l  8361 5917 l 
8361 5778 l  8361 5778 l  p
8222 5778 m  8222 5778 l  p
8779 6334 m  8779 6334 l  p ef
8361 5777 m  8638 5777 l  8638 5916 l  8778 5916 l  8778 6194 l  8638 6194 l 
8638 6334 l  8361 6334 l  8361 6194 l  8222 6194 l  8222 5916 l  8361 5916 l 
8361 5777 l  8361 5777 l  pc
8222 5777 m  8222 5777 l  pc
8778 6334 m  8778 6334 l  pc
8583 9111 m  8861 9111 l  8861 9250 l  9001 9250 l  9001 9528 l  8861 9528 l 
8861 9668 l  8583 9668 l  8583 9528 l  8444 9528 l  8444 9250 l  8583 9250 l 
8583 9111 l  8583 9111 l  p
8444 9111 m  8444 9111 l  p
9001 9668 m  9001 9668 l  p ef
8583 9111 m  8861 9111 l  8861 9250 l  9001 9250 l  9001 9527 l  8861 9527 l 
8861 9667 l  8583 9667 l  8583 9527 l  8444 9527 l  8444 9250 l  8583 9250 l 
8583 9111 l  8583 9111 l  pc
8444 9111 m  8444 9111 l  pc
9001 9667 m  9001 9667 l  pc
6473 9001 m  6751 9001 l  6751 9140 l  6891 9140 l  6891 9418 l  6751 9418 l 
6751 9558 l  6473 9558 l  6473 9418 l  6334 9418 l  6334 9140 l  6473 9140 l 
6473 9001 l  6473 9001 l  p
6334 9001 m  6334 9001 l  p
6891 9558 m  6891 9558 l  p ef
6473 9001 m  6751 9001 l  6751 9140 l  6891 9140 l  6891 9417 l  6751 9417 l 
6751 9557 l  6473 9557 l  6473 9417 l  6334 9417 l  6334 9140 l  6473 9140 l 
6473 9001 l  6473 9001 l  pc
6334 9001 m  6334 9001 l  pc
6891 9557 m  6891 9557 l  pc
11807 6112 m  12084 6112 l  12084 6251 l  12224 6251 l  12224 6529 l  12084 6529 l 
12084 6669 l  11807 6669 l  11807 6529 l  11668 6529 l  11668 6251 l  11807 6251 l 
11807 6112 l  11807 6112 l  p
11668 6112 m  11668 6112 l  p
12224 6669 m  12224 6669 l  p ef
11806 6112 m  12084 6112 l  12084 6251 l  12224 6251 l  12224 6528 l  12084 6528 l 
12084 6668 l  11806 6668 l  11806 6528 l  11667 6528 l  11667 6251 l  11806 6251 l 
11806 6112 l  11806 6112 l  pc
11667 6112 m  11667 6112 l  pc
12224 6668 m  12224 6668 l  pc
14500 10889 m  14779 11167 l  14500 11446 l  14222 11167 l  14500 10889 l 
14500 10889 l  p
14222 10889 m  14222 10889 l  p
14779 11446 m  14779 11446 l  p ef
14500 10888 m  14778 11166 l  14500 11445 l  14222 11166 l  14500 10888 l 
14500 10888 l  pc
14222 10888 m  14222 10888 l  pc
14778 11445 m  14778 11445 l  pc
13612 13557 m  13891 13834 l  13612 14113 l  13334 13834 l  13612 13557 l 
13612 13557 l  p
13334 13557 m  13334 13557 l  p
13891 14113 m  13891 14113 l  p ef
13612 13556 m  13891 13834 l  13612 14113 l  13334 13834 l  13612 13556 l 
13612 13556 l  pc
13334 13556 m  13334 13556 l  pc
13891 14113 m  13891 14113 l  pc
12279 11112 m  12558 11390 l  12279 11669 l  12001 11390 l  12279 11112 l 
12279 11112 l  p
12001 11112 m  12001 11112 l  p
12558 11669 m  12558 11669 l  p ef
12278 11112 m  12557 11390 l  12278 11668 l  12001 11390 l  12278 11112 l 
12278 11112 l  pc
12001 11112 m  12001 11112 l  pc
12557 11668 m  12557 11668 l  pc
14279 11890 m  14558 12168 l  14279 12447 l  14001 12168 l  14279 11890 l 
14279 11890 l  p
14001 11890 m  14001 11890 l  p
14558 12447 m  14558 12447 l  p ef
14278 11890 m  14557 12167 l  14278 12446 l  14001 12167 l  14278 11890 l 
14278 11890 l  pc
14001 11890 m  14001 11890 l  pc
14557 12446 m  14557 12446 l  pc
9723 16112 m  10002 16390 l  9723 16669 l  9446 16390 l  9723 16112 l 
9723 16112 l  p
9446 16112 m  9446 16112 l  p
10002 16669 m  10002 16669 l  p ef
9723 16112 m  10002 16390 l  9723 16668 l  9445 16390 l  9723 16112 l 
9723 16112 l  pc
9445 16112 m  9445 16112 l  pc
10002 16668 m  10002 16668 l  pc
0.203 0.203 1.000 c 5556 17667 m  17668 5332 l  17668 17667 l  5556 17667 l 
5556 17667 l  p
5556 17667 m  5556 17667 l  p
17668 5332 m  17668 5332 l  p ef
1.000 0.402 0.003 c 16667 4444 m  4554 16668 l  4554 4444 l  16667 4444 l 
16667 4444 l  p
16667 4444 m  16667 4444 l  p
4554 16668 m  4554 16668 l  p ef
gr
gs
1111 1111 m 21110 1111 l 21110 21110 l 1111 21110 l 1111 1111 l eoclip newpath
gr
gr
0 20000 t 
pom
count op_count sub {pop} repeat countdictstack dict_count sub {end} repeat b4_inc_state restore
%%PageTrailer
%%Trailer
%%EOF
