%!PS-Adobe-3.0 EPSF-3.0 
%%BoundingBox: 0 0 850 454
%%Pages: 0
%%Creator: LibreOffice 5.1
%%Title: none
%%CreationDate: none
%%LanguageLevel: 2
%%EndComments
%%BeginProlog
%%BeginResource: procset SDRes-Prolog 1.0 0
/b4_inc_state save def
/dict_count countdictstack def
/op_count count 1 sub def
userdict begin
0 setgray 0 setlinecap 1 setlinewidth 0 setlinejoin 10 setmiterlimit[] 0 setdash newpath
/languagelevel where {pop languagelevel 1 ne {false setstrokeadjust false setoverprint} if} if
/bdef {bind def} bind def
/c {setrgbcolor} bdef
/l {neg lineto} bdef
/rl {neg rlineto} bdef
/lc {setlinecap} bdef
/lj {setlinejoin} bdef
/lw {setlinewidth} bdef
/ml {setmiterlimit} bdef
/ld {setdash} bdef
/m {neg moveto} bdef
/ct {6 2 roll neg 6 2 roll neg 6 2 roll neg curveto} bdef
/r {rotate} bdef
/t {neg translate} bdef
/s {scale} bdef
/sw {show} bdef
/gs {gsave} bdef
/gr {grestore} bdef
/f {findfont dup length dict begin
{1 index /FID ne {def} {pop pop} ifelse} forall /Encoding ISOLatin1Encoding def
currentdict end /NFont exch definefont pop /NFont findfont} bdef
/p {closepath} bdef
/sf {scalefont setfont} bdef
/ef {eofill}bdef
/pc {closepath stroke}bdef
/ps {stroke}bdef
/pum {matrix currentmatrix}bdef
/pom {setmatrix}bdef
/bs {/aString exch def /nXOfs exch def /nWidth exch def currentpoint nXOfs 0 rmoveto pum nWidth aString stringwidth pop div 1 scale aString show pom moveto} bdef
%%EndResource
%%EndProlog
%%BeginSetup
%%EndSetup
%%Page: 1 1
%%BeginPageSetup
%%EndPageSetup
pum
0.02833 0.02837 s 
0 -16000 t
/tm matrix currentmatrix def
gs
0 0 m 29999 0 l 29999 15999 l 0 15999 l 0 0 l eoclip newpath
gs
0 0 m 29999 0 l 29999 15999 l 0 15999 l 0 0 l eoclip newpath
0.449 0.625 0.812 c 9185 590 m  9922 590 10485 1153 10485 1890 ct 10485 2627 9922 3190 9185 3190 ct 
8448 3190 7885 2627 7885 1890 ct 7885 1153 8448 590 9185 590 ct p
7885 590 m  7885 590 l  p
10486 3191 m  10486 3191 l  p ef
106 lw 1 lj 0.207 0.398 0.644 c 9185 590 m  9922 590 10485 1153 10485 1890 ct 
10485 2627 9922 3190 9185 3190 ct 8448 3190 7885 2627 7885 1890 ct 7885 1153 8448 590 9185 590 ct 
pc
7885 590 m  7885 590 l  pc
10486 3191 m  10486 3191 l  pc
7885 1690 m  3185 3990 l  ps
7885 2150 m  3185 7990 l  ps
8085 2550 m  3185 11790 l  ps
0.003 0.003 0.003 c 4960 2400 m  4963 2391 4967 2372 4967 2368 ct 4967 2360 4960 2355 4953 2355 ct 
4948 2355 4938 2360 4935 2369 ct 4934 2372 4910 2468 4907 2480 ct 4903 2496 4903 2504 4903 2512 ct 
4903 2518 4903 2519 4903 2522 ct 4892 2547 4876 2563 4857 2563 ct 4817 2563 4817 2526 4817 2518 ct 
4817 2503 4820 2483 4844 2423 ct 4848 2407 4852 2400 4852 2391 ct 4852 2368 4836 2350 4812 2350 ct 
4764 2350 4746 2421 4746 2426 ct 4746 2431 4752 2431 4752 2431 ct 4757 2431 4757 2430 4760 2423 ct 
4773 2377 4792 2361 4810 2361 ct 4815 2361 4822 2361 4822 2377 ct 4822 2389 4816 2403 4813 2412 ct 
4791 2470 4785 2493 4785 2512 ct 4785 2557 4819 2574 4855 2574 ct 4864 2574 4887 2574 4907 2539 ct 
4920 2571 4955 2574 4969 2574 ct 5006 2574 5027 2543 5040 2514 ct 5057 2475 5074 2409 5074 2385 ct 
5074 2357 5060 2350 5051 2350 ct 5039 2350 5026 2362 5026 2374 ct 5026 2381 5030 2384 5034 2388 ct 
5040 2392 5051 2406 5051 2430 ct 5051 2447 5037 2494 5025 2519 ct 5012 2546 4995 2563 4970 2563 ct 
4948 2563 4934 2549 4934 2521 ct 4934 2507 4938 2491 4939 2484 ct 4960 2400 l 
p ef
5219 2053 m  5152 2099 5135 2172 5135 2225 ct 5135 2274 5149 2350 5219 2399 ct 
5222 2399 5226 2399 5226 2395 ct 5226 2392 5225 2392 5222 2389 ct 5176 2347 5159 2288 5159 2227 ct 
5159 2133 5195 2087 5223 2061 ct 5225 2060 5226 2059 5226 2057 ct 5226 2053 5222 2053 5219 2053 ct 
p ef
5365 2092 m  5365 2082 5365 2082 5355 2082 ct 5333 2105 5300 2105 5286 2105 ct 
5286 2117 l  5295 2117 5317 2117 5337 2108 ct 5337 2284 l  5337 2295 5337 2299 5302 2299 ct 
5289 2299 l  5289 2312 l  5295 2312 5338 2311 5351 2311 ct 5362 2311 5405 2312 5414 2312 ct 
5414 2299 l  5400 2299 l  5365 2299 5365 2295 5365 2284 ct 5365 2092 l  p ef
5477 2053 m  5474 2053 5470 2053 5470 2057 ct 5470 2059 5471 2060 5473 2063 ct 
5503 2089 5537 2137 5537 2225 ct 5537 2298 5513 2353 5475 2386 ct 5470 2392 5470 2393 5470 2395 ct 
5470 2396 5471 2399 5474 2399 ct 5478 2399 5512 2375 5534 2333 ct 5550 2304 5561 2266 5561 2227 ct 
5561 2178 5545 2102 5477 2053 ct p ef
5198 2480 m  5198 2470 5198 2470 5188 2470 ct 5166 2493 5134 2493 5120 2493 ct 
5120 2505 l  5128 2505 5151 2505 5170 2496 ct 5170 2672 l  5170 2683 5170 2687 5135 2687 ct 
5123 2687 l  5123 2700 l  5128 2700 5172 2699 5184 2699 ct 5195 2699 5239 2700 5247 2700 ct 
5247 2687 l  5233 2687 l  5198 2687 5198 2683 5198 2672 ct 5198 2480 l  p ef
5394 2480 m  5394 2470 5394 2470 5384 2470 ct 5362 2493 5330 2493 5316 2493 ct 
5316 2505 l  5324 2505 5347 2505 5366 2496 ct 5366 2672 l  5366 2683 5366 2687 5331 2687 ct 
5319 2687 l  5319 2700 l  5324 2700 5368 2699 5380 2699 ct 5391 2699 5435 2700 5443 2700 ct 
5443 2687 l  5429 2687 l  5394 2687 5394 2683 5394 2672 ct 5394 2480 l  p ef
0.601 0.203 1.000 c 1982 2515 m  2719 2515 3282 3078 3282 3815 ct 3282 4552 2719 5115 1982 5115 ct 
1245 5115 682 4552 682 3815 ct 682 3078 1245 2515 1982 2515 ct p
682 2515 m  682 2515 l  p
3283 5116 m  3283 5116 l  p ef
107 lw 0.402 0.003 0.800 c 1982 2515 m  2053 2515 2123 2520 2190 2530 ct ps
2323 2557 m  2391 2575 2457 2597 2520 2625 ct ps
2641 2685 m  2702 2719 2759 2759 2813 2803 ct ps
2913 2893 m  2962 2942 3006 2996 3047 3053 ct ps
3118 3167 m  3152 3227 3180 3291 3204 3357 ct ps
3243 3486 m  3259 3552 3270 3621 3277 3691 ct ps
3282 3827 m  3281 3898 3275 3968 3265 4035 ct ps
3237 4168 m  3219 4236 3195 4302 3167 4364 ct ps
3106 4484 m  3071 4545 3031 4602 2987 4655 ct ps
2895 4754 m  2846 4803 2792 4847 2734 4887 ct ps
2619 4957 m  2559 4990 2495 5018 2428 5041 ct ps
2300 5079 m  2233 5094 2164 5105 2094 5111 ct ps
1957 5115 m  1886 5114 1817 5107 1750 5096 ct ps
1618 5067 m  1550 5048 1484 5024 1422 4995 ct ps
1302 4933 m  1242 4897 1185 4857 1132 4812 ct ps
1034 4720 m  987 4669 943 4615 904 4557 ct ps
834 4442 m  802 4381 774 4317 752 4250 ct ps
716 4121 m  701 4054 690 3985 685 3914 ct ps
682 3778 m  684 3707 691 3638 703 3570 ct ps
734 3439 m  753 3371 777 3306 807 3244 ct ps
870 3125 m  907 3065 948 3009 993 2956 ct ps
1086 2859 m  1137 2812 1192 2769 1250 2730 ct ps
1366 2662 m  1427 2630 1492 2603 1559 2581 ct ps
1688 2546 m  1755 2532 1824 2522 1895 2518 ct ps
0.601 0.203 1.000 c 1982 6515 m  2719 6515 3282 7078 3282 7815 ct 3282 8552 2719 9115 1982 9115 ct 
1245 9115 682 8552 682 7815 ct 682 7078 1245 6515 1982 6515 ct p
682 6515 m  682 6515 l  p
3283 9116 m  3283 9116 l  p ef
0.402 0.003 0.800 c 1982 6515 m  2053 6515 2123 6520 2190 6530 ct ps
2323 6557 m  2391 6575 2457 6597 2520 6625 ct ps
2641 6685 m  2702 6719 2759 6759 2813 6803 ct ps
2913 6893 m  2962 6942 3006 6996 3047 7053 ct ps
3118 7167 m  3152 7227 3180 7291 3204 7357 ct ps
3243 7486 m  3259 7552 3270 7621 3277 7691 ct ps
3282 7827 m  3281 7898 3275 7968 3265 8035 ct ps
3237 8168 m  3219 8236 3195 8302 3167 8364 ct ps
3106 8484 m  3071 8545 3031 8602 2987 8655 ct ps
2895 8754 m  2846 8803 2792 8847 2734 8887 ct ps
2619 8957 m  2559 8990 2495 9018 2428 9041 ct ps
2300 9079 m  2233 9094 2164 9105 2094 9111 ct ps
1957 9115 m  1886 9114 1817 9107 1750 9096 ct ps
1618 9067 m  1550 9048 1484 9024 1422 8995 ct ps
1302 8933 m  1242 8897 1185 8857 1132 8812 ct ps
1034 8720 m  987 8669 943 8615 904 8557 ct ps
834 8442 m  802 8381 774 8317 752 8250 ct ps
716 8121 m  701 8054 690 7985 685 7914 ct ps
682 7778 m  684 7707 691 7638 703 7570 ct ps
734 7439 m  753 7371 777 7306 807 7244 ct ps
870 7125 m  907 7065 948 7009 993 6956 ct ps
1086 6859 m  1137 6812 1192 6769 1250 6730 ct ps
1366 6662 m  1427 6630 1492 6603 1559 6581 ct ps
1688 6546 m  1755 6532 1824 6522 1895 6518 ct ps
0.601 0.203 1.000 c 1982 10515 m  2719 10515 3282 11078 3282 11815 ct 3282 12552 2719 13115 1982 13115 ct 
1245 13115 682 12552 682 11815 ct 682 11078 1245 10515 1982 10515 ct p
682 10515 m  682 10515 l  p
3283 13116 m  3283 13116 l  p ef
0.402 0.003 0.800 c 1982 10515 m  2053 10515 2123 10520 2190 10530 ct ps
2323 10557 m  2391 10575 2457 10597 2520 10625 ct ps
2641 10685 m  2702 10719 2759 10759 2813 10803 ct ps
2913 10893 m  2962 10942 3006 10996 3047 11053 ct ps
3118 11167 m  3152 11227 3180 11291 3204 11357 ct ps
3243 11486 m  3259 11552 3270 11621 3277 11691 ct ps
3282 11827 m  3281 11898 3275 11968 3265 12035 ct ps
3237 12168 m  3219 12236 3195 12302 3167 12364 ct ps
3106 12484 m  3071 12545 3031 12602 2987 12655 ct ps
2895 12754 m  2846 12803 2792 12847 2734 12887 ct ps
2619 12957 m  2559 12990 2495 13018 2428 13041 ct ps
2300 13079 m  2233 13094 2164 13105 2094 13111 ct ps
1957 13115 m  1886 13114 1817 13107 1750 13096 ct ps
1618 13067 m  1550 13048 1484 13024 1422 12995 ct ps
1302 12933 m  1242 12897 1185 12857 1132 12812 ct ps
1034 12720 m  987 12669 943 12615 904 12557 ct ps
834 12442 m  802 12381 774 12317 752 12250 ct ps
716 12121 m  701 12054 690 11985 685 11914 ct ps
682 11778 m  684 11707 691 11638 703 11570 ct ps
734 11439 m  753 11371 777 11306 807 11244 ct ps
870 11125 m  907 11065 948 11009 993 10956 ct ps
1086 10859 m  1137 10812 1192 10769 1250 10730 ct ps
1366 10662 m  1427 10630 1492 10603 1559 10581 ct ps
1688 10546 m  1755 10532 1824 10522 1895 10518 ct ps
0.449 0.625 0.812 c 9185 4530 m  9922 4530 10485 5093 10485 5830 ct 10485 6567 9922 7130 9185 7130 ct 
8448 7130 7885 6567 7885 5830 ct 7885 5093 8448 4530 9185 4530 ct p
7885 4530 m  7885 4530 l  p
10486 7131 m  10486 7131 l  p ef
106 lw 0.207 0.398 0.644 c 9185 4530 m  9922 4530 10485 5093 10485 5830 ct 
10485 6567 9922 7130 9185 7130 ct 8448 7130 7885 6567 7885 5830 ct 7885 5093 8448 4530 9185 4530 ct 
pc
7885 4530 m  7885 4530 l  pc
10486 7131 m  10486 7131 l  pc
7885 5630 m  3285 3890 l  ps
7885 6090 m  3285 7890 l  ps
8085 6490 m  3185 11890 l  ps
0.449 0.625 0.812 c 9185 8590 m  9922 8590 10485 9153 10485 9890 ct 10485 10627 9922 11190 9185 11190 ct 
8448 11190 7885 10627 7885 9890 ct 7885 9153 8448 8590 9185 8590 ct p
7885 8590 m  7885 8590 l  p
10486 11191 m  10486 11191 l  p ef
0.207 0.398 0.644 c 9185 8590 m  9922 8590 10485 9153 10485 9890 ct 10485 10627 9922 11190 9185 11190 ct 
8448 11190 7885 10627 7885 9890 ct 7885 9153 8448 8590 9185 8590 ct pc
7885 8590 m  7885 8590 l  pc
10486 11191 m  10486 11191 l  pc
7885 9690 m  3185 7890 l  ps
8085 9290 m  3185 3890 l  ps
7885 10150 m  3285 11890 l  ps
0.449 0.625 0.812 c 9185 12590 m  9922 12590 10485 13153 10485 13890 ct 10485 14627 9922 15190 9185 15190 ct 
8448 15190 7885 14627 7885 13890 ct 7885 13153 8448 12590 9185 12590 ct p
7885 12590 m  7885 12590 l  p
10486 15191 m  10486 15191 l  p ef
0.207 0.398 0.644 c 9185 12590 m  9922 12590 10485 13153 10485 13890 ct 10485 14627 9922 15190 9185 15190 ct 
8448 15190 7885 14627 7885 13890 ct 7885 13153 8448 12590 9185 12590 ct pc
7885 12590 m  7885 12590 l  pc
10486 15191 m  10486 15191 l  pc
7885 13690 m  3185 7890 l  ps
8085 13290 m  3185 3890 l  ps
7885 14150 m  3185 11890 l  ps
0.449 0.625 0.812 c 18185 2630 m  18922 2630 19485 3193 19485 3930 ct 19485 4667 18922 5230 18185 5230 ct 
17448 5230 16885 4667 16885 3930 ct 16885 3193 17448 2630 18185 2630 ct p
16885 2630 m  16885 2630 l  p
19486 5231 m  19486 5231 l  p ef
0.207 0.398 0.644 c 18185 2630 m  18922 2630 19485 3193 19485 3930 ct 19485 4667 18922 5230 18185 5230 ct 
17448 5230 16885 4667 16885 3930 ct 16885 3193 17448 2630 18185 2630 ct pc
16885 2630 m  16885 2630 l  pc
19486 5231 m  19486 5231 l  pc
16885 3730 m  10485 5790 l  ps
17085 3330 m  10585 1890 l  ps
16885 4190 m  10485 9790 l  ps
17085 4590 m  10485 13890 l  ps
25285 5990 m  19485 3930 l  ps
25185 9890 m  19512 3930 l  ps
0.449 0.625 0.812 c 18185 6570 m  18922 6570 19485 7133 19485 7870 ct 19485 8607 18922 9170 18185 9170 ct 
17448 9170 16885 8607 16885 7870 ct 16885 7133 17448 6570 18185 6570 ct p
16885 6570 m  16885 6570 l  p
19486 9171 m  19486 9171 l  p ef
0.207 0.398 0.644 c 18185 6570 m  18922 6570 19485 7133 19485 7870 ct 19485 8607 18922 9170 18185 9170 ct 
17448 9170 16885 8607 16885 7870 ct 16885 7133 17448 6570 18185 6570 ct pc
16885 6570 m  16885 6570 l  pc
19486 9171 m  19486 9171 l  pc
16885 7670 m  10585 5790 l  ps
17085 7270 m  10585 1890 l  ps
16885 8130 m  10485 9790 l  ps
17085 8530 m  10485 13790 l  ps
25285 5990 m  19485 7870 l  ps
25285 9890 m  19512 7870 l  ps
0.449 0.625 0.812 c 18185 10630 m  18922 10630 19485 11193 19485 11930 ct 
19485 12667 18922 13230 18185 13230 ct 17448 13230 16885 12667 16885 11930 ct 
16885 11193 17448 10630 18185 10630 ct p
16885 10630 m  16885 10630 l  p
19486 13231 m  19486 13231 l  p ef
0.207 0.398 0.644 c 18185 10630 m  18922 10630 19485 11193 19485 11930 ct 
19485 12667 18922 13230 18185 13230 ct 17448 13230 16885 12667 16885 11930 ct 
16885 11193 17448 10630 18185 10630 ct pc
16885 10630 m  16885 10630 l  pc
19486 13231 m  19486 13231 l  pc
16885 11730 m  10585 5790 l  ps
17085 11330 m  10585 1890 l  ps
16885 12190 m  10585 9790 l  ps
17085 12590 m  10585 13890 l  ps
25285 5890 m  19485 11930 l  ps
25185 9790 m  19512 11930 l  ps
0.601 1.000 0.203 c 26585 4750 m  27322 4750 27885 5313 27885 6050 ct 27885 6787 27322 7350 26585 7350 ct 
25848 7350 25285 6787 25285 6050 ct 25285 5313 25848 4750 26585 4750 ct p
25285 4750 m  25285 4750 l  p
27886 7351 m  27886 7351 l  p ef
0.402 0.800 0.003 c 26585 4750 m  27322 4750 27885 5313 27885 6050 ct 27885 6787 27322 7350 26585 7350 ct 
25848 7350 25285 6787 25285 6050 ct 25285 5313 25848 4750 26585 4750 ct pc
25285 4750 m  25285 4750 l  pc
27886 7351 m  27886 7351 l  pc
0.601 1.000 0.203 c 26585 8690 m  27322 8690 27885 9253 27885 9990 ct 27885 10727 27322 11290 26585 11290 ct 
25848 11290 25285 10727 25285 9990 ct 25285 9253 25848 8690 26585 8690 ct p
25285 8690 m  25285 8690 l  p
27886 11291 m  27886 11291 l  p ef
0.402 0.800 0.003 c 26585 8690 m  27322 8690 27885 9253 27885 9990 ct 27885 10727 27322 11290 26585 11290 ct 
25848 11290 25285 10727 25285 9990 ct 25285 9253 25848 8690 26585 8690 ct pc
25285 8690 m  25285 8690 l  pc
27886 11291 m  27886 11291 l  pc
29285 5890 m  27885 5930 l  ps
29285 9950 m  27885 9990 l  ps
0.003 0.003 0.003 c 4928 4047 m  4931 4038 4935 4019 4935 4015 ct 4935 4007 4928 4002 4921 4002 ct 
4916 4002 4906 4007 4903 4016 ct 4902 4019 4878 4115 4875 4127 ct 4871 4143 4871 4151 4871 4159 ct 
4871 4165 4871 4166 4871 4169 ct 4860 4194 4844 4210 4825 4210 ct 4785 4210 4785 4173 4785 4165 ct 
4785 4150 4788 4130 4812 4070 ct 4816 4054 4820 4047 4820 4038 ct 4820 4015 4804 3997 4780 3997 ct 
4732 3997 4714 4068 4714 4073 ct 4714 4078 4720 4078 4720 4078 ct 4725 4078 4725 4077 4728 4070 ct 
4741 4023 4760 4008 4778 4008 ct 4783 4008 4790 4008 4790 4023 ct 4790 4036 4784 4050 4781 4059 ct 
4759 4117 4753 4140 4753 4159 ct 4753 4204 4787 4221 4823 4221 ct 4832 4221 4855 4221 4875 4186 ct 
4888 4218 4923 4221 4937 4221 ct 4974 4221 4995 4190 5008 4161 ct 5025 4122 5042 4056 5042 4032 ct 
5042 4004 5028 3997 5019 3997 ct 5007 3997 4994 4009 4994 4021 ct 4994 4028 4998 4031 5002 4035 ct 
5008 4039 5019 4053 5019 4077 ct 5019 4094 5005 4141 4993 4166 ct 4980 4193 4963 4210 4938 4210 ct 
4916 4210 4902 4196 4902 4168 ct 4902 4154 4906 4138 4907 4131 ct 4928 4047 l 
p ef
5187 3700 m  5120 3746 5103 3819 5103 3872 ct 5103 3921 5117 3997 5187 4046 ct 
5190 4046 5194 4046 5194 4042 ct 5194 4039 5193 4039 5190 4036 ct 5144 3994 5127 3935 5127 3874 ct 
5127 3780 5163 3734 5191 3708 ct 5193 3707 5194 3706 5194 3704 ct 5194 3700 5190 3700 5187 3700 ct 
p ef
5333 3739 m  5333 3729 5333 3729 5323 3729 ct 5301 3752 5268 3752 5254 3752 ct 
5254 3764 l  5263 3764 5285 3764 5305 3755 ct 5305 3931 l  5305 3942 5305 3946 5270 3946 ct 
5257 3946 l  5257 3959 l  5263 3959 5306 3958 5319 3958 ct 5330 3958 5373 3959 5382 3959 ct 
5382 3946 l  5368 3946 l  5333 3946 5333 3942 5333 3931 ct 5333 3739 l  p ef
5445 3700 m  5442 3700 5438 3700 5438 3704 ct 5438 3706 5439 3707 5441 3710 ct 
5471 3736 5505 3784 5505 3872 ct 5505 3945 5481 4000 5443 4033 ct 5438 4039 5438 4040 5438 4042 ct 
5438 4043 5439 4046 5442 4046 ct 5446 4046 5480 4022 5502 3980 ct 5518 3951 5529 3913 5529 3874 ct 
5529 3825 5513 3749 5445 3700 ct p ef
5226 4284 m  5214 4284 l  5214 4292 5210 4312 5205 4316 ct 5203 4318 5176 4318 5170 4318 ct 
5107 4318 l  5144 4285 5155 4276 5176 4260 ct 5203 4239 5226 4218 5226 4185 ct 
5226 4143 5189 4117 5145 4117 ct 5102 4117 5072 4148 5072 4179 ct 5072 4197 5088 4199 5091 4199 ct 
5099 4199 5109 4193 5109 4180 ct 5109 4175 5107 4162 5089 4162 ct 5099 4137 5123 4130 5140 4130 ct 
5175 4130 5193 4157 5193 4185 ct 5193 4215 5170 4239 5159 4252 ct 5075 4334 l 
5072 4337 5072 4337 5072 4347 ct 5215 4347 l  5226 4284 l  p ef
5362 4127 m  5362 4117 5362 4117 5352 4117 ct 5330 4140 5298 4140 5284 4140 ct 
5284 4152 l  5292 4152 5315 4152 5334 4143 ct 5334 4319 l  5334 4330 5334 4334 5299 4334 ct 
5287 4334 l  5287 4347 l  5292 4347 5336 4346 5348 4346 ct 5359 4346 5403 4347 5411 4347 ct 
5411 4334 l  5397 4334 l  5362 4334 5362 4330 5362 4319 ct 5362 4127 l  p ef
3260 10293 m  3263 10284 3267 10265 3267 10261 ct 3267 10253 3260 10248 3253 10248 ct 
3248 10248 3238 10253 3235 10262 ct 3234 10265 3210 10361 3207 10373 ct 3203 10389 3203 10397 3203 10405 ct 
3203 10411 3203 10412 3203 10415 ct 3192 10440 3176 10456 3157 10456 ct 3117 10456 3117 10419 3117 10411 ct 
3117 10396 3120 10376 3144 10316 ct 3148 10300 3152 10293 3152 10284 ct 3152 10261 3136 10243 3112 10243 ct 
3064 10243 3046 10314 3046 10319 ct 3046 10324 3052 10324 3052 10324 ct 3057 10324 3057 10323 3060 10316 ct 
3073 10269 3092 10254 3110 10254 ct 3115 10254 3122 10254 3122 10269 ct 3122 10282 3116 10296 3113 10305 ct 
3091 10363 3085 10386 3085 10405 ct 3085 10450 3119 10467 3155 10467 ct 3164 10467 3187 10467 3207 10432 ct 
3220 10464 3255 10467 3269 10467 ct 3306 10467 3327 10436 3340 10407 ct 3357 10368 3374 10302 3374 10278 ct 
3374 10250 3360 10243 3351 10243 ct 3339 10243 3326 10255 3326 10267 ct 3326 10274 3330 10277 3334 10281 ct 
3340 10285 3351 10299 3351 10323 ct 3351 10340 3337 10387 3325 10412 ct 3312 10439 3295 10456 3270 10456 ct 
3248 10456 3234 10442 3234 10414 ct 3234 10400 3238 10384 3239 10377 ct 3260 10293 l 
p ef
3519 9946 m  3452 9992 3435 10065 3435 10118 ct 3435 10167 3449 10243 3519 10292 ct 
3522 10292 3526 10292 3526 10288 ct 3526 10285 3525 10285 3522 10282 ct 3476 10240 3459 10181 3459 10120 ct 
3459 10026 3495 9980 3523 9954 ct 3525 9953 3526 9952 3526 9950 ct 3526 9946 3522 9946 3519 9946 ct 
p ef
3665 9985 m  3665 9975 3665 9975 3655 9975 ct 3633 9998 3600 9998 3586 9998 ct 
3586 10010 l  3595 10010 3617 10010 3637 10001 ct 3637 10177 l  3637 10188 3637 10192 3602 10192 ct 
3589 10192 l  3589 10205 l  3595 10205 3638 10204 3651 10204 ct 3662 10204 3705 10205 3714 10205 ct 
3714 10192 l  3700 10192 l  3665 10192 3665 10188 3665 10177 ct 3665 9985 l 
p ef
3777 9946 m  3774 9946 3770 9946 3770 9950 ct 3770 9952 3771 9953 3773 9956 ct 
3803 9982 3837 10030 3837 10118 ct 3837 10191 3813 10246 3775 10279 ct 3770 10285 3770 10286 3770 10288 ct 
3770 10289 3771 10292 3774 10292 ct 3778 10292 3812 10268 3834 10226 ct 3850 10197 3861 10159 3861 10120 ct 
3861 10071 3845 9995 3777 9946 ct p ef
3558 10530 m  3546 10530 l  3546 10538 3542 10558 3537 10562 ct 3535 10564 3508 10564 3502 10564 ct 
3439 10564 l  3476 10531 3487 10522 3508 10506 ct 3535 10485 3558 10464 3558 10431 ct 
3558 10389 3521 10363 3477 10363 ct 3434 10363 3404 10394 3404 10425 ct 3404 10443 3420 10445 3423 10445 ct 
3431 10445 3441 10439 3441 10426 ct 3441 10421 3439 10408 3421 10408 ct 3431 10383 3455 10376 3472 10376 ct 
3507 10376 3525 10403 3525 10431 ct 3525 10461 3502 10485 3491 10498 ct 3407 10580 l 
3404 10583 3404 10583 3404 10593 ct 3547 10593 l  3558 10530 l  p ef
3673 10478 m  3701 10478 3721 10496 3721 10534 ct 3721 10576 3696 10589 3675 10589 ct 
3661 10589 3631 10586 3616 10565 ct 3633 10565 3637 10552 3637 10545 ct 3637 10534 3628 10527 3617 10527 ct 
3607 10527 3598 10533 3598 10547 ct 3598 10579 3634 10600 3676 10600 ct 3724 10600 3757 10568 3757 10534 ct 
3757 10506 3735 10480 3697 10471 ct 3733 10459 3746 10432 3746 10411 ct 3746 10384 3715 10363 3676 10363 ct 
3638 10363 3609 10382 3609 10410 ct 3609 10422 3616 10428 3627 10428 ct 3637 10428 3644 10421 3644 10411 ct 
3644 10400 3637 10393 3627 10393 ct 3638 10377 3662 10373 3676 10373 ct 3691 10373 3712 10382 3712 10411 ct 
3712 10426 3708 10442 3698 10453 ct 3687 10466 3677 10467 3661 10467 ct 3652 10468 3651 10468 3649 10468 ct 
3648 10468 3647 10468 3647 10473 ct 3647 10478 3649 10478 3655 10478 ct 3673 10478 l 
p ef
4528 13247 m  4531 13238 4535 13219 4535 13215 ct 4535 13207 4528 13202 4521 13202 ct 
4516 13202 4506 13207 4503 13216 ct 4502 13219 4478 13315 4475 13327 ct 4471 13343 4471 13351 4471 13359 ct 
4471 13365 4471 13366 4471 13369 ct 4460 13394 4444 13410 4425 13410 ct 4385 13410 4385 13373 4385 13365 ct 
4385 13350 4388 13330 4412 13270 ct 4416 13254 4420 13247 4420 13238 ct 4420 13215 4404 13197 4380 13197 ct 
4332 13197 4314 13268 4314 13273 ct 4314 13278 4320 13278 4320 13278 ct 4325 13278 4325 13277 4328 13270 ct 
4341 13223 4360 13208 4378 13208 ct 4383 13208 4390 13208 4390 13223 ct 4390 13236 4384 13250 4381 13259 ct 
4359 13317 4353 13340 4353 13359 ct 4353 13404 4387 13421 4423 13421 ct 4432 13421 4455 13421 4475 13386 ct 
4488 13418 4523 13421 4537 13421 ct 4574 13421 4595 13390 4608 13361 ct 4625 13322 4642 13256 4642 13232 ct 
4642 13204 4628 13197 4619 13197 ct 4607 13197 4594 13209 4594 13221 ct 4594 13228 4598 13231 4602 13235 ct 
4608 13239 4619 13253 4619 13277 ct 4619 13294 4605 13341 4593 13366 ct 4580 13393 4563 13410 4538 13410 ct 
4516 13410 4502 13396 4502 13368 ct 4502 13354 4506 13338 4507 13331 ct 4528 13247 l 
p ef
4787 12900 m  4720 12946 4703 13019 4703 13072 ct 4703 13121 4717 13197 4787 13246 ct 
4790 13246 4794 13246 4794 13242 ct 4794 13239 4793 13239 4790 13236 ct 4744 13194 4727 13135 4727 13074 ct 
4727 12980 4763 12934 4791 12908 ct 4793 12907 4794 12906 4794 12904 ct 4794 12900 4790 12900 4787 12900 ct 
p ef
4933 12939 m  4933 12929 4933 12929 4923 12929 ct 4901 12952 4868 12952 4854 12952 ct 
4854 12964 l  4863 12964 4885 12964 4905 12955 ct 4905 13131 l  4905 13142 4905 13146 4870 13146 ct 
4857 13146 l  4857 13159 l  4863 13159 4906 13158 4919 13158 ct 4930 13158 4973 13159 4982 13159 ct 
4982 13146 l  4968 13146 l  4933 13146 4933 13142 4933 13131 ct 4933 12939 l 
p ef
5045 12900 m  5042 12900 5038 12900 5038 12904 ct 5038 12906 5039 12907 5041 12910 ct 
5071 12936 5105 12984 5105 13072 ct 5105 13145 5081 13200 5043 13233 ct 5038 13239 5038 13240 5038 13242 ct 
5038 13243 5039 13246 5042 13246 ct 5046 13246 5080 13222 5102 13180 ct 5118 13151 5129 13113 5129 13074 ct 
5129 13025 5113 12949 5045 12900 ct p ef
4835 13490 m  4835 13477 l  4796 13477 l  4796 13323 l  4796 13316 4796 13313 4789 13313 ct 
4784 13313 4783 13313 4779 13317 ct 4664 13477 l  4664 13490 l  4766 13490 l 
4766 13519 l  4766 13530 4766 13534 4738 13534 ct 4728 13534 l  4728 13547 l 
4747 13546 4768 13546 4780 13546 ct 4794 13546 4815 13546 4833 13547 ct 4833 13534 l 
4824 13534 l  4796 13534 4796 13530 4796 13519 ct 4796 13490 l  4835 13490 l 
p
4769 13351 m  4769 13477 l  4677 13477 l  4769 13351 l  p ef
4941 13432 m  4969 13432 4989 13450 4989 13488 ct 4989 13530 4964 13543 4943 13543 ct 
4929 13543 4899 13540 4884 13519 ct 4901 13519 4905 13506 4905 13499 ct 4905 13488 4896 13481 4885 13481 ct 
4875 13481 4866 13487 4866 13501 ct 4866 13533 4902 13554 4944 13554 ct 4992 13554 5025 13522 5025 13488 ct 
5025 13460 5003 13434 4965 13425 ct 5001 13413 5014 13386 5014 13365 ct 5014 13338 4983 13317 4944 13317 ct 
4906 13317 4877 13336 4877 13364 ct 4877 13376 4884 13382 4895 13382 ct 4905 13382 4912 13375 4912 13365 ct 
4912 13354 4905 13347 4895 13347 ct 4906 13331 4930 13327 4944 13327 ct 4959 13327 4980 13336 4980 13365 ct 
4980 13380 4976 13396 4966 13407 ct 4955 13420 4945 13421 4929 13421 ct 4920 13422 4919 13422 4917 13422 ct 
4916 13422 4915 13422 4915 13427 ct 4915 13432 4917 13432 4923 13432 ct 4941 13432 l 
p ef
3428 6594 m  3431 6585 3435 6566 3435 6562 ct 3435 6554 3428 6549 3421 6549 ct 
3416 6549 3406 6554 3403 6563 ct 3402 6566 3378 6662 3375 6674 ct 3371 6690 3371 6698 3371 6706 ct 
3371 6712 3371 6713 3371 6716 ct 3360 6741 3344 6757 3325 6757 ct 3285 6757 3285 6720 3285 6712 ct 
3285 6697 3288 6677 3312 6617 ct 3316 6601 3320 6594 3320 6585 ct 3320 6562 3304 6544 3280 6544 ct 
3232 6544 3214 6615 3214 6620 ct 3214 6625 3220 6625 3220 6625 ct 3225 6625 3225 6624 3228 6617 ct 
3241 6571 3260 6555 3278 6555 ct 3283 6555 3290 6555 3290 6570 ct 3290 6583 3284 6597 3281 6606 ct 
3259 6664 3253 6687 3253 6706 ct 3253 6751 3287 6768 3323 6768 ct 3332 6768 3355 6768 3375 6733 ct 
3388 6765 3423 6768 3437 6768 ct 3474 6768 3495 6737 3508 6708 ct 3525 6669 3542 6603 3542 6579 ct 
3542 6551 3528 6544 3519 6544 ct 3507 6544 3494 6556 3494 6568 ct 3494 6575 3498 6578 3502 6582 ct 
3508 6586 3519 6600 3519 6624 ct 3519 6641 3505 6688 3493 6713 ct 3480 6740 3463 6757 3438 6757 ct 
3416 6757 3402 6743 3402 6715 ct 3402 6701 3406 6685 3407 6678 ct 3428 6594 l 
p ef
3687 6247 m  3620 6293 3603 6366 3603 6419 ct 3603 6468 3617 6544 3687 6593 ct 
3690 6593 3694 6593 3694 6589 ct 3694 6586 3693 6586 3690 6583 ct 3644 6541 3627 6482 3627 6421 ct 
3627 6327 3663 6281 3691 6255 ct 3693 6254 3694 6253 3694 6251 ct 3694 6247 3690 6247 3687 6247 ct 
p ef
3833 6286 m  3833 6276 3833 6276 3823 6276 ct 3801 6299 3768 6299 3754 6299 ct 
3754 6311 l  3763 6311 3785 6311 3805 6302 ct 3805 6478 l  3805 6489 3805 6493 3770 6493 ct 
3757 6493 l  3757 6506 l  3763 6506 3806 6505 3819 6505 ct 3830 6505 3873 6506 3882 6506 ct 
3882 6493 l  3868 6493 l  3833 6493 3833 6489 3833 6478 ct 3833 6286 l  p ef
3945 6247 m  3942 6247 3938 6247 3938 6251 ct 3938 6253 3939 6254 3941 6257 ct 
3971 6283 4005 6331 4005 6419 ct 4005 6492 3981 6547 3943 6580 ct 3938 6586 3938 6587 3938 6589 ct 
3938 6590 3939 6593 3942 6593 ct 3946 6593 3980 6569 4002 6527 ct 4018 6498 4029 6460 4029 6421 ct 
4029 6372 4013 6296 3945 6247 ct p ef
3666 6674 m  3666 6664 3666 6664 3656 6664 ct 3634 6687 3602 6687 3588 6687 ct 
3588 6699 l  3596 6699 3619 6699 3638 6690 ct 3638 6866 l  3638 6877 3638 6881 3603 6881 ct 
3591 6881 l  3591 6894 l  3596 6894 3640 6893 3652 6893 ct 3663 6893 3707 6894 3715 6894 ct 
3715 6881 l  3701 6881 l  3666 6881 3666 6877 3666 6866 ct 3666 6674 l  p ef
3922 6831 m  3910 6831 l  3910 6839 3906 6859 3901 6863 ct 3899 6865 3872 6865 3866 6865 ct 
3803 6865 l  3840 6832 3851 6823 3872 6807 ct 3899 6786 3922 6765 3922 6732 ct 
3922 6690 3885 6664 3841 6664 ct 3798 6664 3768 6695 3768 6726 ct 3768 6744 3784 6746 3787 6746 ct 
3795 6746 3805 6740 3805 6727 ct 3805 6722 3803 6709 3785 6709 ct 3795 6684 3819 6677 3836 6677 ct 
3871 6677 3889 6704 3889 6732 ct 3889 6762 3866 6786 3855 6799 ct 3771 6881 l 
3768 6884 3768 6884 3768 6894 ct 3911 6894 l  3922 6831 l  p ef
14228 2101 m  14231 2092 14235 2073 14235 2069 ct 14235 2061 14228 2056 14221 2056 ct 
14216 2056 14206 2061 14203 2070 ct 14202 2073 14178 2169 14175 2181 ct 14171 2197 14171 2205 14171 2213 ct 
14171 2219 14171 2220 14171 2223 ct 14160 2248 14144 2264 14125 2264 ct 14085 2264 14085 2227 14085 2219 ct 
14085 2204 14088 2184 14112 2124 ct 14116 2108 14120 2101 14120 2092 ct 14120 2069 14104 2051 14080 2051 ct 
14032 2051 14014 2122 14014 2127 ct 14014 2132 14020 2132 14020 2132 ct 14025 2132 14025 2131 14028 2124 ct 
14041 2077 14060 2062 14078 2062 ct 14083 2062 14090 2062 14090 2077 ct 14090 2090 14084 2104 14081 2113 ct 
14059 2171 14053 2194 14053 2213 ct 14053 2258 14087 2275 14123 2275 ct 14132 2275 14155 2275 14175 2240 ct 
14188 2272 14223 2275 14237 2275 ct 14274 2275 14295 2244 14308 2215 ct 14325 2176 14342 2110 14342 2086 ct 
14342 2058 14328 2051 14319 2051 ct 14307 2051 14294 2063 14294 2075 ct 14294 2082 14298 2085 14302 2089 ct 
14308 2093 14319 2107 14319 2131 ct 14319 2148 14305 2195 14293 2220 ct 14280 2247 14263 2264 14238 2264 ct 
14216 2264 14202 2250 14202 2222 ct 14202 2208 14206 2192 14207 2185 ct 14228 2101 l 
p ef
14487 1754 m  14420 1800 14403 1873 14403 1926 ct 14403 1975 14417 2051 14487 2100 ct 
14490 2100 14494 2100 14494 2096 ct 14494 2093 14493 2093 14490 2090 ct 14444 2048 14427 1989 14427 1928 ct 
14427 1834 14463 1788 14491 1762 ct 14493 1761 14494 1760 14494 1758 ct 14494 1754 14490 1754 14487 1754 ct 
p ef
14693 1950 m  14680 1950 l  14680 1958 14676 1978 14672 1982 ct 14669 1984 14643 1984 14637 1984 ct 
14574 1984 l  14610 1951 14622 1942 14643 1926 ct 14669 1905 14693 1884 14693 1851 ct 
14693 1809 14655 1783 14612 1783 ct 14568 1783 14539 1814 14539 1845 ct 14539 1863 14554 1865 14557 1865 ct 
14566 1865 14575 1859 14575 1846 ct 14575 1841 14574 1828 14556 1828 ct 14566 1803 14589 1796 14606 1796 ct 
14641 1796 14659 1823 14659 1851 ct 14659 1881 14637 1905 14626 1918 ct 14542 2000 l 
14539 2003 14539 2003 14539 2013 ct 14682 2013 l  14693 1950 l  p ef
14745 1754 m  14742 1754 14738 1754 14738 1758 ct 14738 1760 14739 1761 14741 1764 ct 
14771 1790 14805 1838 14805 1926 ct 14805 1999 14781 2054 14743 2087 ct 14738 2093 14738 2094 14738 2096 ct 
14738 2097 14739 2100 14742 2100 ct 14746 2100 14780 2076 14802 2034 ct 14818 2005 14829 1967 14829 1928 ct 
14829 1879 14813 1803 14745 1754 ct p ef
14466 2181 m  14466 2171 14466 2171 14456 2171 ct 14434 2194 14402 2194 14388 2194 ct 
14388 2206 l  14396 2206 14419 2206 14438 2197 ct 14438 2373 l  14438 2384 14438 2388 14403 2388 ct 
14391 2388 l  14391 2401 l  14396 2401 14440 2400 14452 2400 ct 14463 2400 14507 2401 14515 2401 ct 
14515 2388 l  14501 2388 l  14466 2388 14466 2384 14466 2373 ct 14466 2181 l 
p ef
14662 2181 m  14662 2171 14662 2171 14652 2171 ct 14630 2194 14598 2194 14584 2194 ct 
14584 2206 l  14592 2206 14615 2206 14634 2197 ct 14634 2373 l  14634 2384 14634 2388 14599 2388 ct 
14587 2388 l  14587 2401 l  14592 2401 14636 2400 14648 2400 ct 14659 2400 14703 2401 14711 2401 ct 
14711 2388 l  14697 2388 l  14662 2388 14662 2384 14662 2373 ct 14662 2181 l 
p ef
13260 3548 m  13263 3539 13267 3520 13267 3516 ct 13267 3508 13260 3503 13253 3503 ct 
13248 3503 13238 3508 13235 3517 ct 13234 3520 13210 3616 13207 3628 ct 13203 3644 13203 3652 13203 3660 ct 
13203 3666 13203 3667 13203 3670 ct 13192 3695 13176 3711 13157 3711 ct 13117 3711 13117 3674 13117 3666 ct 
13117 3651 13120 3631 13144 3571 ct 13148 3555 13152 3548 13152 3539 ct 13152 3516 13136 3498 13112 3498 ct 
13064 3498 13046 3569 13046 3574 ct 13046 3579 13052 3579 13052 3579 ct 13057 3579 13057 3578 13060 3571 ct 
13073 3525 13092 3509 13110 3509 ct 13115 3509 13122 3509 13122 3525 ct 13122 3537 13116 3551 13113 3560 ct 
13091 3618 13085 3641 13085 3660 ct 13085 3705 13119 3722 13155 3722 ct 13164 3722 13187 3722 13207 3687 ct 
13220 3719 13255 3722 13269 3722 ct 13306 3722 13327 3691 13340 3662 ct 13357 3623 13374 3557 13374 3533 ct 
13374 3505 13360 3498 13351 3498 ct 13339 3498 13326 3510 13326 3522 ct 13326 3529 13330 3532 13334 3536 ct 
13340 3540 13351 3554 13351 3578 ct 13351 3595 13337 3642 13325 3667 ct 13312 3694 13295 3711 13270 3711 ct 
13248 3711 13234 3697 13234 3669 ct 13234 3655 13238 3639 13239 3632 ct 13260 3548 l 
p ef
13519 3201 m  13452 3247 13435 3320 13435 3373 ct 13435 3422 13449 3498 13519 3547 ct 
13522 3547 13526 3547 13526 3543 ct 13526 3540 13525 3540 13522 3537 ct 13476 3495 13459 3436 13459 3375 ct 
13459 3281 13495 3235 13523 3209 ct 13525 3208 13526 3207 13526 3205 ct 13526 3201 13522 3201 13519 3201 ct 
p ef
13725 3397 m  13712 3397 l  13712 3405 13708 3425 13704 3429 ct 13701 3431 13675 3431 13669 3431 ct 
13606 3431 l  13642 3398 13654 3389 13675 3373 ct 13701 3352 13725 3331 13725 3298 ct 
13725 3256 13687 3230 13644 3230 ct 13600 3230 13571 3261 13571 3292 ct 13571 3310 13586 3312 13589 3312 ct 
13598 3312 13607 3306 13607 3293 ct 13607 3288 13606 3275 13588 3275 ct 13598 3250 13621 3243 13638 3243 ct 
13673 3243 13691 3270 13691 3298 ct 13691 3328 13669 3352 13658 3365 ct 13574 3447 l 
13571 3450 13571 3450 13571 3460 ct 13714 3460 l  13725 3397 l  p ef
13777 3201 m  13774 3201 13770 3201 13770 3205 ct 13770 3207 13771 3208 13773 3211 ct 
13803 3237 13837 3285 13837 3373 ct 13837 3446 13813 3501 13775 3534 ct 13770 3540 13770 3541 13770 3543 ct 
13770 3544 13771 3547 13774 3547 ct 13778 3547 13812 3523 13834 3481 ct 13850 3452 13861 3414 13861 3375 ct 
13861 3326 13845 3250 13777 3201 ct p ef
13558 3785 m  13546 3785 l  13546 3793 13542 3813 13537 3817 ct 13535 3819 13508 3819 13502 3819 ct 
13439 3819 l  13476 3786 13487 3777 13508 3761 ct 13535 3740 13558 3719 13558 3686 ct 
13558 3644 13521 3618 13477 3618 ct 13434 3618 13404 3649 13404 3680 ct 13404 3698 13420 3700 13423 3700 ct 
13431 3700 13441 3694 13441 3681 ct 13441 3676 13439 3663 13421 3663 ct 13431 3638 13455 3631 13472 3631 ct 
13507 3631 13525 3658 13525 3686 ct 13525 3716 13502 3740 13491 3753 ct 13407 3835 l 
13404 3838 13404 3838 13404 3848 ct 13547 3848 l  13558 3785 l  p ef
13694 3628 m  13694 3618 13694 3618 13684 3618 ct 13662 3641 13630 3641 13616 3641 ct 
13616 3653 l  13624 3653 13647 3653 13666 3644 ct 13666 3820 l  13666 3831 13666 3835 13631 3835 ct 
13619 3835 l  13619 3848 l  13624 3848 13668 3847 13680 3847 ct 13691 3847 13735 3848 13743 3848 ct 
13743 3835 l  13729 3835 l  13694 3835 13694 3831 13694 3820 ct 13694 3628 l 
p ef
10960 8547 m  10963 8538 10967 8519 10967 8515 ct 10967 8507 10960 8502 10953 8502 ct 
10948 8502 10938 8507 10935 8516 ct 10934 8519 10910 8615 10907 8627 ct 10903 8643 10903 8651 10903 8659 ct 
10903 8665 10903 8666 10903 8669 ct 10892 8694 10876 8710 10857 8710 ct 10817 8710 10817 8673 10817 8665 ct 
10817 8650 10820 8630 10844 8570 ct 10848 8554 10852 8547 10852 8538 ct 10852 8515 10836 8497 10812 8497 ct 
10764 8497 10746 8568 10746 8573 ct 10746 8578 10752 8578 10752 8578 ct 10757 8578 10757 8577 10760 8570 ct 
10773 8523 10792 8508 10810 8508 ct 10815 8508 10822 8508 10822 8523 ct 10822 8536 10816 8550 10813 8559 ct 
10791 8617 10785 8640 10785 8659 ct 10785 8704 10819 8721 10855 8721 ct 10864 8721 10887 8721 10907 8686 ct 
10920 8718 10955 8721 10969 8721 ct 11006 8721 11027 8690 11040 8661 ct 11057 8622 11074 8556 11074 8532 ct 
11074 8504 11060 8497 11051 8497 ct 11039 8497 11026 8509 11026 8521 ct 11026 8528 11030 8531 11034 8535 ct 
11040 8539 11051 8553 11051 8577 ct 11051 8594 11037 8641 11025 8666 ct 11012 8693 10995 8710 10970 8710 ct 
10948 8710 10934 8696 10934 8668 ct 10934 8654 10938 8638 10939 8631 ct 10960 8547 l 
p ef
11219 8200 m  11152 8246 11135 8319 11135 8372 ct 11135 8421 11149 8497 11219 8546 ct 
11222 8546 11226 8546 11226 8542 ct 11226 8539 11225 8539 11222 8536 ct 11176 8494 11159 8435 11159 8374 ct 
11159 8280 11195 8234 11223 8208 ct 11225 8207 11226 8206 11226 8204 ct 11226 8200 11222 8200 11219 8200 ct 
p ef
11425 8396 m  11412 8396 l  11412 8404 11408 8424 11404 8428 ct 11401 8430 11375 8430 11369 8430 ct 
11306 8430 l  11342 8397 11354 8388 11375 8372 ct 11401 8351 11425 8330 11425 8297 ct 
11425 8255 11387 8229 11344 8229 ct 11300 8229 11271 8260 11271 8291 ct 11271 8309 11286 8311 11289 8311 ct 
11298 8311 11307 8305 11307 8292 ct 11307 8287 11306 8274 11288 8274 ct 11298 8249 11321 8242 11338 8242 ct 
11373 8242 11391 8269 11391 8297 ct 11391 8327 11369 8351 11358 8364 ct 11274 8446 l 
11271 8449 11271 8449 11271 8459 ct 11414 8459 l  11425 8396 l  p ef
11477 8200 m  11474 8200 11470 8200 11470 8204 ct 11470 8206 11471 8207 11473 8210 ct 
11503 8236 11537 8284 11537 8372 ct 11537 8445 11513 8500 11475 8533 ct 11470 8539 11470 8540 11470 8542 ct 
11470 8543 11471 8546 11474 8546 ct 11478 8546 11512 8522 11534 8480 ct 11550 8451 11561 8413 11561 8374 ct 
11561 8325 11545 8249 11477 8200 ct p ef
11198 8627 m  11198 8617 11198 8617 11188 8617 ct 11166 8640 11134 8640 11120 8640 ct 
11120 8652 l  11128 8652 11151 8652 11170 8643 ct 11170 8819 l  11170 8830 11170 8834 11135 8834 ct 
11123 8834 l  11123 8847 l  11128 8847 11172 8846 11184 8846 ct 11195 8846 11239 8847 11247 8847 ct 
11247 8834 l  11233 8834 l  11198 8834 11198 8830 11198 8819 ct 11198 8627 l 
p ef
11373 8732 m  11401 8732 11421 8750 11421 8788 ct 11421 8830 11396 8843 11375 8843 ct 
11361 8843 11331 8840 11316 8819 ct 11333 8819 11337 8806 11337 8799 ct 11337 8788 11328 8781 11317 8781 ct 
11307 8781 11298 8787 11298 8801 ct 11298 8833 11334 8854 11376 8854 ct 11424 8854 11457 8822 11457 8788 ct 
11457 8760 11435 8734 11397 8725 ct 11433 8713 11446 8686 11446 8665 ct 11446 8638 11415 8617 11376 8617 ct 
11338 8617 11309 8636 11309 8664 ct 11309 8676 11316 8682 11327 8682 ct 11337 8682 11344 8675 11344 8665 ct 
11344 8654 11337 8647 11327 8647 ct 11338 8631 11362 8627 11376 8627 ct 11391 8627 11412 8636 11412 8665 ct 
11412 8680 11408 8696 11398 8707 ct 11387 8720 11377 8721 11361 8721 ct 11352 8722 11351 8722 11349 8722 ct 
11348 8722 11347 8722 11347 8727 ct 11347 8732 11349 8732 11355 8732 ct 11373 8732 l 
p ef
14660 13493 m  14663 13484 14667 13465 14667 13461 ct 14667 13453 14660 13448 14653 13448 ct 
14648 13448 14638 13453 14635 13462 ct 14634 13465 14610 13561 14607 13573 ct 
14603 13589 14603 13597 14603 13605 ct 14603 13611 14603 13612 14603 13615 ct 
14592 13640 14576 13656 14557 13656 ct 14517 13656 14517 13619 14517 13611 ct 
14517 13596 14520 13576 14544 13516 ct 14548 13500 14552 13493 14552 13484 ct 
14552 13461 14536 13443 14512 13443 ct 14464 13443 14446 13514 14446 13519 ct 
14446 13524 14452 13524 14452 13524 ct 14457 13524 14457 13523 14460 13516 ct 
14473 13469 14492 13454 14510 13454 ct 14515 13454 14522 13454 14522 13469 ct 
14522 13482 14516 13496 14513 13505 ct 14491 13563 14485 13586 14485 13605 ct 
14485 13650 14519 13667 14555 13667 ct 14564 13667 14587 13667 14607 13632 ct 
14620 13664 14655 13667 14669 13667 ct 14706 13667 14727 13636 14740 13607 ct 
14757 13568 14774 13502 14774 13478 ct 14774 13450 14760 13443 14751 13443 ct 
14739 13443 14726 13455 14726 13467 ct 14726 13474 14730 13477 14734 13481 ct 
14740 13485 14751 13499 14751 13523 ct 14751 13540 14737 13587 14725 13612 ct 
14712 13639 14695 13656 14670 13656 ct 14648 13656 14634 13642 14634 13614 ct 
14634 13600 14638 13584 14639 13577 ct 14660 13493 l  p ef
14919 13146 m  14852 13192 14835 13265 14835 13318 ct 14835 13367 14849 13443 14919 13492 ct 
14922 13492 14926 13492 14926 13488 ct 14926 13485 14925 13485 14922 13482 ct 
14876 13440 14859 13381 14859 13320 ct 14859 13226 14895 13180 14923 13154 ct 
14925 13153 14926 13152 14926 13150 ct 14926 13146 14922 13146 14919 13146 ct 
p ef
15125 13342 m  15112 13342 l  15112 13350 15108 13370 15104 13374 ct 15101 13376 15075 13376 15069 13376 ct 
15006 13376 l  15042 13343 15054 13334 15075 13318 ct 15101 13297 15125 13276 15125 13243 ct 
15125 13201 15087 13175 15044 13175 ct 15000 13175 14971 13206 14971 13237 ct 
14971 13255 14986 13257 14989 13257 ct 14998 13257 15007 13251 15007 13238 ct 
15007 13233 15006 13220 14988 13220 ct 14998 13195 15021 13188 15038 13188 ct 
15073 13188 15091 13215 15091 13243 ct 15091 13273 15069 13297 15058 13310 ct 
14974 13392 l  14971 13395 14971 13395 14971 13405 ct 15114 13405 l  15125 13342 l 
p ef
15177 13146 m  15174 13146 15170 13146 15170 13150 ct 15170 13152 15171 13153 15173 13156 ct 
15203 13182 15237 13230 15237 13318 ct 15237 13391 15213 13446 15175 13479 ct 
15170 13485 15170 13486 15170 13488 ct 15170 13489 15171 13492 15174 13492 ct 
15178 13492 15212 13468 15234 13426 ct 15250 13397 15261 13359 15261 13320 ct 
15261 13271 15245 13195 15177 13146 ct p ef
14877 13678 m  14905 13678 14925 13696 14925 13734 ct 14925 13776 14900 13789 14879 13789 ct 
14865 13789 14835 13786 14820 13765 ct 14837 13765 14841 13752 14841 13745 ct 
14841 13734 14832 13727 14821 13727 ct 14811 13727 14802 13733 14802 13747 ct 
14802 13779 14838 13800 14880 13800 ct 14928 13800 14961 13768 14961 13734 ct 
14961 13706 14939 13680 14901 13671 ct 14937 13659 14950 13632 14950 13611 ct 
14950 13584 14919 13563 14880 13563 ct 14842 13563 14813 13582 14813 13610 ct 
14813 13622 14820 13628 14831 13628 ct 14841 13628 14848 13621 14848 13611 ct 
14848 13600 14841 13593 14831 13593 ct 14842 13577 14866 13573 14880 13573 ct 
14895 13573 14916 13582 14916 13611 ct 14916 13626 14912 13642 14902 13653 ct 
14891 13666 14881 13667 14865 13667 ct 14856 13668 14855 13668 14853 13668 ct 
14852 13668 14851 13668 14851 13673 ct 14851 13678 14853 13678 14859 13678 ct 
14877 13678 l  p ef
15163 13736 m  15163 13723 l  15124 13723 l  15124 13569 l  15124 13562 15124 13559 15117 13559 ct 
15112 13559 15111 13559 15107 13563 ct 14992 13723 l  14992 13736 l  15094 13736 l 
15094 13765 l  15094 13776 15094 13780 15066 13780 ct 15056 13780 l  15056 13793 l 
15075 13792 15096 13792 15108 13792 ct 15122 13792 15143 13792 15161 13793 ct 
15161 13780 l  15152 13780 l  15124 13780 15124 13776 15124 13765 ct 15124 13736 l 
15163 13736 l  p
15097 13597 m  15097 13723 l  15005 13723 l  15097 13597 l  p ef
22460 11293 m  22463 11284 22467 11265 22467 11261 ct 22467 11253 22460 11248 22453 11248 ct 
22448 11248 22438 11253 22435 11262 ct 22434 11265 22410 11361 22407 11373 ct 
22403 11389 22403 11397 22403 11405 ct 22403 11411 22403 11412 22403 11415 ct 
22392 11440 22376 11456 22357 11456 ct 22317 11456 22317 11419 22317 11411 ct 
22317 11396 22320 11376 22344 11316 ct 22348 11300 22352 11293 22352 11284 ct 
22352 11261 22336 11243 22312 11243 ct 22264 11243 22246 11314 22246 11319 ct 
22246 11324 22252 11324 22252 11324 ct 22257 11324 22257 11323 22260 11316 ct 
22273 11269 22292 11254 22310 11254 ct 22315 11254 22322 11254 22322 11269 ct 
22322 11282 22316 11296 22313 11305 ct 22291 11363 22285 11386 22285 11405 ct 
22285 11450 22319 11467 22355 11467 ct 22364 11467 22387 11467 22407 11432 ct 
22420 11464 22455 11467 22469 11467 ct 22506 11467 22527 11436 22540 11407 ct 
22557 11368 22574 11302 22574 11278 ct 22574 11250 22560 11243 22551 11243 ct 
22539 11243 22526 11255 22526 11267 ct 22526 11274 22530 11277 22534 11281 ct 
22540 11285 22551 11299 22551 11323 ct 22551 11340 22537 11387 22525 11412 ct 
22512 11439 22495 11456 22470 11456 ct 22448 11456 22434 11442 22434 11414 ct 
22434 11400 22438 11384 22439 11377 ct 22460 11293 l  p ef
22719 10946 m  22652 10992 22635 11065 22635 11118 ct 22635 11167 22649 11243 22719 11292 ct 
22722 11292 22726 11292 22726 11288 ct 22726 11285 22725 11285 22722 11282 ct 
22676 11240 22659 11181 22659 11120 ct 22659 11026 22695 10980 22723 10954 ct 
22725 10953 22726 10952 22726 10950 ct 22726 10946 22722 10946 22719 10946 ct 
p ef
22844 11090 m  22872 11090 22891 11108 22891 11146 ct 22891 11188 22866 11201 22845 11201 ct 
22831 11201 22802 11198 22786 11177 ct 22803 11177 22807 11164 22807 11157 ct 
22807 11146 22799 11139 22788 11139 ct 22778 11139 22768 11145 22768 11159 ct 
22768 11191 22805 11212 22847 11212 ct 22894 11212 22928 11180 22928 11146 ct 
22928 11118 22905 11092 22868 11083 ct 22904 11071 22917 11044 22917 11023 ct 
22917 10996 22886 10975 22847 10975 ct 22809 10975 22779 10994 22779 11022 ct 
22779 11034 22786 11040 22798 11040 ct 22807 11040 22814 11033 22814 11023 ct 
22814 11012 22807 11005 22798 11005 ct 22809 10989 22833 10985 22847 10985 ct 
22862 10985 22883 10994 22883 11023 ct 22883 11038 22879 11054 22869 11065 ct 
22858 11078 22848 11079 22831 11079 ct 22823 11080 22821 11080 22820 11080 ct 
22819 11080 22817 11080 22817 11085 ct 22817 11090 22820 11090 22826 11090 ct 
22844 11090 l  p ef
22977 10946 m  22974 10946 22970 10946 22970 10950 ct 22970 10952 22971 10953 22973 10956 ct 
23003 10982 23037 11030 23037 11118 ct 23037 11191 23013 11246 22975 11279 ct 
22970 11285 22970 11286 22970 11288 ct 22970 11289 22971 11292 22974 11292 ct 
22978 11292 23012 11268 23034 11226 ct 23050 11197 23061 11159 23061 11120 ct 
23061 11071 23045 10995 22977 10946 ct p ef
22758 11530 m  22746 11530 l  22746 11538 22742 11558 22737 11562 ct 22735 11564 22708 11564 22702 11564 ct 
22639 11564 l  22676 11531 22687 11522 22708 11506 ct 22735 11485 22758 11464 22758 11431 ct 
22758 11389 22721 11363 22677 11363 ct 22634 11363 22604 11394 22604 11425 ct 
22604 11443 22620 11445 22623 11445 ct 22631 11445 22641 11439 22641 11426 ct 
22641 11421 22639 11408 22621 11408 ct 22631 11383 22655 11376 22672 11376 ct 
22707 11376 22725 11403 22725 11431 ct 22725 11461 22702 11485 22691 11498 ct 
22607 11580 l  22604 11583 22604 11583 22604 11593 ct 22747 11593 l  22758 11530 l 
p ef
22873 11478 m  22901 11478 22921 11496 22921 11534 ct 22921 11576 22896 11589 22875 11589 ct 
22861 11589 22831 11586 22816 11565 ct 22833 11565 22837 11552 22837 11545 ct 
22837 11534 22828 11527 22817 11527 ct 22807 11527 22798 11533 22798 11547 ct 
22798 11579 22834 11600 22876 11600 ct 22924 11600 22957 11568 22957 11534 ct 
22957 11506 22935 11480 22897 11471 ct 22933 11459 22946 11432 22946 11411 ct 
22946 11384 22915 11363 22876 11363 ct 22838 11363 22809 11382 22809 11410 ct 
22809 11422 22816 11428 22827 11428 ct 22837 11428 22844 11421 22844 11411 ct 
22844 11400 22837 11393 22827 11393 ct 22838 11377 22862 11373 22876 11373 ct 
22891 11373 22912 11382 22912 11411 ct 22912 11426 22908 11442 22898 11453 ct 
22887 11466 22877 11467 22861 11467 ct 22852 11468 22851 11468 22849 11468 ct 
22848 11468 22847 11468 22847 11473 ct 22847 11478 22849 11478 22855 11478 ct 
22873 11478 l  p ef
20760 9593 m  20763 9584 20767 9565 20767 9561 ct 20767 9553 20760 9548 20753 9548 ct 
20748 9548 20738 9553 20735 9562 ct 20734 9565 20710 9661 20707 9673 ct 20703 9689 20703 9697 20703 9705 ct 
20703 9711 20703 9712 20703 9715 ct 20692 9740 20676 9756 20657 9756 ct 20617 9756 20617 9719 20617 9711 ct 
20617 9696 20620 9676 20644 9616 ct 20648 9600 20652 9593 20652 9584 ct 20652 9561 20636 9543 20612 9543 ct 
20564 9543 20546 9614 20546 9619 ct 20546 9624 20552 9624 20552 9624 ct 20557 9624 20557 9623 20560 9616 ct 
20573 9569 20592 9554 20610 9554 ct 20615 9554 20622 9554 20622 9569 ct 20622 9582 20616 9596 20613 9605 ct 
20591 9663 20585 9686 20585 9705 ct 20585 9750 20619 9767 20655 9767 ct 20664 9767 20687 9767 20707 9732 ct 
20720 9764 20755 9767 20769 9767 ct 20806 9767 20827 9736 20840 9707 ct 20857 9668 20874 9602 20874 9578 ct 
20874 9550 20860 9543 20851 9543 ct 20839 9543 20826 9555 20826 9567 ct 20826 9574 20830 9577 20834 9581 ct 
20840 9585 20851 9599 20851 9623 ct 20851 9640 20837 9687 20825 9712 ct 20812 9739 20795 9756 20770 9756 ct 
20748 9756 20734 9742 20734 9714 ct 20734 9700 20738 9684 20739 9677 ct 20760 9593 l 
p ef
21019 9246 m  20952 9292 20935 9365 20935 9418 ct 20935 9467 20949 9543 21019 9592 ct 
21022 9592 21026 9592 21026 9588 ct 21026 9585 21025 9585 21022 9582 ct 20976 9540 20959 9481 20959 9420 ct 
20959 9326 20995 9280 21023 9254 ct 21025 9253 21026 9252 21026 9250 ct 21026 9246 21022 9246 21019 9246 ct 
p ef
21144 9390 m  21172 9390 21191 9408 21191 9446 ct 21191 9488 21166 9501 21145 9501 ct 
21131 9501 21102 9498 21086 9477 ct 21103 9477 21107 9464 21107 9457 ct 21107 9446 21099 9439 21088 9439 ct 
21078 9439 21068 9445 21068 9459 ct 21068 9491 21105 9512 21147 9512 ct 21194 9512 21228 9480 21228 9446 ct 
21228 9418 21205 9392 21168 9383 ct 21204 9371 21217 9344 21217 9323 ct 21217 9296 21186 9275 21147 9275 ct 
21109 9275 21079 9294 21079 9322 ct 21079 9334 21086 9340 21098 9340 ct 21107 9340 21114 9333 21114 9323 ct 
21114 9312 21107 9305 21098 9305 ct 21109 9289 21133 9285 21147 9285 ct 21162 9285 21183 9294 21183 9323 ct 
21183 9338 21179 9354 21169 9365 ct 21158 9378 21148 9379 21131 9379 ct 21123 9380 21121 9380 21120 9380 ct 
21119 9380 21117 9380 21117 9385 ct 21117 9390 21120 9390 21126 9390 ct 21144 9390 l 
p ef
21277 9246 m  21274 9246 21270 9246 21270 9250 ct 21270 9252 21271 9253 21273 9256 ct 
21303 9282 21337 9330 21337 9418 ct 21337 9491 21313 9546 21275 9579 ct 21270 9585 21270 9586 21270 9588 ct 
21270 9589 21271 9592 21274 9592 ct 21278 9592 21312 9568 21334 9526 ct 21350 9497 21361 9459 21361 9420 ct 
21361 9371 21345 9295 21277 9246 ct p ef
20998 9673 m  20998 9663 20998 9663 20988 9663 ct 20966 9686 20934 9686 20920 9686 ct 
20920 9698 l  20928 9698 20951 9698 20970 9689 ct 20970 9865 l  20970 9876 20970 9880 20935 9880 ct 
20923 9880 l  20923 9893 l  20928 9893 20972 9892 20984 9892 ct 20995 9892 21039 9893 21047 9893 ct 
21047 9880 l  21033 9880 l  20998 9880 20998 9876 20998 9865 ct 20998 9673 l 
p ef
21173 9778 m  21201 9778 21221 9796 21221 9834 ct 21221 9876 21196 9889 21175 9889 ct 
21161 9889 21131 9886 21116 9865 ct 21133 9865 21137 9852 21137 9845 ct 21137 9834 21128 9827 21117 9827 ct 
21107 9827 21098 9833 21098 9847 ct 21098 9879 21134 9900 21176 9900 ct 21224 9900 21257 9868 21257 9834 ct 
21257 9806 21235 9780 21197 9771 ct 21233 9759 21246 9732 21246 9711 ct 21246 9684 21215 9663 21176 9663 ct 
21138 9663 21109 9682 21109 9710 ct 21109 9722 21116 9728 21127 9728 ct 21137 9728 21144 9721 21144 9711 ct 
21144 9700 21137 9693 21127 9693 ct 21138 9677 21162 9673 21176 9673 ct 21191 9673 21212 9682 21212 9711 ct 
21212 9726 21208 9742 21198 9753 ct 21187 9766 21177 9767 21161 9767 ct 21152 9768 21151 9768 21149 9768 ct 
21148 9768 21147 9768 21147 9773 ct 21147 9778 21149 9778 21155 9778 ct 21173 9778 l 
p ef
20560 6948 m  20563 6939 20567 6920 20567 6916 ct 20567 6908 20560 6903 20553 6903 ct 
20548 6903 20538 6908 20535 6917 ct 20534 6920 20510 7016 20507 7028 ct 20503 7044 20503 7052 20503 7060 ct 
20503 7066 20503 7067 20503 7070 ct 20492 7095 20476 7111 20457 7111 ct 20417 7111 20417 7074 20417 7066 ct 
20417 7051 20420 7031 20444 6971 ct 20448 6955 20452 6948 20452 6939 ct 20452 6916 20436 6898 20412 6898 ct 
20364 6898 20346 6969 20346 6974 ct 20346 6979 20352 6979 20352 6979 ct 20357 6979 20357 6978 20360 6971 ct 
20373 6924 20392 6909 20410 6909 ct 20415 6909 20422 6909 20422 6924 ct 20422 6937 20416 6951 20413 6960 ct 
20391 7018 20385 7041 20385 7060 ct 20385 7105 20419 7122 20455 7122 ct 20464 7122 20487 7122 20507 7087 ct 
20520 7119 20555 7122 20569 7122 ct 20606 7122 20627 7091 20640 7062 ct 20657 7023 20674 6957 20674 6933 ct 
20674 6905 20660 6898 20651 6898 ct 20639 6898 20626 6910 20626 6922 ct 20626 6929 20630 6932 20634 6936 ct 
20640 6940 20651 6954 20651 6978 ct 20651 6995 20637 7042 20625 7067 ct 20612 7094 20595 7111 20570 7111 ct 
20548 7111 20534 7097 20534 7069 ct 20534 7055 20538 7039 20539 7032 ct 20560 6948 l 
p ef
20819 6601 m  20752 6647 20735 6720 20735 6773 ct 20735 6822 20749 6898 20819 6947 ct 
20822 6947 20826 6947 20826 6943 ct 20826 6940 20825 6940 20822 6937 ct 20776 6895 20759 6836 20759 6775 ct 
20759 6681 20795 6635 20823 6609 ct 20825 6608 20826 6607 20826 6605 ct 20826 6601 20822 6601 20819 6601 ct 
p ef
20944 6745 m  20972 6745 20991 6763 20991 6801 ct 20991 6843 20966 6856 20945 6856 ct 
20931 6856 20902 6853 20886 6832 ct 20903 6832 20907 6819 20907 6812 ct 20907 6801 20899 6794 20888 6794 ct 
20878 6794 20868 6800 20868 6814 ct 20868 6846 20905 6867 20947 6867 ct 20994 6867 21028 6835 21028 6801 ct 
21028 6773 21005 6747 20968 6738 ct 21004 6726 21017 6699 21017 6678 ct 21017 6651 20986 6630 20947 6630 ct 
20909 6630 20879 6649 20879 6677 ct 20879 6689 20886 6695 20898 6695 ct 20907 6695 20914 6688 20914 6678 ct 
20914 6667 20907 6660 20898 6660 ct 20909 6644 20933 6640 20947 6640 ct 20962 6640 20983 6649 20983 6678 ct 
20983 6693 20979 6709 20969 6720 ct 20958 6733 20948 6734 20931 6734 ct 20923 6735 20921 6735 20920 6735 ct 
20919 6735 20917 6735 20917 6740 ct 20917 6745 20920 6745 20926 6745 ct 20944 6745 l 
p ef
21077 6601 m  21074 6601 21070 6601 21070 6605 ct 21070 6607 21071 6608 21073 6611 ct 
21103 6637 21137 6685 21137 6773 ct 21137 6846 21113 6901 21075 6934 ct 21070 6940 21070 6941 21070 6943 ct 
21070 6944 21071 6947 21074 6947 ct 21078 6947 21112 6923 21134 6881 ct 21150 6852 21161 6814 21161 6775 ct 
21161 6726 21145 6650 21077 6601 ct p ef
20798 7028 m  20798 7018 20798 7018 20788 7018 ct 20766 7041 20734 7041 20720 7041 ct 
20720 7053 l  20728 7053 20751 7053 20770 7044 ct 20770 7220 l  20770 7231 20770 7235 20735 7235 ct 
20723 7235 l  20723 7248 l  20728 7248 20772 7247 20784 7247 ct 20795 7247 20839 7248 20847 7248 ct 
20847 7235 l  20833 7235 l  20798 7235 20798 7231 20798 7220 ct 20798 7028 l 
p ef
21054 7185 m  21042 7185 l  21042 7193 21038 7213 21033 7217 ct 21031 7219 21004 7219 20998 7219 ct 
20935 7219 l  20972 7186 20983 7177 21004 7161 ct 21031 7140 21054 7119 21054 7086 ct 
21054 7044 21017 7018 20973 7018 ct 20930 7018 20900 7049 20900 7080 ct 20900 7098 20916 7100 20919 7100 ct 
20927 7100 20937 7094 20937 7081 ct 20937 7076 20935 7063 20917 7063 ct 20927 7038 20951 7031 20968 7031 ct 
21003 7031 21021 7058 21021 7086 ct 21021 7116 20998 7140 20987 7153 ct 20903 7235 l 
20900 7238 20900 7238 20900 7248 ct 21043 7248 l  21054 7185 l  p ef
22628 4648 m  22631 4639 22635 4620 22635 4616 ct 22635 4608 22628 4603 22621 4603 ct 
22616 4603 22606 4608 22603 4617 ct 22602 4620 22578 4716 22575 4728 ct 22571 4744 22571 4752 22571 4760 ct 
22571 4766 22571 4767 22571 4770 ct 22560 4795 22544 4811 22525 4811 ct 22485 4811 22485 4774 22485 4766 ct 
22485 4751 22488 4731 22512 4671 ct 22516 4655 22520 4648 22520 4639 ct 22520 4616 22504 4598 22480 4598 ct 
22432 4598 22414 4669 22414 4674 ct 22414 4679 22420 4679 22420 4679 ct 22425 4679 22425 4678 22428 4671 ct 
22441 4625 22460 4609 22478 4609 ct 22483 4609 22490 4609 22490 4624 ct 22490 4637 22484 4651 22481 4660 ct 
22459 4718 22453 4741 22453 4760 ct 22453 4805 22487 4822 22523 4822 ct 22532 4822 22555 4822 22575 4787 ct 
22588 4819 22623 4822 22637 4822 ct 22674 4822 22695 4791 22708 4762 ct 22725 4723 22742 4657 22742 4633 ct 
22742 4605 22728 4598 22719 4598 ct 22707 4598 22694 4610 22694 4622 ct 22694 4629 22698 4632 22702 4636 ct 
22708 4640 22719 4654 22719 4678 ct 22719 4695 22705 4742 22693 4767 ct 22680 4794 22663 4811 22638 4811 ct 
22616 4811 22602 4797 22602 4769 ct 22602 4755 22606 4739 22607 4732 ct 22628 4648 l 
p ef
22887 4301 m  22820 4347 22803 4420 22803 4473 ct 22803 4522 22817 4598 22887 4647 ct 
22890 4647 22894 4647 22894 4643 ct 22894 4640 22893 4640 22890 4637 ct 22844 4595 22827 4536 22827 4475 ct 
22827 4381 22863 4335 22891 4309 ct 22893 4308 22894 4307 22894 4305 ct 22894 4301 22890 4301 22887 4301 ct 
p ef
23012 4445 m  23040 4445 23059 4463 23059 4501 ct 23059 4543 23034 4556 23013 4556 ct 
22999 4556 22970 4553 22954 4532 ct 22971 4532 22975 4519 22975 4512 ct 22975 4501 22967 4494 22956 4494 ct 
22946 4494 22936 4500 22936 4514 ct 22936 4546 22973 4567 23015 4567 ct 23062 4567 23096 4535 23096 4501 ct 
23096 4473 23073 4447 23036 4438 ct 23072 4426 23085 4399 23085 4378 ct 23085 4351 23054 4330 23015 4330 ct 
22977 4330 22947 4349 22947 4377 ct 22947 4389 22954 4395 22966 4395 ct 22975 4395 22982 4388 22982 4378 ct 
22982 4367 22975 4360 22966 4360 ct 22977 4344 23001 4340 23015 4340 ct 23030 4340 23051 4349 23051 4378 ct 
23051 4393 23047 4409 23037 4420 ct 23026 4433 23016 4434 22999 4434 ct 22991 4435 22989 4435 22988 4435 ct 
22987 4435 22985 4435 22985 4440 ct 22985 4445 22988 4445 22994 4445 ct 23012 4445 l 
p ef
23145 4301 m  23142 4301 23138 4301 23138 4305 ct 23138 4307 23139 4308 23141 4311 ct 
23171 4337 23205 4385 23205 4473 ct 23205 4546 23181 4601 23143 4634 ct 23138 4640 23138 4641 23138 4643 ct 
23138 4644 23139 4647 23142 4647 ct 23146 4647 23180 4623 23202 4581 ct 23218 4552 23229 4514 23229 4475 ct 
23229 4426 23213 4350 23145 4301 ct p ef
22866 4728 m  22866 4718 22866 4718 22856 4718 ct 22834 4741 22802 4741 22788 4741 ct 
22788 4753 l  22796 4753 22819 4753 22838 4744 ct 22838 4920 l  22838 4931 22838 4935 22803 4935 ct 
22791 4935 l  22791 4948 l  22796 4948 22840 4947 22852 4947 ct 22863 4947 22907 4948 22915 4948 ct 
22915 4935 l  22901 4935 l  22866 4935 22866 4931 22866 4920 ct 22866 4728 l 
p ef
23062 4728 m  23062 4718 23062 4718 23052 4718 ct 23030 4741 22998 4741 22984 4741 ct 
22984 4753 l  22992 4753 23015 4753 23034 4744 ct 23034 4920 l  23034 4931 23034 4935 22999 4935 ct 
22987 4935 l  22987 4948 l  22992 4948 23036 4947 23048 4947 ct 23059 4947 23103 4948 23111 4948 ct 
23111 4935 l  23097 4935 l  23062 4935 23062 4931 23062 4920 ct 23062 4728 l 
p ef
gr
gs
0 0 m 29999 0 l 29999 15999 l 0 15999 l 0 0 l eoclip newpath
gr
gr
0 16000 t 
pom
count op_count sub {pop} repeat countdictstack dict_count sub {end} repeat b4_inc_state restore
%%PageTrailer
%%Trailer
%%EOF
