%!PS-Adobe-3.0 EPSF-3.0
%%DocumentNeededResources: font Helvetica
%%+ font Helvetica-Bold
%%+ font Helvetica-Oblique
%%+ font Helvetica-BoldOblique
%%+ font Symbol
%%Title: R Graphics Output
%%Creator: R Software
%%Pages: (atend)
%%BoundingBox: 0 0 450 276
%%EndComments
%%BeginProlog
/bp  { gs sRGB gs } def
% begin .ps.prolog
/gs  { gsave } bind def
/gr  { grestore } bind def
/ep  { showpage gr gr } bind def
/m   { moveto } bind def
/l  { rlineto } bind def
/np  { newpath } bind def
/cp  { closepath } bind def
/f   { fill } bind def
/o   { stroke } bind def
/c   { newpath 0 360 arc } bind def
/r   { 4 2 roll moveto 1 copy 3 -1 roll exch 0 exch rlineto 0 rlineto -1 mul 0 exch rlineto closepath } bind def
/p1  { stroke } bind def
/p2  { gsave bg fill grestore newpath } bind def
/p3  { gsave bg fill grestore stroke } bind def
/p6  { gsave bg eofill grestore newpath } bind def
/p7  { gsave bg eofill grestore stroke } bind def
/t   { 5 -2 roll moveto gsave rotate
       1 index stringwidth pop
       mul neg 0 rmoveto show grestore } bind def
/ta  { 4 -2 roll moveto gsave rotate show } bind def
/tb  { 2 -1 roll 0 rmoveto show } bind def
/cl  { grestore gsave newpath 3 index 3 index moveto 1 index
       4 -1 roll lineto  exch 1 index lineto lineto
       closepath clip newpath } bind def
/rgb { setrgbcolor } bind def
/s   { scalefont setfont } bind def
% end   .ps.prolog
/sRGB { [ /CIEBasedABC
          << /DecodeLMN
               [ { dup 0.03928 le
                        {12.92321 div}
                        {0.055 add 1.055 div 2.4 exp }
                     ifelse
                 } bind dup dup
               ]
             /MatrixLMN [0.412457 0.212673 0.019334
                         0.357576 0.715152 0.119192
                         0.180437 0.072175 0.950301]
             /WhitePoint [0.9505 1.0 1.0890]
           >>
         ] setcolorspace } bind def
/srgb { setcolor } bind def
%%IncludeResource: font Helvetica
/Helvetica findfont
dup length dict begin
  {1 index /FID ne {def} {pop pop} ifelse} forall
  /Encoding ISOLatin1Encoding def
  currentdict
  end
/Font1 exch definefont pop
%%IncludeResource: font Helvetica-Bold
/Helvetica-Bold findfont
dup length dict begin
  {1 index /FID ne {def} {pop pop} ifelse} forall
  /Encoding ISOLatin1Encoding def
  currentdict
  end
/Font2 exch definefont pop
%%IncludeResource: font Helvetica-Oblique
/Helvetica-Oblique findfont
dup length dict begin
  {1 index /FID ne {def} {pop pop} ifelse} forall
  /Encoding ISOLatin1Encoding def
  currentdict
  end
/Font3 exch definefont pop
%%IncludeResource: font Helvetica-BoldOblique
/Helvetica-BoldOblique findfont
dup length dict begin
  {1 index /FID ne {def} {pop pop} ifelse} forall
  /Encoding ISOLatin1Encoding def
  currentdict
  end
/Font4 exch definefont pop
%%IncludeResource: font Symbol
/Symbol findfont
dup length dict begin
  {1 index /FID ne {def} {pop pop} ifelse} forall
  currentdict
  end
/Font5 exch definefont pop
%%EndProlog
%%Page: 1 1
bp
0.00 0.00 450.00 276.00 cl
0.00 0.00 450.00 276.00 cl
0.00 0.00 450.00 276.00 cl
0.00 0.00 450.00 276.00 cl
0.00 0.00 450.00 276.00 cl
0.00 0.00 450.00 276.00 cl
0.00 0.00 450.00 276.00 cl
0.00 0.00 450.00 276.00 cl
0.00 0.00 450.00 276.00 cl
/bg { 1 1 1 srgb } def
1 1 1 srgb
1.07 setlinewidth
[] 0 setdash
1 setlinecap
1 setlinejoin
10.00 setmiterlimit
0.00 0.00 450.00 276.00 r p3
0.00 0.00 450.00 276.00 cl
44.30 30.25 444.52 270.52 cl
/bg { 0.9216 0.9216 0.9216 srgb } def
44.30 30.25 400.22 240.27 r p2
1 1 1 srgb
0.53 setlinewidth
[] 0 setdash
0 setlinecap
1 setlinejoin
10.00 setmiterlimit
np
44.30 68.48 m
400.22 0 l
o
np
44.30 123.08 m
400.22 0 l
o
np
44.30 177.69 m
400.22 0 l
o
np
44.30 232.30 m
400.22 0 l
o
np
107.97 30.25 m
0 240.27 l
o
np
198.93 30.25 m
0 240.27 l
o
np
289.89 30.25 m
0 240.27 l
o
np
380.85 30.25 m
0 240.27 l
o
1.07 setlinewidth
[] 0 setdash
np
44.30 41.17 m
400.22 0 l
o
np
44.30 95.78 m
400.22 0 l
o
np
44.30 150.39 m
400.22 0 l
o
np
44.30 204.99 m
400.22 0 l
o
np
44.30 259.60 m
400.22 0 l
o
np
62.49 30.25 m
0 240.27 l
o
np
153.45 30.25 m
0 240.27 l
o
np
244.41 30.25 m
0 240.27 l
o
np
335.37 30.25 m
0 240.27 l
o
np
426.33 30.25 m
0 240.27 l
o
0 0 0 srgb
1.00 setmiterlimit
np
62.49 41.18 m
9.10 0.01 l
9.10 0.01 l
9.09 0.02 l
9.10 0.03 l
9.09 0.04 l
9.10 0.08 l
9.10 0.13 l
9.09 0.21 l
9.10 0.35 l
9.09 0.57 l
9.10 0.94 l
9.09 1.53 l
9.10 2.47 l
9.10 3.96 l
9.09 6.21 l
9.10 9.47 l
9.09 13.81 l
9.10 18.90 l
9.10 23.72 l
9.09 26.75 l
9.10 26.74 l
9.09 23.72 l
9.10 18.90 l
9.09 13.81 l
9.10 9.47 l
9.10 6.21 l
9.09 3.96 l
9.10 2.47 l
9.09 1.53 l
9.10 0.94 l
9.10 0.57 l
9.09 0.35 l
9.10 0.21 l
9.09 0.13 l
9.10 0.08 l
9.10 0.05 l
9.09 0.02 l
9.10 0.02 l
9.09 0.01 l
9.10 0.01 l
o
0.00 0.00 450.00 276.00 cl
0.00 0.00 450.00 276.00 cl
0.00 0.00 450.00 276.00 cl
0.00 0.00 450.00 276.00 cl
0.00 0.00 450.00 276.00 cl
0.00 0.00 450.00 276.00 cl
0.00 0.00 450.00 276.00 cl
0.00 0.00 450.00 276.00 cl
0.00 0.00 450.00 276.00 cl
0.00 0.00 450.00 276.00 cl
0.00 0.00 450.00 276.00 cl
0.00 0.00 450.00 276.00 cl
0.00 0.00 450.00 276.00 cl
0.00 0.00 450.00 276.00 cl
0.00 0.00 450.00 276.00 cl
0.00 0.00 450.00 276.00 cl
/Font1 findfont 9 s
0.3020 0.3020 0.3020 srgb
39.37 37.94 (0.00) 1 0 t
39.37 92.55 (0.25) 1 0 t
39.37 147.15 (0.50) 1 0 t
39.37 201.76 (0.75) 1 0 t
39.37 256.37 (1.00) 1 0 t
0.00 0.00 450.00 276.00 cl
0.00 0.00 450.00 276.00 cl
0.2000 0.2000 0.2000 srgb
1.07 setlinewidth
[] 0 setdash
0 setlinecap
1 setlinejoin
10.00 setmiterlimit
np
41.56 41.17 m
2.74 0 l
o
np
41.56 95.78 m
2.74 0 l
o
np
41.56 150.39 m
2.74 0 l
o
np
41.56 204.99 m
2.74 0 l
o
np
41.56 259.60 m
2.74 0 l
o
0.00 0.00 450.00 276.00 cl
0.00 0.00 450.00 276.00 cl
0.00 0.00 450.00 276.00 cl
0.00 0.00 450.00 276.00 cl
0.00 0.00 450.00 276.00 cl
0.00 0.00 450.00 276.00 cl
0.00 0.00 450.00 276.00 cl
0.00 0.00 450.00 276.00 cl
0.00 0.00 450.00 276.00 cl
0.00 0.00 450.00 276.00 cl
0.2000 0.2000 0.2000 srgb
1.07 setlinewidth
[] 0 setdash
0 setlinecap
1 setlinejoin
10.00 setmiterlimit
np
62.49 27.51 m
0 2.74 l
o
np
153.45 27.51 m
0 2.74 l
o
np
244.41 27.51 m
0 2.74 l
o
np
335.37 27.51 m
0 2.74 l
o
np
426.33 27.51 m
0 2.74 l
o
0.00 0.00 450.00 276.00 cl
0.00 0.00 450.00 276.00 cl
/Font1 findfont 9 s
0.3020 0.3020 0.3020 srgb
62.49 18.86 (-10) .5 0 t
153.45 18.86 (-5) .5 0 t
244.41 18.86 (0) .5 0 t
335.37 18.86 (5) .5 0 t
426.33 18.86 (10) .5 0 t
0.00 0.00 450.00 276.00 cl
0.00 0.00 450.00 276.00 cl
0.00 0.00 450.00 276.00 cl
0.00 0.00 450.00 276.00 cl
0.00 0.00 450.00 276.00 cl
0.00 0.00 450.00 276.00 cl
/Font1 findfont 11 s
0 0 0 srgb
244.41 5.48 (x) .5 0 t
0.00 0.00 450.00 276.00 cl
0.00 0.00 450.00 276.00 cl
/Font1 findfont 11 s
0 0 0 srgb
13.38 150.39 (h\(x\)) .5 90 t
0.00 0.00 450.00 276.00 cl
0.00 0.00 450.00 276.00 cl
0.00 0.00 450.00 276.00 cl
0.00 0.00 450.00 276.00 cl
0.00 0.00 450.00 276.00 cl
0.00 0.00 450.00 276.00 cl
0.00 0.00 450.00 276.00 cl
0.00 0.00 450.00 276.00 cl
0.00 0.00 450.00 276.00 cl
0.00 0.00 450.00 276.00 cl
ep
%%Trailer
%%Pages: 1
%%EOF
