%!PS-Adobe-3.0 EPSF-3.0 
%%BoundingBox: 0 0 283 283
%%Pages: 0
%%Creator: LibreOffice 5.1
%%Title: none
%%CreationDate: none
%%LanguageLevel: 2
%%EndComments
%%BeginProlog
%%BeginResource: procset SDRes-Prolog 1.0 0
/b4_inc_state save def
/dict_count countdictstack def
/op_count count 1 sub def
userdict begin
0 setgray 0 setlinecap 1 setlinewidth 0 setlinejoin 10 setmiterlimit[] 0 setdash newpath
/languagelevel where {pop languagelevel 1 ne {false setstrokeadjust false setoverprint} if} if
/bdef {bind def} bind def
/c {setrgbcolor} bdef
/l {neg lineto} bdef
/rl {neg rlineto} bdef
/lc {setlinecap} bdef
/lj {setlinejoin} bdef
/lw {setlinewidth} bdef
/ml {setmiterlimit} bdef
/ld {setdash} bdef
/m {neg moveto} bdef
/ct {6 2 roll neg 6 2 roll neg 6 2 roll neg curveto} bdef
/r {rotate} bdef
/t {neg translate} bdef
/s {scale} bdef
/sw {show} bdef
/gs {gsave} bdef
/gr {grestore} bdef
/f {findfont dup length dict begin
{1 index /FID ne {def} {pop pop} ifelse} forall /Encoding ISOLatin1Encoding def
currentdict end /NFont exch definefont pop /NFont findfont} bdef
/p {closepath} bdef
/sf {scalefont setfont} bdef
/ef {eofill}bdef
/pc {closepath stroke}bdef
/ps {stroke}bdef
/pum {matrix currentmatrix}bdef
/pom {setmatrix}bdef
/bs {/aString exch def /nXOfs exch def /nWidth exch def currentpoint nXOfs 0 rmoveto pum nWidth aString stringwidth pop div 1 scale aString show pom moveto} bdef
%%EndResource
%%EndProlog
%%BeginSetup
%%EndSetup
%%Page: 1 1
%%BeginPageSetup
%%EndPageSetup
pum
0.0283 0.0283 s 
0 -10000 t
/tm matrix currentmatrix def
gs
0 0 m 9999 0 l 9999 9999 l 0 9999 l 0 0 l eoclip newpath
gs
0 0 m 9999 0 l 9999 9999 l 0 9999 l 0 0 l eoclip newpath
0.449 0.625 0.812 c 5000 3700 m  5737 3700 6300 4263 6300 5000 ct 6300 5737 5737 6300 5000 6300 ct 
4263 6300 3700 5737 3700 5000 ct 3700 4263 4263 3700 5000 3700 ct p
3700 3700 m  3700 3700 l  p
6301 6301 m  6301 6301 l  p ef
106 lw 1 lj 0.207 0.398 0.644 c 5000 3700 m  5737 3700 6300 4263 6300 5000 ct 
6300 5737 5737 6300 5000 6300 ct 4263 6300 3700 5737 3700 5000 ct 3700 4263 4263 3700 5000 3700 ct 
pc
3700 3700 m  3700 3700 l  pc
6301 6301 m  6301 6301 l  pc
0.003 0.003 0.003 c 4197 4982 m  4198 4975 4198 4974 4198 4969 ct 4198 4961 4191 4957 4184 4957 ct 
4179 4957 4172 4960 4166 4967 ct 4166 4969 4162 4985 4159 4993 ct 4156 5007 4152 5020 4149 5034 ct 
4127 5122 l  4125 5129 4104 5164 4071 5164 ct 4046 5164 4041 5143 4041 5125 ct 
4041 5101 4050 5070 4067 5027 ct 4074 5007 4076 5002 4076 4992 ct 4076 4969 4060 4951 4036 4951 ct 
3988 4951 3970 5023 3970 5027 ct 3970 5032 3976 5032 3976 5032 ct 3981 5032 3981 5031 3984 5024 ct 
3997 4976 4018 4962 4034 4962 ct 4037 4962 4046 4962 4046 4978 ct 4046 4990 4041 5003 4037 5013 ct 
4018 5065 4009 5093 4009 5117 ct 4009 5160 4040 5175 4069 5175 ct 4089 5175 4106 5167 4120 5153 ct 
4113 5178 4107 5203 4088 5229 ct 4075 5245 4055 5261 4033 5261 ct 4026 5261 4004 5259 3995 5240 ct 
4004 5240 4009 5240 4016 5234 ct 4022 5229 4026 5223 4026 5213 ct 4026 5198 4013 5196 4008 5196 ct 
3997 5196 3980 5203 3980 5229 ct 3980 5252 4002 5271 4033 5271 ct 4083 5271 4135 5226 4149 5170 ct 
4197 4982 l  p ef
4461 5289 m  4461 5287 4461 5286 4452 5278 ct 4390 5216 4375 5122 4375 5046 ct 
4375 4961 4393 4876 4454 4814 ct 4461 4807 4461 4807 4461 4806 ct 4461 4801 4459 4800 4456 4800 ct 
4450 4800 4405 4834 4376 4897 ct 4351 4951 4345 5006 4345 5046 ct 4345 5086 4351 5145 4377 5201 ct 
4408 5262 4450 5293 4456 5293 ct 4459 5293 4461 5292 4461 5289 ct p ef
4671 5010 m  4676 5004 4676 5003 4676 5002 ct 4676 5000 4673 4997 4671 4995 ct 
4571 4849 l  4684 4849 l  4768 4849 4793 4867 4803 4944 ct 4816 4944 l  4802 4834 l 
4527 4834 l  4516 4834 4515 4834 4515 4845 ct 4638 5024 l  4520 5159 l  4515 5163 4515 5164 4515 5166 ct 
4515 5171 4520 5171 4527 5171 ct 4802 5171 l  4816 5055 l  4803 5055 l  4795 5138 4761 5150 4683 5150 ct 
4547 5150 l  4671 5010 l  p ef
5070 5002 m  5073 4992 5077 4974 5077 4969 ct 5077 4961 5070 4957 5063 4957 ct 
5058 4957 5048 4961 5045 4971 ct 5044 4974 5020 5069 5017 5082 ct 5013 5097 5013 5105 5013 5114 ct 
5013 5119 5013 5121 5013 5124 ct 5002 5149 4986 5164 4967 5164 ct 4928 5164 4928 5128 4928 5119 ct 
4928 5104 4930 5084 4954 5024 ct 4958 5009 4963 5002 4963 4992 ct 4963 4969 4946 4951 4922 4951 ct 
4874 4951 4856 5023 4856 5027 ct 4856 5032 4862 5032 4862 5032 ct 4867 5032 4867 5031 4870 5024 ct 
4883 4978 4902 4962 4921 4962 ct 4925 4962 4932 4962 4932 4978 ct 4932 4990 4926 5004 4923 5013 ct 
4901 5072 4895 5094 4895 5114 ct 4895 5159 4929 5175 4965 5175 ct 4974 5175 4998 5175 5017 5140 ct 
5030 5173 5065 5175 5079 5175 ct 5116 5175 5137 5145 5150 5115 ct 5167 5076 5184 5010 5184 4986 ct 
5184 4958 5170 4951 5161 4951 ct 5149 4951 5136 4964 5136 4975 ct 5136 4982 5140 4985 5144 4989 ct 
5150 4993 5161 5007 5161 5031 ct 5161 5048 5147 5096 5135 5121 ct 5122 5147 5105 5164 5080 5164 ct 
5058 5164 5044 5150 5044 5122 ct 5044 5108 5048 5093 5049 5086 ct 5070 5002 l 
p ef
5235 5223 m  5234 5227 5231 5236 5231 5237 ct 5231 5244 5238 5248 5244 5248 ct 
5249 5248 5255 5244 5256 5240 ct 5258 5237 5261 5226 5263 5219 ct 5265 5212 5269 5196 5270 5188 ct 
5273 5180 5275 5173 5276 5164 ct 5280 5150 5280 5147 5291 5133 ct 5301 5119 5317 5101 5343 5101 ct 
5363 5101 5363 5119 5363 5125 ct 5363 5146 5349 5185 5343 5199 ct 5339 5209 5338 5212 5338 5219 ct 
5338 5237 5353 5248 5371 5248 ct 5405 5248 5420 5201 5420 5195 ct 5420 5191 5416 5191 5415 5191 ct 
5410 5191 5410 5192 5409 5196 ct 5401 5224 5385 5238 5371 5238 ct 5364 5238 5363 5234 5363 5226 ct 
5363 5219 5364 5213 5371 5198 ct 5375 5188 5389 5150 5389 5131 ct 5389 5097 5363 5091 5345 5091 ct 
5315 5091 5296 5110 5286 5124 ct 5283 5098 5263 5091 5248 5091 ct 5234 5091 5226 5103 5221 5110 ct 
5213 5124 5209 5143 5209 5145 ct 5209 5149 5213 5149 5214 5149 ct 5220 5149 5220 5147 5223 5139 ct 
5227 5118 5234 5101 5248 5101 ct 5256 5101 5259 5108 5259 5118 ct 5259 5125 5256 5138 5254 5147 ct 
5251 5156 5248 5171 5245 5178 ct 5235 5223 l  p ef
5626 5021 m  5629 5007 5640 4962 5675 4962 ct 5678 4962 5689 4962 5699 4968 ct 
5686 4971 5676 4983 5676 4995 ct 5676 5003 5681 5013 5695 5013 ct 5706 5013 5721 5003 5721 4983 ct 
5721 4958 5692 4951 5675 4951 ct 5647 4951 5629 4978 5623 4989 ct 5611 4957 5584 4951 5570 4951 ct 
5518 4951 5490 5016 5490 5027 ct 5490 5032 5494 5032 5496 5032 ct 5500 5032 5501 5031 5503 5027 ct 
5520 4975 5552 4962 5569 4962 ct 5578 4962 5595 4967 5595 4995 ct 5595 5010 5587 5044 5569 5114 ct 
5560 5145 5543 5164 5522 5164 ct 5518 5164 5507 5164 5497 5159 ct 5510 5156 5520 5146 5520 5132 ct 
5520 5118 5510 5114 5501 5114 ct 5487 5114 5475 5128 5475 5143 ct 5475 5166 5500 5175 5521 5175 ct 
5555 5175 5571 5140 5573 5138 ct 5580 5156 5597 5175 5626 5175 ct 5678 5175 5706 5112 5706 5100 ct 
5706 5094 5702 5094 5700 5094 ct 5696 5094 5695 5097 5693 5100 ct 5678 5153 5644 5164 5627 5164 ct 
5608 5164 5601 5149 5601 5132 ct 5601 5121 5604 5111 5609 5089 ct 5626 5021 l 
p ef
5783 5223 m  5781 5227 5779 5236 5779 5237 ct 5779 5244 5786 5248 5791 5248 ct 
5797 5248 5802 5244 5804 5240 ct 5805 5237 5808 5226 5811 5219 ct 5812 5212 5816 5196 5818 5188 ct 
5821 5180 5822 5173 5823 5164 ct 5828 5150 5829 5147 5839 5133 ct 5849 5119 5864 5101 5891 5101 ct 
5910 5101 5910 5119 5910 5125 ct 5910 5146 5896 5185 5891 5199 ct 5886 5209 5885 5212 5885 5219 ct 
5885 5237 5900 5248 5919 5248 ct 5952 5248 5968 5201 5968 5195 ct 5968 5191 5963 5191 5962 5191 ct 
5958 5191 5958 5192 5956 5196 ct 5948 5224 5933 5238 5919 5238 ct 5912 5238 5910 5234 5910 5226 ct 
5910 5219 5912 5213 5919 5198 ct 5923 5188 5937 5150 5937 5131 ct 5937 5097 5910 5091 5892 5091 ct 
5863 5091 5843 5110 5833 5124 ct 5830 5098 5811 5091 5795 5091 ct 5781 5091 5773 5103 5769 5110 ct 
5760 5124 5756 5143 5756 5145 ct 5756 5149 5760 5149 5762 5149 ct 5767 5149 5767 5147 5770 5139 ct 
5774 5118 5781 5101 5795 5101 ct 5804 5101 5807 5108 5807 5118 ct 5807 5125 5804 5138 5801 5147 ct 
5798 5156 5795 5171 5794 5178 ct 5783 5223 l  p ef
6152 5046 m  6152 5009 6147 4948 6119 4892 ct 6089 4832 6046 4800 6042 4800 ct 
6038 4800 6036 4801 6036 4806 ct 6036 4807 6036 4807 6046 4817 ct 6095 4866 6123 4944 6123 5046 ct 
6123 5132 6105 5219 6043 5280 ct 6036 5286 6036 5287 6036 5289 ct 6036 5292 6038 5293 6042 5293 ct 
6046 5293 6091 5259 6120 5198 ct 6145 5143 6152 5089 6152 5046 ct p ef
0.207 0.398 0.644 c 3700 4800 m  1400 4200 l  ps
3900 4400 m  1936 3060 l  ps
3700 5260 m  1400 5860 l  ps
3900 5660 m  1936 7000 l  ps
0.003 0.003 0.003 c 1588 2770 m  1591 2756 1602 2711 1637 2711 ct 1640 2711 1651 2711 1661 2717 ct 
1648 2720 1638 2732 1638 2743 ct 1638 2752 1643 2762 1657 2762 ct 1668 2762 1683 2752 1683 2732 ct 
1683 2707 1654 2700 1637 2700 ct 1609 2700 1591 2727 1585 2738 ct 1573 2706 1546 2700 1532 2700 ct 
1480 2700 1452 2764 1452 2776 ct 1452 2781 1457 2781 1458 2781 ct 1462 2781 1464 2780 1465 2776 ct 
1482 2724 1514 2711 1531 2711 ct 1541 2711 1557 2715 1557 2743 ct 1557 2759 1549 2793 1531 2863 ct 
1524 2893 1506 2913 1485 2913 ct 1480 2913 1469 2913 1459 2907 ct 1472 2905 1483 2895 1483 2881 ct 
1483 2867 1472 2863 1464 2863 ct 1450 2863 1437 2877 1437 2892 ct 1437 2914 1462 2924 1483 2924 ct 
1517 2924 1534 2889 1535 2886 ct 1542 2905 1559 2924 1589 2924 ct 1640 2924 1668 2861 1668 2849 ct 
1668 2843 1664 2843 1662 2843 ct 1658 2843 1657 2846 1655 2849 ct 1640 2902 1606 2913 1589 2913 ct 
1570 2913 1563 2898 1563 2881 ct 1563 2870 1566 2860 1571 2837 ct 1588 2770 l 
p ef
1819 2773 m  1819 2763 1819 2763 1809 2763 ct 1787 2786 1755 2786 1741 2786 ct 
1741 2798 l  1749 2798 1771 2798 1791 2788 ct 1791 2965 l  1791 2976 1791 2980 1756 2980 ct 
1743 2980 l  1743 2993 l  1749 2993 1792 2992 1805 2992 ct 1816 2992 1859 2993 1868 2993 ct 
1868 2980 l  1854 2980 l  1819 2980 1819 2976 1819 2965 ct 1819 2773 l  p ef
990 4079 m  993 4065 1004 4020 1039 4020 ct 1042 4020 1053 4020 1063 4026 ct 
1050 4029 1040 4041 1040 4052 ct 1040 4061 1045 4071 1059 4071 ct 1070 4071 1085 4061 1085 4041 ct 
1085 4016 1056 4009 1039 4009 ct 1011 4009 993 4036 987 4047 ct 975 4015 948 4009 934 4009 ct 
882 4009 854 4073 854 4085 ct 854 4090 859 4090 860 4090 ct 864 4090 866 4089 867 4085 ct 
884 4033 916 4020 933 4020 ct 943 4020 959 4024 959 4052 ct 959 4068 951 4102 933 4172 ct 
926 4202 908 4222 887 4222 ct 882 4222 871 4222 861 4216 ct 874 4214 885 4204 885 4190 ct 
885 4176 874 4172 866 4172 ct 852 4172 839 4186 839 4201 ct 839 4223 864 4233 885 4233 ct 
919 4233 936 4198 937 4195 ct 944 4214 961 4233 991 4233 ct 1042 4233 1070 4170 1070 4158 ct 
1070 4152 1066 4152 1064 4152 ct 1060 4152 1059 4155 1057 4158 ct 1042 4211 1008 4222 991 4222 ct 
972 4222 965 4207 965 4190 ct 965 4179 968 4169 973 4146 ct 990 4079 l  p ef
1281 4239 m  1268 4239 l  1268 4247 1264 4267 1260 4271 ct 1257 4273 1231 4273 1225 4273 ct 
1162 4273 l  1198 4240 1210 4231 1231 4215 ct 1257 4194 1281 4173 1281 4139 ct 
1281 4097 1243 4072 1200 4072 ct 1157 4072 1127 4103 1127 4134 ct 1127 4152 1143 4153 1145 4153 ct 
1154 4153 1164 4148 1164 4135 ct 1164 4130 1162 4117 1144 4117 ct 1154 4092 1178 4085 1194 4085 ct 
1229 4085 1247 4111 1247 4139 ct 1247 4170 1225 4194 1214 4207 ct 1130 4289 l 
1127 4292 1127 4292 1127 4302 ct 1270 4302 l  1281 4239 l  p ef
1065 5870 m  1068 5856 1079 5811 1114 5811 ct 1117 5811 1128 5811 1138 5817 ct 
1125 5820 1115 5832 1115 5843 ct 1115 5852 1120 5862 1134 5862 ct 1145 5862 1160 5852 1160 5832 ct 
1160 5807 1131 5800 1114 5800 ct 1086 5800 1068 5827 1062 5838 ct 1050 5806 1023 5800 1009 5800 ct 
957 5800 929 5864 929 5876 ct 929 5881 934 5881 935 5881 ct 939 5881 941 5880 942 5876 ct 
959 5824 991 5811 1008 5811 ct 1018 5811 1034 5815 1034 5843 ct 1034 5859 1026 5893 1008 5963 ct 
1001 5993 983 6013 962 6013 ct 957 6013 946 6013 936 6007 ct 949 6005 960 5995 960 5981 ct 
960 5967 949 5963 941 5963 ct 927 5963 914 5977 914 5992 ct 914 6014 939 6024 960 6024 ct 
994 6024 1011 5989 1012 5986 ct 1019 6005 1036 6024 1066 6024 ct 1117 6024 1145 5961 1145 5949 ct 
1145 5943 1141 5943 1139 5943 ct 1135 5943 1134 5946 1132 5949 ct 1117 6002 1083 6013 1066 6013 ct 
1047 6013 1040 5998 1040 5981 ct 1040 5970 1043 5960 1048 5937 ct 1065 5870 l 
p ef
1273 5978 m  1301 5978 1321 5996 1321 6034 ct 1321 6076 1296 6089 1275 6089 ct 
1261 6089 1232 6086 1216 6065 ct 1233 6065 1237 6052 1237 6045 ct 1237 6034 1229 6027 1218 6027 ct 
1208 6027 1198 6033 1198 6047 ct 1198 6079 1234 6100 1276 6100 ct 1324 6100 1357 6068 1357 6034 ct 
1357 6006 1335 5979 1297 5971 ct 1334 5958 1346 5932 1346 5911 ct 1346 5884 1315 5863 1276 5863 ct 
1239 5863 1209 5881 1209 5909 ct 1209 5922 1216 5928 1227 5928 ct 1237 5928 1244 5921 1244 5911 ct 
1244 5900 1237 5893 1227 5893 ct 1239 5877 1262 5873 1276 5873 ct 1292 5873 1313 5881 1313 5911 ct 
1313 5926 1308 5942 1299 5953 ct 1287 5965 1278 5967 1261 5967 ct 1253 5968 1251 5968 1250 5968 ct 
1248 5968 1246 5968 1246 5972 ct 1246 5978 1250 5978 1255 5978 ct 1273 5978 l 
p ef
1589 7070 m  1592 7056 1603 7011 1638 7011 ct 1641 7011 1652 7011 1662 7017 ct 
1649 7020 1639 7032 1639 7043 ct 1639 7052 1644 7062 1658 7062 ct 1669 7062 1684 7052 1684 7032 ct 
1684 7007 1655 7000 1638 7000 ct 1610 7000 1592 7027 1586 7038 ct 1574 7006 1547 7000 1533 7000 ct 
1481 7000 1453 7064 1453 7076 ct 1453 7081 1458 7081 1459 7081 ct 1463 7081 1465 7080 1466 7076 ct 
1483 7024 1515 7011 1532 7011 ct 1542 7011 1558 7015 1558 7043 ct 1558 7059 1550 7092 1532 7162 ct 
1525 7193 1507 7213 1486 7213 ct 1481 7213 1470 7213 1460 7207 ct 1473 7204 1484 7195 1484 7181 ct 
1484 7167 1473 7162 1465 7162 ct 1451 7162 1438 7176 1438 7192 ct 1438 7214 1463 7224 1484 7224 ct 
1518 7224 1535 7189 1536 7186 ct 1543 7204 1560 7224 1590 7224 ct 1641 7224 1669 7161 1669 7148 ct 
1669 7143 1665 7143 1663 7143 ct 1659 7143 1658 7146 1656 7148 ct 1641 7202 1607 7213 1590 7213 ct 
1571 7213 1564 7197 1564 7181 ct 1564 7169 1567 7160 1572 7137 ct 1589 7070 l 
p ef
1888 7237 m  1888 7224 l  1849 7224 l  1849 7070 l  1849 7063 1849 7060 1842 7060 ct 
1838 7060 1837 7060 1832 7064 ct 1718 7224 l  1718 7237 l  1820 7237 l  1820 7266 l 
1820 7277 1820 7281 1792 7281 ct 1782 7281 l  1782 7294 l  1800 7293 1821 7293 1834 7293 ct 
1848 7293 1869 7293 1887 7294 ct 1887 7281 l  1877 7281 l  1849 7281 1849 7277 1849 7266 ct 
1849 7237 l  1888 7237 l  p
1823 7098 m  1823 7224 l  1730 7224 l  1823 7098 l  p ef
2228 3957 m  2231 3948 2235 3929 2235 3925 ct 2235 3917 2228 3913 2221 3913 ct 
2215 3913 2206 3917 2203 3927 ct 2201 3929 2178 4025 2175 4037 ct 2171 4053 2171 4061 2171 4070 ct 
2171 4075 2171 4077 2171 4079 ct 2159 4105 2144 4120 2125 4120 ct 2085 4120 2085 4084 2085 4075 ct 
2085 4060 2088 4040 2112 3980 ct 2116 3964 2120 3957 2120 3948 ct 2120 3925 2104 3907 2080 3907 ct 
2032 3907 2014 3978 2014 3983 ct 2014 3988 2020 3988 2020 3988 ct 2025 3988 2025 3987 2028 3980 ct 
2041 3934 2060 3918 2078 3918 ct 2083 3918 2090 3918 2090 3934 ct 2090 3946 2084 3960 2081 3969 ct 
2059 4028 2053 4050 2053 4070 ct 2053 4114 2087 4131 2123 4131 ct 2132 4131 2155 4131 2175 4096 ct 
2187 4129 2222 4131 2236 4131 ct 2274 4131 2295 4100 2308 4071 ct 2325 4032 2341 3966 2341 3942 ct 
2341 3914 2327 3907 2319 3907 ct 2306 3907 2294 3920 2294 3931 ct 2294 3938 2298 3941 2302 3945 ct 
2308 3949 2319 3963 2319 3987 ct 2319 4004 2305 4051 2292 4077 ct 2280 4103 2263 4120 2238 4120 ct 
2215 4120 2201 4106 2201 4078 ct 2201 4064 2206 4049 2207 4042 ct 2228 3957 l 
p ef
2526 4137 m  2513 4137 l  2513 4145 2509 4165 2505 4169 ct 2502 4171 2476 4171 2470 4171 ct 
2407 4171 l  2443 4138 2455 4129 2476 4113 ct 2502 4092 2526 4071 2526 4037 ct 
2526 3995 2488 3970 2445 3970 ct 2402 3970 2372 4001 2372 4032 ct 2372 4050 2388 4051 2390 4051 ct 
2399 4051 2409 4046 2409 4033 ct 2409 4028 2407 4015 2389 4015 ct 2399 3990 2422 3983 2439 3983 ct 
2474 3983 2492 4009 2492 4037 ct 2492 4068 2470 4092 2459 4105 ct 2375 4187 l 
2372 4190 2372 4190 2372 4200 ct 2515 4200 l  2526 4137 l  p ef
2028 5250 m  2031 5241 2035 5222 2035 5218 ct 2035 5210 2028 5206 2021 5206 ct 
2015 5206 2006 5210 2003 5220 ct 2001 5222 1978 5318 1975 5330 ct 1971 5346 1971 5354 1971 5363 ct 
1971 5368 1971 5370 1971 5372 ct 1959 5398 1944 5413 1925 5413 ct 1885 5413 1885 5377 1885 5368 ct 
1885 5353 1888 5333 1912 5273 ct 1916 5257 1920 5250 1920 5241 ct 1920 5218 1904 5200 1880 5200 ct 
1832 5200 1814 5271 1814 5276 ct 1814 5281 1820 5281 1820 5281 ct 1825 5281 1825 5280 1828 5273 ct 
1841 5227 1860 5211 1878 5211 ct 1883 5211 1890 5211 1890 5227 ct 1890 5239 1884 5253 1881 5262 ct 
1859 5321 1853 5343 1853 5363 ct 1853 5407 1887 5424 1923 5424 ct 1932 5424 1955 5424 1975 5389 ct 
1987 5421 2022 5424 2036 5424 ct 2074 5424 2095 5393 2108 5364 ct 2125 5325 2141 5259 2141 5235 ct 
2141 5207 2127 5200 2119 5200 ct 2106 5200 2094 5213 2094 5224 ct 2094 5231 2098 5234 2102 5238 ct 
2108 5242 2119 5256 2119 5280 ct 2119 5297 2105 5344 2092 5370 ct 2080 5396 2063 5413 2038 5413 ct 
2015 5413 2001 5399 2001 5371 ct 2001 5357 2006 5342 2007 5335 ct 2028 5250 l 
p ef
2245 5378 m  2273 5378 2292 5396 2292 5434 ct 2292 5476 2267 5489 2246 5489 ct 
2232 5489 2203 5486 2188 5465 ct 2204 5465 2209 5452 2209 5445 ct 2209 5434 2200 5427 2189 5427 ct 
2179 5427 2169 5433 2169 5447 ct 2169 5479 2206 5500 2248 5500 ct 2295 5500 2329 5468 2329 5434 ct 
2329 5406 2306 5379 2269 5371 ct 2305 5358 2318 5332 2318 5311 ct 2318 5284 2287 5263 2248 5263 ct 
2210 5263 2181 5281 2181 5309 ct 2181 5322 2188 5328 2199 5328 ct 2209 5328 2215 5321 2215 5311 ct 
2215 5300 2209 5293 2199 5293 ct 2210 5277 2234 5273 2248 5273 ct 2263 5273 2284 5281 2284 5311 ct 
2284 5326 2280 5342 2270 5353 ct 2259 5365 2249 5367 2232 5367 ct 2224 5368 2222 5368 2221 5368 ct 
2220 5368 2218 5368 2218 5372 ct 2218 5378 2221 5378 2227 5378 ct 2245 5378 l 
p ef
2429 6057 m  2432 6048 2436 6029 2436 6025 ct 2436 6017 2429 6013 2422 6013 ct 
2416 6013 2407 6017 2404 6027 ct 2402 6029 2379 6125 2376 6137 ct 2372 6153 2372 6161 2372 6169 ct 
2372 6175 2372 6176 2372 6179 ct 2360 6204 2345 6220 2326 6220 ct 2286 6220 2286 6183 2286 6175 ct 
2286 6160 2289 6140 2313 6080 ct 2317 6064 2321 6057 2321 6048 ct 2321 6025 2305 6007 2281 6007 ct 
2233 6007 2215 6078 2215 6083 ct 2215 6088 2221 6088 2221 6088 ct 2226 6088 2226 6087 2229 6080 ct 
2242 6034 2261 6018 2279 6018 ct 2284 6018 2291 6018 2291 6034 ct 2291 6046 2285 6060 2282 6069 ct 
2260 6127 2254 6150 2254 6169 ct 2254 6214 2288 6231 2324 6231 ct 2333 6231 2356 6231 2376 6196 ct 
2388 6228 2423 6231 2437 6231 ct 2475 6231 2496 6200 2509 6171 ct 2526 6132 2542 6066 2542 6042 ct 
2542 6014 2528 6007 2520 6007 ct 2507 6007 2495 6020 2495 6031 ct 2495 6038 2499 6041 2503 6045 ct 
2509 6049 2520 6063 2520 6087 ct 2520 6104 2506 6151 2493 6176 ct 2481 6203 2464 6220 2439 6220 ct 
2416 6220 2402 6206 2402 6178 ct 2402 6164 2407 6148 2408 6141 ct 2429 6057 l 
p ef
2735 6244 m  2735 6231 l  2696 6231 l  2696 6077 l  2696 6070 2696 6067 2689 6067 ct 
2685 6067 2684 6067 2679 6071 ct 2565 6231 l  2565 6244 l  2667 6244 l  2667 6273 l 
2667 6284 2667 6288 2639 6288 ct 2629 6288 l  2629 6301 l  2647 6300 2668 6300 2681 6300 ct 
2695 6300 2716 6300 2734 6301 ct 2734 6288 l  2724 6288 l  2696 6288 2696 6284 2696 6273 ct 
2696 6244 l  2735 6244 l  p
2670 6105 m  2670 6231 l  2577 6231 l  2670 6105 l  p ef
3028 3251 m  3031 3242 3035 3223 3035 3219 ct 3035 3211 3028 3207 3021 3207 ct 
3015 3207 3006 3211 3003 3221 ct 3001 3223 2978 3319 2975 3331 ct 2971 3347 2971 3355 2971 3364 ct 
2971 3369 2971 3371 2971 3373 ct 2959 3399 2944 3414 2925 3414 ct 2885 3414 2885 3378 2885 3369 ct 
2885 3354 2888 3334 2912 3274 ct 2916 3258 2920 3251 2920 3242 ct 2920 3219 2904 3201 2880 3201 ct 
2832 3201 2814 3272 2814 3277 ct 2814 3282 2820 3282 2820 3282 ct 2825 3282 2825 3281 2828 3274 ct 
2841 3228 2860 3212 2878 3212 ct 2883 3212 2890 3212 2890 3228 ct 2890 3240 2884 3254 2881 3263 ct 
2859 3322 2853 3344 2853 3364 ct 2853 3408 2887 3425 2923 3425 ct 2932 3425 2955 3425 2975 3390 ct 
2987 3423 3022 3425 3036 3425 ct 3074 3425 3095 3394 3108 3365 ct 3125 3326 3141 3260 3141 3236 ct 
3141 3208 3127 3201 3119 3201 ct 3106 3201 3094 3214 3094 3225 ct 3094 3232 3098 3235 3102 3239 ct 
3108 3243 3119 3257 3119 3281 ct 3119 3298 3105 3345 3092 3371 ct 3080 3397 3063 3414 3038 3414 ct 
3015 3414 3001 3400 3001 3372 ct 3001 3358 3006 3343 3007 3336 ct 3028 3251 l 
p ef
3266 3274 m  3266 3264 3266 3264 3256 3264 ct 3234 3287 3202 3287 3188 3287 ct 
3188 3299 l  3196 3299 3218 3299 3238 3289 ct 3238 3466 l  3238 3477 3238 3481 3203 3481 ct 
3190 3481 l  3190 3494 l  3196 3494 3239 3493 3252 3493 ct 3263 3493 3306 3494 3315 3494 ct 
3315 3481 l  3301 3481 l  3266 3481 3266 3477 3266 3466 ct 3266 3274 l  p ef
0.207 0.398 0.644 c 7700 5000 m  6300 5040 l  ps
8700 4100 m  7600 5000 l  ps
8973 4632 m  7600 5000 l  ps
8727 5900 m  7627 5000 l  ps
9000 5368 m  7627 5000 l  ps
gr
gs
0 0 m 9999 0 l 9999 9999 l 0 9999 l 0 0 l eoclip newpath
gr
gr
0 10000 t 
pom
count op_count sub {pop} repeat countdictstack dict_count sub {end} repeat b4_inc_state restore
%%PageTrailer
%%Trailer
%%EOF
