\relax 
\abx@aux@sortscheme{nty}
\abx@aux@sortnamekeyscheme{global}
\abx@aux@cite{cms_collaboration_identification_2017}
\abx@aux@cite{s}
\abx@aux@cite{aggleton_review_2017}
\@writefile{toc}{\boolfalse {citerequest}\boolfalse {citetracker}\boolfalse {pagetracker}\boolfalse {backtracker}\relax }
\@writefile{lof}{\boolfalse {citerequest}\boolfalse {citetracker}\boolfalse {pagetracker}\boolfalse {backtracker}\relax }
\@writefile{lot}{\boolfalse {citerequest}\boolfalse {citetracker}\boolfalse {pagetracker}\boolfalse {backtracker}\relax }
\@writefile{toc}{\defcounter {refsection}{0}\relax }\@writefile{toc}{\contentsline {section}{\numberline {1}Introduction}{1}}
\abx@aux@cite{mackay_information_2015}
\abx@aux@cite{goodfellow_deep_2016}
\abx@aux@cite{bishop_pattern_2006}
\abx@aux@cite{murphy_machine_2012}
\@writefile{toc}{\defcounter {refsection}{0}\relax }\@writefile{toc}{\contentsline {section}{\numberline {2}Literature review}{2}}
\@writefile{toc}{\defcounter {refsection}{0}\relax }\@writefile{toc}{\contentsline {subsection}{\numberline {2.1}Deep neural nets}{2}}
\abx@aux@cite{barber_bayesian_2017}
\@writefile{toc}{\defcounter {refsection}{0}\relax }\@writefile{toc}{\contentsline {subsection}{\numberline {2.2}Structure of a deep neural net}{3}}
\@writefile{toc}{\defcounter {refsection}{0}\relax }\@writefile{toc}{\contentsline {subsubsection}{\numberline {2.2.1}Single neuron}{3}}
\@writefile{toc}{\defcounter {refsection}{0}\relax }\@writefile{toc}{\contentsline {subsubsection}{\numberline {2.2.2}Training the single neuron}{3}}
\newlabel{sec:TrainingSingle}{{2.2.2}{3}}
\@writefile{lof}{\defcounter {refsection}{0}\relax }\@writefile{lof}{\contentsline {figure}{\numberline {1}{\ignorespaces A neuron with 4 inputs coming in from the left, \(x_1\), \(x_2\), \(x_3\), \(x_4\). With weights \(w_1\), \(w_2\), \(w_3\), \(w_4\). It takes the weighted sum of the inputs then applies its activation function, \(y\). The diagram then shows this output being fed to 4 more unknown objects off to the right. \relax }}{4}}
\providecommand*\caption@xref[2]{\@setref\relax\@undefined{#1}}
\newlabel{fig:single_neuron}{{1}{4}}
